(module SW_DIP_x2_W7.62mm_Slide (layer F.Cu) (tedit 5862A068)
  (descr "2x-dip-switch, Slide, row spacing 7.62 mm (300 mils)")
  (tags "DIP Switch Slide 7.62mm 300mil")
  (fp_text reference REF** (at 3.81 -3.48) (layer F.SilkS)
    (effects (font (size 1 1) (thickness 0.15)))
  )
  (fp_text value SW_DIP_x2_W7.62mm_Slide (at 3.81 6.02) (layer F.Fab)
    (effects (font (size 1 1) (thickness 0.15)))
  )
  (fp_line (start -0.08 -2.36) (end 8.7 -2.36) (layer F.Fab) (width 0.1))
  (fp_line (start 8.7 -2.36) (end 8.7 4.9) (layer F.Fab) (width 0.1))
  (fp_line (start 8.7 4.9) (end -1.08 4.9) (layer F.Fab) (width 0.1))
  (fp_line (start -1.08 4.9) (end -1.08 -1.36) (layer F.Fab) (width 0.1))
  (fp_line (start -1.08 -1.36) (end -0.08 -2.36) (layer F.Fab) (width 0.1))
  (fp_line (start 1.78 -0.635) (end 1.78 0.635) (layer F.Fab) (width 0.1))
  (fp_line (start 1.78 0.635) (end 5.84 0.635) (layer F.Fab) (width 0.1))
  (fp_line (start 5.84 0.635) (end 5.84 -0.635) (layer F.Fab) (width 0.1))
  (fp_line (start 5.84 -0.635) (end 1.78 -0.635) (layer F.Fab) (width 0.1))
  (fp_line (start 3.81 -0.635) (end 3.81 0.635) (layer F.Fab) (width 0.1))
  (fp_line (start 1.78 1.905) (end 1.78 3.175) (layer F.Fab) (width 0.1))
  (fp_line (start 1.78 3.175) (end 5.84 3.175) (layer F.Fab) (width 0.1))
  (fp_line (start 5.84 3.175) (end 5.84 1.905) (layer F.Fab) (width 0.1))
  (fp_line (start 5.84 1.905) (end 1.78 1.905) (layer F.Fab) (width 0.1))
  (fp_line (start 3.81 1.905) (end 3.81 3.175) (layer F.Fab) (width 0.1))
  (fp_line (start -1.2 -2.48) (end 8.82 -2.48) (layer F.SilkS) (width 0.12))
  (fp_line (start 8.82 -2.48) (end 8.82 5.02) (layer F.SilkS) (width 0.12))
  (fp_line (start 8.82 5.02) (end -1.2 5.02) (layer F.SilkS) (width 0.12))
  (fp_line (start -1.2 5.02) (end -1.2 1.27) (layer F.SilkS) (width 0.12))
  (fp_line (start 1.78 -0.635) (end 1.78 0.635) (layer F.SilkS) (width 0.12))
  (fp_line (start 1.78 0.635) (end 5.84 0.635) (layer F.SilkS) (width 0.12))
  (fp_line (start 5.84 0.635) (end 5.84 -0.635) (layer F.SilkS) (width 0.12))
  (fp_line (start 5.84 -0.635) (end 1.78 -0.635) (layer F.SilkS) (width 0.12))
  (fp_line (start 3.81 -0.635) (end 3.81 0.635) (layer F.SilkS) (width 0.12))
  (fp_line (start 1.78 1.905) (end 1.78 3.175) (layer F.SilkS) (width 0.12))
  (fp_line (start 1.78 3.175) (end 5.84 3.175) (layer F.SilkS) (width 0.12))
  (fp_line (start 5.84 3.175) (end 5.84 1.905) (layer F.SilkS) (width 0.12))
  (fp_line (start 5.84 1.905) (end 1.78 1.905) (layer F.SilkS) (width 0.12))
  (fp_line (start 3.81 1.905) (end 3.81 3.175) (layer F.SilkS) (width 0.12))
  (fp_line (start -1.4 -2.7) (end -1.4 5.2) (layer F.CrtYd) (width 0.05))
  (fp_line (start -1.4 5.2) (end 9 5.2) (layer F.CrtYd) (width 0.05))
  (fp_line (start 9 5.2) (end 9 -2.7) (layer F.CrtYd) (width 0.05))
  (fp_line (start 9 -2.7) (end -1.4 -2.7) (layer F.CrtYd) (width 0.05))
  (pad 1 thru_hole rect (at 0 0) (size 1.6 1.6) (drill 0.8) (layers *.Cu *.Mask))
  (pad 3 thru_hole oval (at 7.62 2.54) (size 1.6 1.6) (drill 0.8) (layers *.Cu *.Mask))
  (pad 2 thru_hole oval (at 0 2.54) (size 1.6 1.6) (drill 0.8) (layers *.Cu *.Mask))
  (pad 4 thru_hole oval (at 7.62 0) (size 1.6 1.6) (drill 0.8) (layers *.Cu *.Mask))
  (model Buttons_Switches_THT.3dshapes/SW_DIP_x2_W7.62mm_Slide.wrl
    (at (xyz 0 0 0))
    (scale (xyz 1 1 1))
    (rotate (xyz 0 0 90))
  )
)