(module SW_DIP_x2_W7.62mm_Piano (layer F.Cu) (tedit 5862A068)
  (descr "2x-dip-switch, Piano, row spacing 7.62 mm (300 mils)")
  (tags "DIP Switch Piano 7.62mm 300mil")
  (fp_text reference REF** (at 3.81 -3.17) (layer F.SilkS)
    (effects (font (size 1 1) (thickness 0.15)))
  )
  (fp_text value SW_DIP_x2_W7.62mm_Piano (at 3.81 5.71) (layer F.Fab)
    (effects (font (size 1 1) (thickness 0.15)))
  )
  (fp_line (start -0.59 -2.05) (end 9.21 -2.05) (layer F.Fab) (width 0.1))
  (fp_line (start 9.21 -2.05) (end 9.21 4.59) (layer F.Fab) (width 0.1))
  (fp_line (start 9.21 4.59) (end -1.59 4.59) (layer F.Fab) (width 0.1))
  (fp_line (start -1.59 4.59) (end -1.59 -1.05) (layer F.Fab) (width 0.1))
  (fp_line (start -1.59 -1.05) (end -0.59 -2.05) (layer F.Fab) (width 0.1))
  (fp_line (start -1.59 -0.75) (end -1.59 0.75) (layer F.Fab) (width 0.1))
  (fp_line (start -1.59 0.75) (end -3.39 0.75) (layer F.Fab) (width 0.1))
  (fp_line (start -3.39 0.75) (end -3.39 -0.75) (layer F.Fab) (width 0.1))
  (fp_line (start -3.39 -0.75) (end -1.59 -0.75) (layer F.Fab) (width 0.1))
  (fp_line (start -1.59 1.79) (end -1.59 3.29) (layer F.Fab) (width 0.1))
  (fp_line (start -1.59 3.29) (end -3.39 3.29) (layer F.Fab) (width 0.1))
  (fp_line (start -3.39 3.29) (end -3.39 1.79) (layer F.Fab) (width 0.1))
  (fp_line (start -3.39 1.79) (end -1.59 1.79) (layer F.Fab) (width 0.1))
  (fp_line (start -1.71 -2.17) (end 9.33 -2.17) (layer F.SilkS) (width 0.12))
  (fp_line (start 9.33 -2.17) (end 9.33 4.71) (layer F.SilkS) (width 0.12))
  (fp_line (start 9.33 4.71) (end -1.71 4.71) (layer F.SilkS) (width 0.12))
  (fp_line (start -1.71 4.71) (end -1.71 -2.17) (layer F.SilkS) (width 0.12))
  (fp_line (start -3.45 -0.87) (end -3.45 0.87) (layer F.SilkS) (width 0.12))
  (fp_line (start -3.45 0.87) (end -1.71 0.87) (layer F.SilkS) (width 0.12))
  (fp_line (start -1.71 0.87) (end -1.71 -0.87) (layer F.SilkS) (width 0.12))
  (fp_line (start -1.71 -0.87) (end -3.45 -0.87) (layer F.SilkS) (width 0.12))
  (fp_line (start -3.45 1.67) (end -3.45 3.41) (layer F.SilkS) (width 0.12))
  (fp_line (start -3.45 3.41) (end -1.71 3.41) (layer F.SilkS) (width 0.12))
  (fp_line (start -1.71 3.41) (end -1.71 1.67) (layer F.SilkS) (width 0.12))
  (fp_line (start -1.71 1.67) (end -3.45 1.67) (layer F.SilkS) (width 0.12))
  (fp_line (start -3.7 -2.3) (end -3.7 4.9) (layer F.CrtYd) (width 0.05))
  (fp_line (start -3.7 4.9) (end 9.5 4.9) (layer F.CrtYd) (width 0.05))
  (fp_line (start 9.5 4.9) (end 9.5 -2.3) (layer F.CrtYd) (width 0.05))
  (fp_line (start 9.5 -2.3) (end -3.7 -2.3) (layer F.CrtYd) (width 0.05))
  (pad 1 thru_hole rect (at 0 0) (size 1.6 1.6) (drill 0.8) (layers *.Cu *.Mask))
  (pad 3 thru_hole oval (at 7.62 2.54) (size 1.6 1.6) (drill 0.8) (layers *.Cu *.Mask))
  (pad 2 thru_hole oval (at 0 2.54) (size 1.6 1.6) (drill 0.8) (layers *.Cu *.Mask))
  (pad 4 thru_hole oval (at 7.62 0) (size 1.6 1.6) (drill 0.8) (layers *.Cu *.Mask))
  (model Buttons_Switches_THT.3dshapes/SW_DIP_x2_W7.62mm_Piano.wrl
    (at (xyz 0 0 0))
    (scale (xyz 1 1 1))
    (rotate (xyz 0 0 90))
  )
)