(module SW_DIP_x4_W7.62mm_Slide_LowProfile (layer F.Cu) (tedit 5862A068)
  (descr "4x-dip-switch, Slide, row spacing 7.62 mm (300 mils), LowProfile")
  (tags "DIP Switch Slide 7.62mm 300mil LowProfile")
  (fp_text reference REF** (at 3.81 -3.17) (layer F.SilkS)
    (effects (font (size 1 1) (thickness 0.15)))
  )
  (fp_text value SW_DIP_x4_W7.62mm_Slide_LowProfile (at 3.81 10.79) (layer F.Fab)
    (effects (font (size 1 1) (thickness 0.15)))
  )
  (fp_line (start 1.47 -2.05) (end 7.15 -2.05) (layer F.Fab) (width 0.1))
  (fp_line (start 7.15 -2.05) (end 7.15 9.67) (layer F.Fab) (width 0.1))
  (fp_line (start 7.15 9.67) (end 0.47 9.67) (layer F.Fab) (width 0.1))
  (fp_line (start 0.47 9.67) (end 0.47 -1.05) (layer F.Fab) (width 0.1))
  (fp_line (start 0.47 -1.05) (end 1.47 -2.05) (layer F.Fab) (width 0.1))
  (fp_line (start 2 -0.635) (end 2 0.635) (layer F.Fab) (width 0.1))
  (fp_line (start 2 0.635) (end 5.62 0.635) (layer F.Fab) (width 0.1))
  (fp_line (start 5.62 0.635) (end 5.62 -0.635) (layer F.Fab) (width 0.1))
  (fp_line (start 5.62 -0.635) (end 2 -0.635) (layer F.Fab) (width 0.1))
  (fp_line (start 3.81 -0.635) (end 3.81 0.635) (layer F.Fab) (width 0.1))
  (fp_line (start 2 1.905) (end 2 3.175) (layer F.Fab) (width 0.1))
  (fp_line (start 2 3.175) (end 5.62 3.175) (layer F.Fab) (width 0.1))
  (fp_line (start 5.62 3.175) (end 5.62 1.905) (layer F.Fab) (width 0.1))
  (fp_line (start 5.62 1.905) (end 2 1.905) (layer F.Fab) (width 0.1))
  (fp_line (start 3.81 1.905) (end 3.81 3.175) (layer F.Fab) (width 0.1))
  (fp_line (start 2 4.445) (end 2 5.715) (layer F.Fab) (width 0.1))
  (fp_line (start 2 5.715) (end 5.62 5.715) (layer F.Fab) (width 0.1))
  (fp_line (start 5.62 5.715) (end 5.62 4.445) (layer F.Fab) (width 0.1))
  (fp_line (start 5.62 4.445) (end 2 4.445) (layer F.Fab) (width 0.1))
  (fp_line (start 3.81 4.445) (end 3.81 5.715) (layer F.Fab) (width 0.1))
  (fp_line (start 2 6.985) (end 2 8.255) (layer F.Fab) (width 0.1))
  (fp_line (start 2 8.255) (end 5.62 8.255) (layer F.Fab) (width 0.1))
  (fp_line (start 5.62 8.255) (end 5.62 6.985) (layer F.Fab) (width 0.1))
  (fp_line (start 5.62 6.985) (end 2 6.985) (layer F.Fab) (width 0.1))
  (fp_line (start 3.81 6.985) (end 3.81 8.255) (layer F.Fab) (width 0.1))
  (fp_line (start 1.04 -2.17) (end 6.58 -2.17) (layer F.SilkS) (width 0.12))
  (fp_line (start 6.58 -2.17) (end 6.58 9.79) (layer F.SilkS) (width 0.12))
  (fp_line (start 6.58 9.79) (end 1.04 9.79) (layer F.SilkS) (width 0.12))
  (fp_line (start 1.04 9.79) (end 1.04 1.27) (layer F.SilkS) (width 0.12))
  (fp_line (start 2 -0.635) (end 2 0.635) (layer F.SilkS) (width 0.12))
  (fp_line (start 2 0.635) (end 5.62 0.635) (layer F.SilkS) (width 0.12))
  (fp_line (start 5.62 0.635) (end 5.62 -0.635) (layer F.SilkS) (width 0.12))
  (fp_line (start 5.62 -0.635) (end 2 -0.635) (layer F.SilkS) (width 0.12))
  (fp_line (start 3.81 -0.635) (end 3.81 0.635) (layer F.SilkS) (width 0.12))
  (fp_line (start 2 1.905) (end 2 3.175) (layer F.SilkS) (width 0.12))
  (fp_line (start 2 3.175) (end 5.62 3.175) (layer F.SilkS) (width 0.12))
  (fp_line (start 5.62 3.175) (end 5.62 1.905) (layer F.SilkS) (width 0.12))
  (fp_line (start 5.62 1.905) (end 2 1.905) (layer F.SilkS) (width 0.12))
  (fp_line (start 3.81 1.905) (end 3.81 3.175) (layer F.SilkS) (width 0.12))
  (fp_line (start 2 4.445) (end 2 5.715) (layer F.SilkS) (width 0.12))
  (fp_line (start 2 5.715) (end 5.62 5.715) (layer F.SilkS) (width 0.12))
  (fp_line (start 5.62 5.715) (end 5.62 4.445) (layer F.SilkS) (width 0.12))
  (fp_line (start 5.62 4.445) (end 2 4.445) (layer F.SilkS) (width 0.12))
  (fp_line (start 3.81 4.445) (end 3.81 5.715) (layer F.SilkS) (width 0.12))
  (fp_line (start 2 6.985) (end 2 8.255) (layer F.SilkS) (width 0.12))
  (fp_line (start 2 8.255) (end 5.62 8.255) (layer F.SilkS) (width 0.12))
  (fp_line (start 5.62 8.255) (end 5.62 6.985) (layer F.SilkS) (width 0.12))
  (fp_line (start 5.62 6.985) (end 2 6.985) (layer F.SilkS) (width 0.12))
  (fp_line (start 3.81 6.985) (end 3.81 8.255) (layer F.SilkS) (width 0.12))
  (fp_line (start -1.1 -2.3) (end -1.1 10) (layer F.CrtYd) (width 0.05))
  (fp_line (start -1.1 10) (end 8.7 10) (layer F.CrtYd) (width 0.05))
  (fp_line (start 8.7 10) (end 8.7 -2.3) (layer F.CrtYd) (width 0.05))
  (fp_line (start 8.7 -2.3) (end -1.1 -2.3) (layer F.CrtYd) (width 0.05))
  (pad 1 thru_hole rect (at 0 0) (size 1.6 1.6) (drill 0.8) (layers *.Cu *.Mask))
  (pad 5 thru_hole oval (at 7.62 7.62) (size 1.6 1.6) (drill 0.8) (layers *.Cu *.Mask))
  (pad 2 thru_hole oval (at 0 2.54) (size 1.6 1.6) (drill 0.8) (layers *.Cu *.Mask))
  (pad 6 thru_hole oval (at 7.62 5.08) (size 1.6 1.6) (drill 0.8) (layers *.Cu *.Mask))
  (pad 3 thru_hole oval (at 0 5.08) (size 1.6 1.6) (drill 0.8) (layers *.Cu *.Mask))
  (pad 7 thru_hole oval (at 7.62 2.54) (size 1.6 1.6) (drill 0.8) (layers *.Cu *.Mask))
  (pad 4 thru_hole oval (at 0 7.62) (size 1.6 1.6) (drill 0.8) (layers *.Cu *.Mask))
  (pad 8 thru_hole oval (at 7.62 0) (size 1.6 1.6) (drill 0.8) (layers *.Cu *.Mask))
  (model Buttons_Switches_THT.3dshapes/SW_DIP_x4_W7.62mm_Slide_LowProfile.wrl
    (at (xyz 0 0 0))
    (scale (xyz 1 1 1))
    (rotate (xyz 0 0 90))
  )
)