(module SW_DIP_x8_W7.62mm_Slide_LowProfile (layer F.Cu) (tedit 5862A068)
  (descr "8x-dip-switch, Slide, row spacing 7.62 mm (300 mils), LowProfile")
  (tags "DIP Switch Slide 7.62mm 300mil LowProfile")
  (fp_text reference REF** (at 3.81 -3.17) (layer F.SilkS)
    (effects (font (size 1 1) (thickness 0.15)))
  )
  (fp_text value SW_DIP_x8_W7.62mm_Slide_LowProfile (at 3.81 20.95) (layer F.Fab)
    (effects (font (size 1 1) (thickness 0.15)))
  )
  (fp_line (start 1.47 -2.05) (end 7.15 -2.05) (layer F.Fab) (width 0.1))
  (fp_line (start 7.15 -2.05) (end 7.15 19.83) (layer F.Fab) (width 0.1))
  (fp_line (start 7.15 19.83) (end 0.47 19.83) (layer F.Fab) (width 0.1))
  (fp_line (start 0.47 19.83) (end 0.47 -1.05) (layer F.Fab) (width 0.1))
  (fp_line (start 0.47 -1.05) (end 1.47 -2.05) (layer F.Fab) (width 0.1))
  (fp_line (start 2 -0.635) (end 2 0.635) (layer F.Fab) (width 0.1))
  (fp_line (start 2 0.635) (end 5.62 0.635) (layer F.Fab) (width 0.1))
  (fp_line (start 5.62 0.635) (end 5.62 -0.635) (layer F.Fab) (width 0.1))
  (fp_line (start 5.62 -0.635) (end 2 -0.635) (layer F.Fab) (width 0.1))
  (fp_line (start 3.81 -0.635) (end 3.81 0.635) (layer F.Fab) (width 0.1))
  (fp_line (start 2 1.905) (end 2 3.175) (layer F.Fab) (width 0.1))
  (fp_line (start 2 3.175) (end 5.62 3.175) (layer F.Fab) (width 0.1))
  (fp_line (start 5.62 3.175) (end 5.62 1.905) (layer F.Fab) (width 0.1))
  (fp_line (start 5.62 1.905) (end 2 1.905) (layer F.Fab) (width 0.1))
  (fp_line (start 3.81 1.905) (end 3.81 3.175) (layer F.Fab) (width 0.1))
  (fp_line (start 2 4.445) (end 2 5.715) (layer F.Fab) (width 0.1))
  (fp_line (start 2 5.715) (end 5.62 5.715) (layer F.Fab) (width 0.1))
  (fp_line (start 5.62 5.715) (end 5.62 4.445) (layer F.Fab) (width 0.1))
  (fp_line (start 5.62 4.445) (end 2 4.445) (layer F.Fab) (width 0.1))
  (fp_line (start 3.81 4.445) (end 3.81 5.715) (layer F.Fab) (width 0.1))
  (fp_line (start 2 6.985) (end 2 8.255) (layer F.Fab) (width 0.1))
  (fp_line (start 2 8.255) (end 5.62 8.255) (layer F.Fab) (width 0.1))
  (fp_line (start 5.62 8.255) (end 5.62 6.985) (layer F.Fab) (width 0.1))
  (fp_line (start 5.62 6.985) (end 2 6.985) (layer F.Fab) (width 0.1))
  (fp_line (start 3.81 6.985) (end 3.81 8.255) (layer F.Fab) (width 0.1))
  (fp_line (start 2 9.525) (end 2 10.795) (layer F.Fab) (width 0.1))
  (fp_line (start 2 10.795) (end 5.62 10.795) (layer F.Fab) (width 0.1))
  (fp_line (start 5.62 10.795) (end 5.62 9.525) (layer F.Fab) (width 0.1))
  (fp_line (start 5.62 9.525) (end 2 9.525) (layer F.Fab) (width 0.1))
  (fp_line (start 3.81 9.525) (end 3.81 10.795) (layer F.Fab) (width 0.1))
  (fp_line (start 2 12.065) (end 2 13.335) (layer F.Fab) (width 0.1))
  (fp_line (start 2 13.335) (end 5.62 13.335) (layer F.Fab) (width 0.1))
  (fp_line (start 5.62 13.335) (end 5.62 12.065) (layer F.Fab) (width 0.1))
  (fp_line (start 5.62 12.065) (end 2 12.065) (layer F.Fab) (width 0.1))
  (fp_line (start 3.81 12.065) (end 3.81 13.335) (layer F.Fab) (width 0.1))
  (fp_line (start 2 14.605) (end 2 15.875) (layer F.Fab) (width 0.1))
  (fp_line (start 2 15.875) (end 5.62 15.875) (layer F.Fab) (width 0.1))
  (fp_line (start 5.62 15.875) (end 5.62 14.605) (layer F.Fab) (width 0.1))
  (fp_line (start 5.62 14.605) (end 2 14.605) (layer F.Fab) (width 0.1))
  (fp_line (start 3.81 14.605) (end 3.81 15.875) (layer F.Fab) (width 0.1))
  (fp_line (start 2 17.145) (end 2 18.415) (layer F.Fab) (width 0.1))
  (fp_line (start 2 18.415) (end 5.62 18.415) (layer F.Fab) (width 0.1))
  (fp_line (start 5.62 18.415) (end 5.62 17.145) (layer F.Fab) (width 0.1))
  (fp_line (start 5.62 17.145) (end 2 17.145) (layer F.Fab) (width 0.1))
  (fp_line (start 3.81 17.145) (end 3.81 18.415) (layer F.Fab) (width 0.1))
  (fp_line (start 1.04 -2.17) (end 6.58 -2.17) (layer F.SilkS) (width 0.12))
  (fp_line (start 6.58 -2.17) (end 6.58 19.95) (layer F.SilkS) (width 0.12))
  (fp_line (start 6.58 19.95) (end 1.04 19.95) (layer F.SilkS) (width 0.12))
  (fp_line (start 1.04 19.95) (end 1.04 1.27) (layer F.SilkS) (width 0.12))
  (fp_line (start 2 -0.635) (end 2 0.635) (layer F.SilkS) (width 0.12))
  (fp_line (start 2 0.635) (end 5.62 0.635) (layer F.SilkS) (width 0.12))
  (fp_line (start 5.62 0.635) (end 5.62 -0.635) (layer F.SilkS) (width 0.12))
  (fp_line (start 5.62 -0.635) (end 2 -0.635) (layer F.SilkS) (width 0.12))
  (fp_line (start 3.81 -0.635) (end 3.81 0.635) (layer F.SilkS) (width 0.12))
  (fp_line (start 2 1.905) (end 2 3.175) (layer F.SilkS) (width 0.12))
  (fp_line (start 2 3.175) (end 5.62 3.175) (layer F.SilkS) (width 0.12))
  (fp_line (start 5.62 3.175) (end 5.62 1.905) (layer F.SilkS) (width 0.12))
  (fp_line (start 5.62 1.905) (end 2 1.905) (layer F.SilkS) (width 0.12))
  (fp_line (start 3.81 1.905) (end 3.81 3.175) (layer F.SilkS) (width 0.12))
  (fp_line (start 2 4.445) (end 2 5.715) (layer F.SilkS) (width 0.12))
  (fp_line (start 2 5.715) (end 5.62 5.715) (layer F.SilkS) (width 0.12))
  (fp_line (start 5.62 5.715) (end 5.62 4.445) (layer F.SilkS) (width 0.12))
  (fp_line (start 5.62 4.445) (end 2 4.445) (layer F.SilkS) (width 0.12))
  (fp_line (start 3.81 4.445) (end 3.81 5.715) (layer F.SilkS) (width 0.12))
  (fp_line (start 2 6.985) (end 2 8.255) (layer F.SilkS) (width 0.12))
  (fp_line (start 2 8.255) (end 5.62 8.255) (layer F.SilkS) (width 0.12))
  (fp_line (start 5.62 8.255) (end 5.62 6.985) (layer F.SilkS) (width 0.12))
  (fp_line (start 5.62 6.985) (end 2 6.985) (layer F.SilkS) (width 0.12))
  (fp_line (start 3.81 6.985) (end 3.81 8.255) (layer F.SilkS) (width 0.12))
  (fp_line (start 2 9.525) (end 2 10.795) (layer F.SilkS) (width 0.12))
  (fp_line (start 2 10.795) (end 5.62 10.795) (layer F.SilkS) (width 0.12))
  (fp_line (start 5.62 10.795) (end 5.62 9.525) (layer F.SilkS) (width 0.12))
  (fp_line (start 5.62 9.525) (end 2 9.525) (layer F.SilkS) (width 0.12))
  (fp_line (start 3.81 9.525) (end 3.81 10.795) (layer F.SilkS) (width 0.12))
  (fp_line (start 2 12.065) (end 2 13.335) (layer F.SilkS) (width 0.12))
  (fp_line (start 2 13.335) (end 5.62 13.335) (layer F.SilkS) (width 0.12))
  (fp_line (start 5.62 13.335) (end 5.62 12.065) (layer F.SilkS) (width 0.12))
  (fp_line (start 5.62 12.065) (end 2 12.065) (layer F.SilkS) (width 0.12))
  (fp_line (start 3.81 12.065) (end 3.81 13.335) (layer F.SilkS) (width 0.12))
  (fp_line (start 2 14.605) (end 2 15.875) (layer F.SilkS) (width 0.12))
  (fp_line (start 2 15.875) (end 5.62 15.875) (layer F.SilkS) (width 0.12))
  (fp_line (start 5.62 15.875) (end 5.62 14.605) (layer F.SilkS) (width 0.12))
  (fp_line (start 5.62 14.605) (end 2 14.605) (layer F.SilkS) (width 0.12))
  (fp_line (start 3.81 14.605) (end 3.81 15.875) (layer F.SilkS) (width 0.12))
  (fp_line (start 2 17.145) (end 2 18.415) (layer F.SilkS) (width 0.12))
  (fp_line (start 2 18.415) (end 5.62 18.415) (layer F.SilkS) (width 0.12))
  (fp_line (start 5.62 18.415) (end 5.62 17.145) (layer F.SilkS) (width 0.12))
  (fp_line (start 5.62 17.145) (end 2 17.145) (layer F.SilkS) (width 0.12))
  (fp_line (start 3.81 17.145) (end 3.81 18.415) (layer F.SilkS) (width 0.12))
  (fp_line (start -1.1 -2.4) (end -1.1 20.1) (layer F.CrtYd) (width 0.05))
  (fp_line (start -1.1 20.1) (end 8.7 20.1) (layer F.CrtYd) (width 0.05))
  (fp_line (start 8.7 20.1) (end 8.7 -2.4) (layer F.CrtYd) (width 0.05))
  (fp_line (start 8.7 -2.4) (end -1.1 -2.4) (layer F.CrtYd) (width 0.05))
  (pad 1 thru_hole rect (at 0 0) (size 1.6 1.6) (drill 0.8) (layers *.Cu *.Mask))
  (pad 9 thru_hole oval (at 7.62 17.78) (size 1.6 1.6) (drill 0.8) (layers *.Cu *.Mask))
  (pad 2 thru_hole oval (at 0 2.54) (size 1.6 1.6) (drill 0.8) (layers *.Cu *.Mask))
  (pad 10 thru_hole oval (at 7.62 15.24) (size 1.6 1.6) (drill 0.8) (layers *.Cu *.Mask))
  (pad 3 thru_hole oval (at 0 5.08) (size 1.6 1.6) (drill 0.8) (layers *.Cu *.Mask))
  (pad 11 thru_hole oval (at 7.62 12.7) (size 1.6 1.6) (drill 0.8) (layers *.Cu *.Mask))
  (pad 4 thru_hole oval (at 0 7.62) (size 1.6 1.6) (drill 0.8) (layers *.Cu *.Mask))
  (pad 12 thru_hole oval (at 7.62 10.16) (size 1.6 1.6) (drill 0.8) (layers *.Cu *.Mask))
  (pad 5 thru_hole oval (at 0 10.16) (size 1.6 1.6) (drill 0.8) (layers *.Cu *.Mask))
  (pad 13 thru_hole oval (at 7.62 7.62) (size 1.6 1.6) (drill 0.8) (layers *.Cu *.Mask))
  (pad 6 thru_hole oval (at 0 12.7) (size 1.6 1.6) (drill 0.8) (layers *.Cu *.Mask))
  (pad 14 thru_hole oval (at 7.62 5.08) (size 1.6 1.6) (drill 0.8) (layers *.Cu *.Mask))
  (pad 7 thru_hole oval (at 0 15.24) (size 1.6 1.6) (drill 0.8) (layers *.Cu *.Mask))
  (pad 15 thru_hole oval (at 7.62 2.54) (size 1.6 1.6) (drill 0.8) (layers *.Cu *.Mask))
  (pad 8 thru_hole oval (at 0 17.78) (size 1.6 1.6) (drill 0.8) (layers *.Cu *.Mask))
  (pad 16 thru_hole oval (at 7.62 0) (size 1.6 1.6) (drill 0.8) (layers *.Cu *.Mask))
  (model Buttons_Switches_THT.3dshapes/SW_DIP_x8_W7.62mm_Slide_LowProfile.wrl
    (at (xyz 0 0 0))
    (scale (xyz 1 1 1))
    (rotate (xyz 0 0 90))
  )
)