(module CP_Tantalum_Case-A_EIA-3216-18_Reflow (layer F.Cu) (tedit 57B6E980)
  (descr "Tantalum capacitor, Case A, EIA 3216-18, 3.2x1.6x1.6mm, Reflow soldering footprint")
  (tags "capacitor tantalum smd")
  (attr smd)
  (fp_text reference REF** (at 0 -2.55) (layer F.SilkS)
    (effects (font (size 1 1) (thickness 0.15)))
  )
  (fp_text value CP_Tantalum_Case-A_EIA-3216-18_Reflow (at 0 2.55) (layer F.Fab)
    (effects (font (size 1 1) (thickness 0.15)))
  )
  (fp_line (start -2.75 -1.2) (end -2.75 1.2) (layer F.CrtYd) (width 0.05))
  (fp_line (start -2.75 1.2) (end 2.75 1.2) (layer F.CrtYd) (width 0.05))
  (fp_line (start 2.75 1.2) (end 2.75 -1.2) (layer F.CrtYd) (width 0.05))
  (fp_line (start 2.75 -1.2) (end -2.75 -1.2) (layer F.CrtYd) (width 0.05))
  (fp_line (start -1.6 -0.8) (end -1.6 0.8) (layer F.Fab) (width 0.1))
  (fp_line (start -1.6 0.8) (end 1.6 0.8) (layer F.Fab) (width 0.1))
  (fp_line (start 1.6 0.8) (end 1.6 -0.8) (layer F.Fab) (width 0.1))
  (fp_line (start 1.6 -0.8) (end -1.6 -0.8) (layer F.Fab) (width 0.1))
  (fp_line (start -1.28 -0.8) (end -1.28 0.8) (layer F.Fab) (width 0.1))
  (fp_line (start -1.12 -0.8) (end -1.12 0.8) (layer F.Fab) (width 0.1))
  (fp_line (start -2.65 -1.05) (end 1.6 -1.05) (layer F.SilkS) (width 0.12))
  (fp_line (start -2.65 1.05) (end 1.6 1.05) (layer F.SilkS) (width 0.12))
  (fp_line (start -2.65 -1.05) (end -2.65 1.05) (layer F.SilkS) (width 0.12))
  (pad 1 smd rect (at -1.375 0) (size 1.95 1.5) (layers F.Cu F.Paste F.Mask))
  (pad 2 smd rect (at 1.375 0) (size 1.95 1.5) (layers F.Cu F.Paste F.Mask))
  (model Capacitors_Tantalum_SMD.3dshapes/CP_Tantalum_Case-A_EIA-3216-18.wrl
    (at (xyz 0 0 0))
    (scale (xyz 1 1 1))
    (rotate (xyz 0 0 0))
  )
)