(module CP_Tantalum_Case-E_EIA-7260-38_Wave (layer F.Cu) (tedit 57B6E980)
  (descr "Tantalum capacitor, Case E, EIA 7260-38, 7.3x6.0x3.6mm, Wave soldering footprint")
  (tags "capacitor tantalum smd")
  (attr smd)
  (fp_text reference REF** (at 0 -4.75) (layer F.SilkS)
    (effects (font (size 1 1) (thickness 0.15)))
  )
  (fp_text value CP_Tantalum_Case-E_EIA-7260-38_Wave (at 0 4.75) (layer F.Fab)
    (effects (font (size 1 1) (thickness 0.15)))
  )
  (fp_line (start -5.25 -3.4) (end -5.25 3.4) (layer F.CrtYd) (width 0.05))
  (fp_line (start -5.25 3.4) (end 5.25 3.4) (layer F.CrtYd) (width 0.05))
  (fp_line (start 5.25 3.4) (end 5.25 -3.4) (layer F.CrtYd) (width 0.05))
  (fp_line (start 5.25 -3.4) (end -5.25 -3.4) (layer F.CrtYd) (width 0.05))
  (fp_line (start -3.65 -3) (end -3.65 3) (layer F.Fab) (width 0.1))
  (fp_line (start -3.65 3) (end 3.65 3) (layer F.Fab) (width 0.1))
  (fp_line (start 3.65 3) (end 3.65 -3) (layer F.Fab) (width 0.1))
  (fp_line (start 3.65 -3) (end -3.65 -3) (layer F.Fab) (width 0.1))
  (fp_line (start -2.92 -3) (end -2.92 3) (layer F.Fab) (width 0.1))
  (fp_line (start -2.555 -3) (end -2.555 3) (layer F.Fab) (width 0.1))
  (fp_line (start -5.15 -3.25) (end 3.65 -3.25) (layer F.SilkS) (width 0.12))
  (fp_line (start -5.15 3.25) (end 3.65 3.25) (layer F.SilkS) (width 0.12))
  (fp_line (start -5.15 -3.25) (end -5.15 3.25) (layer F.SilkS) (width 0.12))
  (pad 1 smd rect (at -3.375 0) (size 2.95 4.4) (layers F.Cu F.Paste F.Mask))
  (pad 2 smd rect (at 3.375 0) (size 2.95 4.4) (layers F.Cu F.Paste F.Mask))
  (model Capacitors_Tantalum_SMD.3dshapes/CP_Tantalum_Case-E_EIA-7260-38.wrl
    (at (xyz 0 0 0))
    (scale (xyz 1 1 1))
    (rotate (xyz 0 0 0))
  )
)