(module Potentiometer_Trimmer-Suntan-TSR-3386P (layer F.Cu) (tedit 5945DD9E)
  (fp_text reference RV2 (at 2.54 -5.842) (layer F.SilkS)
    (effects (font (size 1 1) (thickness 0.15)))
  )
  (fp_text value 100k (at 2.54 6.096) (layer F.SilkS)
    (effects (font (size 1 1) (thickness 0.15)))
  )
  (fp_line (start 0.84 -1.255) (end 4.24 -1.255) (layer F.SilkS) (width 0.15))
  (fp_line (start 0.84 -0.495) (end 4.24 -0.495) (layer F.SilkS) (width 0.15))
  (fp_line (start -2.225 -4.765) (end 7.305 -4.765) (layer F.SilkS) (width 0.15))
  (fp_line (start 7.305 -4.765) (end 7.305 4.765) (layer F.SilkS) (width 0.15))
  (fp_line (start 7.305 4.765) (end -2.225 4.765) (layer F.SilkS) (width 0.15))
  (fp_line (start -2.225 4.765) (end -2.225 -4.765) (layer F.SilkS) (width 0.15))
  (fp_circle (center 2.54 -0.875) (end 4.115 0) (layer F.SilkS) (width 0.15))
  (pad 3 thru_hole circle (at 5.08 -2.54) (size 2 2) (drill 0.51) (layers *.Mask B.Cu))
  (pad 1 thru_hole rect (at 0 -2.54) (size 2 2) (drill 0.51) (layers *.Mask B.Cu))
  (pad 2 thru_hole circle (at 2.54 2.54) (size 2 2) (drill 0.51) (layers *.Mask B.Cu))
)
