(module Transformer_NF_ETAL_P1165 (layer F.Cu) (tedit 587F6E08)
  (descr "NF-Transformer,  ETAL, P1165,")
  (tags "NF-Transformer ETAL P1165 ")
  (fp_text reference REF** (at -5 -5.7) (layer F.SilkS)
    (effects (font (size 1 1) (thickness 0.15)))
  )
  (fp_text value Transformer_NF_ETAL_P1165 (at -5 15.9) (layer F.Fab)
    (effects (font (size 1 1) (thickness 0.15)))
  )
  (fp_line (start -14.8 -4.8) (end 4.8 -4.8) (layer F.SilkS) (width 0.12))
  (fp_line (start 4.8 -4.8) (end 4.8 14.8) (layer F.SilkS) (width 0.12))
  (fp_line (start 4.8 14.8) (end -14.8 14.8) (layer F.SilkS) (width 0.12))
  (fp_line (start -14.8 14.8) (end -14.8 -4.8) (layer F.SilkS) (width 0.12))
  (fp_line (start 4.75 -4.75) (end -14.75 -4.75) (layer F.Fab) (width 0.1))
  (fp_line (start -14.75 -4.75) (end -14.75 14.75) (layer F.Fab) (width 0.1))
  (fp_line (start -14.75 14.75) (end 4.75 14.75) (layer F.Fab) (width 0.1))
  (fp_line (start 4.75 14.75) (end 4.75 -4.75) (layer F.Fab) (width 0.1))
  (fp_line (start -2.82 10) (end -2.76 9.98) (layer F.Fab) (width 0.1))
  (fp_line (start -3.03 9.95) (end -2.82 10) (layer F.Fab) (width 0.1))
  (fp_line (start -3.3 9.9) (end -3.03 9.95) (layer F.Fab) (width 0.1))
  (fp_line (start -3.51 9.7) (end -3.3 9.9) (layer F.Fab) (width 0.1))
  (fp_line (start -3.62 9.49) (end -3.51 9.7) (layer F.Fab) (width 0.1))
  (fp_line (start -3.72 9.17) (end -3.62 9.49) (layer F.Fab) (width 0.1))
  (fp_line (start -3.72 8.9) (end -3.72 9.17) (layer F.Fab) (width 0.1))
  (fp_line (start -3.67 8.67) (end -3.72 8.9) (layer F.Fab) (width 0.1))
  (fp_line (start -3.54 8.46) (end -3.67 8.67) (layer F.Fab) (width 0.1))
  (fp_line (start -3.35 8.22) (end -3.54 8.46) (layer F.Fab) (width 0.1))
  (fp_line (start -3.08 8.06) (end -3.35 8.22) (layer F.Fab) (width 0.1))
  (fp_line (start -2.82 7.98) (end -3.08 8.06) (layer F.Fab) (width 0.1))
  (fp_line (start -3.15 7.94) (end -2.82 7.98) (layer F.Fab) (width 0.1))
  (fp_line (start -3.32 7.85) (end -3.15 7.94) (layer F.Fab) (width 0.1))
  (fp_line (start -3.48 7.71) (end -3.32 7.85) (layer F.Fab) (width 0.1))
  (fp_line (start -3.67 7.5) (end -3.48 7.71) (layer F.Fab) (width 0.1))
  (fp_line (start -3.74 7.23) (end -3.67 7.5) (layer F.Fab) (width 0.1))
  (fp_line (start -3.76 6.96) (end -3.74 7.23) (layer F.Fab) (width 0.1))
  (fp_line (start -3.7 6.68) (end -3.76 6.96) (layer F.Fab) (width 0.1))
  (fp_line (start -3.6 6.46) (end -3.7 6.68) (layer F.Fab) (width 0.1))
  (fp_line (start -3.35 6.22) (end -3.6 6.46) (layer F.Fab) (width 0.1))
  (fp_line (start -3.1 6.09) (end -3.35 6.22) (layer F.Fab) (width 0.1))
  (fp_line (start -2.83 6) (end -3.1 6.09) (layer F.Fab) (width 0.1))
  (fp_line (start -2.98 6) (end -2.83 6) (layer F.Fab) (width 0.1))
  (fp_line (start -3.22 5.9) (end -2.98 6) (layer F.Fab) (width 0.1))
  (fp_line (start -3.46 5.74) (end -3.22 5.9) (layer F.Fab) (width 0.1))
  (fp_line (start -3.56 5.59) (end -3.46 5.74) (layer F.Fab) (width 0.1))
  (fp_line (start -3.7 5.36) (end -3.56 5.59) (layer F.Fab) (width 0.1))
  (fp_line (start -3.74 5.04) (end -3.7 5.36) (layer F.Fab) (width 0.1))
  (fp_line (start -3.7 4.7) (end -3.74 5.04) (layer F.Fab) (width 0.1))
  (fp_line (start -3.62 4.4) (end -3.7 4.7) (layer F.Fab) (width 0.1))
  (fp_line (start -3.37 4.21) (end -3.62 4.4) (layer F.Fab) (width 0.1))
  (fp_line (start -3.05 4.1) (end -3.37 4.21) (layer F.Fab) (width 0.1))
  (fp_line (start -2.76 4.01) (end -3.05 4.1) (layer F.Fab) (width 0.1))
  (fp_line (start -2.92 4.01) (end -2.76 4.01) (layer F.Fab) (width 0.1))
  (fp_line (start -3.32 3.83) (end -2.92 4.01) (layer F.Fab) (width 0.1))
  (fp_line (start -3.54 3.69) (end -3.32 3.83) (layer F.Fab) (width 0.1))
  (fp_line (start -3.72 3.5) (end -3.54 3.69) (layer F.Fab) (width 0.1))
  (fp_line (start -3.78 3.07) (end -3.72 3.5) (layer F.Fab) (width 0.1))
  (fp_line (start -3.72 2.73) (end -3.78 3.07) (layer F.Fab) (width 0.1))
  (fp_line (start -3.67 2.52) (end -3.72 2.73) (layer F.Fab) (width 0.1))
  (fp_line (start -3.44 2.29) (end -3.67 2.52) (layer F.Fab) (width 0.1))
  (fp_line (start -3.15 2.07) (end -3.44 2.29) (layer F.Fab) (width 0.1))
  (fp_line (start -2.77 2.02) (end -3.15 2.07) (layer F.Fab) (width 0.1))
  (fp_line (start -3.31 1.85) (end -2.78 2.05) (layer F.Fab) (width 0.1))
  (fp_line (start -3.62 1.57) (end -3.31 1.85) (layer F.Fab) (width 0.1))
  (fp_line (start -3.78 1.18) (end -3.62 1.57) (layer F.Fab) (width 0.1))
  (fp_line (start -3.75 0.73) (end -3.78 1.18) (layer F.Fab) (width 0.1))
  (fp_line (start -3.43 0.24) (end -3.75 0.73) (layer F.Fab) (width 0.1))
  (fp_line (start -3.05 0.06) (end -3.43 0.24) (layer F.Fab) (width 0.1))
  (fp_line (start -2.72 0.01) (end -3.05 0.06) (layer F.Fab) (width 0.1))
  (fp_line (start -7.17 -0.02) (end -6.84 0.03) (layer F.Fab) (width 0.1))
  (fp_line (start -6.84 0.03) (end -6.46 0.21) (layer F.Fab) (width 0.1))
  (fp_line (start -6.46 0.21) (end -6.14 0.7) (layer F.Fab) (width 0.1))
  (fp_line (start -6.14 0.7) (end -6.11 1.15) (layer F.Fab) (width 0.1))
  (fp_line (start -6.11 1.15) (end -6.27 1.54) (layer F.Fab) (width 0.1))
  (fp_line (start -6.27 1.54) (end -6.57 1.82) (layer F.Fab) (width 0.1))
  (fp_line (start -6.57 1.82) (end -7.11 2.02) (layer F.Fab) (width 0.1))
  (fp_line (start -0.38 6.74) (end 0.61 6.74) (layer F.Fab) (width 0.1))
  (fp_line (start 0.61 6.74) (end 0.12 7.35) (layer F.Fab) (width 0.1))
  (fp_line (start 0.12 7.35) (end 0.43 7.37) (layer F.Fab) (width 0.1))
  (fp_line (start 0.43 7.37) (end 0.6 7.56) (layer F.Fab) (width 0.1))
  (fp_line (start 0.6 7.56) (end 0.64 7.84) (layer F.Fab) (width 0.1))
  (fp_line (start 0.64 7.84) (end 0.57 8.12) (layer F.Fab) (width 0.1))
  (fp_line (start 0.57 8.12) (end 0.41 8.27) (layer F.Fab) (width 0.1))
  (fp_line (start 0.41 8.27) (end 0.19 8.3) (layer F.Fab) (width 0.1))
  (fp_line (start 0.19 8.3) (end 0.01 8.28) (layer F.Fab) (width 0.1))
  (fp_line (start 0.01 8.28) (end -0.15 8.26) (layer F.Fab) (width 0.1))
  (fp_line (start -0.15 8.26) (end -0.3 8.15) (layer F.Fab) (width 0.1))
  (fp_line (start -9.74 7.43) (end -9.76 8.45) (layer F.Fab) (width 0.1))
  (fp_line (start -10.13 6.73) (end -10.55 7.94) (layer F.Fab) (width 0.1))
  (fp_line (start -10.55 7.94) (end -9.48 7.92) (layer F.Fab) (width 0.1))
  (fp_line (start -9.38 -1.57) (end -9.36 -1.61) (layer F.Fab) (width 0.1))
  (fp_line (start -10.03 -3.13) (end -10.34 -3.12) (layer F.Fab) (width 0.1))
  (fp_line (start -10.34 -3.12) (end -10.54 -3.09) (layer F.Fab) (width 0.1))
  (fp_line (start -10.54 -3.09) (end -10.67 -2.97) (layer F.Fab) (width 0.1))
  (fp_line (start -10.67 -2.97) (end -10.88 -2.74) (layer F.Fab) (width 0.1))
  (fp_line (start -10.88 -2.74) (end -10.91 -2.45) (layer F.Fab) (width 0.1))
  (fp_line (start -10.91 -2.45) (end -10.94 -2.04) (layer F.Fab) (width 0.1))
  (fp_line (start -10.94 -2.04) (end -10.85 -1.72) (layer F.Fab) (width 0.1))
  (fp_line (start -10.85 -1.72) (end -10.69 -1.59) (layer F.Fab) (width 0.1))
  (fp_line (start -10.69 -1.59) (end -10.4 -1.53) (layer F.Fab) (width 0.1))
  (fp_line (start -10.4 -1.53) (end -10.21 -1.57) (layer F.Fab) (width 0.1))
  (fp_line (start -10.21 -1.57) (end -10.07 -1.77) (layer F.Fab) (width 0.1))
  (fp_line (start -10.07 -1.77) (end -10.05 -2.04) (layer F.Fab) (width 0.1))
  (fp_line (start -10.05 -2.04) (end -10.12 -2.27) (layer F.Fab) (width 0.1))
  (fp_line (start -10.12 -2.27) (end -10.33 -2.45) (layer F.Fab) (width 0.1))
  (fp_line (start -10.33 -2.45) (end -10.63 -2.46) (layer F.Fab) (width 0.1))
  (fp_line (start -10.63 -2.46) (end -10.82 -2.39) (layer F.Fab) (width 0.1))
  (fp_line (start -0.42 -1.55) (end 0.57 -1.55) (layer F.Fab) (width 0.1))
  (fp_line (start -0.46 -2.51) (end 0.07 -3) (layer F.Fab) (width 0.1))
  (fp_line (start 0.07 -3) (end 0.07 -1.53) (layer F.Fab) (width 0.1))
  (fp_line (start -6.41 -1.78) (end -5.79 -1.8) (layer F.Fab) (width 0.1))
  (fp_line (start -4.18 -1.85) (end -3.54 -1.85) (layer F.Fab) (width 0.1))
  (fp_line (start -4.9 -1.92) (end -4.98 -1.92) (layer F.Fab) (width 0.1))
  (fp_line (start -4.97 -2.72) (end -5.02 -2.7) (layer F.Fab) (width 0.1))
  (fp_line (start -4.33 -2.88) (end -3.83 -3.3) (layer F.Fab) (width 0.1))
  (fp_line (start -3.83 -3.3) (end -3.83 -1.85) (layer F.Fab) (width 0.1))
  (fp_line (start -6.57 -2.82) (end -6.03 -3.3) (layer F.Fab) (width 0.1))
  (fp_line (start -6.03 -3.3) (end -6.03 -1.79) (layer F.Fab) (width 0.1))
  (fp_line (start -7.12 1.99) (end -6.74 2.04) (layer F.Fab) (width 0.1))
  (fp_line (start -6.74 2.04) (end -6.45 2.26) (layer F.Fab) (width 0.1))
  (fp_line (start -6.45 2.26) (end -6.22 2.49) (layer F.Fab) (width 0.1))
  (fp_line (start -6.22 2.49) (end -6.17 2.7) (layer F.Fab) (width 0.1))
  (fp_line (start -6.17 2.7) (end -6.11 3.04) (layer F.Fab) (width 0.1))
  (fp_line (start -6.11 3.04) (end -6.17 3.47) (layer F.Fab) (width 0.1))
  (fp_line (start -6.17 3.47) (end -6.35 3.66) (layer F.Fab) (width 0.1))
  (fp_line (start -6.35 3.66) (end -6.56 3.8) (layer F.Fab) (width 0.1))
  (fp_line (start -6.56 3.8) (end -6.97 3.98) (layer F.Fab) (width 0.1))
  (fp_line (start -6.97 3.98) (end -7.13 3.98) (layer F.Fab) (width 0.1))
  (fp_line (start -7.13 3.98) (end -6.84 4.07) (layer F.Fab) (width 0.1))
  (fp_line (start -6.84 4.07) (end -6.52 4.18) (layer F.Fab) (width 0.1))
  (fp_line (start -6.52 4.18) (end -6.26 4.37) (layer F.Fab) (width 0.1))
  (fp_line (start -6.26 4.37) (end -6.19 4.67) (layer F.Fab) (width 0.1))
  (fp_line (start -6.19 4.67) (end -6.15 5.01) (layer F.Fab) (width 0.1))
  (fp_line (start -6.15 5.01) (end -6.19 5.33) (layer F.Fab) (width 0.1))
  (fp_line (start -6.19 5.33) (end -6.33 5.56) (layer F.Fab) (width 0.1))
  (fp_line (start -6.33 5.56) (end -6.43 5.71) (layer F.Fab) (width 0.1))
  (fp_line (start -6.43 5.71) (end -6.67 5.87) (layer F.Fab) (width 0.1))
  (fp_line (start -6.67 5.87) (end -6.91 5.97) (layer F.Fab) (width 0.1))
  (fp_line (start -6.91 5.97) (end -7.06 5.97) (layer F.Fab) (width 0.1))
  (fp_line (start -7.06 5.97) (end -6.79 6.06) (layer F.Fab) (width 0.1))
  (fp_line (start -6.79 6.06) (end -6.54 6.19) (layer F.Fab) (width 0.1))
  (fp_line (start -6.54 6.19) (end -6.29 6.43) (layer F.Fab) (width 0.1))
  (fp_line (start -6.29 6.43) (end -6.19 6.65) (layer F.Fab) (width 0.1))
  (fp_line (start -6.19 6.65) (end -6.13 6.93) (layer F.Fab) (width 0.1))
  (fp_line (start -6.13 6.93) (end -6.15 7.2) (layer F.Fab) (width 0.1))
  (fp_line (start -6.15 7.2) (end -6.22 7.47) (layer F.Fab) (width 0.1))
  (fp_line (start -6.22 7.47) (end -6.4 7.68) (layer F.Fab) (width 0.1))
  (fp_line (start -6.4 7.68) (end -6.56 7.82) (layer F.Fab) (width 0.1))
  (fp_line (start -6.56 7.82) (end -6.74 7.91) (layer F.Fab) (width 0.1))
  (fp_line (start -6.74 7.91) (end -7.07 7.95) (layer F.Fab) (width 0.1))
  (fp_line (start -7.07 7.95) (end -6.81 8.03) (layer F.Fab) (width 0.1))
  (fp_line (start -6.81 8.03) (end -6.54 8.19) (layer F.Fab) (width 0.1))
  (fp_line (start -6.54 8.19) (end -6.35 8.43) (layer F.Fab) (width 0.1))
  (fp_line (start -6.35 8.43) (end -6.22 8.64) (layer F.Fab) (width 0.1))
  (fp_line (start -6.22 8.64) (end -6.17 8.87) (layer F.Fab) (width 0.1))
  (fp_line (start -6.17 8.87) (end -6.17 9.14) (layer F.Fab) (width 0.1))
  (fp_line (start -6.17 9.14) (end -6.26 9.46) (layer F.Fab) (width 0.1))
  (fp_line (start -6.26 9.46) (end -6.38 9.67) (layer F.Fab) (width 0.1))
  (fp_line (start -6.38 9.67) (end -6.59 9.87) (layer F.Fab) (width 0.1))
  (fp_line (start -6.59 9.87) (end -6.86 9.92) (layer F.Fab) (width 0.1))
  (fp_line (start -6.86 9.92) (end -7.07 9.97) (layer F.Fab) (width 0.1))
  (fp_line (start -7.07 9.97) (end -7.13 9.95) (layer F.Fab) (width 0.1))
  (fp_line (start -5 -1) (end -5 11) (layer F.Fab) (width 0.1))
  (fp_line (start -15 -5) (end 5 -5) (layer F.CrtYd) (width 0.05))
  (fp_line (start -15 -5) (end -15 15) (layer F.CrtYd) (width 0.05))
  (fp_line (start 5 15) (end 5 -5) (layer F.CrtYd) (width 0.05))
  (fp_line (start 5 15) (end -15 15) (layer F.CrtYd) (width 0.05))
  (pad 6 thru_hole circle (at -10 0) (size 1.52 1.52) (drill 0.81) (layers *.Cu *.Mask))
  (pad 4 thru_hole circle (at -10 10) (size 1.52 1.52) (drill 0.81) (layers *.Cu *.Mask))
  (pad 1 thru_hole rect (at 0 0) (size 1.52 1.52) (drill 0.81) (layers *.Cu *.Mask))
  (pad 3 thru_hole circle (at 0 10) (size 1.52 1.52) (drill 0.81) (layers *.Cu *.Mask))
  (model Transformers_THT.3dshapes\Transformer_NF_ETAL_P1165.wrl
    (at (xyz 0 0 0))
    (scale (xyz 0.39 0.39 0.39))
    (rotate (xyz 0 0 0))
  )
)
