(module Transformer_CHK_EI48-10VA_2xSec
  (layer F.Cu)
  (at 0 0)
  (descr "Trafo, Printtrafo, CHK, EI48, 10VA, 2x Sec,")
  (tags "Trafo Printtrafo CHK EI48 10VA 2x Sec ")
  (fp_text reference REF** (at 14.20 -33.75) (layer F.SilkS) (effects (font (size 1 1) (thickness 0.15))))
  (fp_text value Transformer_CHK_EI48-10VA_2xSec (at 14.20 -13.15 90) (layer F.Fab) (effects (font (size 1 1) (thickness 0.15))))
  (fp_text user Sec-II (at 30.75 -2.50 90) (layer F.Fab) (effects (font (size 1 1) (thickness 0.15))))
  (fp_text user Sec-I (at 30.75 -22.50 90) (layer F.Fab) (effects (font (size 1 1) (thickness 0.15))))
  (fp_text user Pri (at -5.25 -12.50 90) (layer F.SilkS) (effects (font (size 1 1) (thickness 0.15))))
  (fp_text user 8 (at 23.75 -17.50) (layer F.Fab) (effects (font (size 1 1) (thickness 0.15))))
  (fp_text user 11 (at 23.75 -7.50) (layer F.Fab) (effects (font (size 1 1) (thickness 0.15))))
  (fp_text user 12 (at 23.75 2.50) (layer F.Fab) (effects (font (size 1 1) (thickness 0.15))))
  (fp_text user 7 (at 24.75 -27.50) (layer F.Fab) (effects (font (size 1 1) (thickness 0.15))))
  (fp_text user 6 (at -0.25 -29.50) (layer F.Fab) (effects (font (size 1 1) (thickness 0.15))))
  (fp_text user 1 (at 0.75 3.50) (layer F.SilkS) (effects (font (size 1 1) (thickness 0.15))))
  (fp_line (start 17.75 -0.50) (end 21.75 -0.50) (layer F.Fab) (width 0.10))
  (fp_line (start 17.75 -1.50) (end 21.75 -1.50) (layer F.Fab) (width 0.10))
  (fp_line (start 17.75 -2.50) (end 21.75 -2.50) (layer F.Fab) (width 0.10))
  (fp_line (start 17.75 -3.50) (end 21.75 -3.50) (layer F.Fab) (width 0.10))
  (fp_line (start 17.75 -4.50) (end 21.75 -4.50) (layer F.Fab) (width 0.10))
  (fp_line (start 18.75 -5.50) (end 17.75 -5.50) (layer F.Fab) (width 0.10))
  (fp_line (start 17.75 -5.50) (end 17.75 0.50) (layer F.Fab) (width 0.10))
  (fp_line (start 17.75 0.50) (end 18.75 0.50) (layer F.Fab) (width 0.10))
  (fp_line (start 19.75 -5.50) (end 18.75 -5.50) (layer F.Fab) (width 0.10))
  (fp_line (start 18.75 -5.50) (end 18.75 0.50) (layer F.Fab) (width 0.10))
  (fp_line (start 18.75 0.50) (end 19.75 0.50) (layer F.Fab) (width 0.10))
  (fp_line (start 20.75 -5.50) (end 19.75 -5.50) (layer F.Fab) (width 0.10))
  (fp_line (start 19.75 -5.50) (end 19.75 0.50) (layer F.Fab) (width 0.10))
  (fp_line (start 19.75 0.50) (end 20.75 0.50) (layer F.Fab) (width 0.10))
  (fp_line (start 21.75 -5.50) (end 20.75 -5.50) (layer F.Fab) (width 0.10))
  (fp_line (start 20.75 -5.50) (end 20.75 0.50) (layer F.Fab) (width 0.10))
  (fp_line (start 20.75 0.50) (end 21.75 0.50) (layer F.Fab) (width 0.10))
  (fp_line (start 24.75 -5.50) (end 21.75 -5.50) (layer F.Fab) (width 0.10))
  (fp_line (start 21.75 -5.50) (end 21.75 0.50) (layer F.Fab) (width 0.10))
  (fp_line (start 21.75 0.50) (end 24.75 0.50) (layer F.Fab) (width 0.10))
  (fp_line (start 17.75 -20.50) (end 21.75 -20.50) (layer F.Fab) (width 0.10))
  (fp_line (start 17.75 -21.50) (end 21.75 -21.50) (layer F.Fab) (width 0.10))
  (fp_line (start 17.75 -22.50) (end 21.75 -22.50) (layer F.Fab) (width 0.10))
  (fp_line (start 17.75 -23.50) (end 21.75 -23.50) (layer F.Fab) (width 0.10))
  (fp_line (start 17.75 -24.50) (end 21.75 -24.50) (layer F.Fab) (width 0.10))
  (fp_line (start 18.75 -25.50) (end 17.75 -25.50) (layer F.Fab) (width 0.10))
  (fp_line (start 17.75 -25.50) (end 17.75 -19.50) (layer F.Fab) (width 0.10))
  (fp_line (start 17.75 -19.50) (end 18.75 -19.50) (layer F.Fab) (width 0.10))
  (fp_line (start 19.75 -25.50) (end 18.75 -25.50) (layer F.Fab) (width 0.10))
  (fp_line (start 18.75 -25.50) (end 18.75 -19.50) (layer F.Fab) (width 0.10))
  (fp_line (start 18.75 -19.50) (end 19.75 -19.50) (layer F.Fab) (width 0.10))
  (fp_line (start 20.75 -25.50) (end 19.75 -25.50) (layer F.Fab) (width 0.10))
  (fp_line (start 19.75 -25.50) (end 19.75 -19.50) (layer F.Fab) (width 0.10))
  (fp_line (start 19.75 -19.50) (end 20.75 -19.50) (layer F.Fab) (width 0.10))
  (fp_line (start 21.75 -25.50) (end 20.75 -25.50) (layer F.Fab) (width 0.10))
  (fp_line (start 20.75 -25.50) (end 20.75 -19.50) (layer F.Fab) (width 0.10))
  (fp_line (start 20.75 -19.50) (end 21.75 -19.50) (layer F.Fab) (width 0.10))
  (fp_line (start 24.75 -25.50) (end 21.75 -25.50) (layer F.Fab) (width 0.10))
  (fp_line (start 21.75 -25.50) (end 21.75 -19.50) (layer F.Fab) (width 0.10))
  (fp_line (start 21.75 -19.50) (end 24.75 -19.50) (layer F.Fab) (width 0.10))
  (fp_line (start 6.75 -1.50) (end 5.75 -1.50) (layer F.Fab) (width 0.10))
  (fp_line (start 5.75 -0.50) (end 9.75 -0.50) (layer F.Fab) (width 0.10))
  (fp_line (start 6.75 -1.50) (end 9.75 -1.50) (layer F.Fab) (width 0.10))
  (fp_line (start 5.75 -2.50) (end 9.75 -2.50) (layer F.Fab) (width 0.10))
  (fp_line (start 5.75 -3.50) (end 9.75 -3.50) (layer F.Fab) (width 0.10))
  (fp_line (start 5.75 -4.50) (end 9.75 -4.50) (layer F.Fab) (width 0.10))
  (fp_line (start 5.75 -5.50) (end 9.75 -5.50) (layer F.Fab) (width 0.10))
  (fp_line (start 5.75 -6.50) (end 9.75 -6.50) (layer F.Fab) (width 0.10))
  (fp_line (start 5.75 -7.50) (end 9.75 -7.50) (layer F.Fab) (width 0.10))
  (fp_line (start 5.75 -8.50) (end 9.75 -8.50) (layer F.Fab) (width 0.10))
  (fp_line (start 5.75 -9.50) (end 9.75 -9.50) (layer F.Fab) (width 0.10))
  (fp_line (start 5.75 -10.50) (end 9.75 -10.50) (layer F.Fab) (width 0.10))
  (fp_line (start 5.75 -11.50) (end 9.75 -11.50) (layer F.Fab) (width 0.10))
  (fp_line (start 5.75 -12.50) (end 9.75 -12.50) (layer F.Fab) (width 0.10))
  (fp_line (start 5.75 -13.50) (end 9.75 -13.50) (layer F.Fab) (width 0.10))
  (fp_line (start 5.75 -14.50) (end 9.75 -14.50) (layer F.Fab) (width 0.10))
  (fp_line (start 5.75 -15.50) (end 9.75 -15.50) (layer F.Fab) (width 0.10))
  (fp_line (start 5.75 -16.50) (end 9.75 -16.50) (layer F.Fab) (width 0.10))
  (fp_line (start 5.75 -17.50) (end 9.75 -17.50) (layer F.Fab) (width 0.10))
  (fp_line (start 5.75 -18.50) (end 9.75 -18.50) (layer F.Fab) (width 0.10))
  (fp_line (start 5.75 -19.50) (end 9.75 -19.50) (layer F.Fab) (width 0.10))
  (fp_line (start 5.75 -20.50) (end 9.75 -20.50) (layer F.Fab) (width 0.10))
  (fp_line (start 5.75 -21.50) (end 9.75 -21.50) (layer F.Fab) (width 0.10))
  (fp_line (start 5.75 -22.50) (end 9.75 -22.50) (layer F.Fab) (width 0.10))
  (fp_line (start 5.75 -23.50) (end 9.75 -23.50) (layer F.Fab) (width 0.10))
  (fp_line (start 5.75 -24.50) (end 9.75 -24.50) (layer F.Fab) (width 0.10))
  (fp_line (start 8.75 -25.50) (end 9.75 -25.50) (layer F.Fab) (width 0.10))
  (fp_line (start 9.75 -25.50) (end 9.75 0.50) (layer F.Fab) (width 0.10))
  (fp_line (start 9.75 0.50) (end 8.75 0.50) (layer F.Fab) (width 0.10))
  (fp_line (start 7.75 -25.50) (end 8.75 -25.50) (layer F.Fab) (width 0.10))
  (fp_line (start 8.75 -25.50) (end 8.75 0.50) (layer F.Fab) (width 0.10))
  (fp_line (start 8.75 0.50) (end 7.75 0.50) (layer F.Fab) (width 0.10))
  (fp_line (start 6.75 -25.50) (end 7.75 -25.50) (layer F.Fab) (width 0.10))
  (fp_line (start 7.75 -25.50) (end 7.75 0.50) (layer F.Fab) (width 0.10))
  (fp_line (start 7.75 0.50) (end 6.75 0.50) (layer F.Fab) (width 0.10))
  (fp_line (start 5.75 -25.50) (end 6.75 -25.50) (layer F.Fab) (width 0.10))
  (fp_line (start 6.75 -25.50) (end 6.75 0.50) (layer F.Fab) (width 0.10))
  (fp_line (start 6.75 0.50) (end 5.75 0.50) (layer F.Fab) (width 0.10))
  (fp_line (start 2.75 -25.50) (end 5.75 -25.50) (layer F.Fab) (width 0.10))
  (fp_line (start 5.75 -25.50) (end 5.75 0.50) (layer F.Fab) (width 0.10))
  (fp_line (start 5.75 0.50) (end 2.75 0.50) (layer F.Fab) (width 0.10))
  (fp_line (start 19.75 -37.50) (end 19.75 -43.50) (layer F.Fab) (width 0.10))
  (fp_line (start 19.75 -43.50) (end 17.75 -46.50) (layer F.Fab) (width 0.10))
  (fp_line (start 17.75 -46.50) (end 9.75 -46.50) (layer F.Fab) (width 0.10))
  (fp_line (start 9.75 -46.50) (end 7.75 -43.50) (layer F.Fab) (width 0.10))
  (fp_line (start 7.75 -43.50) (end 7.75 -37.50) (layer F.Fab) (width 0.10))
  (fp_line (start 19.75 12.50) (end 19.75 18.50) (layer F.Fab) (width 0.10))
  (fp_line (start 19.75 18.50) (end 17.75 21.50) (layer F.Fab) (width 0.10))
  (fp_line (start 17.75 21.50) (end 9.75 21.50) (layer F.Fab) (width 0.10))
  (fp_line (start 9.75 21.50) (end 7.75 18.50) (layer F.Fab) (width 0.10))
  (fp_line (start 7.75 18.50) (end 7.75 12.50) (layer F.Fab) (width 0.10))
  (fp_line (start -7.25 12.50) (end 34.75 12.50) (layer F.Fab) (width 0.10))
  (fp_line (start 34.75 12.50) (end 34.75 -37.50) (layer F.Fab) (width 0.10))
  (fp_line (start 34.75 -37.50) (end -7.25 -37.50) (layer F.Fab) (width 0.10))
  (fp_line (start -7.25 -37.50) (end -7.25 12.50) (layer F.Fab) (width 0.10))
  (fp_line (start -7.50 -46.75) (end 35 -46.75) (layer F.CrtYd) (width 0.05))
  (fp_line (start -7.50 -46.75) (end -7.50 21.75) (layer F.CrtYd) (width 0.05))
  (fp_line (start 35 21.75) (end 35 -46.75) (layer F.CrtYd) (width 0.05))
  (fp_line (start 35 21.75) (end -7.50 21.75) (layer F.CrtYd) (width 0.05))
  (fp_line (start -7.37 -46.62) (end 34.87 -46.62) (layer F.SilkS) (width 0.12))
  (fp_line (start -7.37 -46.62) (end -7.37 21.62) (layer F.SilkS) (width 0.12))
  (fp_line (start 34.87 21.62) (end 34.87 -46.62) (layer F.SilkS) (width 0.12))
  (fp_line (start 34.87 21.62) (end -7.37 21.62) (layer F.SilkS) (width 0.12))
  (pad 1 thru_hole circle (at 0 0) (size 3 3) (drill 1.20) (layers *.Cu *.Mask))
  (pad 6 thru_hole circle (at 0 -25.05) (size 3 3) (drill 1.20) (layers *.Cu *.Mask))
  (pad 7 thru_hole circle (at 27.50 -25) (size 3 3) (drill 1.20) (layers *.Cu *.Mask))
  (pad 12 thru_hole circle (at 27.50 0) (size 3 3) (drill 1.20) (layers *.Cu *.Mask))
  (pad 2 thru_hole circle (at 0 -5) (size 3 3) (drill 1.20) (layers *.Cu *.Mask))
  (pad 3 thru_hole circle (at 0 -10) (size 3 3) (drill 1.20) (layers *.Cu *.Mask))
  (pad 4 thru_hole circle (at 0 -15) (size 3 3) (drill 1.20) (layers *.Cu *.Mask))
  (pad 5 thru_hole circle (at 0 -20) (size 3 3) (drill 1.20) (layers *.Cu *.Mask))
  (pad 11 thru_hole circle (at 27.50 -5) (size 3 3) (drill 1.20) (layers *.Cu *.Mask))
  (pad 10 thru_hole circle (at 27.50 -10) (size 3 3) (drill 1.20) (layers *.Cu *.Mask))
  (pad 9 thru_hole circle (at 27.50 -15) (size 3 3) (drill 1.20) (layers *.Cu *.Mask))
  (pad 8 thru_hole circle (at 27.50 -20) (size 3 3) (drill 1.20) (layers *.Cu *.Mask))
  (pad "" np_thru_hole circle (at 13.75 17.25) (size 4.50 4.50) (drill 4.50) (layers *.Cu *.Mask))
  (pad "" np_thru_hole circle (at 13.75 -42.25) (size 4.50 4.50) (drill 4.50) (layers *.Cu *.Mask)))
