(module Transformer_Breve_TEZ-22x24
  (layer F.Cu)
  (tedit 5880AFE0)
  (descr http://www.breve.pl/pdf/ANG/TEZ_ang.pdf)
  (tags "TEZ PCB Transformer")
  (fp_text reference REF** (at 7.50 -20.00) (layer F.SilkS) (effects (font (size 1 1) (thickness 0.15))))
  (fp_text value Transformer_Breve_TEZ-22x24 (at 7.50 -7.50) (layer F.Fab) (effects (font (size 1 1) (thickness 0.15))))
  (fp_text user 8 (at 0.00 -17.00) (layer F.SilkS) (effects (font (size 1 1) (thickness 0.15))))
  (fp_text user 7 (at 5.00 -17.00) (layer F.SilkS) (effects (font (size 1 1) (thickness 0.15))))
  (fp_text user 6 (at 10.00 -17.00) (layer F.SilkS) (effects (font (size 1 1) (thickness 0.15))))
  (fp_text user 5 (at 15.00 -17.00) (layer F.SilkS) (effects (font (size 1 1) (thickness 0.15))))
  (fp_text user 4 (at 15.00 2.50) (layer F.SilkS) (effects (font (size 1 1) (thickness 0.15))))
  (fp_text user 3 (at 10.00 2.50) (layer F.SilkS) (effects (font (size 1 1) (thickness 0.15))))
  (fp_text user 2 (at 5.00 2.50) (layer F.SilkS) (effects (font (size 1 1) (thickness 0.15))))
  (fp_text user 1 (at 0.00 2.50) (layer F.SilkS) (effects (font (size 1 1) (thickness 0.15))))
  (fp_line (start -1.50 -16.00) (end 16.50 -16.00) (layer F.Fab) (width 0.10))
  (fp_line (start 16.50 -16.00) (end 16.50 1.00) (layer F.Fab) (width 0.10))
  (fp_line (start 16.50 1.00) (end -1.50 1.00) (layer F.Fab) (width 0.10))
  (fp_line (start -1.50 1.00) (end -1.50 -16.00) (layer F.Fab) (width 0.10))
  (fp_line (start 4.00 1.00) (end 1.50 1.00) (layer F.SilkS) (width 0.12))
  (fp_line (start -1.50 1.00) (end -1.50 -16.00) (layer F.SilkS) (width 0.12))
  (fp_line (start 16.00 1.00) (end 16.50 1.00) (layer F.SilkS) (width 0.12))
  (fp_line (start 16.50 1.00) (end 16.50 -16.00) (layer F.SilkS) (width 0.12))
  (fp_line (start 6.00 1.00) (end 14.00 1.00) (layer F.SilkS) (width 0.12))
  (fp_line (start -1.00 -16.00) (end -1.50 -16.00) (layer F.SilkS) (width 0.12))
  (fp_line (start 16.00 -16.00) (end 16.50 -16.00) (layer F.SilkS) (width 0.12))
  (fp_line (start 11.00 -16.00) (end 14.00 -16.00) (layer F.SilkS) (width 0.12))
  (fp_line (start 6.00 -16.00) (end 9.00 -16.00) (layer F.SilkS) (width 0.12))
  (fp_line (start 1.00 -16.00) (end 4.00 -16.00) (layer F.SilkS) (width 0.12))
  (fp_line (start -4.50 -18.50) (end 19.50 -18.50) (layer F.Fab) (width 0.10))
  (fp_line (start 19.50 -18.50) (end 19.50 3.50) (layer F.Fab) (width 0.10))
  (fp_line (start 19.50 3.50) (end -4.50 3.50) (layer F.Fab) (width 0.10))
  (fp_line (start -4.50 3.50) (end -4.50 -18.50) (layer F.Fab) (width 0.10))
  (fp_line (start -4.75 -18.75) (end 19.75 -18.75) (layer F.CrtYd) (width 0.05))
  (fp_line (start -4.75 -18.75) (end -4.75 3.75) (layer F.CrtYd) (width 0.05))
  (fp_line (start 19.75 3.75) (end 19.75 -18.75) (layer F.CrtYd) (width 0.05))
  (fp_line (start 19.75 3.75) (end -4.75 3.75) (layer F.CrtYd) (width 0.05))
  (fp_line (start -4.62 -18.62) (end 19.62 -18.62) (layer F.SilkS) (width 0.12))
  (fp_line (start -4.62 -18.62) (end -4.62 3.62) (layer F.SilkS) (width 0.12))
  (fp_line (start 19.62 3.62) (end 19.62 -18.62) (layer F.SilkS) (width 0.12))
  (fp_line (start 19.62 3.62) (end -4.62 3.62) (layer F.SilkS) (width 0.12))
  (pad 1 thru_hole rect (at 0.00 0.00) (size 2 2) (drill 0.90) (layers *.Cu *.Mask))
  (pad 2 thru_hole circle (at 5.00 0.00) (size 2 2) (drill 0.90) (layers *.Cu *.Mask))
  (pad 4 thru_hole circle (at 15.00 0.00) (size 2 2) (drill 0.90) (layers *.Cu *.Mask))
  (pad 5 thru_hole circle (at 15.00 -15.00) (size 2 2) (drill 0.90) (layers *.Cu *.Mask))
  (pad 6 thru_hole circle (at 10.00 -15.00) (size 2 2) (drill 0.90) (layers *.Cu *.Mask))
  (pad 7 thru_hole circle (at 5.00 -15.00) (size 2 2) (drill 0.90) (layers *.Cu *.Mask))
  (pad 8 thru_hole circle (at 0.00 -15.00) (size 2 2) (drill 0.90) (layers *.Cu *.Mask)))
