(module Transformer_CHK_EI54-16VA_1xSec
  (layer F.Cu)
  (at 0 0)
  (descr "Trafo, Printtrafo, CHK, EI54, 16VA, 1x Sec,")
  (tags "Trafo Printtrafo CHK EI54 16VA 1x Sec ")
  (fp_text reference REF** (at 15 -32.78) (layer F.SilkS) (effects (font (size 1 1) (thickness 0.15))))
  (fp_text value Transformer_CHK_EI54-16VA_1xSec (at 15 -15 90) (layer F.Fab) (effects (font (size 1 1) (thickness 0.15))))
  (fp_text user Sec (at 34 -15 90) (layer F.SilkS) (effects (font (size 1 1) (thickness 0.15))))
  (fp_text user Pri (at -5 -15 90) (layer F.SilkS) (effects (font (size 1 1) (thickness 0.15))))
  (fp_text user 13 (at 26 -3) (layer F.Fab) (effects (font (size 1 1) (thickness 0.15))))
  (fp_text user 9 (at 26 -26) (layer F.Fab) (effects (font (size 1 1) (thickness 0.15))))
  (fp_text user 7 (at 1 -33) (layer F.Fab) (effects (font (size 1 1) (thickness 0.15))))
  (fp_text user 1 (at 1 3) (layer F.SilkS) (effects (font (size 1 1) (thickness 0.15))))
  (fp_line (start 20 -6) (end 24 -6) (layer F.Fab) (width 0.10))
  (fp_line (start 24 -7) (end 20 -7) (layer F.Fab) (width 0.10))
  (fp_line (start 20 -8) (end 24 -8) (layer F.Fab) (width 0.10))
  (fp_line (start 24 -9) (end 20 -9) (layer F.Fab) (width 0.10))
  (fp_line (start 20 -10) (end 24 -10) (layer F.Fab) (width 0.10))
  (fp_line (start 24 -11) (end 20 -11) (layer F.Fab) (width 0.10))
  (fp_line (start 20 -12) (end 24 -12) (layer F.Fab) (width 0.10))
  (fp_line (start 24 -13) (end 20 -13) (layer F.Fab) (width 0.10))
  (fp_line (start 20 -14) (end 24 -14) (layer F.Fab) (width 0.10))
  (fp_line (start 24 -15) (end 20 -15) (layer F.Fab) (width 0.10))
  (fp_line (start 20 -16) (end 24 -16) (layer F.Fab) (width 0.10))
  (fp_line (start 24 -17) (end 20 -17) (layer F.Fab) (width 0.10))
  (fp_line (start 20 -18) (end 24 -18) (layer F.Fab) (width 0.10))
  (fp_line (start 24 -19) (end 20 -19) (layer F.Fab) (width 0.10))
  (fp_line (start 20 -20) (end 24 -20) (layer F.Fab) (width 0.10))
  (fp_line (start 24 -21) (end 20 -21) (layer F.Fab) (width 0.10))
  (fp_line (start 20 -22) (end 24 -22) (layer F.Fab) (width 0.10))
  (fp_line (start 24 -23) (end 20 -23) (layer F.Fab) (width 0.10))
  (fp_line (start 20 -24) (end 24 -24) (layer F.Fab) (width 0.10))
  (fp_line (start 22 -25) (end 22 -5) (layer F.Fab) (width 0.10))
  (fp_line (start 22 -5) (end 21 -5) (layer F.Fab) (width 0.10))
  (fp_line (start 21 -5) (end 21 -25) (layer F.Fab) (width 0.10))
  (fp_line (start 23 -5) (end 23 -25) (layer F.Fab) (width 0.10))
  (fp_line (start 24 -25) (end 20 -25) (layer F.Fab) (width 0.10))
  (fp_line (start 20 -25) (end 20 -5) (layer F.Fab) (width 0.10))
  (fp_line (start 20 -5) (end 24 -5) (layer F.Fab) (width 0.10))
  (fp_line (start 27 -25) (end 24 -25) (layer F.Fab) (width 0.10))
  (fp_line (start 24 -25) (end 24 -5) (layer F.Fab) (width 0.10))
  (fp_line (start 24 -5) (end 27 -5) (layer F.Fab) (width 0.10))
  (fp_line (start 6 -1) (end 10 -1) (layer F.Fab) (width 0.10))
  (fp_line (start 10 -2) (end 6 -2) (layer F.Fab) (width 0.10))
  (fp_line (start 6 -3) (end 10 -3) (layer F.Fab) (width 0.10))
  (fp_line (start 10 -4) (end 6 -4) (layer F.Fab) (width 0.10))
  (fp_line (start 6 -5) (end 10 -5) (layer F.Fab) (width 0.10))
  (fp_line (start 10 -6) (end 6 -6) (layer F.Fab) (width 0.10))
  (fp_line (start 6 -7) (end 10 -7) (layer F.Fab) (width 0.10))
  (fp_line (start 10 -8) (end 6 -8) (layer F.Fab) (width 0.10))
  (fp_line (start 6 -9) (end 10 -9) (layer F.Fab) (width 0.10))
  (fp_line (start 10 -10) (end 6 -10) (layer F.Fab) (width 0.10))
  (fp_line (start 6 -11) (end 10 -11) (layer F.Fab) (width 0.10))
  (fp_line (start 10 -12) (end 6 -12) (layer F.Fab) (width 0.10))
  (fp_line (start 6 -13) (end 10 -13) (layer F.Fab) (width 0.10))
  (fp_line (start 10 -14) (end 6 -14) (layer F.Fab) (width 0.10))
  (fp_line (start 6 -15) (end 10 -15) (layer F.Fab) (width 0.10))
  (fp_line (start 10 -16) (end 6 -16) (layer F.Fab) (width 0.10))
  (fp_line (start 10 -18) (end 6 -18) (layer F.Fab) (width 0.10))
  (fp_line (start 6 -18) (end 6 -17) (layer F.Fab) (width 0.10))
  (fp_line (start 6 -17) (end 10 -17) (layer F.Fab) (width 0.10))
  (fp_line (start 6 -19) (end 10 -19) (layer F.Fab) (width 0.10))
  (fp_line (start 10 -20) (end 6 -20) (layer F.Fab) (width 0.10))
  (fp_line (start 6 -21) (end 10 -21) (layer F.Fab) (width 0.10))
  (fp_line (start 10 -22) (end 6 -22) (layer F.Fab) (width 0.10))
  (fp_line (start 6 -23) (end 10 -23) (layer F.Fab) (width 0.10))
  (fp_line (start 10 -24) (end 6 -24) (layer F.Fab) (width 0.10))
  (fp_line (start 6 -25) (end 10 -25) (layer F.Fab) (width 0.10))
  (fp_line (start 10 -26) (end 6 -26) (layer F.Fab) (width 0.10))
  (fp_line (start 6 -27) (end 10 -27) (layer F.Fab) (width 0.10))
  (fp_line (start 10 -28) (end 6 -28) (layer F.Fab) (width 0.10))
  (fp_line (start 6 -29) (end 10 -29) (layer F.Fab) (width 0.10))
  (fp_line (start 9 0) (end 9 -30) (layer F.Fab) (width 0.10))
  (fp_line (start 8 -30) (end 8 0) (layer F.Fab) (width 0.10))
  (fp_line (start 7 0) (end 7 -30) (layer F.Fab) (width 0.10))
  (fp_line (start 6 -30) (end 10 -30) (layer F.Fab) (width 0.10))
  (fp_line (start 10 -30) (end 10 0) (layer F.Fab) (width 0.10))
  (fp_line (start 10 0) (end 6 0) (layer F.Fab) (width 0.10))
  (fp_line (start 3 -30) (end 6 -30) (layer F.Fab) (width 0.10))
  (fp_line (start 6 -30) (end 6 0) (layer F.Fab) (width 0.10))
  (fp_line (start 6 0) (end 3 0) (layer F.Fab) (width 0.10))
  (fp_line (start 38.50 13) (end 38.50 23) (layer F.Fab) (width 0.10))
  (fp_line (start 38.50 23) (end 28.50 23) (layer F.Fab) (width 0.10))
  (fp_line (start 28.50 23) (end 28.50 13) (layer F.Fab) (width 0.10))
  (fp_line (start -8.50 13) (end -8.50 23) (layer F.Fab) (width 0.10))
  (fp_line (start -8.50 23) (end 1 23) (layer F.Fab) (width 0.10))
  (fp_line (start 1 23) (end 1 13) (layer F.Fab) (width 0.10))
  (fp_line (start -8.50 -43) (end -8.50 -53) (layer F.Fab) (width 0.10))
  (fp_line (start -8.50 -53) (end 1.50 -53) (layer F.Fab) (width 0.10))
  (fp_line (start 1.50 -53) (end 1.50 -43) (layer F.Fab) (width 0.10))
  (fp_line (start 38.50 -43) (end 38.50 -53) (layer F.Fab) (width 0.10))
  (fp_line (start 38.50 -53) (end 28.50 -53) (layer F.Fab) (width 0.10))
  (fp_line (start 28.50 -53) (end 28.50 -43) (layer F.Fab) (width 0.10))
  (fp_line (start -8.50 13) (end 38.50 13) (layer F.Fab) (width 0.10))
  (fp_line (start 38.50 13) (end 38.50 -43) (layer F.Fab) (width 0.10))
  (fp_line (start 38.50 -43) (end -8.50 -43) (layer F.Fab) (width 0.10))
  (fp_line (start -8.50 -43) (end -8.50 13) (layer F.Fab) (width 0.10))
  (fp_line (start -8.75 -53.25) (end 38.75 -53.25) (layer F.CrtYd) (width 0.05))
  (fp_line (start -8.75 -53.25) (end -8.75 23.25) (layer F.CrtYd) (width 0.05))
  (fp_line (start 38.75 23.25) (end 38.75 -53.25) (layer F.CrtYd) (width 0.05))
  (fp_line (start 38.75 23.25) (end -8.75 23.25) (layer F.CrtYd) (width 0.05))
  (fp_line (start -8.62 -53.12) (end 38.62 -53.12) (layer F.SilkS) (width 0.12))
  (fp_line (start -8.62 -53.12) (end -8.62 23.12) (layer F.SilkS) (width 0.12))
  (fp_line (start 38.62 23.12) (end 38.62 -53.12) (layer F.SilkS) (width 0.12))
  (fp_line (start 38.62 23.12) (end -8.62 23.12) (layer F.SilkS) (width 0.12))
  (pad 1 thru_hole circle (at 0 0) (size 3 3) (drill 1.20) (layers *.Cu *.Mask))
  (pad 2 thru_hole circle (at 0 -5) (size 3 3) (drill 1.20) (layers *.Cu *.Mask))
  (pad 3 thru_hole circle (at 0 -10) (size 3 3) (drill 1.20) (layers *.Cu *.Mask))
  (pad 4 thru_hole circle (at 0 -15) (size 3 3) (drill 1.20) (layers *.Cu *.Mask))
  (pad 5 thru_hole circle (at 0 -20) (size 3 3) (drill 1.20) (layers *.Cu *.Mask))
  (pad 6 thru_hole circle (at 0 -25) (size 3 3) (drill 1.20) (layers *.Cu *.Mask))
  (pad 7 thru_hole circle (at 0 -30) (size 3 3) (drill 1.20) (layers *.Cu *.Mask))
  (pad 8 thru_hole circle (at 30 -30) (size 3 3) (drill 1.20) (layers *.Cu *.Mask))
  (pad 9 thru_hole circle (at 30 -25) (size 3 3) (drill 1.20) (layers *.Cu *.Mask))
  (pad 10 thru_hole circle (at 30 -20) (size 3 3) (drill 1.20) (layers *.Cu *.Mask))
  (pad 11 thru_hole circle (at 30 -15) (size 3 3) (drill 1.20) (layers *.Cu *.Mask))
  (pad 12 thru_hole circle (at 30 -10) (size 3 3) (drill 1.20) (layers *.Cu *.Mask))
  (pad 13 thru_hole circle (at 30 -5) (size 3 3) (drill 1.20) (layers *.Cu *.Mask))
  (pad 14 thru_hole circle (at 30 0) (size 3 3) (drill 1.20) (layers *.Cu *.Mask))
  (pad "" np_thru_hole circle (at -3.50 17.50) (size 4.50 4.50) (drill 4.50) (layers *.Cu *.Mask))
  (pad "" np_thru_hole circle (at 33.50 17.50) (size 4.50 4.50) (drill 4.50) (layers *.Cu *.Mask))
  (pad "" np_thru_hole circle (at 33.50 -47.50) (size 4.50 4.50) (drill 4.50) (layers *.Cu *.Mask))
  (pad "" np_thru_hole circle (at -3.50 -47.50) (size 4.50 4.50) (drill 4.50) (layers *.Cu *.Mask)))
