(module C_Axial_L12.0mm_D10.5mm_P20.00mm_Horizontal (layer F.Cu) (tedit 58765D06)
  (descr "C, Axial series, Axial, Horizontal, pin pitch=20mm, , length*diameter=12*10.5mm^2, http://cdn-reichelt.de/documents/datenblatt/B300/STYROFLEX.pdf")
  (tags "C Axial series Axial Horizontal pin pitch 20mm  length 12mm diameter 10.5mm")
  (fp_text reference REF** (at 10 -6.31) (layer F.SilkS)
    (effects (font (size 1 1) (thickness 0.15)))
  )
  (fp_text value C_Axial_L12.0mm_D10.5mm_P20.00mm_Horizontal (at 10 6.31) (layer F.Fab)
    (effects (font (size 1 1) (thickness 0.15)))
  )
  (fp_line (start 4 -5.25) (end 4 5.25) (layer F.Fab) (width 0.1))
  (fp_line (start 4 5.25) (end 16 5.25) (layer F.Fab) (width 0.1))
  (fp_line (start 16 5.25) (end 16 -5.25) (layer F.Fab) (width 0.1))
  (fp_line (start 16 -5.25) (end 4 -5.25) (layer F.Fab) (width 0.1))
  (fp_line (start 0 0) (end 4 0) (layer F.Fab) (width 0.1))
  (fp_line (start 20 0) (end 16 0) (layer F.Fab) (width 0.1))
  (fp_line (start 3.94 -5.31) (end 3.94 5.31) (layer F.SilkS) (width 0.12))
  (fp_line (start 3.94 5.31) (end 16.06 5.31) (layer F.SilkS) (width 0.12))
  (fp_line (start 16.06 5.31) (end 16.06 -5.31) (layer F.SilkS) (width 0.12))
  (fp_line (start 16.06 -5.31) (end 3.94 -5.31) (layer F.SilkS) (width 0.12))
  (fp_line (start 0.98 0) (end 3.94 0) (layer F.SilkS) (width 0.12))
  (fp_line (start 19.02 0) (end 16.06 0) (layer F.SilkS) (width 0.12))
  (fp_line (start -1.05 -5.6) (end -1.05 5.6) (layer F.CrtYd) (width 0.05))
  (fp_line (start -1.05 5.6) (end 21.05 5.6) (layer F.CrtYd) (width 0.05))
  (fp_line (start 21.05 5.6) (end 21.05 -5.6) (layer F.CrtYd) (width 0.05))
  (fp_line (start 21.05 -5.6) (end -1.05 -5.6) (layer F.CrtYd) (width 0.05))
  (pad 1 thru_hole circle (at 0 0) (size 1.6 1.6) (drill 0.8) (layers *.Cu *.Mask))
  (pad 2 thru_hole oval (at 20 0) (size 1.6 1.6) (drill 0.8) (layers *.Cu *.Mask))
  (model Capacitors_THT.3dshapes/C_Axial_L12.0mm_D10.5mm_P20.00mm_Horizontal.wrl
    (at (xyz 0 0 0))
    (scale (xyz 0.393701 0.393701 0.393701))
    (rotate (xyz 0 0 0))
  )
)