(module C_Disc_D7.0mm_W2.5mm_P5.00mm (layer F.Cu) (tedit 58765D06)
  (descr "C, Disc series, Radial, pin pitch=5.00mm, , diameter*width=7*2.5mm^2, Capacitor, http://cdn-reichelt.de/documents/datenblatt/B300/DS_KERKO_TC.pdf")
  (tags "C Disc series Radial pin pitch 5.00mm  diameter 7mm width 2.5mm Capacitor")
  (fp_text reference REF** (at 2.5 -2.31) (layer F.SilkS)
    (effects (font (size 1 1) (thickness 0.15)))
  )
  (fp_text value C_Disc_D7.0mm_W2.5mm_P5.00mm (at 2.5 2.31) (layer F.Fab)
    (effects (font (size 1 1) (thickness 0.15)))
  )
  (fp_line (start -1 -1.25) (end -1 1.25) (layer F.Fab) (width 0.1))
  (fp_line (start -1 1.25) (end 6 1.25) (layer F.Fab) (width 0.1))
  (fp_line (start 6 1.25) (end 6 -1.25) (layer F.Fab) (width 0.1))
  (fp_line (start 6 -1.25) (end -1 -1.25) (layer F.Fab) (width 0.1))
  (fp_line (start -1.06 -1.31) (end 6.06 -1.31) (layer F.SilkS) (width 0.12))
  (fp_line (start -1.06 1.31) (end 6.06 1.31) (layer F.SilkS) (width 0.12))
  (fp_line (start -1.06 -1.31) (end -1.06 1.31) (layer F.SilkS) (width 0.12))
  (fp_line (start 6.06 -1.31) (end 6.06 1.31) (layer F.SilkS) (width 0.12))
  (fp_line (start -1.35 -1.6) (end -1.35 1.6) (layer F.CrtYd) (width 0.05))
  (fp_line (start -1.35 1.6) (end 6.35 1.6) (layer F.CrtYd) (width 0.05))
  (fp_line (start 6.35 1.6) (end 6.35 -1.6) (layer F.CrtYd) (width 0.05))
  (fp_line (start 6.35 -1.6) (end -1.35 -1.6) (layer F.CrtYd) (width 0.05))
  (pad 1 thru_hole circle (at 0 0) (size 1.6 1.6) (drill 0.8) (layers *.Cu *.Mask))
  (pad 2 thru_hole circle (at 5 0) (size 1.6 1.6) (drill 0.8) (layers *.Cu *.Mask))
  (model Capacitors_THT.3dshapes/C_Disc_D7.0mm_W2.5mm_P5.00mm.wrl
    (at (xyz 0 0 0))
    (scale (xyz 0.393701 0.393701 0.393701))
    (rotate (xyz 0 0 0))
  )
)