(module C_Disc_D3.4mm_W2.1mm_P2.50mm (layer F.Cu) (tedit 58765D06)
  (descr "C, Disc series, Radial, pin pitch=2.50mm, , diameter*width=3.4*2.1mm^2, Capacitor, http://www.vishay.com/docs/45233/krseries.pdf")
  (tags "C Disc series Radial pin pitch 2.50mm  diameter 3.4mm width 2.1mm Capacitor")
  (fp_text reference REF** (at 1.25 -2.11) (layer F.SilkS)
    (effects (font (size 1 1) (thickness 0.15)))
  )
  (fp_text value C_Disc_D3.4mm_W2.1mm_P2.50mm (at 1.25 2.11) (layer F.Fab)
    (effects (font (size 1 1) (thickness 0.15)))
  )
  (fp_line (start -0.45 -1.05) (end -0.45 1.05) (layer F.Fab) (width 0.1))
  (fp_line (start -0.45 1.05) (end 2.95 1.05) (layer F.Fab) (width 0.1))
  (fp_line (start 2.95 1.05) (end 2.95 -1.05) (layer F.Fab) (width 0.1))
  (fp_line (start 2.95 -1.05) (end -0.45 -1.05) (layer F.Fab) (width 0.1))
  (fp_line (start -0.51 -1.11) (end 3.01 -1.11) (layer F.SilkS) (width 0.12))
  (fp_line (start -0.51 1.11) (end 3.01 1.11) (layer F.SilkS) (width 0.12))
  (fp_line (start -0.51 -1.11) (end -0.51 -0.996) (layer F.SilkS) (width 0.12))
  (fp_line (start -0.51 0.996) (end -0.51 1.11) (layer F.SilkS) (width 0.12))
  (fp_line (start 3.01 -1.11) (end 3.01 -0.996) (layer F.SilkS) (width 0.12))
  (fp_line (start 3.01 0.996) (end 3.01 1.11) (layer F.SilkS) (width 0.12))
  (fp_line (start -1.05 -1.4) (end -1.05 1.4) (layer F.CrtYd) (width 0.05))
  (fp_line (start -1.05 1.4) (end 3.55 1.4) (layer F.CrtYd) (width 0.05))
  (fp_line (start 3.55 1.4) (end 3.55 -1.4) (layer F.CrtYd) (width 0.05))
  (fp_line (start 3.55 -1.4) (end -1.05 -1.4) (layer F.CrtYd) (width 0.05))
  (pad 1 thru_hole circle (at 0 0) (size 1.6 1.6) (drill 0.8) (layers *.Cu *.Mask))
  (pad 2 thru_hole circle (at 2.5 0) (size 1.6 1.6) (drill 0.8) (layers *.Cu *.Mask))
  (model Capacitors_THT.3dshapes/C_Disc_D3.4mm_W2.1mm_P2.50mm.wrl
    (at (xyz 0 0 0))
    (scale (xyz 0.393701 0.393701 0.393701))
    (rotate (xyz 0 0 0))
  )
)