(module C_Disc_D16.0mm_W5.0mm_P10.00mm (layer F.Cu) (tedit 58765D06)
  (descr "C, Disc series, Radial, pin pitch=10.00mm, , diameter*width=16.0*5.0mm^2, Capacitor, http://www.vishay.com/docs/28535/vy2series.pdf")
  (tags "C Disc series Radial pin pitch 10.00mm  diameter 16.0mm width 5.0mm Capacitor")
  (fp_text reference REF** (at 5 -3.56) (layer F.SilkS)
    (effects (font (size 1 1) (thickness 0.15)))
  )
  (fp_text value C_Disc_D16.0mm_W5.0mm_P10.00mm (at 5 3.56) (layer F.Fab)
    (effects (font (size 1 1) (thickness 0.15)))
  )
  (fp_line (start -3 -2.5) (end -3 2.5) (layer F.Fab) (width 0.1))
  (fp_line (start -3 2.5) (end 13 2.5) (layer F.Fab) (width 0.1))
  (fp_line (start 13 2.5) (end 13 -2.5) (layer F.Fab) (width 0.1))
  (fp_line (start 13 -2.5) (end -3 -2.5) (layer F.Fab) (width 0.1))
  (fp_line (start -3.06 -2.56) (end 13.06 -2.56) (layer F.SilkS) (width 0.12))
  (fp_line (start -3.06 2.56) (end 13.06 2.56) (layer F.SilkS) (width 0.12))
  (fp_line (start -3.06 -2.56) (end -3.06 2.56) (layer F.SilkS) (width 0.12))
  (fp_line (start 13.06 -2.56) (end 13.06 2.56) (layer F.SilkS) (width 0.12))
  (fp_line (start -3.35 -2.85) (end -3.35 2.85) (layer F.CrtYd) (width 0.05))
  (fp_line (start -3.35 2.85) (end 13.35 2.85) (layer F.CrtYd) (width 0.05))
  (fp_line (start 13.35 2.85) (end 13.35 -2.85) (layer F.CrtYd) (width 0.05))
  (fp_line (start 13.35 -2.85) (end -3.35 -2.85) (layer F.CrtYd) (width 0.05))
  (pad 1 thru_hole circle (at 0 0) (size 2 2) (drill 1.0) (layers *.Cu *.Mask))
  (pad 2 thru_hole circle (at 10 0) (size 2 2) (drill 1.0) (layers *.Cu *.Mask))
  (model Capacitors_THT.3dshapes/C_Disc_D16.0mm_W5.0mm_P10.00mm.wrl
    (at (xyz 0 0 0))
    (scale (xyz 0.393701 0.393701 0.393701))
    (rotate (xyz 0 0 0))
  )
)