(module C_Disc_D9.0mm_W5.0mm_P7.50mm (layer F.Cu) (tedit 58765D06)
  (descr "C, Disc series, Radial, pin pitch=7.50mm, , diameter*width=9*5.0mm^2, Capacitor, http://www.vishay.com/docs/28535/vy2series.pdf")
  (tags "C Disc series Radial pin pitch 7.50mm  diameter 9mm width 5.0mm Capacitor")
  (fp_text reference REF** (at 3.75 -3.56) (layer F.SilkS)
    (effects (font (size 1 1) (thickness 0.15)))
  )
  (fp_text value C_Disc_D9.0mm_W5.0mm_P7.50mm (at 3.75 3.56) (layer F.Fab)
    (effects (font (size 1 1) (thickness 0.15)))
  )
  (fp_line (start -0.75 -2.5) (end -0.75 2.5) (layer F.Fab) (width 0.1))
  (fp_line (start -0.75 2.5) (end 8.25 2.5) (layer F.Fab) (width 0.1))
  (fp_line (start 8.25 2.5) (end 8.25 -2.5) (layer F.Fab) (width 0.1))
  (fp_line (start 8.25 -2.5) (end -0.75 -2.5) (layer F.Fab) (width 0.1))
  (fp_line (start -0.81 -2.56) (end 8.31 -2.56) (layer F.SilkS) (width 0.12))
  (fp_line (start -0.81 2.56) (end 8.31 2.56) (layer F.SilkS) (width 0.12))
  (fp_line (start -0.81 -2.56) (end -0.81 -0.901) (layer F.SilkS) (width 0.12))
  (fp_line (start -0.81 0.901) (end -0.81 2.56) (layer F.SilkS) (width 0.12))
  (fp_line (start 8.31 -2.56) (end 8.31 -0.901) (layer F.SilkS) (width 0.12))
  (fp_line (start 8.31 0.901) (end 8.31 2.56) (layer F.SilkS) (width 0.12))
  (fp_line (start -1.25 -2.85) (end -1.25 2.85) (layer F.CrtYd) (width 0.05))
  (fp_line (start -1.25 2.85) (end 8.75 2.85) (layer F.CrtYd) (width 0.05))
  (fp_line (start 8.75 2.85) (end 8.75 -2.85) (layer F.CrtYd) (width 0.05))
  (fp_line (start 8.75 -2.85) (end -1.25 -2.85) (layer F.CrtYd) (width 0.05))
  (pad 1 thru_hole circle (at 0 0) (size 2 2) (drill 1.0) (layers *.Cu *.Mask))
  (pad 2 thru_hole circle (at 7.5 0) (size 2 2) (drill 1.0) (layers *.Cu *.Mask))
  (model Capacitors_THT.3dshapes/C_Disc_D9.0mm_W5.0mm_P7.50mm.wrl
    (at (xyz 0 0 0))
    (scale (xyz 0.393701 0.393701 0.393701))
    (rotate (xyz 0 0 0))
  )
)