(module C_Rect_L13.5mm_W5.0mm_P10.00mm_FKS3_FKP3_MKS4 (layer F.Cu) (tedit 58765D05)
  (descr "C, Rect series, Radial, pin pitch=10.00mm, , length*width=13.5*5mm^2, Capacitor, http://www.wima.com/EN/WIMA_FKS_3.pdf, http://www.wima.com/EN/WIMA_MKS_4.pdf")
  (tags "C Rect series Radial pin pitch 10.00mm  length 13.5mm width 5mm Capacitor")
  (fp_text reference REF** (at 5 -3.56) (layer F.SilkS)
    (effects (font (size 1 1) (thickness 0.15)))
  )
  (fp_text value C_Rect_L13.5mm_W5.0mm_P10.00mm_FKS3_FKP3_MKS4 (at 5 3.56) (layer F.Fab)
    (effects (font (size 1 1) (thickness 0.15)))
  )
  (fp_line (start -1.75 -2.5) (end -1.75 2.5) (layer F.Fab) (width 0.1))
  (fp_line (start -1.75 2.5) (end 11.75 2.5) (layer F.Fab) (width 0.1))
  (fp_line (start 11.75 2.5) (end 11.75 -2.5) (layer F.Fab) (width 0.1))
  (fp_line (start 11.75 -2.5) (end -1.75 -2.5) (layer F.Fab) (width 0.1))
  (fp_line (start -1.81 -2.56) (end 11.81 -2.56) (layer F.SilkS) (width 0.12))
  (fp_line (start -1.81 2.56) (end 11.81 2.56) (layer F.SilkS) (width 0.12))
  (fp_line (start -1.81 -2.56) (end -1.81 2.56) (layer F.SilkS) (width 0.12))
  (fp_line (start 11.81 -2.56) (end 11.81 2.56) (layer F.SilkS) (width 0.12))
  (fp_line (start -2.1 -2.85) (end -2.1 2.85) (layer F.CrtYd) (width 0.05))
  (fp_line (start -2.1 2.85) (end 12.1 2.85) (layer F.CrtYd) (width 0.05))
  (fp_line (start 12.1 2.85) (end 12.1 -2.85) (layer F.CrtYd) (width 0.05))
  (fp_line (start 12.1 -2.85) (end -2.1 -2.85) (layer F.CrtYd) (width 0.05))
  (pad 1 thru_hole circle (at 0 0) (size 2 2) (drill 1.0) (layers *.Cu *.Mask))
  (pad 2 thru_hole circle (at 10 0) (size 2 2) (drill 1.0) (layers *.Cu *.Mask))
  (model Capacitors_THT.3dshapes/C_Rect_L13.5mm_W5.0mm_P10.00mm_FKS3_FKP3_MKS4.wrl
    (at (xyz 0 0 0))
    (scale (xyz 0.393701 0.393701 0.393701))
    (rotate (xyz 0 0 0))
  )
)