(module C_Rect_L9.0mm_W8.5mm_P7.50mm_MKT (layer F.Cu) (tedit 58765D05)
  (descr "C, Rect series, Radial, pin pitch=7.50mm, , length*width=9*8.5mm^2, Capacitor, https://en.tdk.eu/inf/20/20/db/fc_2009/MKT_B32560_564.pdf")
  (tags "C Rect series Radial pin pitch 7.50mm  length 9mm width 8.5mm Capacitor")
  (fp_text reference REF** (at 3.75 -5.31) (layer F.SilkS)
    (effects (font (size 1 1) (thickness 0.15)))
  )
  (fp_text value C_Rect_L9.0mm_W8.5mm_P7.50mm_MKT (at 3.75 5.31) (layer F.Fab)
    (effects (font (size 1 1) (thickness 0.15)))
  )
  (fp_line (start -0.75 -4.25) (end -0.75 4.25) (layer F.Fab) (width 0.1))
  (fp_line (start -0.75 4.25) (end 8.25 4.25) (layer F.Fab) (width 0.1))
  (fp_line (start 8.25 4.25) (end 8.25 -4.25) (layer F.Fab) (width 0.1))
  (fp_line (start 8.25 -4.25) (end -0.75 -4.25) (layer F.Fab) (width 0.1))
  (fp_line (start -0.81 -4.31) (end 8.31 -4.31) (layer F.SilkS) (width 0.12))
  (fp_line (start -0.81 4.31) (end 8.31 4.31) (layer F.SilkS) (width 0.12))
  (fp_line (start -0.81 -4.31) (end -0.81 -0.75) (layer F.SilkS) (width 0.12))
  (fp_line (start -0.81 0.75) (end -0.81 4.31) (layer F.SilkS) (width 0.12))
  (fp_line (start 8.31 -4.31) (end 8.31 -0.75) (layer F.SilkS) (width 0.12))
  (fp_line (start 8.31 0.75) (end 8.31 4.31) (layer F.SilkS) (width 0.12))
  (fp_line (start -1.1 -4.6) (end -1.1 4.6) (layer F.CrtYd) (width 0.05))
  (fp_line (start -1.1 4.6) (end 8.6 4.6) (layer F.CrtYd) (width 0.05))
  (fp_line (start 8.6 4.6) (end 8.6 -4.6) (layer F.CrtYd) (width 0.05))
  (fp_line (start 8.6 -4.6) (end -1.1 -4.6) (layer F.CrtYd) (width 0.05))
  (pad 1 thru_hole circle (at 0 0) (size 1.6 1.6) (drill 0.8) (layers *.Cu *.Mask))
  (pad 2 thru_hole circle (at 7.5 0) (size 1.6 1.6) (drill 0.8) (layers *.Cu *.Mask))
  (model Capacitors_THT.3dshapes/C_Rect_L9.0mm_W8.5mm_P7.50mm_MKT.wrl
    (at (xyz 0 0 0))
    (scale (xyz 0.393701 0.393701 0.393701))
    (rotate (xyz 0 0 0))
  )
)