(module C_Rect_L27.0mm_W11.0mm_P22.00mm (layer F.Cu) (tedit 58765D05)
  (descr "C, Rect series, Radial, pin pitch=22.00mm, , length*width=27*11mm^2, Capacitor")
  (tags "C Rect series Radial pin pitch 22.00mm  length 27mm width 11mm Capacitor")
  (fp_text reference REF** (at 11 -6.56) (layer F.SilkS)
    (effects (font (size 1 1) (thickness 0.15)))
  )
  (fp_text value C_Rect_L27.0mm_W11.0mm_P22.00mm (at 11 6.56) (layer F.Fab)
    (effects (font (size 1 1) (thickness 0.15)))
  )
  (fp_line (start -2.5 -5.5) (end -2.5 5.5) (layer F.Fab) (width 0.1))
  (fp_line (start -2.5 5.5) (end 24.5 5.5) (layer F.Fab) (width 0.1))
  (fp_line (start 24.5 5.5) (end 24.5 -5.5) (layer F.Fab) (width 0.1))
  (fp_line (start 24.5 -5.5) (end -2.5 -5.5) (layer F.Fab) (width 0.1))
  (fp_line (start -2.56 -5.56) (end 24.56 -5.56) (layer F.SilkS) (width 0.12))
  (fp_line (start -2.56 5.56) (end 24.56 5.56) (layer F.SilkS) (width 0.12))
  (fp_line (start -2.56 -5.56) (end -2.56 5.56) (layer F.SilkS) (width 0.12))
  (fp_line (start 24.56 -5.56) (end 24.56 5.56) (layer F.SilkS) (width 0.12))
  (fp_line (start -2.85 -5.85) (end -2.85 5.85) (layer F.CrtYd) (width 0.05))
  (fp_line (start -2.85 5.85) (end 24.85 5.85) (layer F.CrtYd) (width 0.05))
  (fp_line (start 24.85 5.85) (end 24.85 -5.85) (layer F.CrtYd) (width 0.05))
  (fp_line (start 24.85 -5.85) (end -2.85 -5.85) (layer F.CrtYd) (width 0.05))
  (pad 1 thru_hole circle (at 0 0) (size 2.2 2.2) (drill 1.1) (layers *.Cu *.Mask))
  (pad 2 thru_hole circle (at 22 0) (size 2.2 2.2) (drill 1.1) (layers *.Cu *.Mask))
  (model Capacitors_THT.3dshapes/C_Rect_L27.0mm_W11.0mm_P22.00mm.wrl
    (at (xyz 0 0 0))
    (scale (xyz 0.393701 0.393701 0.393701))
    (rotate (xyz 0 0 0))
  )
)