(module C_Rect_L19.0mm_W6.0mm_P15.00mm_MKS4 (layer F.Cu) (tedit 58765D05)
  (descr "C, Rect series, Radial, pin pitch=15.00mm, , length*width=19*6mm^2, Capacitor, http://www.wima.com/EN/WIMA_MKS_4.pdf")
  (tags "C Rect series Radial pin pitch 15.00mm  length 19mm width 6mm Capacitor")
  (fp_text reference REF** (at 7.5 -4.06) (layer F.SilkS)
    (effects (font (size 1 1) (thickness 0.15)))
  )
  (fp_text value C_Rect_L19.0mm_W6.0mm_P15.00mm_MKS4 (at 7.5 4.06) (layer F.Fab)
    (effects (font (size 1 1) (thickness 0.15)))
  )
  (fp_line (start -2 -3) (end -2 3) (layer F.Fab) (width 0.1))
  (fp_line (start -2 3) (end 17 3) (layer F.Fab) (width 0.1))
  (fp_line (start 17 3) (end 17 -3) (layer F.Fab) (width 0.1))
  (fp_line (start 17 -3) (end -2 -3) (layer F.Fab) (width 0.1))
  (fp_line (start -2.06 -3.06) (end 17.06 -3.06) (layer F.SilkS) (width 0.12))
  (fp_line (start -2.06 3.06) (end 17.06 3.06) (layer F.SilkS) (width 0.12))
  (fp_line (start -2.06 -3.06) (end -2.06 3.06) (layer F.SilkS) (width 0.12))
  (fp_line (start 17.06 -3.06) (end 17.06 3.06) (layer F.SilkS) (width 0.12))
  (fp_line (start -2.35 -3.35) (end -2.35 3.35) (layer F.CrtYd) (width 0.05))
  (fp_line (start -2.35 3.35) (end 17.35 3.35) (layer F.CrtYd) (width 0.05))
  (fp_line (start 17.35 3.35) (end 17.35 -3.35) (layer F.CrtYd) (width 0.05))
  (fp_line (start 17.35 -3.35) (end -2.35 -3.35) (layer F.CrtYd) (width 0.05))
  (pad 1 thru_hole circle (at 0 0) (size 2.4 2.4) (drill 1.2) (layers *.Cu *.Mask))
  (pad 2 thru_hole circle (at 15 0) (size 2.4 2.4) (drill 1.2) (layers *.Cu *.Mask))
  (model Capacitors_THT.3dshapes/C_Rect_L19.0mm_W6.0mm_P15.00mm_MKS4.wrl
    (at (xyz 0 0 0))
    (scale (xyz 0.393701 0.393701 0.393701))
    (rotate (xyz 0 0 0))
  )
)