(module C_Rect_L24.0mm_W12.6mm_P22.50mm_MKT (layer F.Cu) (tedit 58765D05)
  (descr "C, Rect series, Radial, pin pitch=22.50mm, , length*width=24*12.6mm^2, Capacitor, https://en.tdk.eu/inf/20/20/db/fc_2009/MKT_B32560_564.pdf")
  (tags "C Rect series Radial pin pitch 22.50mm  length 24mm width 12.6mm Capacitor")
  (fp_text reference REF** (at 11.25 -7.36) (layer F.SilkS)
    (effects (font (size 1 1) (thickness 0.15)))
  )
  (fp_text value C_Rect_L24.0mm_W12.6mm_P22.50mm_MKT (at 11.25 7.36) (layer F.Fab)
    (effects (font (size 1 1) (thickness 0.15)))
  )
  (fp_line (start -0.75 -6.3) (end -0.75 6.3) (layer F.Fab) (width 0.1))
  (fp_line (start -0.75 6.3) (end 23.25 6.3) (layer F.Fab) (width 0.1))
  (fp_line (start 23.25 6.3) (end 23.25 -6.3) (layer F.Fab) (width 0.1))
  (fp_line (start 23.25 -6.3) (end -0.75 -6.3) (layer F.Fab) (width 0.1))
  (fp_line (start -0.81 -6.36) (end 23.31 -6.36) (layer F.SilkS) (width 0.12))
  (fp_line (start -0.81 6.36) (end 23.31 6.36) (layer F.SilkS) (width 0.12))
  (fp_line (start -0.81 -6.36) (end -0.81 -1.395) (layer F.SilkS) (width 0.12))
  (fp_line (start -0.81 1.395) (end -0.81 6.36) (layer F.SilkS) (width 0.12))
  (fp_line (start 23.31 -6.36) (end 23.31 -1.395) (layer F.SilkS) (width 0.12))
  (fp_line (start 23.31 1.395) (end 23.31 6.36) (layer F.SilkS) (width 0.12))
  (fp_line (start -1.45 -6.65) (end -1.45 6.65) (layer F.CrtYd) (width 0.05))
  (fp_line (start -1.45 6.65) (end 23.95 6.65) (layer F.CrtYd) (width 0.05))
  (fp_line (start 23.95 6.65) (end 23.95 -6.65) (layer F.CrtYd) (width 0.05))
  (fp_line (start 23.95 -6.65) (end -1.45 -6.65) (layer F.CrtYd) (width 0.05))
  (pad 1 thru_hole circle (at 0 0) (size 2.4 2.4) (drill 1.2) (layers *.Cu *.Mask))
  (pad 2 thru_hole circle (at 22.5 0) (size 2.4 2.4) (drill 1.2) (layers *.Cu *.Mask))
  (model Capacitors_THT.3dshapes/C_Rect_L24.0mm_W12.6mm_P22.50mm_MKT.wrl
    (at (xyz 0 0 0))
    (scale (xyz 0.393701 0.393701 0.393701))
    (rotate (xyz 0 0 0))
  )
)