(module C_Rect_L31.5mm_W17.0mm_P27.50mm_MKS4 (layer F.Cu) (tedit 58765D05)
  (descr "C, Rect series, Radial, pin pitch=27.50mm, , length*width=31.5*17mm^2, Capacitor, http://www.wima.com/EN/WIMA_MKS_4.pdf")
  (tags "C Rect series Radial pin pitch 27.50mm  length 31.5mm width 17mm Capacitor")
  (fp_text reference REF** (at 13.75 -9.56) (layer F.SilkS)
    (effects (font (size 1 1) (thickness 0.15)))
  )
  (fp_text value C_Rect_L31.5mm_W17.0mm_P27.50mm_MKS4 (at 13.75 9.56) (layer F.Fab)
    (effects (font (size 1 1) (thickness 0.15)))
  )
  (fp_line (start -2 -8.5) (end -2 8.5) (layer F.Fab) (width 0.1))
  (fp_line (start -2 8.5) (end 29.5 8.5) (layer F.Fab) (width 0.1))
  (fp_line (start 29.5 8.5) (end 29.5 -8.5) (layer F.Fab) (width 0.1))
  (fp_line (start 29.5 -8.5) (end -2 -8.5) (layer F.Fab) (width 0.1))
  (fp_line (start -2.06 -8.56) (end 29.56 -8.56) (layer F.SilkS) (width 0.12))
  (fp_line (start -2.06 8.56) (end 29.56 8.56) (layer F.SilkS) (width 0.12))
  (fp_line (start -2.06 -8.56) (end -2.06 8.56) (layer F.SilkS) (width 0.12))
  (fp_line (start 29.56 -8.56) (end 29.56 8.56) (layer F.SilkS) (width 0.12))
  (fp_line (start -2.35 -8.85) (end -2.35 8.85) (layer F.CrtYd) (width 0.05))
  (fp_line (start -2.35 8.85) (end 29.85 8.85) (layer F.CrtYd) (width 0.05))
  (fp_line (start 29.85 8.85) (end 29.85 -8.85) (layer F.CrtYd) (width 0.05))
  (fp_line (start 29.85 -8.85) (end -2.35 -8.85) (layer F.CrtYd) (width 0.05))
  (pad 1 thru_hole circle (at 0 0) (size 2.4 2.4) (drill 1.2) (layers *.Cu *.Mask))
  (pad 2 thru_hole circle (at 27.5 0) (size 2.4 2.4) (drill 1.2) (layers *.Cu *.Mask))
  (model Capacitors_THT.3dshapes/C_Rect_L31.5mm_W17.0mm_P27.50mm_MKS4.wrl
    (at (xyz 0 0 0))
    (scale (xyz 0.393701 0.393701 0.393701))
    (rotate (xyz 0 0 0))
  )
)