(module C_Rect_L11.5mm_W9.8mm_P10.00mm_MKT (layer F.Cu) (tedit 58765D05)
  (descr "C, Rect series, Radial, pin pitch=10.00mm, , length*width=11.5*9.8mm^2, Capacitor, https://en.tdk.eu/inf/20/20/db/fc_2009/MKT_B32560_564.pdf")
  (tags "C Rect series Radial pin pitch 10.00mm  length 11.5mm width 9.8mm Capacitor")
  (fp_text reference REF** (at 5 -5.96) (layer F.SilkS)
    (effects (font (size 1 1) (thickness 0.15)))
  )
  (fp_text value C_Rect_L11.5mm_W9.8mm_P10.00mm_MKT (at 5 5.96) (layer F.Fab)
    (effects (font (size 1 1) (thickness 0.15)))
  )
  (fp_line (start -0.75 -4.9) (end -0.75 4.9) (layer F.Fab) (width 0.1))
  (fp_line (start -0.75 4.9) (end 10.75 4.9) (layer F.Fab) (width 0.1))
  (fp_line (start 10.75 4.9) (end 10.75 -4.9) (layer F.Fab) (width 0.1))
  (fp_line (start 10.75 -4.9) (end -0.75 -4.9) (layer F.Fab) (width 0.1))
  (fp_line (start -0.81 -4.96) (end 10.81 -4.96) (layer F.SilkS) (width 0.12))
  (fp_line (start -0.81 4.96) (end 10.81 4.96) (layer F.SilkS) (width 0.12))
  (fp_line (start -0.81 -4.96) (end -0.81 -0.75) (layer F.SilkS) (width 0.12))
  (fp_line (start -0.81 0.75) (end -0.81 4.96) (layer F.SilkS) (width 0.12))
  (fp_line (start 10.81 -4.96) (end 10.81 -0.75) (layer F.SilkS) (width 0.12))
  (fp_line (start 10.81 0.75) (end 10.81 4.96) (layer F.SilkS) (width 0.12))
  (fp_line (start -1.1 -5.25) (end -1.1 5.25) (layer F.CrtYd) (width 0.05))
  (fp_line (start -1.1 5.25) (end 11.1 5.25) (layer F.CrtYd) (width 0.05))
  (fp_line (start 11.1 5.25) (end 11.1 -5.25) (layer F.CrtYd) (width 0.05))
  (fp_line (start 11.1 -5.25) (end -1.1 -5.25) (layer F.CrtYd) (width 0.05))
  (pad 1 thru_hole circle (at 0 0) (size 1.6 1.6) (drill 0.8) (layers *.Cu *.Mask))
  (pad 2 thru_hole circle (at 10 0) (size 1.6 1.6) (drill 0.8) (layers *.Cu *.Mask))
  (model Capacitors_THT.3dshapes/C_Rect_L11.5mm_W9.8mm_P10.00mm_MKT.wrl
    (at (xyz 0 0 0))
    (scale (xyz 0.393701 0.393701 0.393701))
    (rotate (xyz 0 0 0))
  )
)