(module C_Rect_L41.5mm_W35.0mm_P37.50mm_MKS4 (layer F.Cu) (tedit 58765D05)
  (descr "C, Rect series, Radial, pin pitch=37.50mm, , length*width=41.5*35mm^2, Capacitor, http://www.wima.com/EN/WIMA_MKS_4.pdf")
  (tags "C Rect series Radial pin pitch 37.50mm  length 41.5mm width 35mm Capacitor")
  (fp_text reference REF** (at 18.75 -18.56) (layer F.SilkS)
    (effects (font (size 1 1) (thickness 0.15)))
  )
  (fp_text value C_Rect_L41.5mm_W35.0mm_P37.50mm_MKS4 (at 18.75 18.56) (layer F.Fab)
    (effects (font (size 1 1) (thickness 0.15)))
  )
  (fp_line (start -2 -17.5) (end -2 17.5) (layer F.Fab) (width 0.1))
  (fp_line (start -2 17.5) (end 39.5 17.5) (layer F.Fab) (width 0.1))
  (fp_line (start 39.5 17.5) (end 39.5 -17.5) (layer F.Fab) (width 0.1))
  (fp_line (start 39.5 -17.5) (end -2 -17.5) (layer F.Fab) (width 0.1))
  (fp_line (start -2.06 -17.56) (end 39.56 -17.56) (layer F.SilkS) (width 0.12))
  (fp_line (start -2.06 17.56) (end 39.56 17.56) (layer F.SilkS) (width 0.12))
  (fp_line (start -2.06 -17.56) (end -2.06 17.56) (layer F.SilkS) (width 0.12))
  (fp_line (start 39.56 -17.56) (end 39.56 17.56) (layer F.SilkS) (width 0.12))
  (fp_line (start -2.35 -17.85) (end -2.35 17.85) (layer F.CrtYd) (width 0.05))
  (fp_line (start -2.35 17.85) (end 39.85 17.85) (layer F.CrtYd) (width 0.05))
  (fp_line (start 39.85 17.85) (end 39.85 -17.85) (layer F.CrtYd) (width 0.05))
  (fp_line (start 39.85 -17.85) (end -2.35 -17.85) (layer F.CrtYd) (width 0.05))
  (pad 1 thru_hole circle (at 0 0) (size 2.8 2.8) (drill 1.4) (layers *.Cu *.Mask))
  (pad 2 thru_hole circle (at 37.5 0) (size 2.8 2.8) (drill 1.4) (layers *.Cu *.Mask))
  (model Capacitors_THT.3dshapes/C_Rect_L41.5mm_W35.0mm_P37.50mm_MKS4.wrl
    (at (xyz 0 0 0))
    (scale (xyz 0.393701 0.393701 0.393701))
    (rotate (xyz 0 0 0))
  )
)