(module C_Rect_L7.2mm_W3.5mm_P5.00mm_FKS2_FKP2_MKS2_MKP2 (layer F.Cu) (tedit 58765D05)
  (descr "C, Rect series, Radial, pin pitch=5.00mm, , length*width=7.2*3.5mm^2, Capacitor, http://www.wima.com/EN/WIMA_FKS_2.pdf")
  (tags "C Rect series Radial pin pitch 5.00mm  length 7.2mm width 3.5mm Capacitor")
  (fp_text reference REF** (at 2.5 -2.81) (layer F.SilkS)
    (effects (font (size 1 1) (thickness 0.15)))
  )
  (fp_text value C_Rect_L7.2mm_W3.5mm_P5.00mm_FKS2_FKP2_MKS2_MKP2 (at 2.5 2.81) (layer F.Fab)
    (effects (font (size 1 1) (thickness 0.15)))
  )
  (fp_line (start -1.1 -1.75) (end -1.1 1.75) (layer F.Fab) (width 0.1))
  (fp_line (start -1.1 1.75) (end 6.1 1.75) (layer F.Fab) (width 0.1))
  (fp_line (start 6.1 1.75) (end 6.1 -1.75) (layer F.Fab) (width 0.1))
  (fp_line (start 6.1 -1.75) (end -1.1 -1.75) (layer F.Fab) (width 0.1))
  (fp_line (start -1.16 -1.81) (end 6.16 -1.81) (layer F.SilkS) (width 0.12))
  (fp_line (start -1.16 1.81) (end 6.16 1.81) (layer F.SilkS) (width 0.12))
  (fp_line (start -1.16 -1.81) (end -1.16 1.81) (layer F.SilkS) (width 0.12))
  (fp_line (start 6.16 -1.81) (end 6.16 1.81) (layer F.SilkS) (width 0.12))
  (fp_line (start -1.45 -2.1) (end -1.45 2.1) (layer F.CrtYd) (width 0.05))
  (fp_line (start -1.45 2.1) (end 6.45 2.1) (layer F.CrtYd) (width 0.05))
  (fp_line (start 6.45 2.1) (end 6.45 -2.1) (layer F.CrtYd) (width 0.05))
  (fp_line (start 6.45 -2.1) (end -1.45 -2.1) (layer F.CrtYd) (width 0.05))
  (pad 1 thru_hole circle (at 0 0) (size 1.6 1.6) (drill 0.8) (layers *.Cu *.Mask))
  (pad 2 thru_hole circle (at 5 0) (size 1.6 1.6) (drill 0.8) (layers *.Cu *.Mask))
  (model Capacitors_THT.3dshapes/C_Rect_L7.2mm_W3.5mm_P5.00mm_FKS2_FKP2_MKS2_MKP2.wrl
    (at (xyz 0 0 0))
    (scale (xyz 0.393701 0.393701 0.393701))
    (rotate (xyz 0 0 0))
  )
)