(module CP_Axial_L38.0mm_D18.0mm_P44.00mm_Horizontal (layer F.Cu) (tedit 58765D07)
  (descr "CP, Axial series, Axial, Horizontal, pin pitch=44mm, , length*diameter=38*18mm^2, Electrolytic Capacitor, , http://www.vishay.com/docs/28325/021asm.pdf")
  (tags "CP Axial series Axial Horizontal pin pitch 44mm  length 38mm diameter 18mm Electrolytic Capacitor")
  (fp_text reference REF** (at 22 -10.06) (layer F.SilkS)
    (effects (font (size 1 1) (thickness 0.15)))
  )
  (fp_text value CP_Axial_L38.0mm_D18.0mm_P44.00mm_Horizontal (at 22 10.06) (layer F.Fab)
    (effects (font (size 1 1) (thickness 0.15)))
  )
  (fp_line (start 3 -9) (end 3 9) (layer F.Fab) (width 0.1))
  (fp_line (start 41 -9) (end 41 9) (layer F.Fab) (width 0.1))
  (fp_line (start 3 -9) (end 4.74 -9) (layer F.Fab) (width 0.1))
  (fp_line (start 4.74 -9) (end 5.64 -8.1) (layer F.Fab) (width 0.1))
  (fp_line (start 5.64 -8.1) (end 6.54 -9) (layer F.Fab) (width 0.1))
  (fp_line (start 6.54 -9) (end 41 -9) (layer F.Fab) (width 0.1))
  (fp_line (start 3 9) (end 4.74 9) (layer F.Fab) (width 0.1))
  (fp_line (start 4.74 9) (end 5.64 8.1) (layer F.Fab) (width 0.1))
  (fp_line (start 5.64 8.1) (end 6.54 9) (layer F.Fab) (width 0.1))
  (fp_line (start 6.54 9) (end 41 9) (layer F.Fab) (width 0.1))
  (fp_line (start 0 0) (end 3 0) (layer F.Fab) (width 0.1))
  (fp_line (start 44 0) (end 41 0) (layer F.Fab) (width 0.1))
  (fp_line (start 4.75 0) (end 6.55 0) (layer F.Fab) (width 0.1))
  (fp_line (start 5.65 -0.9) (end 5.65 0.9) (layer F.Fab) (width 0.1))
  (fp_line (start 4.75 0) (end 6.55 0) (layer F.SilkS) (width 0.12))
  (fp_line (start 5.65 -0.9) (end 5.65 0.9) (layer F.SilkS) (width 0.12))
  (fp_line (start 2.94 -9.06) (end 2.94 9.06) (layer F.SilkS) (width 0.12))
  (fp_line (start 41.06 -9.06) (end 41.06 9.06) (layer F.SilkS) (width 0.12))
  (fp_line (start 2.94 -9.06) (end 4.74 -9.06) (layer F.SilkS) (width 0.12))
  (fp_line (start 4.74 -9.06) (end 5.64 -8.16) (layer F.SilkS) (width 0.12))
  (fp_line (start 5.64 -8.16) (end 6.54 -9.06) (layer F.SilkS) (width 0.12))
  (fp_line (start 6.54 -9.06) (end 41.06 -9.06) (layer F.SilkS) (width 0.12))
  (fp_line (start 2.94 9.06) (end 4.74 9.06) (layer F.SilkS) (width 0.12))
  (fp_line (start 4.74 9.06) (end 5.64 8.16) (layer F.SilkS) (width 0.12))
  (fp_line (start 5.64 8.16) (end 6.54 9.06) (layer F.SilkS) (width 0.12))
  (fp_line (start 6.54 9.06) (end 41.06 9.06) (layer F.SilkS) (width 0.12))
  (fp_line (start 1.38 0) (end 2.94 0) (layer F.SilkS) (width 0.12))
  (fp_line (start 42.62 0) (end 41.06 0) (layer F.SilkS) (width 0.12))
  (fp_line (start -1.45 -9.35) (end -1.45 9.35) (layer F.CrtYd) (width 0.05))
  (fp_line (start -1.45 9.35) (end 45.45 9.35) (layer F.CrtYd) (width 0.05))
  (fp_line (start 45.45 9.35) (end 45.45 -9.35) (layer F.CrtYd) (width 0.05))
  (fp_line (start 45.45 -9.35) (end -1.45 -9.35) (layer F.CrtYd) (width 0.05))
  (pad 1 thru_hole rect (at 0 0) (size 2.4 2.4) (drill 1.2) (layers *.Cu *.Mask))
  (pad 2 thru_hole oval (at 44 0) (size 2.4 2.4) (drill 1.2) (layers *.Cu *.Mask))
  (model Capacitors_THT.3dshapes/CP_Axial_L38.0mm_D18.0mm_P44.00mm_Horizontal.wrl
    (at (xyz 0 0 0))
    (scale (xyz 0.393701 0.393701 0.393701))
    (rotate (xyz 0 0 0))
  )
)