(module CP_Axial_L18.0mm_D8.0mm_P25.00mm_Horizontal (layer F.Cu) (tedit 58765D07)
  (descr "CP, Axial series, Axial, Horizontal, pin pitch=25mm, , length*diameter=18*8mm^2, Electrolytic Capacitor, , http://www.vishay.com/docs/28325/021asm.pdf")
  (tags "CP Axial series Axial Horizontal pin pitch 25mm  length 18mm diameter 8mm Electrolytic Capacitor")
  (fp_text reference REF** (at 12.5 -5.06) (layer F.SilkS)
    (effects (font (size 1 1) (thickness 0.15)))
  )
  (fp_text value CP_Axial_L18.0mm_D8.0mm_P25.00mm_Horizontal (at 12.5 5.06) (layer F.Fab)
    (effects (font (size 1 1) (thickness 0.15)))
  )
  (fp_line (start 3.5 -4) (end 3.5 4) (layer F.Fab) (width 0.1))
  (fp_line (start 21.5 -4) (end 21.5 4) (layer F.Fab) (width 0.1))
  (fp_line (start 3.5 -4) (end 5.24 -4) (layer F.Fab) (width 0.1))
  (fp_line (start 5.24 -4) (end 6.14 -3.1) (layer F.Fab) (width 0.1))
  (fp_line (start 6.14 -3.1) (end 7.04 -4) (layer F.Fab) (width 0.1))
  (fp_line (start 7.04 -4) (end 21.5 -4) (layer F.Fab) (width 0.1))
  (fp_line (start 3.5 4) (end 5.24 4) (layer F.Fab) (width 0.1))
  (fp_line (start 5.24 4) (end 6.14 3.1) (layer F.Fab) (width 0.1))
  (fp_line (start 6.14 3.1) (end 7.04 4) (layer F.Fab) (width 0.1))
  (fp_line (start 7.04 4) (end 21.5 4) (layer F.Fab) (width 0.1))
  (fp_line (start 0 0) (end 3.5 0) (layer F.Fab) (width 0.1))
  (fp_line (start 25 0) (end 21.5 0) (layer F.Fab) (width 0.1))
  (fp_line (start 5.25 0) (end 7.05 0) (layer F.Fab) (width 0.1))
  (fp_line (start 6.15 -0.9) (end 6.15 0.9) (layer F.Fab) (width 0.1))
  (fp_line (start 5.25 0) (end 7.05 0) (layer F.SilkS) (width 0.12))
  (fp_line (start 6.15 -0.9) (end 6.15 0.9) (layer F.SilkS) (width 0.12))
  (fp_line (start 3.44 -4.06) (end 3.44 4.06) (layer F.SilkS) (width 0.12))
  (fp_line (start 21.56 -4.06) (end 21.56 4.06) (layer F.SilkS) (width 0.12))
  (fp_line (start 3.44 -4.06) (end 5.24 -4.06) (layer F.SilkS) (width 0.12))
  (fp_line (start 5.24 -4.06) (end 6.14 -3.16) (layer F.SilkS) (width 0.12))
  (fp_line (start 6.14 -3.16) (end 7.04 -4.06) (layer F.SilkS) (width 0.12))
  (fp_line (start 7.04 -4.06) (end 21.56 -4.06) (layer F.SilkS) (width 0.12))
  (fp_line (start 3.44 4.06) (end 5.24 4.06) (layer F.SilkS) (width 0.12))
  (fp_line (start 5.24 4.06) (end 6.14 3.16) (layer F.SilkS) (width 0.12))
  (fp_line (start 6.14 3.16) (end 7.04 4.06) (layer F.SilkS) (width 0.12))
  (fp_line (start 7.04 4.06) (end 21.56 4.06) (layer F.SilkS) (width 0.12))
  (fp_line (start 1.38 0) (end 3.44 0) (layer F.SilkS) (width 0.12))
  (fp_line (start 23.62 0) (end 21.56 0) (layer F.SilkS) (width 0.12))
  (fp_line (start -1.45 -4.35) (end -1.45 4.35) (layer F.CrtYd) (width 0.05))
  (fp_line (start -1.45 4.35) (end 26.45 4.35) (layer F.CrtYd) (width 0.05))
  (fp_line (start 26.45 4.35) (end 26.45 -4.35) (layer F.CrtYd) (width 0.05))
  (fp_line (start 26.45 -4.35) (end -1.45 -4.35) (layer F.CrtYd) (width 0.05))
  (pad 1 thru_hole rect (at 0 0) (size 2.4 2.4) (drill 1.2) (layers *.Cu *.Mask))
  (pad 2 thru_hole oval (at 25 0) (size 2.4 2.4) (drill 1.2) (layers *.Cu *.Mask))
  (model Capacitors_THT.3dshapes/CP_Axial_L18.0mm_D8.0mm_P25.00mm_Horizontal.wrl
    (at (xyz 0 0 0))
    (scale (xyz 0.393701 0.393701 0.393701))
    (rotate (xyz 0 0 0))
  )
)