(module CP_Axial_L30.0mm_D12.5mm_P35.00mm_Horizontal (layer F.Cu) (tedit 58765D07)
  (descr "CP, Axial series, Axial, Horizontal, pin pitch=35mm, , length*diameter=30*12.5mm^2, Electrolytic Capacitor, , http://www.vishay.com/docs/28325/021asm.pdf")
  (tags "CP Axial series Axial Horizontal pin pitch 35mm  length 30mm diameter 12.5mm Electrolytic Capacitor")
  (fp_text reference REF** (at 17.5 -7.31) (layer F.SilkS)
    (effects (font (size 1 1) (thickness 0.15)))
  )
  (fp_text value CP_Axial_L30.0mm_D12.5mm_P35.00mm_Horizontal (at 17.5 7.31) (layer F.Fab)
    (effects (font (size 1 1) (thickness 0.15)))
  )
  (fp_line (start 2.5 -6.25) (end 2.5 6.25) (layer F.Fab) (width 0.1))
  (fp_line (start 32.5 -6.25) (end 32.5 6.25) (layer F.Fab) (width 0.1))
  (fp_line (start 2.5 -6.25) (end 4.24 -6.25) (layer F.Fab) (width 0.1))
  (fp_line (start 4.24 -6.25) (end 5.14 -5.35) (layer F.Fab) (width 0.1))
  (fp_line (start 5.14 -5.35) (end 6.04 -6.25) (layer F.Fab) (width 0.1))
  (fp_line (start 6.04 -6.25) (end 32.5 -6.25) (layer F.Fab) (width 0.1))
  (fp_line (start 2.5 6.25) (end 4.24 6.25) (layer F.Fab) (width 0.1))
  (fp_line (start 4.24 6.25) (end 5.14 5.35) (layer F.Fab) (width 0.1))
  (fp_line (start 5.14 5.35) (end 6.04 6.25) (layer F.Fab) (width 0.1))
  (fp_line (start 6.04 6.25) (end 32.5 6.25) (layer F.Fab) (width 0.1))
  (fp_line (start 0 0) (end 2.5 0) (layer F.Fab) (width 0.1))
  (fp_line (start 35 0) (end 32.5 0) (layer F.Fab) (width 0.1))
  (fp_line (start 4.25 0) (end 6.05 0) (layer F.Fab) (width 0.1))
  (fp_line (start 5.15 -0.9) (end 5.15 0.9) (layer F.Fab) (width 0.1))
  (fp_line (start 4.25 0) (end 6.05 0) (layer F.SilkS) (width 0.12))
  (fp_line (start 5.15 -0.9) (end 5.15 0.9) (layer F.SilkS) (width 0.12))
  (fp_line (start 2.44 -6.31) (end 2.44 6.31) (layer F.SilkS) (width 0.12))
  (fp_line (start 32.56 -6.31) (end 32.56 6.31) (layer F.SilkS) (width 0.12))
  (fp_line (start 2.44 -6.31) (end 4.24 -6.31) (layer F.SilkS) (width 0.12))
  (fp_line (start 4.24 -6.31) (end 5.14 -5.41) (layer F.SilkS) (width 0.12))
  (fp_line (start 5.14 -5.41) (end 6.04 -6.31) (layer F.SilkS) (width 0.12))
  (fp_line (start 6.04 -6.31) (end 32.56 -6.31) (layer F.SilkS) (width 0.12))
  (fp_line (start 2.44 6.31) (end 4.24 6.31) (layer F.SilkS) (width 0.12))
  (fp_line (start 4.24 6.31) (end 5.14 5.41) (layer F.SilkS) (width 0.12))
  (fp_line (start 5.14 5.41) (end 6.04 6.31) (layer F.SilkS) (width 0.12))
  (fp_line (start 6.04 6.31) (end 32.56 6.31) (layer F.SilkS) (width 0.12))
  (fp_line (start 1.38 0) (end 2.44 0) (layer F.SilkS) (width 0.12))
  (fp_line (start 33.62 0) (end 32.56 0) (layer F.SilkS) (width 0.12))
  (fp_line (start -1.45 -6.6) (end -1.45 6.6) (layer F.CrtYd) (width 0.05))
  (fp_line (start -1.45 6.6) (end 36.45 6.6) (layer F.CrtYd) (width 0.05))
  (fp_line (start 36.45 6.6) (end 36.45 -6.6) (layer F.CrtYd) (width 0.05))
  (fp_line (start 36.45 -6.6) (end -1.45 -6.6) (layer F.CrtYd) (width 0.05))
  (pad 1 thru_hole rect (at 0 0) (size 2.4 2.4) (drill 1.2) (layers *.Cu *.Mask))
  (pad 2 thru_hole oval (at 35 0) (size 2.4 2.4) (drill 1.2) (layers *.Cu *.Mask))
  (model Capacitors_THT.3dshapes/CP_Axial_L30.0mm_D12.5mm_P35.00mm_Horizontal.wrl
    (at (xyz 0 0 0))
    (scale (xyz 0.393701 0.393701 0.393701))
    (rotate (xyz 0 0 0))
  )
)