(module CP_Axial_L37.0mm_D20.0mm_P43.00mm_Horizontal (layer F.Cu) (tedit 58765D07)
  (descr "CP, Axial series, Axial, Horizontal, pin pitch=43mm, , length*diameter=37*20mm^2, Electrolytic Capacitor, , http://www.kemet.com/Lists/ProductCatalog/Attachments/424/KEM_AC102.pdf")
  (tags "CP Axial series Axial Horizontal pin pitch 43mm  length 37mm diameter 20mm Electrolytic Capacitor")
  (fp_text reference REF** (at 21.5 -11.06) (layer F.SilkS)
    (effects (font (size 1 1) (thickness 0.15)))
  )
  (fp_text value CP_Axial_L37.0mm_D20.0mm_P43.00mm_Horizontal (at 21.5 11.06) (layer F.Fab)
    (effects (font (size 1 1) (thickness 0.15)))
  )
  (fp_line (start 3 -10) (end 3 10) (layer F.Fab) (width 0.1))
  (fp_line (start 40 -10) (end 40 10) (layer F.Fab) (width 0.1))
  (fp_line (start 3 -10) (end 5.04 -10) (layer F.Fab) (width 0.1))
  (fp_line (start 5.04 -10) (end 6.09 -8.95) (layer F.Fab) (width 0.1))
  (fp_line (start 6.09 -8.95) (end 7.14 -10) (layer F.Fab) (width 0.1))
  (fp_line (start 7.14 -10) (end 40 -10) (layer F.Fab) (width 0.1))
  (fp_line (start 3 10) (end 5.04 10) (layer F.Fab) (width 0.1))
  (fp_line (start 5.04 10) (end 6.09 8.95) (layer F.Fab) (width 0.1))
  (fp_line (start 6.09 8.95) (end 7.14 10) (layer F.Fab) (width 0.1))
  (fp_line (start 7.14 10) (end 40 10) (layer F.Fab) (width 0.1))
  (fp_line (start 0 0) (end 3 0) (layer F.Fab) (width 0.1))
  (fp_line (start 43 0) (end 40 0) (layer F.Fab) (width 0.1))
  (fp_line (start 5.05 0) (end 7.15 0) (layer F.Fab) (width 0.1))
  (fp_line (start 6.1 -1.05) (end 6.1 1.05) (layer F.Fab) (width 0.1))
  (fp_line (start 5.05 0) (end 7.15 0) (layer F.SilkS) (width 0.12))
  (fp_line (start 6.1 -1.05) (end 6.1 1.05) (layer F.SilkS) (width 0.12))
  (fp_line (start 2.94 -10.06) (end 2.94 10.06) (layer F.SilkS) (width 0.12))
  (fp_line (start 40.06 -10.06) (end 40.06 10.06) (layer F.SilkS) (width 0.12))
  (fp_line (start 2.94 -10.06) (end 5.04 -10.06) (layer F.SilkS) (width 0.12))
  (fp_line (start 5.04 -10.06) (end 6.09 -9.01) (layer F.SilkS) (width 0.12))
  (fp_line (start 6.09 -9.01) (end 7.14 -10.06) (layer F.SilkS) (width 0.12))
  (fp_line (start 7.14 -10.06) (end 40.06 -10.06) (layer F.SilkS) (width 0.12))
  (fp_line (start 2.94 10.06) (end 5.04 10.06) (layer F.SilkS) (width 0.12))
  (fp_line (start 5.04 10.06) (end 6.09 9.01) (layer F.SilkS) (width 0.12))
  (fp_line (start 6.09 9.01) (end 7.14 10.06) (layer F.SilkS) (width 0.12))
  (fp_line (start 7.14 10.06) (end 40.06 10.06) (layer F.SilkS) (width 0.12))
  (fp_line (start 1.58 0) (end 2.94 0) (layer F.SilkS) (width 0.12))
  (fp_line (start 41.42 0) (end 40.06 0) (layer F.SilkS) (width 0.12))
  (fp_line (start -1.65 -10.35) (end -1.65 10.35) (layer F.CrtYd) (width 0.05))
  (fp_line (start -1.65 10.35) (end 44.65 10.35) (layer F.CrtYd) (width 0.05))
  (fp_line (start 44.65 10.35) (end 44.65 -10.35) (layer F.CrtYd) (width 0.05))
  (fp_line (start 44.65 -10.35) (end -1.65 -10.35) (layer F.CrtYd) (width 0.05))
  (pad 1 thru_hole rect (at 0 0) (size 2.8 2.8) (drill 1.4) (layers *.Cu *.Mask))
  (pad 2 thru_hole oval (at 43 0) (size 2.8 2.8) (drill 1.4) (layers *.Cu *.Mask))
  (model Capacitors_THT.3dshapes/CP_Axial_L37.0mm_D20.0mm_P43.00mm_Horizontal.wrl
    (at (xyz 0 0 0))
    (scale (xyz 0.393701 0.393701 0.393701))
    (rotate (xyz 0 0 0))
  )
)