(module CP_Radial_D17.0mm_P7.50mm (layer F.Cu) (tedit 58765D06)
  (descr "CP, Radial series, Radial, pin pitch=7.50mm, , diameter=17mm, Electrolytic Capacitor")
  (tags "CP Radial series Radial pin pitch 7.50mm  diameter 17mm Electrolytic Capacitor")
  (fp_text reference REF** (at 3.75 -9.56) (layer F.SilkS)
    (effects (font (size 1 1) (thickness 0.15)))
  )
  (fp_text value CP_Radial_D17.0mm_P7.50mm (at 3.75 9.56) (layer F.Fab)
    (effects (font (size 1 1) (thickness 0.15)))
  )
  (fp_circle (center 3.75 0) (end 12.25 0) (layer F.Fab) (width 0.1))
  (fp_circle (center 3.75 0) (end 12.34 0) (layer F.SilkS) (width 0.12))
  (fp_line (start -3.2 0) (end -1.4 0) (layer F.Fab) (width 0.1))
  (fp_line (start -2.3 -0.9) (end -2.3 0.9) (layer F.Fab) (width 0.1))
  (fp_line (start 3.75 -8.55) (end 3.75 8.55) (layer F.SilkS) (width 0.12))
  (fp_line (start 3.79 -8.55) (end 3.79 8.55) (layer F.SilkS) (width 0.12))
  (fp_line (start 3.83 -8.55) (end 3.83 8.55) (layer F.SilkS) (width 0.12))
  (fp_line (start 3.87 -8.55) (end 3.87 8.55) (layer F.SilkS) (width 0.12))
  (fp_line (start 3.91 -8.549) (end 3.91 8.549) (layer F.SilkS) (width 0.12))
  (fp_line (start 3.95 -8.548) (end 3.95 8.548) (layer F.SilkS) (width 0.12))
  (fp_line (start 3.99 -8.547) (end 3.99 8.547) (layer F.SilkS) (width 0.12))
  (fp_line (start 4.03 -8.546) (end 4.03 8.546) (layer F.SilkS) (width 0.12))
  (fp_line (start 4.07 -8.545) (end 4.07 8.545) (layer F.SilkS) (width 0.12))
  (fp_line (start 4.11 -8.543) (end 4.11 8.543) (layer F.SilkS) (width 0.12))
  (fp_line (start 4.15 -8.541) (end 4.15 8.541) (layer F.SilkS) (width 0.12))
  (fp_line (start 4.19 -8.539) (end 4.19 8.539) (layer F.SilkS) (width 0.12))
  (fp_line (start 4.23 -8.537) (end 4.23 8.537) (layer F.SilkS) (width 0.12))
  (fp_line (start 4.27 -8.535) (end 4.27 8.535) (layer F.SilkS) (width 0.12))
  (fp_line (start 4.31 -8.532) (end 4.31 8.532) (layer F.SilkS) (width 0.12))
  (fp_line (start 4.35 -8.53) (end 4.35 8.53) (layer F.SilkS) (width 0.12))
  (fp_line (start 4.39 -8.527) (end 4.39 8.527) (layer F.SilkS) (width 0.12))
  (fp_line (start 4.43 -8.524) (end 4.43 8.524) (layer F.SilkS) (width 0.12))
  (fp_line (start 4.471 -8.52) (end 4.471 8.52) (layer F.SilkS) (width 0.12))
  (fp_line (start 4.511 -8.517) (end 4.511 8.517) (layer F.SilkS) (width 0.12))
  (fp_line (start 4.551 -8.513) (end 4.551 8.513) (layer F.SilkS) (width 0.12))
  (fp_line (start 4.591 -8.509) (end 4.591 8.509) (layer F.SilkS) (width 0.12))
  (fp_line (start 4.631 -8.505) (end 4.631 8.505) (layer F.SilkS) (width 0.12))
  (fp_line (start 4.671 -8.501) (end 4.671 8.501) (layer F.SilkS) (width 0.12))
  (fp_line (start 4.711 -8.497) (end 4.711 8.497) (layer F.SilkS) (width 0.12))
  (fp_line (start 4.751 -8.492) (end 4.751 8.492) (layer F.SilkS) (width 0.12))
  (fp_line (start 4.791 -8.487) (end 4.791 8.487) (layer F.SilkS) (width 0.12))
  (fp_line (start 4.831 -8.482) (end 4.831 8.482) (layer F.SilkS) (width 0.12))
  (fp_line (start 4.871 -8.477) (end 4.871 8.477) (layer F.SilkS) (width 0.12))
  (fp_line (start 4.911 -8.472) (end 4.911 8.472) (layer F.SilkS) (width 0.12))
  (fp_line (start 4.951 -8.466) (end 4.951 8.466) (layer F.SilkS) (width 0.12))
  (fp_line (start 4.991 -8.461) (end 4.991 8.461) (layer F.SilkS) (width 0.12))
  (fp_line (start 5.031 -8.455) (end 5.031 8.455) (layer F.SilkS) (width 0.12))
  (fp_line (start 5.071 -8.448) (end 5.071 8.448) (layer F.SilkS) (width 0.12))
  (fp_line (start 5.111 -8.442) (end 5.111 8.442) (layer F.SilkS) (width 0.12))
  (fp_line (start 5.151 -8.436) (end 5.151 8.436) (layer F.SilkS) (width 0.12))
  (fp_line (start 5.191 -8.429) (end 5.191 8.429) (layer F.SilkS) (width 0.12))
  (fp_line (start 5.231 -8.422) (end 5.231 8.422) (layer F.SilkS) (width 0.12))
  (fp_line (start 5.271 -8.415) (end 5.271 8.415) (layer F.SilkS) (width 0.12))
  (fp_line (start 5.311 -8.408) (end 5.311 8.408) (layer F.SilkS) (width 0.12))
  (fp_line (start 5.351 -8.4) (end 5.351 8.4) (layer F.SilkS) (width 0.12))
  (fp_line (start 5.391 -8.392) (end 5.391 8.392) (layer F.SilkS) (width 0.12))
  (fp_line (start 5.431 -8.385) (end 5.431 8.385) (layer F.SilkS) (width 0.12))
  (fp_line (start 5.471 -8.377) (end 5.471 8.377) (layer F.SilkS) (width 0.12))
  (fp_line (start 5.511 -8.368) (end 5.511 8.368) (layer F.SilkS) (width 0.12))
  (fp_line (start 5.551 -8.36) (end 5.551 8.36) (layer F.SilkS) (width 0.12))
  (fp_line (start 5.591 -8.351) (end 5.591 8.351) (layer F.SilkS) (width 0.12))
  (fp_line (start 5.631 -8.342) (end 5.631 8.342) (layer F.SilkS) (width 0.12))
  (fp_line (start 5.671 -8.333) (end 5.671 8.333) (layer F.SilkS) (width 0.12))
  (fp_line (start 5.711 -8.324) (end 5.711 8.324) (layer F.SilkS) (width 0.12))
  (fp_line (start 5.751 -8.314) (end 5.751 8.314) (layer F.SilkS) (width 0.12))
  (fp_line (start 5.791 -8.305) (end 5.791 8.305) (layer F.SilkS) (width 0.12))
  (fp_line (start 5.831 -8.295) (end 5.831 8.295) (layer F.SilkS) (width 0.12))
  (fp_line (start 5.871 -8.285) (end 5.871 8.285) (layer F.SilkS) (width 0.12))
  (fp_line (start 5.911 -8.274) (end 5.911 8.274) (layer F.SilkS) (width 0.12))
  (fp_line (start 5.951 -8.264) (end 5.951 8.264) (layer F.SilkS) (width 0.12))
  (fp_line (start 5.991 -8.253) (end 5.991 8.253) (layer F.SilkS) (width 0.12))
  (fp_line (start 6.031 -8.242) (end 6.031 8.242) (layer F.SilkS) (width 0.12))
  (fp_line (start 6.071 -8.231) (end 6.071 8.231) (layer F.SilkS) (width 0.12))
  (fp_line (start 6.111 -8.22) (end 6.111 8.22) (layer F.SilkS) (width 0.12))
  (fp_line (start 6.151 -8.208) (end 6.151 -1.38) (layer F.SilkS) (width 0.12))
  (fp_line (start 6.151 1.38) (end 6.151 8.208) (layer F.SilkS) (width 0.12))
  (fp_line (start 6.191 -8.197) (end 6.191 -1.38) (layer F.SilkS) (width 0.12))
  (fp_line (start 6.191 1.38) (end 6.191 8.197) (layer F.SilkS) (width 0.12))
  (fp_line (start 6.231 -8.185) (end 6.231 -1.38) (layer F.SilkS) (width 0.12))
  (fp_line (start 6.231 1.38) (end 6.231 8.185) (layer F.SilkS) (width 0.12))
  (fp_line (start 6.271 -8.173) (end 6.271 -1.38) (layer F.SilkS) (width 0.12))
  (fp_line (start 6.271 1.38) (end 6.271 8.173) (layer F.SilkS) (width 0.12))
  (fp_line (start 6.311 -8.16) (end 6.311 -1.38) (layer F.SilkS) (width 0.12))
  (fp_line (start 6.311 1.38) (end 6.311 8.16) (layer F.SilkS) (width 0.12))
  (fp_line (start 6.351 -8.148) (end 6.351 -1.38) (layer F.SilkS) (width 0.12))
  (fp_line (start 6.351 1.38) (end 6.351 8.148) (layer F.SilkS) (width 0.12))
  (fp_line (start 6.391 -8.135) (end 6.391 -1.38) (layer F.SilkS) (width 0.12))
  (fp_line (start 6.391 1.38) (end 6.391 8.135) (layer F.SilkS) (width 0.12))
  (fp_line (start 6.431 -8.122) (end 6.431 -1.38) (layer F.SilkS) (width 0.12))
  (fp_line (start 6.431 1.38) (end 6.431 8.122) (layer F.SilkS) (width 0.12))
  (fp_line (start 6.471 -8.108) (end 6.471 -1.38) (layer F.SilkS) (width 0.12))
  (fp_line (start 6.471 1.38) (end 6.471 8.108) (layer F.SilkS) (width 0.12))
  (fp_line (start 6.511 -8.095) (end 6.511 -1.38) (layer F.SilkS) (width 0.12))
  (fp_line (start 6.511 1.38) (end 6.511 8.095) (layer F.SilkS) (width 0.12))
  (fp_line (start 6.551 -8.081) (end 6.551 -1.38) (layer F.SilkS) (width 0.12))
  (fp_line (start 6.551 1.38) (end 6.551 8.081) (layer F.SilkS) (width 0.12))
  (fp_line (start 6.591 -8.067) (end 6.591 -1.38) (layer F.SilkS) (width 0.12))
  (fp_line (start 6.591 1.38) (end 6.591 8.067) (layer F.SilkS) (width 0.12))
  (fp_line (start 6.631 -8.053) (end 6.631 -1.38) (layer F.SilkS) (width 0.12))
  (fp_line (start 6.631 1.38) (end 6.631 8.053) (layer F.SilkS) (width 0.12))
  (fp_line (start 6.671 -8.039) (end 6.671 -1.38) (layer F.SilkS) (width 0.12))
  (fp_line (start 6.671 1.38) (end 6.671 8.039) (layer F.SilkS) (width 0.12))
  (fp_line (start 6.711 -8.024) (end 6.711 -1.38) (layer F.SilkS) (width 0.12))
  (fp_line (start 6.711 1.38) (end 6.711 8.024) (layer F.SilkS) (width 0.12))
  (fp_line (start 6.751 -8.01) (end 6.751 -1.38) (layer F.SilkS) (width 0.12))
  (fp_line (start 6.751 1.38) (end 6.751 8.01) (layer F.SilkS) (width 0.12))
  (fp_line (start 6.791 -7.995) (end 6.791 -1.38) (layer F.SilkS) (width 0.12))
  (fp_line (start 6.791 1.38) (end 6.791 7.995) (layer F.SilkS) (width 0.12))
  (fp_line (start 6.831 -7.979) (end 6.831 -1.38) (layer F.SilkS) (width 0.12))
  (fp_line (start 6.831 1.38) (end 6.831 7.979) (layer F.SilkS) (width 0.12))
  (fp_line (start 6.871 -7.964) (end 6.871 -1.38) (layer F.SilkS) (width 0.12))
  (fp_line (start 6.871 1.38) (end 6.871 7.964) (layer F.SilkS) (width 0.12))
  (fp_line (start 6.911 -7.948) (end 6.911 -1.38) (layer F.SilkS) (width 0.12))
  (fp_line (start 6.911 1.38) (end 6.911 7.948) (layer F.SilkS) (width 0.12))
  (fp_line (start 6.951 -7.932) (end 6.951 -1.38) (layer F.SilkS) (width 0.12))
  (fp_line (start 6.951 1.38) (end 6.951 7.932) (layer F.SilkS) (width 0.12))
  (fp_line (start 6.991 -7.916) (end 6.991 -1.38) (layer F.SilkS) (width 0.12))
  (fp_line (start 6.991 1.38) (end 6.991 7.916) (layer F.SilkS) (width 0.12))
  (fp_line (start 7.031 -7.9) (end 7.031 -1.38) (layer F.SilkS) (width 0.12))
  (fp_line (start 7.031 1.38) (end 7.031 7.9) (layer F.SilkS) (width 0.12))
  (fp_line (start 7.071 -7.883) (end 7.071 -1.38) (layer F.SilkS) (width 0.12))
  (fp_line (start 7.071 1.38) (end 7.071 7.883) (layer F.SilkS) (width 0.12))
  (fp_line (start 7.111 -7.866) (end 7.111 -1.38) (layer F.SilkS) (width 0.12))
  (fp_line (start 7.111 1.38) (end 7.111 7.866) (layer F.SilkS) (width 0.12))
  (fp_line (start 7.151 -7.849) (end 7.151 -1.38) (layer F.SilkS) (width 0.12))
  (fp_line (start 7.151 1.38) (end 7.151 7.849) (layer F.SilkS) (width 0.12))
  (fp_line (start 7.191 -7.832) (end 7.191 -1.38) (layer F.SilkS) (width 0.12))
  (fp_line (start 7.191 1.38) (end 7.191 7.832) (layer F.SilkS) (width 0.12))
  (fp_line (start 7.231 -7.814) (end 7.231 -1.38) (layer F.SilkS) (width 0.12))
  (fp_line (start 7.231 1.38) (end 7.231 7.814) (layer F.SilkS) (width 0.12))
  (fp_line (start 7.271 -7.796) (end 7.271 -1.38) (layer F.SilkS) (width 0.12))
  (fp_line (start 7.271 1.38) (end 7.271 7.796) (layer F.SilkS) (width 0.12))
  (fp_line (start 7.311 -7.778) (end 7.311 -1.38) (layer F.SilkS) (width 0.12))
  (fp_line (start 7.311 1.38) (end 7.311 7.778) (layer F.SilkS) (width 0.12))
  (fp_line (start 7.351 -7.76) (end 7.351 -1.38) (layer F.SilkS) (width 0.12))
  (fp_line (start 7.351 1.38) (end 7.351 7.76) (layer F.SilkS) (width 0.12))
  (fp_line (start 7.391 -7.741) (end 7.391 -1.38) (layer F.SilkS) (width 0.12))
  (fp_line (start 7.391 1.38) (end 7.391 7.741) (layer F.SilkS) (width 0.12))
  (fp_line (start 7.431 -7.722) (end 7.431 -1.38) (layer F.SilkS) (width 0.12))
  (fp_line (start 7.431 1.38) (end 7.431 7.722) (layer F.SilkS) (width 0.12))
  (fp_line (start 7.471 -7.703) (end 7.471 -1.38) (layer F.SilkS) (width 0.12))
  (fp_line (start 7.471 1.38) (end 7.471 7.703) (layer F.SilkS) (width 0.12))
  (fp_line (start 7.511 -7.684) (end 7.511 -1.38) (layer F.SilkS) (width 0.12))
  (fp_line (start 7.511 1.38) (end 7.511 7.684) (layer F.SilkS) (width 0.12))
  (fp_line (start 7.551 -7.664) (end 7.551 -1.38) (layer F.SilkS) (width 0.12))
  (fp_line (start 7.551 1.38) (end 7.551 7.664) (layer F.SilkS) (width 0.12))
  (fp_line (start 7.591 -7.644) (end 7.591 -1.38) (layer F.SilkS) (width 0.12))
  (fp_line (start 7.591 1.38) (end 7.591 7.644) (layer F.SilkS) (width 0.12))
  (fp_line (start 7.631 -7.624) (end 7.631 -1.38) (layer F.SilkS) (width 0.12))
  (fp_line (start 7.631 1.38) (end 7.631 7.624) (layer F.SilkS) (width 0.12))
  (fp_line (start 7.671 -7.604) (end 7.671 -1.38) (layer F.SilkS) (width 0.12))
  (fp_line (start 7.671 1.38) (end 7.671 7.604) (layer F.SilkS) (width 0.12))
  (fp_line (start 7.711 -7.583) (end 7.711 -1.38) (layer F.SilkS) (width 0.12))
  (fp_line (start 7.711 1.38) (end 7.711 7.583) (layer F.SilkS) (width 0.12))
  (fp_line (start 7.751 -7.562) (end 7.751 -1.38) (layer F.SilkS) (width 0.12))
  (fp_line (start 7.751 1.38) (end 7.751 7.562) (layer F.SilkS) (width 0.12))
  (fp_line (start 7.791 -7.541) (end 7.791 -1.38) (layer F.SilkS) (width 0.12))
  (fp_line (start 7.791 1.38) (end 7.791 7.541) (layer F.SilkS) (width 0.12))
  (fp_line (start 7.831 -7.52) (end 7.831 -1.38) (layer F.SilkS) (width 0.12))
  (fp_line (start 7.831 1.38) (end 7.831 7.52) (layer F.SilkS) (width 0.12))
  (fp_line (start 7.871 -7.498) (end 7.871 -1.38) (layer F.SilkS) (width 0.12))
  (fp_line (start 7.871 1.38) (end 7.871 7.498) (layer F.SilkS) (width 0.12))
  (fp_line (start 7.911 -7.476) (end 7.911 -1.38) (layer F.SilkS) (width 0.12))
  (fp_line (start 7.911 1.38) (end 7.911 7.476) (layer F.SilkS) (width 0.12))
  (fp_line (start 7.951 -7.454) (end 7.951 -1.38) (layer F.SilkS) (width 0.12))
  (fp_line (start 7.951 1.38) (end 7.951 7.454) (layer F.SilkS) (width 0.12))
  (fp_line (start 7.991 -7.431) (end 7.991 -1.38) (layer F.SilkS) (width 0.12))
  (fp_line (start 7.991 1.38) (end 7.991 7.431) (layer F.SilkS) (width 0.12))
  (fp_line (start 8.031 -7.408) (end 8.031 -1.38) (layer F.SilkS) (width 0.12))
  (fp_line (start 8.031 1.38) (end 8.031 7.408) (layer F.SilkS) (width 0.12))
  (fp_line (start 8.071 -7.385) (end 8.071 -1.38) (layer F.SilkS) (width 0.12))
  (fp_line (start 8.071 1.38) (end 8.071 7.385) (layer F.SilkS) (width 0.12))
  (fp_line (start 8.111 -7.362) (end 8.111 -1.38) (layer F.SilkS) (width 0.12))
  (fp_line (start 8.111 1.38) (end 8.111 7.362) (layer F.SilkS) (width 0.12))
  (fp_line (start 8.151 -7.338) (end 8.151 -1.38) (layer F.SilkS) (width 0.12))
  (fp_line (start 8.151 1.38) (end 8.151 7.338) (layer F.SilkS) (width 0.12))
  (fp_line (start 8.191 -7.314) (end 8.191 -1.38) (layer F.SilkS) (width 0.12))
  (fp_line (start 8.191 1.38) (end 8.191 7.314) (layer F.SilkS) (width 0.12))
  (fp_line (start 8.231 -7.29) (end 8.231 -1.38) (layer F.SilkS) (width 0.12))
  (fp_line (start 8.231 1.38) (end 8.231 7.29) (layer F.SilkS) (width 0.12))
  (fp_line (start 8.271 -7.265) (end 8.271 -1.38) (layer F.SilkS) (width 0.12))
  (fp_line (start 8.271 1.38) (end 8.271 7.265) (layer F.SilkS) (width 0.12))
  (fp_line (start 8.311 -7.24) (end 8.311 -1.38) (layer F.SilkS) (width 0.12))
  (fp_line (start 8.311 1.38) (end 8.311 7.24) (layer F.SilkS) (width 0.12))
  (fp_line (start 8.351 -7.215) (end 8.351 -1.38) (layer F.SilkS) (width 0.12))
  (fp_line (start 8.351 1.38) (end 8.351 7.215) (layer F.SilkS) (width 0.12))
  (fp_line (start 8.391 -7.19) (end 8.391 -1.38) (layer F.SilkS) (width 0.12))
  (fp_line (start 8.391 1.38) (end 8.391 7.19) (layer F.SilkS) (width 0.12))
  (fp_line (start 8.431 -7.164) (end 8.431 -1.38) (layer F.SilkS) (width 0.12))
  (fp_line (start 8.431 1.38) (end 8.431 7.164) (layer F.SilkS) (width 0.12))
  (fp_line (start 8.471 -7.138) (end 8.471 -1.38) (layer F.SilkS) (width 0.12))
  (fp_line (start 8.471 1.38) (end 8.471 7.138) (layer F.SilkS) (width 0.12))
  (fp_line (start 8.511 -7.111) (end 8.511 -1.38) (layer F.SilkS) (width 0.12))
  (fp_line (start 8.511 1.38) (end 8.511 7.111) (layer F.SilkS) (width 0.12))
  (fp_line (start 8.551 -7.084) (end 8.551 -1.38) (layer F.SilkS) (width 0.12))
  (fp_line (start 8.551 1.38) (end 8.551 7.084) (layer F.SilkS) (width 0.12))
  (fp_line (start 8.591 -7.057) (end 8.591 -1.38) (layer F.SilkS) (width 0.12))
  (fp_line (start 8.591 1.38) (end 8.591 7.057) (layer F.SilkS) (width 0.12))
  (fp_line (start 8.631 -7.03) (end 8.631 -1.38) (layer F.SilkS) (width 0.12))
  (fp_line (start 8.631 1.38) (end 8.631 7.03) (layer F.SilkS) (width 0.12))
  (fp_line (start 8.671 -7.002) (end 8.671 -1.38) (layer F.SilkS) (width 0.12))
  (fp_line (start 8.671 1.38) (end 8.671 7.002) (layer F.SilkS) (width 0.12))
  (fp_line (start 8.711 -6.974) (end 8.711 -1.38) (layer F.SilkS) (width 0.12))
  (fp_line (start 8.711 1.38) (end 8.711 6.974) (layer F.SilkS) (width 0.12))
  (fp_line (start 8.751 -6.945) (end 8.751 -1.38) (layer F.SilkS) (width 0.12))
  (fp_line (start 8.751 1.38) (end 8.751 6.945) (layer F.SilkS) (width 0.12))
  (fp_line (start 8.791 -6.917) (end 8.791 -1.38) (layer F.SilkS) (width 0.12))
  (fp_line (start 8.791 1.38) (end 8.791 6.917) (layer F.SilkS) (width 0.12))
  (fp_line (start 8.831 -6.887) (end 8.831 -1.38) (layer F.SilkS) (width 0.12))
  (fp_line (start 8.831 1.38) (end 8.831 6.887) (layer F.SilkS) (width 0.12))
  (fp_line (start 8.871 -6.858) (end 8.871 -1.38) (layer F.SilkS) (width 0.12))
  (fp_line (start 8.871 1.38) (end 8.871 6.858) (layer F.SilkS) (width 0.12))
  (fp_line (start 8.911 -6.828) (end 8.911 6.828) (layer F.SilkS) (width 0.12))
  (fp_line (start 8.951 -6.798) (end 8.951 6.798) (layer F.SilkS) (width 0.12))
  (fp_line (start 8.991 -6.767) (end 8.991 6.767) (layer F.SilkS) (width 0.12))
  (fp_line (start 9.031 -6.736) (end 9.031 6.736) (layer F.SilkS) (width 0.12))
  (fp_line (start 9.071 -6.705) (end 9.071 6.705) (layer F.SilkS) (width 0.12))
  (fp_line (start 9.111 -6.673) (end 9.111 6.673) (layer F.SilkS) (width 0.12))
  (fp_line (start 9.151 -6.641) (end 9.151 6.641) (layer F.SilkS) (width 0.12))
  (fp_line (start 9.191 -6.608) (end 9.191 6.608) (layer F.SilkS) (width 0.12))
  (fp_line (start 9.231 -6.575) (end 9.231 6.575) (layer F.SilkS) (width 0.12))
  (fp_line (start 9.271 -6.542) (end 9.271 6.542) (layer F.SilkS) (width 0.12))
  (fp_line (start 9.311 -6.508) (end 9.311 6.508) (layer F.SilkS) (width 0.12))
  (fp_line (start 9.351 -6.474) (end 9.351 6.474) (layer F.SilkS) (width 0.12))
  (fp_line (start 9.391 -6.44) (end 9.391 6.44) (layer F.SilkS) (width 0.12))
  (fp_line (start 9.431 -6.405) (end 9.431 6.405) (layer F.SilkS) (width 0.12))
  (fp_line (start 9.471 -6.369) (end 9.471 6.369) (layer F.SilkS) (width 0.12))
  (fp_line (start 9.511 -6.333) (end 9.511 6.333) (layer F.SilkS) (width 0.12))
  (fp_line (start 9.551 -6.297) (end 9.551 6.297) (layer F.SilkS) (width 0.12))
  (fp_line (start 9.591 -6.26) (end 9.591 6.26) (layer F.SilkS) (width 0.12))
  (fp_line (start 9.631 -6.223) (end 9.631 6.223) (layer F.SilkS) (width 0.12))
  (fp_line (start 9.671 -6.185) (end 9.671 6.185) (layer F.SilkS) (width 0.12))
  (fp_line (start 9.711 -6.146) (end 9.711 6.146) (layer F.SilkS) (width 0.12))
  (fp_line (start 9.751 -6.108) (end 9.751 6.108) (layer F.SilkS) (width 0.12))
  (fp_line (start 9.791 -6.068) (end 9.791 6.068) (layer F.SilkS) (width 0.12))
  (fp_line (start 9.831 -6.029) (end 9.831 6.029) (layer F.SilkS) (width 0.12))
  (fp_line (start 9.871 -5.988) (end 9.871 5.988) (layer F.SilkS) (width 0.12))
  (fp_line (start 9.911 -5.947) (end 9.911 5.947) (layer F.SilkS) (width 0.12))
  (fp_line (start 9.951 -5.906) (end 9.951 5.906) (layer F.SilkS) (width 0.12))
  (fp_line (start 9.991 -5.864) (end 9.991 5.864) (layer F.SilkS) (width 0.12))
  (fp_line (start 10.031 -5.821) (end 10.031 5.821) (layer F.SilkS) (width 0.12))
  (fp_line (start 10.071 -5.778) (end 10.071 5.778) (layer F.SilkS) (width 0.12))
  (fp_line (start 10.111 -5.734) (end 10.111 5.734) (layer F.SilkS) (width 0.12))
  (fp_line (start 10.151 -5.69) (end 10.151 5.69) (layer F.SilkS) (width 0.12))
  (fp_line (start 10.191 -5.645) (end 10.191 5.645) (layer F.SilkS) (width 0.12))
  (fp_line (start 10.231 -5.599) (end 10.231 5.599) (layer F.SilkS) (width 0.12))
  (fp_line (start 10.271 -5.553) (end 10.271 5.553) (layer F.SilkS) (width 0.12))
  (fp_line (start 10.311 -5.506) (end 10.311 5.506) (layer F.SilkS) (width 0.12))
  (fp_line (start 10.351 -5.459) (end 10.351 5.459) (layer F.SilkS) (width 0.12))
  (fp_line (start 10.391 -5.41) (end 10.391 5.41) (layer F.SilkS) (width 0.12))
  (fp_line (start 10.431 -5.361) (end 10.431 5.361) (layer F.SilkS) (width 0.12))
  (fp_line (start 10.471 -5.311) (end 10.471 5.311) (layer F.SilkS) (width 0.12))
  (fp_line (start 10.511 -5.261) (end 10.511 5.261) (layer F.SilkS) (width 0.12))
  (fp_line (start 10.551 -5.209) (end 10.551 5.209) (layer F.SilkS) (width 0.12))
  (fp_line (start 10.591 -5.157) (end 10.591 5.157) (layer F.SilkS) (width 0.12))
  (fp_line (start 10.631 -5.104) (end 10.631 5.104) (layer F.SilkS) (width 0.12))
  (fp_line (start 10.671 -5.05) (end 10.671 5.05) (layer F.SilkS) (width 0.12))
  (fp_line (start 10.711 -4.995) (end 10.711 4.995) (layer F.SilkS) (width 0.12))
  (fp_line (start 10.751 -4.939) (end 10.751 4.939) (layer F.SilkS) (width 0.12))
  (fp_line (start 10.791 -4.883) (end 10.791 4.883) (layer F.SilkS) (width 0.12))
  (fp_line (start 10.831 -4.825) (end 10.831 4.825) (layer F.SilkS) (width 0.12))
  (fp_line (start 10.871 -4.766) (end 10.871 4.766) (layer F.SilkS) (width 0.12))
  (fp_line (start 10.911 -4.706) (end 10.911 4.706) (layer F.SilkS) (width 0.12))
  (fp_line (start 10.951 -4.645) (end 10.951 4.645) (layer F.SilkS) (width 0.12))
  (fp_line (start 10.991 -4.583) (end 10.991 4.583) (layer F.SilkS) (width 0.12))
  (fp_line (start 11.031 -4.52) (end 11.031 4.52) (layer F.SilkS) (width 0.12))
  (fp_line (start 11.071 -4.456) (end 11.071 4.456) (layer F.SilkS) (width 0.12))
  (fp_line (start 11.111 -4.39) (end 11.111 4.39) (layer F.SilkS) (width 0.12))
  (fp_line (start 11.151 -4.323) (end 11.151 4.323) (layer F.SilkS) (width 0.12))
  (fp_line (start 11.191 -4.254) (end 11.191 4.254) (layer F.SilkS) (width 0.12))
  (fp_line (start 11.231 -4.184) (end 11.231 4.184) (layer F.SilkS) (width 0.12))
  (fp_line (start 11.271 -4.112) (end 11.271 4.112) (layer F.SilkS) (width 0.12))
  (fp_line (start 11.311 -4.039) (end 11.311 4.039) (layer F.SilkS) (width 0.12))
  (fp_line (start 11.351 -3.964) (end 11.351 3.964) (layer F.SilkS) (width 0.12))
  (fp_line (start 11.391 -3.887) (end 11.391 3.887) (layer F.SilkS) (width 0.12))
  (fp_line (start 11.431 -3.808) (end 11.431 3.808) (layer F.SilkS) (width 0.12))
  (fp_line (start 11.471 -3.727) (end 11.471 3.727) (layer F.SilkS) (width 0.12))
  (fp_line (start 11.511 -3.644) (end 11.511 3.644) (layer F.SilkS) (width 0.12))
  (fp_line (start 11.551 -3.559) (end 11.551 3.559) (layer F.SilkS) (width 0.12))
  (fp_line (start 11.591 -3.471) (end 11.591 3.471) (layer F.SilkS) (width 0.12))
  (fp_line (start 11.631 -3.38) (end 11.631 3.38) (layer F.SilkS) (width 0.12))
  (fp_line (start 11.671 -3.286) (end 11.671 3.286) (layer F.SilkS) (width 0.12))
  (fp_line (start 11.711 -3.19) (end 11.711 3.19) (layer F.SilkS) (width 0.12))
  (fp_line (start 11.751 -3.089) (end 11.751 3.089) (layer F.SilkS) (width 0.12))
  (fp_line (start 11.791 -2.985) (end 11.791 2.985) (layer F.SilkS) (width 0.12))
  (fp_line (start 11.831 -2.876) (end 11.831 2.876) (layer F.SilkS) (width 0.12))
  (fp_line (start 11.871 -2.763) (end 11.871 2.763) (layer F.SilkS) (width 0.12))
  (fp_line (start 11.911 -2.644) (end 11.911 2.644) (layer F.SilkS) (width 0.12))
  (fp_line (start 11.95 -2.519) (end 11.95 2.519) (layer F.SilkS) (width 0.12))
  (fp_line (start 11.99 -2.388) (end 11.99 2.388) (layer F.SilkS) (width 0.12))
  (fp_line (start 12.03 -2.247) (end 12.03 2.247) (layer F.SilkS) (width 0.12))
  (fp_line (start 12.07 -2.097) (end 12.07 2.097) (layer F.SilkS) (width 0.12))
  (fp_line (start 12.11 -1.935) (end 12.11 1.935) (layer F.SilkS) (width 0.12))
  (fp_line (start 12.15 -1.757) (end 12.15 1.757) (layer F.SilkS) (width 0.12))
  (fp_line (start 12.19 -1.559) (end 12.19 1.559) (layer F.SilkS) (width 0.12))
  (fp_line (start 12.23 -1.331) (end 12.23 1.331) (layer F.SilkS) (width 0.12))
  (fp_line (start 12.27 -1.055) (end 12.27 1.055) (layer F.SilkS) (width 0.12))
  (fp_line (start 12.31 -0.678) (end 12.31 0.678) (layer F.SilkS) (width 0.12))
  (fp_line (start -3.2 0) (end -1.4 0) (layer F.SilkS) (width 0.12))
  (fp_line (start -2.3 -0.9) (end -2.3 0.9) (layer F.SilkS) (width 0.12))
  (fp_line (start -5.1 -8.85) (end -5.1 8.85) (layer F.CrtYd) (width 0.05))
  (fp_line (start -5.1 8.85) (end 12.6 8.85) (layer F.CrtYd) (width 0.05))
  (fp_line (start 12.6 8.85) (end 12.6 -8.85) (layer F.CrtYd) (width 0.05))
  (fp_line (start 12.6 -8.85) (end -5.1 -8.85) (layer F.CrtYd) (width 0.05))
  (pad 1 thru_hole rect (at 0 0) (size 2.4 2.4) (drill 1.2) (layers *.Cu *.Mask))
  (pad 2 thru_hole circle (at 7.5 0) (size 2.4 2.4) (drill 1.2) (layers *.Cu *.Mask))
  (model Capacitors_THT.3dshapes/CP_Radial_D17.0mm_P7.50mm.wrl
    (at (xyz 0 0 0))
    (scale (xyz 0.393701 0.393701 0.393701))
    (rotate (xyz 0 0 0))
  )
)