(module CP_Radial_Tantal_D7.0mm_P5.00mm (layer F.Cu) (tedit 58765D06)
  (descr "CP, Radial_Tantal series, Radial, pin pitch=5.00mm, , diameter=7.0mm, Tantal Electrolytic Capacitor, http://cdn-reichelt.de/documents/datenblatt/B300/TANTAL-TB-Serie%23.pdf")
  (tags "CP Radial_Tantal series Radial pin pitch 5.00mm  diameter 7.0mm Tantal Electrolytic Capacitor")
  (fp_text reference REF** (at 2.5 -4.56) (layer F.SilkS)
    (effects (font (size 1 1) (thickness 0.15)))
  )
  (fp_text value CP_Radial_Tantal_D7.0mm_P5.00mm (at 2.5 4.56) (layer F.Fab)
    (effects (font (size 1 1) (thickness 0.15)))
  )
  (fp_arc (start 2.5 0) (end -0.95365 -0.98) (angle 148.3) (layer F.SilkS) (width 0.12))
  (fp_arc (start 2.5 0) (end -0.95365 0.98) (angle -148.3) (layer F.SilkS) (width 0.12))
  (fp_arc (start 2.5 0) (end 5.95365 -0.98) (angle 31.7) (layer F.SilkS) (width 0.12))
  (fp_circle (center 2.5 0) (end 6 0) (layer F.Fab) (width 0.1))
  (fp_line (start -2.2 0) (end -1 0) (layer F.Fab) (width 0.1))
  (fp_line (start -1.6 -0.65) (end -1.6 0.65) (layer F.Fab) (width 0.1))
  (fp_line (start -2.2 0) (end -1 0) (layer F.SilkS) (width 0.12))
  (fp_line (start -1.6 -0.65) (end -1.6 0.65) (layer F.SilkS) (width 0.12))
  (fp_line (start -1.35 -3.85) (end -1.35 3.85) (layer F.CrtYd) (width 0.05))
  (fp_line (start -1.35 3.85) (end 6.35 3.85) (layer F.CrtYd) (width 0.05))
  (fp_line (start 6.35 3.85) (end 6.35 -3.85) (layer F.CrtYd) (width 0.05))
  (fp_line (start 6.35 -3.85) (end -1.35 -3.85) (layer F.CrtYd) (width 0.05))
  (pad 1 thru_hole rect (at 0 0) (size 1.6 1.6) (drill 0.8) (layers *.Cu *.Mask))
  (pad 2 thru_hole circle (at 5 0) (size 1.6 1.6) (drill 0.8) (layers *.Cu *.Mask))
  (model Capacitors_THT.3dshapes/CP_Radial_Tantal_D7.0mm_P5.00mm.wrl
    (at (xyz 0 0 0))
    (scale (xyz 0.393701 0.393701 0.393701))
    (rotate (xyz 0 0 0))
  )
)