(module CP_Radial_Tantal_D8.0mm_P2.50mm (layer F.Cu) (tedit 58765D06)
  (descr "CP, Radial_Tantal series, Radial, pin pitch=2.50mm, , diameter=8.0mm, Tantal Electrolytic Capacitor, http://cdn-reichelt.de/documents/datenblatt/B300/TANTAL-TB-Serie%23.pdf")
  (tags "CP Radial_Tantal series Radial pin pitch 2.50mm  diameter 8.0mm Tantal Electrolytic Capacitor")
  (fp_text reference REF** (at 1.25 -5.06) (layer F.SilkS)
    (effects (font (size 1 1) (thickness 0.15)))
  )
  (fp_text value CP_Radial_Tantal_D8.0mm_P2.50mm (at 1.25 5.06) (layer F.Fab)
    (effects (font (size 1 1) (thickness 0.15)))
  )
  (fp_circle (center 1.25 0) (end 5.25 0) (layer F.Fab) (width 0.1))
  (fp_circle (center 1.25 0) (end 5.34 0) (layer F.SilkS) (width 0.12))
  (fp_line (start -2.2 0) (end -1 0) (layer F.Fab) (width 0.1))
  (fp_line (start -1.6 -0.65) (end -1.6 0.65) (layer F.Fab) (width 0.1))
  (fp_line (start -2.2 0) (end -1 0) (layer F.SilkS) (width 0.12))
  (fp_line (start -1.6 -0.65) (end -1.6 0.65) (layer F.SilkS) (width 0.12))
  (fp_line (start -3.1 -4.35) (end -3.1 4.35) (layer F.CrtYd) (width 0.05))
  (fp_line (start -3.1 4.35) (end 5.6 4.35) (layer F.CrtYd) (width 0.05))
  (fp_line (start 5.6 4.35) (end 5.6 -4.35) (layer F.CrtYd) (width 0.05))
  (fp_line (start 5.6 -4.35) (end -3.1 -4.35) (layer F.CrtYd) (width 0.05))
  (pad 1 thru_hole rect (at 0 0) (size 1.6 1.6) (drill 0.8) (layers *.Cu *.Mask))
  (pad 2 thru_hole circle (at 2.5 0) (size 1.6 1.6) (drill 0.8) (layers *.Cu *.Mask))
  (model Capacitors_THT.3dshapes/CP_Radial_Tantal_D8.0mm_P2.50mm.wrl
    (at (xyz 0 0 0))
    (scale (xyz 0.393701 0.393701 0.393701))
    (rotate (xyz 0 0 0))
  )
)