(module CP_Radial_D10.0mm_P2.50mm (layer F.Cu) (tedit 58765D06)
  (descr "CP, Radial series, Radial, pin pitch=2.50mm, , diameter=10mm, Electrolytic Capacitor")
  (tags "CP Radial series Radial pin pitch 2.50mm  diameter 10mm Electrolytic Capacitor")
  (fp_text reference REF** (at 1.25 -6.06) (layer F.SilkS)
    (effects (font (size 1 1) (thickness 0.15)))
  )
  (fp_text value CP_Radial_D10.0mm_P2.50mm (at 1.25 6.06) (layer F.Fab)
    (effects (font (size 1 1) (thickness 0.15)))
  )
  (fp_circle (center 1.25 0) (end 6.25 0) (layer F.Fab) (width 0.1))
  (fp_circle (center 1.25 0) (end 6.34 0) (layer F.SilkS) (width 0.12))
  (fp_line (start -2.2 0) (end -1 0) (layer F.Fab) (width 0.1))
  (fp_line (start -1.6 -0.65) (end -1.6 0.65) (layer F.Fab) (width 0.1))
  (fp_line (start 1.25 -5.05) (end 1.25 5.05) (layer F.SilkS) (width 0.12))
  (fp_line (start 1.29 -5.05) (end 1.29 5.05) (layer F.SilkS) (width 0.12))
  (fp_line (start 1.33 -5.05) (end 1.33 5.05) (layer F.SilkS) (width 0.12))
  (fp_line (start 1.37 -5.049) (end 1.37 5.049) (layer F.SilkS) (width 0.12))
  (fp_line (start 1.41 -5.048) (end 1.41 5.048) (layer F.SilkS) (width 0.12))
  (fp_line (start 1.45 -5.047) (end 1.45 5.047) (layer F.SilkS) (width 0.12))
  (fp_line (start 1.49 -5.045) (end 1.49 5.045) (layer F.SilkS) (width 0.12))
  (fp_line (start 1.53 -5.043) (end 1.53 -0.98) (layer F.SilkS) (width 0.12))
  (fp_line (start 1.53 0.98) (end 1.53 5.043) (layer F.SilkS) (width 0.12))
  (fp_line (start 1.57 -5.04) (end 1.57 -0.98) (layer F.SilkS) (width 0.12))
  (fp_line (start 1.57 0.98) (end 1.57 5.04) (layer F.SilkS) (width 0.12))
  (fp_line (start 1.61 -5.038) (end 1.61 -0.98) (layer F.SilkS) (width 0.12))
  (fp_line (start 1.61 0.98) (end 1.61 5.038) (layer F.SilkS) (width 0.12))
  (fp_line (start 1.65 -5.035) (end 1.65 -0.98) (layer F.SilkS) (width 0.12))
  (fp_line (start 1.65 0.98) (end 1.65 5.035) (layer F.SilkS) (width 0.12))
  (fp_line (start 1.69 -5.031) (end 1.69 -0.98) (layer F.SilkS) (width 0.12))
  (fp_line (start 1.69 0.98) (end 1.69 5.031) (layer F.SilkS) (width 0.12))
  (fp_line (start 1.73 -5.028) (end 1.73 -0.98) (layer F.SilkS) (width 0.12))
  (fp_line (start 1.73 0.98) (end 1.73 5.028) (layer F.SilkS) (width 0.12))
  (fp_line (start 1.77 -5.024) (end 1.77 -0.98) (layer F.SilkS) (width 0.12))
  (fp_line (start 1.77 0.98) (end 1.77 5.024) (layer F.SilkS) (width 0.12))
  (fp_line (start 1.81 -5.02) (end 1.81 -0.98) (layer F.SilkS) (width 0.12))
  (fp_line (start 1.81 0.98) (end 1.81 5.02) (layer F.SilkS) (width 0.12))
  (fp_line (start 1.85 -5.015) (end 1.85 -0.98) (layer F.SilkS) (width 0.12))
  (fp_line (start 1.85 0.98) (end 1.85 5.015) (layer F.SilkS) (width 0.12))
  (fp_line (start 1.89 -5.01) (end 1.89 -0.98) (layer F.SilkS) (width 0.12))
  (fp_line (start 1.89 0.98) (end 1.89 5.01) (layer F.SilkS) (width 0.12))
  (fp_line (start 1.93 -5.005) (end 1.93 -0.98) (layer F.SilkS) (width 0.12))
  (fp_line (start 1.93 0.98) (end 1.93 5.005) (layer F.SilkS) (width 0.12))
  (fp_line (start 1.971 -4.999) (end 1.971 -0.98) (layer F.SilkS) (width 0.12))
  (fp_line (start 1.971 0.98) (end 1.971 4.999) (layer F.SilkS) (width 0.12))
  (fp_line (start 2.011 -4.993) (end 2.011 -0.98) (layer F.SilkS) (width 0.12))
  (fp_line (start 2.011 0.98) (end 2.011 4.993) (layer F.SilkS) (width 0.12))
  (fp_line (start 2.051 -4.987) (end 2.051 -0.98) (layer F.SilkS) (width 0.12))
  (fp_line (start 2.051 0.98) (end 2.051 4.987) (layer F.SilkS) (width 0.12))
  (fp_line (start 2.091 -4.981) (end 2.091 -0.98) (layer F.SilkS) (width 0.12))
  (fp_line (start 2.091 0.98) (end 2.091 4.981) (layer F.SilkS) (width 0.12))
  (fp_line (start 2.131 -4.974) (end 2.131 -0.98) (layer F.SilkS) (width 0.12))
  (fp_line (start 2.131 0.98) (end 2.131 4.974) (layer F.SilkS) (width 0.12))
  (fp_line (start 2.171 -4.967) (end 2.171 -0.98) (layer F.SilkS) (width 0.12))
  (fp_line (start 2.171 0.98) (end 2.171 4.967) (layer F.SilkS) (width 0.12))
  (fp_line (start 2.211 -4.959) (end 2.211 -0.98) (layer F.SilkS) (width 0.12))
  (fp_line (start 2.211 0.98) (end 2.211 4.959) (layer F.SilkS) (width 0.12))
  (fp_line (start 2.251 -4.951) (end 2.251 -0.98) (layer F.SilkS) (width 0.12))
  (fp_line (start 2.251 0.98) (end 2.251 4.951) (layer F.SilkS) (width 0.12))
  (fp_line (start 2.291 -4.943) (end 2.291 -0.98) (layer F.SilkS) (width 0.12))
  (fp_line (start 2.291 0.98) (end 2.291 4.943) (layer F.SilkS) (width 0.12))
  (fp_line (start 2.331 -4.935) (end 2.331 -0.98) (layer F.SilkS) (width 0.12))
  (fp_line (start 2.331 0.98) (end 2.331 4.935) (layer F.SilkS) (width 0.12))
  (fp_line (start 2.371 -4.926) (end 2.371 -0.98) (layer F.SilkS) (width 0.12))
  (fp_line (start 2.371 0.98) (end 2.371 4.926) (layer F.SilkS) (width 0.12))
  (fp_line (start 2.411 -4.917) (end 2.411 -0.98) (layer F.SilkS) (width 0.12))
  (fp_line (start 2.411 0.98) (end 2.411 4.917) (layer F.SilkS) (width 0.12))
  (fp_line (start 2.451 -4.907) (end 2.451 -0.98) (layer F.SilkS) (width 0.12))
  (fp_line (start 2.451 0.98) (end 2.451 4.907) (layer F.SilkS) (width 0.12))
  (fp_line (start 2.491 -4.897) (end 2.491 -0.98) (layer F.SilkS) (width 0.12))
  (fp_line (start 2.491 0.98) (end 2.491 4.897) (layer F.SilkS) (width 0.12))
  (fp_line (start 2.531 -4.887) (end 2.531 -0.98) (layer F.SilkS) (width 0.12))
  (fp_line (start 2.531 0.98) (end 2.531 4.887) (layer F.SilkS) (width 0.12))
  (fp_line (start 2.571 -4.876) (end 2.571 -0.98) (layer F.SilkS) (width 0.12))
  (fp_line (start 2.571 0.98) (end 2.571 4.876) (layer F.SilkS) (width 0.12))
  (fp_line (start 2.611 -4.865) (end 2.611 -0.98) (layer F.SilkS) (width 0.12))
  (fp_line (start 2.611 0.98) (end 2.611 4.865) (layer F.SilkS) (width 0.12))
  (fp_line (start 2.651 -4.854) (end 2.651 -0.98) (layer F.SilkS) (width 0.12))
  (fp_line (start 2.651 0.98) (end 2.651 4.854) (layer F.SilkS) (width 0.12))
  (fp_line (start 2.691 -4.843) (end 2.691 -0.98) (layer F.SilkS) (width 0.12))
  (fp_line (start 2.691 0.98) (end 2.691 4.843) (layer F.SilkS) (width 0.12))
  (fp_line (start 2.731 -4.831) (end 2.731 -0.98) (layer F.SilkS) (width 0.12))
  (fp_line (start 2.731 0.98) (end 2.731 4.831) (layer F.SilkS) (width 0.12))
  (fp_line (start 2.771 -4.818) (end 2.771 -0.98) (layer F.SilkS) (width 0.12))
  (fp_line (start 2.771 0.98) (end 2.771 4.818) (layer F.SilkS) (width 0.12))
  (fp_line (start 2.811 -4.806) (end 2.811 -0.98) (layer F.SilkS) (width 0.12))
  (fp_line (start 2.811 0.98) (end 2.811 4.806) (layer F.SilkS) (width 0.12))
  (fp_line (start 2.851 -4.792) (end 2.851 -0.98) (layer F.SilkS) (width 0.12))
  (fp_line (start 2.851 0.98) (end 2.851 4.792) (layer F.SilkS) (width 0.12))
  (fp_line (start 2.891 -4.779) (end 2.891 -0.98) (layer F.SilkS) (width 0.12))
  (fp_line (start 2.891 0.98) (end 2.891 4.779) (layer F.SilkS) (width 0.12))
  (fp_line (start 2.931 -4.765) (end 2.931 -0.98) (layer F.SilkS) (width 0.12))
  (fp_line (start 2.931 0.98) (end 2.931 4.765) (layer F.SilkS) (width 0.12))
  (fp_line (start 2.971 -4.751) (end 2.971 -0.98) (layer F.SilkS) (width 0.12))
  (fp_line (start 2.971 0.98) (end 2.971 4.751) (layer F.SilkS) (width 0.12))
  (fp_line (start 3.011 -4.737) (end 3.011 -0.98) (layer F.SilkS) (width 0.12))
  (fp_line (start 3.011 0.98) (end 3.011 4.737) (layer F.SilkS) (width 0.12))
  (fp_line (start 3.051 -4.722) (end 3.051 -0.98) (layer F.SilkS) (width 0.12))
  (fp_line (start 3.051 0.98) (end 3.051 4.722) (layer F.SilkS) (width 0.12))
  (fp_line (start 3.091 -4.706) (end 3.091 -0.98) (layer F.SilkS) (width 0.12))
  (fp_line (start 3.091 0.98) (end 3.091 4.706) (layer F.SilkS) (width 0.12))
  (fp_line (start 3.131 -4.691) (end 3.131 -0.98) (layer F.SilkS) (width 0.12))
  (fp_line (start 3.131 0.98) (end 3.131 4.691) (layer F.SilkS) (width 0.12))
  (fp_line (start 3.171 -4.674) (end 3.171 -0.98) (layer F.SilkS) (width 0.12))
  (fp_line (start 3.171 0.98) (end 3.171 4.674) (layer F.SilkS) (width 0.12))
  (fp_line (start 3.211 -4.658) (end 3.211 -0.98) (layer F.SilkS) (width 0.12))
  (fp_line (start 3.211 0.98) (end 3.211 4.658) (layer F.SilkS) (width 0.12))
  (fp_line (start 3.251 -4.641) (end 3.251 -0.98) (layer F.SilkS) (width 0.12))
  (fp_line (start 3.251 0.98) (end 3.251 4.641) (layer F.SilkS) (width 0.12))
  (fp_line (start 3.291 -4.624) (end 3.291 -0.98) (layer F.SilkS) (width 0.12))
  (fp_line (start 3.291 0.98) (end 3.291 4.624) (layer F.SilkS) (width 0.12))
  (fp_line (start 3.331 -4.606) (end 3.331 -0.98) (layer F.SilkS) (width 0.12))
  (fp_line (start 3.331 0.98) (end 3.331 4.606) (layer F.SilkS) (width 0.12))
  (fp_line (start 3.371 -4.588) (end 3.371 -0.98) (layer F.SilkS) (width 0.12))
  (fp_line (start 3.371 0.98) (end 3.371 4.588) (layer F.SilkS) (width 0.12))
  (fp_line (start 3.411 -4.569) (end 3.411 -0.98) (layer F.SilkS) (width 0.12))
  (fp_line (start 3.411 0.98) (end 3.411 4.569) (layer F.SilkS) (width 0.12))
  (fp_line (start 3.451 -4.55) (end 3.451 -0.98) (layer F.SilkS) (width 0.12))
  (fp_line (start 3.451 0.98) (end 3.451 4.55) (layer F.SilkS) (width 0.12))
  (fp_line (start 3.491 -4.531) (end 3.491 4.531) (layer F.SilkS) (width 0.12))
  (fp_line (start 3.531 -4.511) (end 3.531 4.511) (layer F.SilkS) (width 0.12))
  (fp_line (start 3.571 -4.491) (end 3.571 4.491) (layer F.SilkS) (width 0.12))
  (fp_line (start 3.611 -4.47) (end 3.611 4.47) (layer F.SilkS) (width 0.12))
  (fp_line (start 3.651 -4.449) (end 3.651 4.449) (layer F.SilkS) (width 0.12))
  (fp_line (start 3.691 -4.428) (end 3.691 4.428) (layer F.SilkS) (width 0.12))
  (fp_line (start 3.731 -4.405) (end 3.731 4.405) (layer F.SilkS) (width 0.12))
  (fp_line (start 3.771 -4.383) (end 3.771 4.383) (layer F.SilkS) (width 0.12))
  (fp_line (start 3.811 -4.36) (end 3.811 4.36) (layer F.SilkS) (width 0.12))
  (fp_line (start 3.851 -4.336) (end 3.851 4.336) (layer F.SilkS) (width 0.12))
  (fp_line (start 3.891 -4.312) (end 3.891 4.312) (layer F.SilkS) (width 0.12))
  (fp_line (start 3.931 -4.288) (end 3.931 4.288) (layer F.SilkS) (width 0.12))
  (fp_line (start 3.971 -4.263) (end 3.971 4.263) (layer F.SilkS) (width 0.12))
  (fp_line (start 4.011 -4.237) (end 4.011 4.237) (layer F.SilkS) (width 0.12))
  (fp_line (start 4.051 -4.211) (end 4.051 4.211) (layer F.SilkS) (width 0.12))
  (fp_line (start 4.091 -4.185) (end 4.091 4.185) (layer F.SilkS) (width 0.12))
  (fp_line (start 4.131 -4.157) (end 4.131 4.157) (layer F.SilkS) (width 0.12))
  (fp_line (start 4.171 -4.13) (end 4.171 4.13) (layer F.SilkS) (width 0.12))
  (fp_line (start 4.211 -4.101) (end 4.211 4.101) (layer F.SilkS) (width 0.12))
  (fp_line (start 4.251 -4.072) (end 4.251 4.072) (layer F.SilkS) (width 0.12))
  (fp_line (start 4.291 -4.043) (end 4.291 4.043) (layer F.SilkS) (width 0.12))
  (fp_line (start 4.331 -4.013) (end 4.331 4.013) (layer F.SilkS) (width 0.12))
  (fp_line (start 4.371 -3.982) (end 4.371 3.982) (layer F.SilkS) (width 0.12))
  (fp_line (start 4.411 -3.951) (end 4.411 3.951) (layer F.SilkS) (width 0.12))
  (fp_line (start 4.451 -3.919) (end 4.451 3.919) (layer F.SilkS) (width 0.12))
  (fp_line (start 4.491 -3.886) (end 4.491 3.886) (layer F.SilkS) (width 0.12))
  (fp_line (start 4.531 -3.853) (end 4.531 3.853) (layer F.SilkS) (width 0.12))
  (fp_line (start 4.571 -3.819) (end 4.571 3.819) (layer F.SilkS) (width 0.12))
  (fp_line (start 4.611 -3.784) (end 4.611 3.784) (layer F.SilkS) (width 0.12))
  (fp_line (start 4.651 -3.748) (end 4.651 3.748) (layer F.SilkS) (width 0.12))
  (fp_line (start 4.691 -3.712) (end 4.691 3.712) (layer F.SilkS) (width 0.12))
  (fp_line (start 4.731 -3.675) (end 4.731 3.675) (layer F.SilkS) (width 0.12))
  (fp_line (start 4.771 -3.637) (end 4.771 3.637) (layer F.SilkS) (width 0.12))
  (fp_line (start 4.811 -3.598) (end 4.811 3.598) (layer F.SilkS) (width 0.12))
  (fp_line (start 4.851 -3.559) (end 4.851 3.559) (layer F.SilkS) (width 0.12))
  (fp_line (start 4.891 -3.518) (end 4.891 3.518) (layer F.SilkS) (width 0.12))
  (fp_line (start 4.931 -3.477) (end 4.931 3.477) (layer F.SilkS) (width 0.12))
  (fp_line (start 4.971 -3.435) (end 4.971 3.435) (layer F.SilkS) (width 0.12))
  (fp_line (start 5.011 -3.391) (end 5.011 3.391) (layer F.SilkS) (width 0.12))
  (fp_line (start 5.051 -3.347) (end 5.051 3.347) (layer F.SilkS) (width 0.12))
  (fp_line (start 5.091 -3.302) (end 5.091 3.302) (layer F.SilkS) (width 0.12))
  (fp_line (start 5.131 -3.255) (end 5.131 3.255) (layer F.SilkS) (width 0.12))
  (fp_line (start 5.171 -3.207) (end 5.171 3.207) (layer F.SilkS) (width 0.12))
  (fp_line (start 5.211 -3.158) (end 5.211 3.158) (layer F.SilkS) (width 0.12))
  (fp_line (start 5.251 -3.108) (end 5.251 3.108) (layer F.SilkS) (width 0.12))
  (fp_line (start 5.291 -3.057) (end 5.291 3.057) (layer F.SilkS) (width 0.12))
  (fp_line (start 5.331 -3.004) (end 5.331 3.004) (layer F.SilkS) (width 0.12))
  (fp_line (start 5.371 -2.949) (end 5.371 2.949) (layer F.SilkS) (width 0.12))
  (fp_line (start 5.411 -2.894) (end 5.411 2.894) (layer F.SilkS) (width 0.12))
  (fp_line (start 5.451 -2.836) (end 5.451 2.836) (layer F.SilkS) (width 0.12))
  (fp_line (start 5.491 -2.777) (end 5.491 2.777) (layer F.SilkS) (width 0.12))
  (fp_line (start 5.531 -2.715) (end 5.531 2.715) (layer F.SilkS) (width 0.12))
  (fp_line (start 5.571 -2.652) (end 5.571 2.652) (layer F.SilkS) (width 0.12))
  (fp_line (start 5.611 -2.587) (end 5.611 2.587) (layer F.SilkS) (width 0.12))
  (fp_line (start 5.651 -2.519) (end 5.651 2.519) (layer F.SilkS) (width 0.12))
  (fp_line (start 5.691 -2.449) (end 5.691 2.449) (layer F.SilkS) (width 0.12))
  (fp_line (start 5.731 -2.377) (end 5.731 2.377) (layer F.SilkS) (width 0.12))
  (fp_line (start 5.771 -2.301) (end 5.771 2.301) (layer F.SilkS) (width 0.12))
  (fp_line (start 5.811 -2.222) (end 5.811 2.222) (layer F.SilkS) (width 0.12))
  (fp_line (start 5.851 -2.14) (end 5.851 2.14) (layer F.SilkS) (width 0.12))
  (fp_line (start 5.891 -2.053) (end 5.891 2.053) (layer F.SilkS) (width 0.12))
  (fp_line (start 5.931 -1.962) (end 5.931 1.962) (layer F.SilkS) (width 0.12))
  (fp_line (start 5.971 -1.866) (end 5.971 1.866) (layer F.SilkS) (width 0.12))
  (fp_line (start 6.011 -1.763) (end 6.011 1.763) (layer F.SilkS) (width 0.12))
  (fp_line (start 6.051 -1.654) (end 6.051 1.654) (layer F.SilkS) (width 0.12))
  (fp_line (start 6.091 -1.536) (end 6.091 1.536) (layer F.SilkS) (width 0.12))
  (fp_line (start 6.131 -1.407) (end 6.131 1.407) (layer F.SilkS) (width 0.12))
  (fp_line (start 6.171 -1.265) (end 6.171 1.265) (layer F.SilkS) (width 0.12))
  (fp_line (start 6.211 -1.104) (end 6.211 1.104) (layer F.SilkS) (width 0.12))
  (fp_line (start 6.251 -0.913) (end 6.251 0.913) (layer F.SilkS) (width 0.12))
  (fp_line (start 6.291 -0.672) (end 6.291 0.672) (layer F.SilkS) (width 0.12))
  (fp_line (start 6.331 -0.279) (end 6.331 0.279) (layer F.SilkS) (width 0.12))
  (fp_line (start -2.2 0) (end -1 0) (layer F.SilkS) (width 0.12))
  (fp_line (start -1.6 -0.65) (end -1.6 0.65) (layer F.SilkS) (width 0.12))
  (fp_line (start -4.1 -5.35) (end -4.1 5.35) (layer F.CrtYd) (width 0.05))
  (fp_line (start -4.1 5.35) (end 6.6 5.35) (layer F.CrtYd) (width 0.05))
  (fp_line (start 6.6 5.35) (end 6.6 -5.35) (layer F.CrtYd) (width 0.05))
  (fp_line (start 6.6 -5.35) (end -4.1 -5.35) (layer F.CrtYd) (width 0.05))
  (pad 1 thru_hole rect (at 0 0) (size 1.6 1.6) (drill 0.8) (layers *.Cu *.Mask))
  (pad 2 thru_hole circle (at 2.5 0) (size 1.6 1.6) (drill 0.8) (layers *.Cu *.Mask))
  (model Capacitors_THT.3dshapes/CP_Radial_D10.0mm_P2.50mm.wrl
    (at (xyz 0 0 0))
    (scale (xyz 0.393701 0.393701 0.393701))
    (rotate (xyz 0 0 0))
  )
)