(module Pin_Header_Straight_1x03_Pitch2.00mm_SMD_Pin1Left (layer F.Cu) (tedit 588DAF2D)
  (descr "surface-mounted straight pin header, 1x03, 2.00mm pitch, single row, style 1 (pin 1 left)")
  (tags "Surface mounted pin header SMD 1x03 2.00mm single row style1 pin1 left")
  (attr smd)
  (fp_text reference REF** (at 0 -4.06) (layer F.SilkS)
    (effects (font (size 1 1) (thickness 0.15)))
  )
  (fp_text value Pin_Header_Straight_1x03_Pitch2.00mm_SMD_Pin1Left (at 0 4.06) (layer F.Fab)
    (effects (font (size 1 1) (thickness 0.15)))
  )
  (fp_line (start -1 -3) (end -1 3) (layer F.Fab) (width 0.1))
  (fp_line (start -1 3) (end 1 3) (layer F.Fab) (width 0.1))
  (fp_line (start 1 3) (end 1 -3) (layer F.Fab) (width 0.1))
  (fp_line (start 1 -3) (end -1 -3) (layer F.Fab) (width 0.1))
  (fp_line (start -1 -2.25) (end -1 -1.75) (layer F.Fab) (width 0.1))
  (fp_line (start -1 -1.75) (end -2 -1.75) (layer F.Fab) (width 0.1))
  (fp_line (start -2 -1.75) (end -2 -2.25) (layer F.Fab) (width 0.1))
  (fp_line (start -2 -2.25) (end -1 -2.25) (layer F.Fab) (width 0.1))
  (fp_line (start -1 1.75) (end -1 2.25) (layer F.Fab) (width 0.1))
  (fp_line (start -1 2.25) (end -2 2.25) (layer F.Fab) (width 0.1))
  (fp_line (start -2 2.25) (end -2 1.75) (layer F.Fab) (width 0.1))
  (fp_line (start -2 1.75) (end -1 1.75) (layer F.Fab) (width 0.1))
  (fp_line (start 1 -0.25) (end 1 0.25) (layer F.Fab) (width 0.1))
  (fp_line (start 1 0.25) (end 2 0.25) (layer F.Fab) (width 0.1))
  (fp_line (start 2 0.25) (end 2 -0.25) (layer F.Fab) (width 0.1))
  (fp_line (start 2 -0.25) (end 1 -0.25) (layer F.Fab) (width 0.1))
  (fp_line (start -1.06 -2.8) (end -1.06 -3.06) (layer F.SilkS) (width 0.12))
  (fp_line (start -1.06 -3.06) (end 1.06 -3.06) (layer F.SilkS) (width 0.12))
  (fp_line (start 1.06 -3.06) (end 1.06 -2.8) (layer F.SilkS) (width 0.12))
  (fp_line (start -1.06 2.8) (end -1.06 3.06) (layer F.SilkS) (width 0.12))
  (fp_line (start -1.06 3.06) (end 1.06 3.06) (layer F.SilkS) (width 0.12))
  (fp_line (start 1.06 3.06) (end 1.06 2.8) (layer F.SilkS) (width 0.12))
  (fp_line (start 1.06 -3.06) (end 1.06 -0.68) (layer F.SilkS) (width 0.12))
  (fp_line (start -1.06 -2.8) (end -3.5 -2.8) (layer F.SilkS) (width 0.12))
  (fp_line (start 1.06 0.68) (end 1.06 3.06) (layer F.SilkS) (width 0.12))
  (fp_line (start -1.06 -1.32) (end -1.06 1.32) (layer F.SilkS) (width 0.12))
  (fp_line (start -3.75 -3.25) (end -3.75 3.25) (layer F.CrtYd) (width 0.05))
  (fp_line (start -3.75 3.25) (end 3.75 3.25) (layer F.CrtYd) (width 0.05))
  (fp_line (start 3.75 3.25) (end 3.75 -3.25) (layer F.CrtYd) (width 0.05))
  (fp_line (start 3.75 -3.25) (end -3.75 -3.25) (layer F.CrtYd) (width 0.05))
  (pad 1 smd rect (at -2.125 -2) (size 2.75 1) (layers F.Cu F.Mask))
  (pad 3 smd rect (at -2.125 2) (size 2.75 1) (layers F.Cu F.Mask))
  (pad 2 smd rect (at 2.125 0) (size 2.75 1) (layers F.Cu F.Mask))
  (model Pin_Headers.3dshapes/Pin_Header_Straight_1x03_Pitch2.00mm_SMD_Pin1Left.wrl
    (at (xyz 0 0 0))
    (scale (xyz 1 1 1))
    (rotate (xyz 0 0 0))
  )
)