(module Pin_Header_Straight_2x32_Pitch2.54mm_SMD (layer F.Cu) (tedit 588DAF2C)
  (descr "surface-mounted straight pin header, 2x32, 2.54mm pitch, double rows")
  (tags "Surface mounted pin header SMD 2x32 2.54mm double row")
  (attr smd)
  (fp_text reference REF** (at 0 -41.7) (layer F.SilkS)
    (effects (font (size 1 1) (thickness 0.15)))
  )
  (fp_text value Pin_Header_Straight_2x32_Pitch2.54mm_SMD (at 0 41.7) (layer F.Fab)
    (effects (font (size 1 1) (thickness 0.15)))
  )
  (fp_line (start -2.54 -40.64) (end -2.54 40.64) (layer F.Fab) (width 0.1))
  (fp_line (start -2.54 40.64) (end 2.54 40.64) (layer F.Fab) (width 0.1))
  (fp_line (start 2.54 40.64) (end 2.54 -40.64) (layer F.Fab) (width 0.1))
  (fp_line (start 2.54 -40.64) (end -2.54 -40.64) (layer F.Fab) (width 0.1))
  (fp_line (start -2.54 -39.69) (end -2.54 -39.05) (layer F.Fab) (width 0.1))
  (fp_line (start -2.54 -39.05) (end -3.92 -39.05) (layer F.Fab) (width 0.1))
  (fp_line (start -3.92 -39.05) (end -3.92 -39.69) (layer F.Fab) (width 0.1))
  (fp_line (start -3.92 -39.69) (end -2.54 -39.69) (layer F.Fab) (width 0.1))
  (fp_line (start 2.54 -39.69) (end 2.54 -39.05) (layer F.Fab) (width 0.1))
  (fp_line (start 2.54 -39.05) (end 3.92 -39.05) (layer F.Fab) (width 0.1))
  (fp_line (start 3.92 -39.05) (end 3.92 -39.69) (layer F.Fab) (width 0.1))
  (fp_line (start 3.92 -39.69) (end 2.54 -39.69) (layer F.Fab) (width 0.1))
  (fp_line (start -2.54 -37.15) (end -2.54 -36.51) (layer F.Fab) (width 0.1))
  (fp_line (start -2.54 -36.51) (end -3.92 -36.51) (layer F.Fab) (width 0.1))
  (fp_line (start -3.92 -36.51) (end -3.92 -37.15) (layer F.Fab) (width 0.1))
  (fp_line (start -3.92 -37.15) (end -2.54 -37.15) (layer F.Fab) (width 0.1))
  (fp_line (start 2.54 -37.15) (end 2.54 -36.51) (layer F.Fab) (width 0.1))
  (fp_line (start 2.54 -36.51) (end 3.92 -36.51) (layer F.Fab) (width 0.1))
  (fp_line (start 3.92 -36.51) (end 3.92 -37.15) (layer F.Fab) (width 0.1))
  (fp_line (start 3.92 -37.15) (end 2.54 -37.15) (layer F.Fab) (width 0.1))
  (fp_line (start -2.54 -34.61) (end -2.54 -33.97) (layer F.Fab) (width 0.1))
  (fp_line (start -2.54 -33.97) (end -3.92 -33.97) (layer F.Fab) (width 0.1))
  (fp_line (start -3.92 -33.97) (end -3.92 -34.61) (layer F.Fab) (width 0.1))
  (fp_line (start -3.92 -34.61) (end -2.54 -34.61) (layer F.Fab) (width 0.1))
  (fp_line (start 2.54 -34.61) (end 2.54 -33.97) (layer F.Fab) (width 0.1))
  (fp_line (start 2.54 -33.97) (end 3.92 -33.97) (layer F.Fab) (width 0.1))
  (fp_line (start 3.92 -33.97) (end 3.92 -34.61) (layer F.Fab) (width 0.1))
  (fp_line (start 3.92 -34.61) (end 2.54 -34.61) (layer F.Fab) (width 0.1))
  (fp_line (start -2.54 -32.07) (end -2.54 -31.43) (layer F.Fab) (width 0.1))
  (fp_line (start -2.54 -31.43) (end -3.92 -31.43) (layer F.Fab) (width 0.1))
  (fp_line (start -3.92 -31.43) (end -3.92 -32.07) (layer F.Fab) (width 0.1))
  (fp_line (start -3.92 -32.07) (end -2.54 -32.07) (layer F.Fab) (width 0.1))
  (fp_line (start 2.54 -32.07) (end 2.54 -31.43) (layer F.Fab) (width 0.1))
  (fp_line (start 2.54 -31.43) (end 3.92 -31.43) (layer F.Fab) (width 0.1))
  (fp_line (start 3.92 -31.43) (end 3.92 -32.07) (layer F.Fab) (width 0.1))
  (fp_line (start 3.92 -32.07) (end 2.54 -32.07) (layer F.Fab) (width 0.1))
  (fp_line (start -2.54 -29.53) (end -2.54 -28.89) (layer F.Fab) (width 0.1))
  (fp_line (start -2.54 -28.89) (end -3.92 -28.89) (layer F.Fab) (width 0.1))
  (fp_line (start -3.92 -28.89) (end -3.92 -29.53) (layer F.Fab) (width 0.1))
  (fp_line (start -3.92 -29.53) (end -2.54 -29.53) (layer F.Fab) (width 0.1))
  (fp_line (start 2.54 -29.53) (end 2.54 -28.89) (layer F.Fab) (width 0.1))
  (fp_line (start 2.54 -28.89) (end 3.92 -28.89) (layer F.Fab) (width 0.1))
  (fp_line (start 3.92 -28.89) (end 3.92 -29.53) (layer F.Fab) (width 0.1))
  (fp_line (start 3.92 -29.53) (end 2.54 -29.53) (layer F.Fab) (width 0.1))
  (fp_line (start -2.54 -26.99) (end -2.54 -26.35) (layer F.Fab) (width 0.1))
  (fp_line (start -2.54 -26.35) (end -3.92 -26.35) (layer F.Fab) (width 0.1))
  (fp_line (start -3.92 -26.35) (end -3.92 -26.99) (layer F.Fab) (width 0.1))
  (fp_line (start -3.92 -26.99) (end -2.54 -26.99) (layer F.Fab) (width 0.1))
  (fp_line (start 2.54 -26.99) (end 2.54 -26.35) (layer F.Fab) (width 0.1))
  (fp_line (start 2.54 -26.35) (end 3.92 -26.35) (layer F.Fab) (width 0.1))
  (fp_line (start 3.92 -26.35) (end 3.92 -26.99) (layer F.Fab) (width 0.1))
  (fp_line (start 3.92 -26.99) (end 2.54 -26.99) (layer F.Fab) (width 0.1))
  (fp_line (start -2.54 -24.45) (end -2.54 -23.81) (layer F.Fab) (width 0.1))
  (fp_line (start -2.54 -23.81) (end -3.92 -23.81) (layer F.Fab) (width 0.1))
  (fp_line (start -3.92 -23.81) (end -3.92 -24.45) (layer F.Fab) (width 0.1))
  (fp_line (start -3.92 -24.45) (end -2.54 -24.45) (layer F.Fab) (width 0.1))
  (fp_line (start 2.54 -24.45) (end 2.54 -23.81) (layer F.Fab) (width 0.1))
  (fp_line (start 2.54 -23.81) (end 3.92 -23.81) (layer F.Fab) (width 0.1))
  (fp_line (start 3.92 -23.81) (end 3.92 -24.45) (layer F.Fab) (width 0.1))
  (fp_line (start 3.92 -24.45) (end 2.54 -24.45) (layer F.Fab) (width 0.1))
  (fp_line (start -2.54 -21.91) (end -2.54 -21.27) (layer F.Fab) (width 0.1))
  (fp_line (start -2.54 -21.27) (end -3.92 -21.27) (layer F.Fab) (width 0.1))
  (fp_line (start -3.92 -21.27) (end -3.92 -21.91) (layer F.Fab) (width 0.1))
  (fp_line (start -3.92 -21.91) (end -2.54 -21.91) (layer F.Fab) (width 0.1))
  (fp_line (start 2.54 -21.91) (end 2.54 -21.27) (layer F.Fab) (width 0.1))
  (fp_line (start 2.54 -21.27) (end 3.92 -21.27) (layer F.Fab) (width 0.1))
  (fp_line (start 3.92 -21.27) (end 3.92 -21.91) (layer F.Fab) (width 0.1))
  (fp_line (start 3.92 -21.91) (end 2.54 -21.91) (layer F.Fab) (width 0.1))
  (fp_line (start -2.54 -19.37) (end -2.54 -18.73) (layer F.Fab) (width 0.1))
  (fp_line (start -2.54 -18.73) (end -3.92 -18.73) (layer F.Fab) (width 0.1))
  (fp_line (start -3.92 -18.73) (end -3.92 -19.37) (layer F.Fab) (width 0.1))
  (fp_line (start -3.92 -19.37) (end -2.54 -19.37) (layer F.Fab) (width 0.1))
  (fp_line (start 2.54 -19.37) (end 2.54 -18.73) (layer F.Fab) (width 0.1))
  (fp_line (start 2.54 -18.73) (end 3.92 -18.73) (layer F.Fab) (width 0.1))
  (fp_line (start 3.92 -18.73) (end 3.92 -19.37) (layer F.Fab) (width 0.1))
  (fp_line (start 3.92 -19.37) (end 2.54 -19.37) (layer F.Fab) (width 0.1))
  (fp_line (start -2.54 -16.83) (end -2.54 -16.19) (layer F.Fab) (width 0.1))
  (fp_line (start -2.54 -16.19) (end -3.92 -16.19) (layer F.Fab) (width 0.1))
  (fp_line (start -3.92 -16.19) (end -3.92 -16.83) (layer F.Fab) (width 0.1))
  (fp_line (start -3.92 -16.83) (end -2.54 -16.83) (layer F.Fab) (width 0.1))
  (fp_line (start 2.54 -16.83) (end 2.54 -16.19) (layer F.Fab) (width 0.1))
  (fp_line (start 2.54 -16.19) (end 3.92 -16.19) (layer F.Fab) (width 0.1))
  (fp_line (start 3.92 -16.19) (end 3.92 -16.83) (layer F.Fab) (width 0.1))
  (fp_line (start 3.92 -16.83) (end 2.54 -16.83) (layer F.Fab) (width 0.1))
  (fp_line (start -2.54 -14.29) (end -2.54 -13.65) (layer F.Fab) (width 0.1))
  (fp_line (start -2.54 -13.65) (end -3.92 -13.65) (layer F.Fab) (width 0.1))
  (fp_line (start -3.92 -13.65) (end -3.92 -14.29) (layer F.Fab) (width 0.1))
  (fp_line (start -3.92 -14.29) (end -2.54 -14.29) (layer F.Fab) (width 0.1))
  (fp_line (start 2.54 -14.29) (end 2.54 -13.65) (layer F.Fab) (width 0.1))
  (fp_line (start 2.54 -13.65) (end 3.92 -13.65) (layer F.Fab) (width 0.1))
  (fp_line (start 3.92 -13.65) (end 3.92 -14.29) (layer F.Fab) (width 0.1))
  (fp_line (start 3.92 -14.29) (end 2.54 -14.29) (layer F.Fab) (width 0.1))
  (fp_line (start -2.54 -11.75) (end -2.54 -11.11) (layer F.Fab) (width 0.1))
  (fp_line (start -2.54 -11.11) (end -3.92 -11.11) (layer F.Fab) (width 0.1))
  (fp_line (start -3.92 -11.11) (end -3.92 -11.75) (layer F.Fab) (width 0.1))
  (fp_line (start -3.92 -11.75) (end -2.54 -11.75) (layer F.Fab) (width 0.1))
  (fp_line (start 2.54 -11.75) (end 2.54 -11.11) (layer F.Fab) (width 0.1))
  (fp_line (start 2.54 -11.11) (end 3.92 -11.11) (layer F.Fab) (width 0.1))
  (fp_line (start 3.92 -11.11) (end 3.92 -11.75) (layer F.Fab) (width 0.1))
  (fp_line (start 3.92 -11.75) (end 2.54 -11.75) (layer F.Fab) (width 0.1))
  (fp_line (start -2.54 -9.21) (end -2.54 -8.57) (layer F.Fab) (width 0.1))
  (fp_line (start -2.54 -8.57) (end -3.92 -8.57) (layer F.Fab) (width 0.1))
  (fp_line (start -3.92 -8.57) (end -3.92 -9.21) (layer F.Fab) (width 0.1))
  (fp_line (start -3.92 -9.21) (end -2.54 -9.21) (layer F.Fab) (width 0.1))
  (fp_line (start 2.54 -9.21) (end 2.54 -8.57) (layer F.Fab) (width 0.1))
  (fp_line (start 2.54 -8.57) (end 3.92 -8.57) (layer F.Fab) (width 0.1))
  (fp_line (start 3.92 -8.57) (end 3.92 -9.21) (layer F.Fab) (width 0.1))
  (fp_line (start 3.92 -9.21) (end 2.54 -9.21) (layer F.Fab) (width 0.1))
  (fp_line (start -2.54 -6.67) (end -2.54 -6.03) (layer F.Fab) (width 0.1))
  (fp_line (start -2.54 -6.03) (end -3.92 -6.03) (layer F.Fab) (width 0.1))
  (fp_line (start -3.92 -6.03) (end -3.92 -6.67) (layer F.Fab) (width 0.1))
  (fp_line (start -3.92 -6.67) (end -2.54 -6.67) (layer F.Fab) (width 0.1))
  (fp_line (start 2.54 -6.67) (end 2.54 -6.03) (layer F.Fab) (width 0.1))
  (fp_line (start 2.54 -6.03) (end 3.92 -6.03) (layer F.Fab) (width 0.1))
  (fp_line (start 3.92 -6.03) (end 3.92 -6.67) (layer F.Fab) (width 0.1))
  (fp_line (start 3.92 -6.67) (end 2.54 -6.67) (layer F.Fab) (width 0.1))
  (fp_line (start -2.54 -4.13) (end -2.54 -3.49) (layer F.Fab) (width 0.1))
  (fp_line (start -2.54 -3.49) (end -3.92 -3.49) (layer F.Fab) (width 0.1))
  (fp_line (start -3.92 -3.49) (end -3.92 -4.13) (layer F.Fab) (width 0.1))
  (fp_line (start -3.92 -4.13) (end -2.54 -4.13) (layer F.Fab) (width 0.1))
  (fp_line (start 2.54 -4.13) (end 2.54 -3.49) (layer F.Fab) (width 0.1))
  (fp_line (start 2.54 -3.49) (end 3.92 -3.49) (layer F.Fab) (width 0.1))
  (fp_line (start 3.92 -3.49) (end 3.92 -4.13) (layer F.Fab) (width 0.1))
  (fp_line (start 3.92 -4.13) (end 2.54 -4.13) (layer F.Fab) (width 0.1))
  (fp_line (start -2.54 -1.59) (end -2.54 -0.95) (layer F.Fab) (width 0.1))
  (fp_line (start -2.54 -0.95) (end -3.92 -0.95) (layer F.Fab) (width 0.1))
  (fp_line (start -3.92 -0.95) (end -3.92 -1.59) (layer F.Fab) (width 0.1))
  (fp_line (start -3.92 -1.59) (end -2.54 -1.59) (layer F.Fab) (width 0.1))
  (fp_line (start 2.54 -1.59) (end 2.54 -0.95) (layer F.Fab) (width 0.1))
  (fp_line (start 2.54 -0.95) (end 3.92 -0.95) (layer F.Fab) (width 0.1))
  (fp_line (start 3.92 -0.95) (end 3.92 -1.59) (layer F.Fab) (width 0.1))
  (fp_line (start 3.92 -1.59) (end 2.54 -1.59) (layer F.Fab) (width 0.1))
  (fp_line (start -2.54 0.95) (end -2.54 1.59) (layer F.Fab) (width 0.1))
  (fp_line (start -2.54 1.59) (end -3.92 1.59) (layer F.Fab) (width 0.1))
  (fp_line (start -3.92 1.59) (end -3.92 0.95) (layer F.Fab) (width 0.1))
  (fp_line (start -3.92 0.95) (end -2.54 0.95) (layer F.Fab) (width 0.1))
  (fp_line (start 2.54 0.95) (end 2.54 1.59) (layer F.Fab) (width 0.1))
  (fp_line (start 2.54 1.59) (end 3.92 1.59) (layer F.Fab) (width 0.1))
  (fp_line (start 3.92 1.59) (end 3.92 0.95) (layer F.Fab) (width 0.1))
  (fp_line (start 3.92 0.95) (end 2.54 0.95) (layer F.Fab) (width 0.1))
  (fp_line (start -2.54 3.49) (end -2.54 4.13) (layer F.Fab) (width 0.1))
  (fp_line (start -2.54 4.13) (end -3.92 4.13) (layer F.Fab) (width 0.1))
  (fp_line (start -3.92 4.13) (end -3.92 3.49) (layer F.Fab) (width 0.1))
  (fp_line (start -3.92 3.49) (end -2.54 3.49) (layer F.Fab) (width 0.1))
  (fp_line (start 2.54 3.49) (end 2.54 4.13) (layer F.Fab) (width 0.1))
  (fp_line (start 2.54 4.13) (end 3.92 4.13) (layer F.Fab) (width 0.1))
  (fp_line (start 3.92 4.13) (end 3.92 3.49) (layer F.Fab) (width 0.1))
  (fp_line (start 3.92 3.49) (end 2.54 3.49) (layer F.Fab) (width 0.1))
  (fp_line (start -2.54 6.03) (end -2.54 6.67) (layer F.Fab) (width 0.1))
  (fp_line (start -2.54 6.67) (end -3.92 6.67) (layer F.Fab) (width 0.1))
  (fp_line (start -3.92 6.67) (end -3.92 6.03) (layer F.Fab) (width 0.1))
  (fp_line (start -3.92 6.03) (end -2.54 6.03) (layer F.Fab) (width 0.1))
  (fp_line (start 2.54 6.03) (end 2.54 6.67) (layer F.Fab) (width 0.1))
  (fp_line (start 2.54 6.67) (end 3.92 6.67) (layer F.Fab) (width 0.1))
  (fp_line (start 3.92 6.67) (end 3.92 6.03) (layer F.Fab) (width 0.1))
  (fp_line (start 3.92 6.03) (end 2.54 6.03) (layer F.Fab) (width 0.1))
  (fp_line (start -2.54 8.57) (end -2.54 9.21) (layer F.Fab) (width 0.1))
  (fp_line (start -2.54 9.21) (end -3.92 9.21) (layer F.Fab) (width 0.1))
  (fp_line (start -3.92 9.21) (end -3.92 8.57) (layer F.Fab) (width 0.1))
  (fp_line (start -3.92 8.57) (end -2.54 8.57) (layer F.Fab) (width 0.1))
  (fp_line (start 2.54 8.57) (end 2.54 9.21) (layer F.Fab) (width 0.1))
  (fp_line (start 2.54 9.21) (end 3.92 9.21) (layer F.Fab) (width 0.1))
  (fp_line (start 3.92 9.21) (end 3.92 8.57) (layer F.Fab) (width 0.1))
  (fp_line (start 3.92 8.57) (end 2.54 8.57) (layer F.Fab) (width 0.1))
  (fp_line (start -2.54 11.11) (end -2.54 11.75) (layer F.Fab) (width 0.1))
  (fp_line (start -2.54 11.75) (end -3.92 11.75) (layer F.Fab) (width 0.1))
  (fp_line (start -3.92 11.75) (end -3.92 11.11) (layer F.Fab) (width 0.1))
  (fp_line (start -3.92 11.11) (end -2.54 11.11) (layer F.Fab) (width 0.1))
  (fp_line (start 2.54 11.11) (end 2.54 11.75) (layer F.Fab) (width 0.1))
  (fp_line (start 2.54 11.75) (end 3.92 11.75) (layer F.Fab) (width 0.1))
  (fp_line (start 3.92 11.75) (end 3.92 11.11) (layer F.Fab) (width 0.1))
  (fp_line (start 3.92 11.11) (end 2.54 11.11) (layer F.Fab) (width 0.1))
  (fp_line (start -2.54 13.65) (end -2.54 14.29) (layer F.Fab) (width 0.1))
  (fp_line (start -2.54 14.29) (end -3.92 14.29) (layer F.Fab) (width 0.1))
  (fp_line (start -3.92 14.29) (end -3.92 13.65) (layer F.Fab) (width 0.1))
  (fp_line (start -3.92 13.65) (end -2.54 13.65) (layer F.Fab) (width 0.1))
  (fp_line (start 2.54 13.65) (end 2.54 14.29) (layer F.Fab) (width 0.1))
  (fp_line (start 2.54 14.29) (end 3.92 14.29) (layer F.Fab) (width 0.1))
  (fp_line (start 3.92 14.29) (end 3.92 13.65) (layer F.Fab) (width 0.1))
  (fp_line (start 3.92 13.65) (end 2.54 13.65) (layer F.Fab) (width 0.1))
  (fp_line (start -2.54 16.19) (end -2.54 16.83) (layer F.Fab) (width 0.1))
  (fp_line (start -2.54 16.83) (end -3.92 16.83) (layer F.Fab) (width 0.1))
  (fp_line (start -3.92 16.83) (end -3.92 16.19) (layer F.Fab) (width 0.1))
  (fp_line (start -3.92 16.19) (end -2.54 16.19) (layer F.Fab) (width 0.1))
  (fp_line (start 2.54 16.19) (end 2.54 16.83) (layer F.Fab) (width 0.1))
  (fp_line (start 2.54 16.83) (end 3.92 16.83) (layer F.Fab) (width 0.1))
  (fp_line (start 3.92 16.83) (end 3.92 16.19) (layer F.Fab) (width 0.1))
  (fp_line (start 3.92 16.19) (end 2.54 16.19) (layer F.Fab) (width 0.1))
  (fp_line (start -2.54 18.73) (end -2.54 19.37) (layer F.Fab) (width 0.1))
  (fp_line (start -2.54 19.37) (end -3.92 19.37) (layer F.Fab) (width 0.1))
  (fp_line (start -3.92 19.37) (end -3.92 18.73) (layer F.Fab) (width 0.1))
  (fp_line (start -3.92 18.73) (end -2.54 18.73) (layer F.Fab) (width 0.1))
  (fp_line (start 2.54 18.73) (end 2.54 19.37) (layer F.Fab) (width 0.1))
  (fp_line (start 2.54 19.37) (end 3.92 19.37) (layer F.Fab) (width 0.1))
  (fp_line (start 3.92 19.37) (end 3.92 18.73) (layer F.Fab) (width 0.1))
  (fp_line (start 3.92 18.73) (end 2.54 18.73) (layer F.Fab) (width 0.1))
  (fp_line (start -2.54 21.27) (end -2.54 21.91) (layer F.Fab) (width 0.1))
  (fp_line (start -2.54 21.91) (end -3.92 21.91) (layer F.Fab) (width 0.1))
  (fp_line (start -3.92 21.91) (end -3.92 21.27) (layer F.Fab) (width 0.1))
  (fp_line (start -3.92 21.27) (end -2.54 21.27) (layer F.Fab) (width 0.1))
  (fp_line (start 2.54 21.27) (end 2.54 21.91) (layer F.Fab) (width 0.1))
  (fp_line (start 2.54 21.91) (end 3.92 21.91) (layer F.Fab) (width 0.1))
  (fp_line (start 3.92 21.91) (end 3.92 21.27) (layer F.Fab) (width 0.1))
  (fp_line (start 3.92 21.27) (end 2.54 21.27) (layer F.Fab) (width 0.1))
  (fp_line (start -2.54 23.81) (end -2.54 24.45) (layer F.Fab) (width 0.1))
  (fp_line (start -2.54 24.45) (end -3.92 24.45) (layer F.Fab) (width 0.1))
  (fp_line (start -3.92 24.45) (end -3.92 23.81) (layer F.Fab) (width 0.1))
  (fp_line (start -3.92 23.81) (end -2.54 23.81) (layer F.Fab) (width 0.1))
  (fp_line (start 2.54 23.81) (end 2.54 24.45) (layer F.Fab) (width 0.1))
  (fp_line (start 2.54 24.45) (end 3.92 24.45) (layer F.Fab) (width 0.1))
  (fp_line (start 3.92 24.45) (end 3.92 23.81) (layer F.Fab) (width 0.1))
  (fp_line (start 3.92 23.81) (end 2.54 23.81) (layer F.Fab) (width 0.1))
  (fp_line (start -2.54 26.35) (end -2.54 26.99) (layer F.Fab) (width 0.1))
  (fp_line (start -2.54 26.99) (end -3.92 26.99) (layer F.Fab) (width 0.1))
  (fp_line (start -3.92 26.99) (end -3.92 26.35) (layer F.Fab) (width 0.1))
  (fp_line (start -3.92 26.35) (end -2.54 26.35) (layer F.Fab) (width 0.1))
  (fp_line (start 2.54 26.35) (end 2.54 26.99) (layer F.Fab) (width 0.1))
  (fp_line (start 2.54 26.99) (end 3.92 26.99) (layer F.Fab) (width 0.1))
  (fp_line (start 3.92 26.99) (end 3.92 26.35) (layer F.Fab) (width 0.1))
  (fp_line (start 3.92 26.35) (end 2.54 26.35) (layer F.Fab) (width 0.1))
  (fp_line (start -2.54 28.89) (end -2.54 29.53) (layer F.Fab) (width 0.1))
  (fp_line (start -2.54 29.53) (end -3.92 29.53) (layer F.Fab) (width 0.1))
  (fp_line (start -3.92 29.53) (end -3.92 28.89) (layer F.Fab) (width 0.1))
  (fp_line (start -3.92 28.89) (end -2.54 28.89) (layer F.Fab) (width 0.1))
  (fp_line (start 2.54 28.89) (end 2.54 29.53) (layer F.Fab) (width 0.1))
  (fp_line (start 2.54 29.53) (end 3.92 29.53) (layer F.Fab) (width 0.1))
  (fp_line (start 3.92 29.53) (end 3.92 28.89) (layer F.Fab) (width 0.1))
  (fp_line (start 3.92 28.89) (end 2.54 28.89) (layer F.Fab) (width 0.1))
  (fp_line (start -2.54 31.43) (end -2.54 32.07) (layer F.Fab) (width 0.1))
  (fp_line (start -2.54 32.07) (end -3.92 32.07) (layer F.Fab) (width 0.1))
  (fp_line (start -3.92 32.07) (end -3.92 31.43) (layer F.Fab) (width 0.1))
  (fp_line (start -3.92 31.43) (end -2.54 31.43) (layer F.Fab) (width 0.1))
  (fp_line (start 2.54 31.43) (end 2.54 32.07) (layer F.Fab) (width 0.1))
  (fp_line (start 2.54 32.07) (end 3.92 32.07) (layer F.Fab) (width 0.1))
  (fp_line (start 3.92 32.07) (end 3.92 31.43) (layer F.Fab) (width 0.1))
  (fp_line (start 3.92 31.43) (end 2.54 31.43) (layer F.Fab) (width 0.1))
  (fp_line (start -2.54 33.97) (end -2.54 34.61) (layer F.Fab) (width 0.1))
  (fp_line (start -2.54 34.61) (end -3.92 34.61) (layer F.Fab) (width 0.1))
  (fp_line (start -3.92 34.61) (end -3.92 33.97) (layer F.Fab) (width 0.1))
  (fp_line (start -3.92 33.97) (end -2.54 33.97) (layer F.Fab) (width 0.1))
  (fp_line (start 2.54 33.97) (end 2.54 34.61) (layer F.Fab) (width 0.1))
  (fp_line (start 2.54 34.61) (end 3.92 34.61) (layer F.Fab) (width 0.1))
  (fp_line (start 3.92 34.61) (end 3.92 33.97) (layer F.Fab) (width 0.1))
  (fp_line (start 3.92 33.97) (end 2.54 33.97) (layer F.Fab) (width 0.1))
  (fp_line (start -2.54 36.51) (end -2.54 37.15) (layer F.Fab) (width 0.1))
  (fp_line (start -2.54 37.15) (end -3.92 37.15) (layer F.Fab) (width 0.1))
  (fp_line (start -3.92 37.15) (end -3.92 36.51) (layer F.Fab) (width 0.1))
  (fp_line (start -3.92 36.51) (end -2.54 36.51) (layer F.Fab) (width 0.1))
  (fp_line (start 2.54 36.51) (end 2.54 37.15) (layer F.Fab) (width 0.1))
  (fp_line (start 2.54 37.15) (end 3.92 37.15) (layer F.Fab) (width 0.1))
  (fp_line (start 3.92 37.15) (end 3.92 36.51) (layer F.Fab) (width 0.1))
  (fp_line (start 3.92 36.51) (end 2.54 36.51) (layer F.Fab) (width 0.1))
  (fp_line (start -2.54 39.05) (end -2.54 39.69) (layer F.Fab) (width 0.1))
  (fp_line (start -2.54 39.69) (end -3.92 39.69) (layer F.Fab) (width 0.1))
  (fp_line (start -3.92 39.69) (end -3.92 39.05) (layer F.Fab) (width 0.1))
  (fp_line (start -3.92 39.05) (end -2.54 39.05) (layer F.Fab) (width 0.1))
  (fp_line (start 2.54 39.05) (end 2.54 39.69) (layer F.Fab) (width 0.1))
  (fp_line (start 2.54 39.69) (end 3.92 39.69) (layer F.Fab) (width 0.1))
  (fp_line (start 3.92 39.69) (end 3.92 39.05) (layer F.Fab) (width 0.1))
  (fp_line (start 3.92 39.05) (end 2.54 39.05) (layer F.Fab) (width 0.1))
  (fp_line (start -2.6 -40.17) (end -2.6 -40.7) (layer F.SilkS) (width 0.12))
  (fp_line (start -2.6 -40.7) (end 2.6 -40.7) (layer F.SilkS) (width 0.12))
  (fp_line (start 2.6 -40.7) (end 2.6 -40.17) (layer F.SilkS) (width 0.12))
  (fp_line (start -2.6 40.17) (end -2.6 40.7) (layer F.SilkS) (width 0.12))
  (fp_line (start -2.6 40.7) (end 2.6 40.7) (layer F.SilkS) (width 0.12))
  (fp_line (start 2.6 40.7) (end 2.6 40.17) (layer F.SilkS) (width 0.12))
  (fp_line (start -4.27 -40.17) (end -2.6 -40.17) (layer F.SilkS) (width 0.12))
  (fp_line (start -4.55 -40.9) (end -4.55 40.9) (layer F.CrtYd) (width 0.05))
  (fp_line (start -4.55 40.9) (end 4.55 40.9) (layer F.CrtYd) (width 0.05))
  (fp_line (start 4.55 40.9) (end 4.55 -40.9) (layer F.CrtYd) (width 0.05))
  (fp_line (start 4.55 -40.9) (end -4.55 -40.9) (layer F.CrtYd) (width 0.05))
  (pad 1 smd rect (at -2.77 -39.37) (size 3 1) (layers F.Cu F.Mask))
  (pad 2 smd rect (at 2.77 -39.37) (size 3 1) (layers F.Cu F.Mask))
  (pad 3 smd rect (at -2.77 -36.83) (size 3 1) (layers F.Cu F.Mask))
  (pad 4 smd rect (at 2.77 -36.83) (size 3 1) (layers F.Cu F.Mask))
  (pad 5 smd rect (at -2.77 -34.29) (size 3 1) (layers F.Cu F.Mask))
  (pad 6 smd rect (at 2.77 -34.29) (size 3 1) (layers F.Cu F.Mask))
  (pad 7 smd rect (at -2.77 -31.75) (size 3 1) (layers F.Cu F.Mask))
  (pad 8 smd rect (at 2.77 -31.75) (size 3 1) (layers F.Cu F.Mask))
  (pad 9 smd rect (at -2.77 -29.21) (size 3 1) (layers F.Cu F.Mask))
  (pad 10 smd rect (at 2.77 -29.21) (size 3 1) (layers F.Cu F.Mask))
  (pad 11 smd rect (at -2.77 -26.67) (size 3 1) (layers F.Cu F.Mask))
  (pad 12 smd rect (at 2.77 -26.67) (size 3 1) (layers F.Cu F.Mask))
  (pad 13 smd rect (at -2.77 -24.13) (size 3 1) (layers F.Cu F.Mask))
  (pad 14 smd rect (at 2.77 -24.13) (size 3 1) (layers F.Cu F.Mask))
  (pad 15 smd rect (at -2.77 -21.59) (size 3 1) (layers F.Cu F.Mask))
  (pad 16 smd rect (at 2.77 -21.59) (size 3 1) (layers F.Cu F.Mask))
  (pad 17 smd rect (at -2.77 -19.05) (size 3 1) (layers F.Cu F.Mask))
  (pad 18 smd rect (at 2.77 -19.05) (size 3 1) (layers F.Cu F.Mask))
  (pad 19 smd rect (at -2.77 -16.51) (size 3 1) (layers F.Cu F.Mask))
  (pad 20 smd rect (at 2.77 -16.51) (size 3 1) (layers F.Cu F.Mask))
  (pad 21 smd rect (at -2.77 -13.97) (size 3 1) (layers F.Cu F.Mask))
  (pad 22 smd rect (at 2.77 -13.97) (size 3 1) (layers F.Cu F.Mask))
  (pad 23 smd rect (at -2.77 -11.43) (size 3 1) (layers F.Cu F.Mask))
  (pad 24 smd rect (at 2.77 -11.43) (size 3 1) (layers F.Cu F.Mask))
  (pad 25 smd rect (at -2.77 -8.89) (size 3 1) (layers F.Cu F.Mask))
  (pad 26 smd rect (at 2.77 -8.89) (size 3 1) (layers F.Cu F.Mask))
  (pad 27 smd rect (at -2.77 -6.35) (size 3 1) (layers F.Cu F.Mask))
  (pad 28 smd rect (at 2.77 -6.35) (size 3 1) (layers F.Cu F.Mask))
  (pad 29 smd rect (at -2.77 -3.81) (size 3 1) (layers F.Cu F.Mask))
  (pad 30 smd rect (at 2.77 -3.81) (size 3 1) (layers F.Cu F.Mask))
  (pad 31 smd rect (at -2.77 -1.27) (size 3 1) (layers F.Cu F.Mask))
  (pad 32 smd rect (at 2.77 -1.27) (size 3 1) (layers F.Cu F.Mask))
  (pad 33 smd rect (at -2.77 1.27) (size 3 1) (layers F.Cu F.Mask))
  (pad 34 smd rect (at 2.77 1.27) (size 3 1) (layers F.Cu F.Mask))
  (pad 35 smd rect (at -2.77 3.81) (size 3 1) (layers F.Cu F.Mask))
  (pad 36 smd rect (at 2.77 3.81) (size 3 1) (layers F.Cu F.Mask))
  (pad 37 smd rect (at -2.77 6.35) (size 3 1) (layers F.Cu F.Mask))
  (pad 38 smd rect (at 2.77 6.35) (size 3 1) (layers F.Cu F.Mask))
  (pad 39 smd rect (at -2.77 8.89) (size 3 1) (layers F.Cu F.Mask))
  (pad 40 smd rect (at 2.77 8.89) (size 3 1) (layers F.Cu F.Mask))
  (pad 41 smd rect (at -2.77 11.43) (size 3 1) (layers F.Cu F.Mask))
  (pad 42 smd rect (at 2.77 11.43) (size 3 1) (layers F.Cu F.Mask))
  (pad 43 smd rect (at -2.77 13.97) (size 3 1) (layers F.Cu F.Mask))
  (pad 44 smd rect (at 2.77 13.97) (size 3 1) (layers F.Cu F.Mask))
  (pad 45 smd rect (at -2.77 16.51) (size 3 1) (layers F.Cu F.Mask))
  (pad 46 smd rect (at 2.77 16.51) (size 3 1) (layers F.Cu F.Mask))
  (pad 47 smd rect (at -2.77 19.05) (size 3 1) (layers F.Cu F.Mask))
  (pad 48 smd rect (at 2.77 19.05) (size 3 1) (layers F.Cu F.Mask))
  (pad 49 smd rect (at -2.77 21.59) (size 3 1) (layers F.Cu F.Mask))
  (pad 50 smd rect (at 2.77 21.59) (size 3 1) (layers F.Cu F.Mask))
  (pad 51 smd rect (at -2.77 24.13) (size 3 1) (layers F.Cu F.Mask))
  (pad 52 smd rect (at 2.77 24.13) (size 3 1) (layers F.Cu F.Mask))
  (pad 53 smd rect (at -2.77 26.67) (size 3 1) (layers F.Cu F.Mask))
  (pad 54 smd rect (at 2.77 26.67) (size 3 1) (layers F.Cu F.Mask))
  (pad 55 smd rect (at -2.77 29.21) (size 3 1) (layers F.Cu F.Mask))
  (pad 56 smd rect (at 2.77 29.21) (size 3 1) (layers F.Cu F.Mask))
  (pad 57 smd rect (at -2.77 31.75) (size 3 1) (layers F.Cu F.Mask))
  (pad 58 smd rect (at 2.77 31.75) (size 3 1) (layers F.Cu F.Mask))
  (pad 59 smd rect (at -2.77 34.29) (size 3 1) (layers F.Cu F.Mask))
  (pad 60 smd rect (at 2.77 34.29) (size 3 1) (layers F.Cu F.Mask))
  (pad 61 smd rect (at -2.77 36.83) (size 3 1) (layers F.Cu F.Mask))
  (pad 62 smd rect (at 2.77 36.83) (size 3 1) (layers F.Cu F.Mask))
  (pad 63 smd rect (at -2.77 39.37) (size 3 1) (layers F.Cu F.Mask))
  (pad 64 smd rect (at 2.77 39.37) (size 3 1) (layers F.Cu F.Mask))
  (model Pin_Headers.3dshapes/Pin_Header_Straight_2x32_Pitch2.54mm_SMD.wrl
    (at (xyz 0 0 0))
    (scale (xyz 1 1 1))
    (rotate (xyz 0 0 0))
  )
)