(module Pin_Header_Straight_2x28_Pitch1.27mm_SMD (layer F.Cu) (tedit 588DAF39)
  (descr "surface-mounted straight pin header, 2x28, 1.27mm pitch, double rows")
  (tags "Surface mounted pin header SMD 2x28 1.27mm double row")
  (attr smd)
  (fp_text reference REF** (at 0 -18.84) (layer F.SilkS)
    (effects (font (size 1 1) (thickness 0.15)))
  )
  (fp_text value Pin_Header_Straight_2x28_Pitch1.27mm_SMD (at 0 18.84) (layer F.Fab)
    (effects (font (size 1 1) (thickness 0.15)))
  )
  (fp_line (start -1.27 -17.78) (end -1.27 17.78) (layer F.Fab) (width 0.1))
  (fp_line (start -1.27 17.78) (end 1.27 17.78) (layer F.Fab) (width 0.1))
  (fp_line (start 1.27 17.78) (end 1.27 -17.78) (layer F.Fab) (width 0.1))
  (fp_line (start 1.27 -17.78) (end -1.27 -17.78) (layer F.Fab) (width 0.1))
  (fp_line (start -1.27 -17.345) (end -1.27 -16.945) (layer F.Fab) (width 0.1))
  (fp_line (start -1.27 -16.945) (end -2.555 -16.945) (layer F.Fab) (width 0.1))
  (fp_line (start -2.555 -16.945) (end -2.555 -17.345) (layer F.Fab) (width 0.1))
  (fp_line (start -2.555 -17.345) (end -1.27 -17.345) (layer F.Fab) (width 0.1))
  (fp_line (start 1.27 -17.345) (end 1.27 -16.945) (layer F.Fab) (width 0.1))
  (fp_line (start 1.27 -16.945) (end 2.555 -16.945) (layer F.Fab) (width 0.1))
  (fp_line (start 2.555 -16.945) (end 2.555 -17.345) (layer F.Fab) (width 0.1))
  (fp_line (start 2.555 -17.345) (end 1.27 -17.345) (layer F.Fab) (width 0.1))
  (fp_line (start -1.27 -16.075) (end -1.27 -15.675) (layer F.Fab) (width 0.1))
  (fp_line (start -1.27 -15.675) (end -2.555 -15.675) (layer F.Fab) (width 0.1))
  (fp_line (start -2.555 -15.675) (end -2.555 -16.075) (layer F.Fab) (width 0.1))
  (fp_line (start -2.555 -16.075) (end -1.27 -16.075) (layer F.Fab) (width 0.1))
  (fp_line (start 1.27 -16.075) (end 1.27 -15.675) (layer F.Fab) (width 0.1))
  (fp_line (start 1.27 -15.675) (end 2.555 -15.675) (layer F.Fab) (width 0.1))
  (fp_line (start 2.555 -15.675) (end 2.555 -16.075) (layer F.Fab) (width 0.1))
  (fp_line (start 2.555 -16.075) (end 1.27 -16.075) (layer F.Fab) (width 0.1))
  (fp_line (start -1.27 -14.805) (end -1.27 -14.405) (layer F.Fab) (width 0.1))
  (fp_line (start -1.27 -14.405) (end -2.555 -14.405) (layer F.Fab) (width 0.1))
  (fp_line (start -2.555 -14.405) (end -2.555 -14.805) (layer F.Fab) (width 0.1))
  (fp_line (start -2.555 -14.805) (end -1.27 -14.805) (layer F.Fab) (width 0.1))
  (fp_line (start 1.27 -14.805) (end 1.27 -14.405) (layer F.Fab) (width 0.1))
  (fp_line (start 1.27 -14.405) (end 2.555 -14.405) (layer F.Fab) (width 0.1))
  (fp_line (start 2.555 -14.405) (end 2.555 -14.805) (layer F.Fab) (width 0.1))
  (fp_line (start 2.555 -14.805) (end 1.27 -14.805) (layer F.Fab) (width 0.1))
  (fp_line (start -1.27 -13.535) (end -1.27 -13.135) (layer F.Fab) (width 0.1))
  (fp_line (start -1.27 -13.135) (end -2.555 -13.135) (layer F.Fab) (width 0.1))
  (fp_line (start -2.555 -13.135) (end -2.555 -13.535) (layer F.Fab) (width 0.1))
  (fp_line (start -2.555 -13.535) (end -1.27 -13.535) (layer F.Fab) (width 0.1))
  (fp_line (start 1.27 -13.535) (end 1.27 -13.135) (layer F.Fab) (width 0.1))
  (fp_line (start 1.27 -13.135) (end 2.555 -13.135) (layer F.Fab) (width 0.1))
  (fp_line (start 2.555 -13.135) (end 2.555 -13.535) (layer F.Fab) (width 0.1))
  (fp_line (start 2.555 -13.535) (end 1.27 -13.535) (layer F.Fab) (width 0.1))
  (fp_line (start -1.27 -12.265) (end -1.27 -11.865) (layer F.Fab) (width 0.1))
  (fp_line (start -1.27 -11.865) (end -2.555 -11.865) (layer F.Fab) (width 0.1))
  (fp_line (start -2.555 -11.865) (end -2.555 -12.265) (layer F.Fab) (width 0.1))
  (fp_line (start -2.555 -12.265) (end -1.27 -12.265) (layer F.Fab) (width 0.1))
  (fp_line (start 1.27 -12.265) (end 1.27 -11.865) (layer F.Fab) (width 0.1))
  (fp_line (start 1.27 -11.865) (end 2.555 -11.865) (layer F.Fab) (width 0.1))
  (fp_line (start 2.555 -11.865) (end 2.555 -12.265) (layer F.Fab) (width 0.1))
  (fp_line (start 2.555 -12.265) (end 1.27 -12.265) (layer F.Fab) (width 0.1))
  (fp_line (start -1.27 -10.995) (end -1.27 -10.595) (layer F.Fab) (width 0.1))
  (fp_line (start -1.27 -10.595) (end -2.555 -10.595) (layer F.Fab) (width 0.1))
  (fp_line (start -2.555 -10.595) (end -2.555 -10.995) (layer F.Fab) (width 0.1))
  (fp_line (start -2.555 -10.995) (end -1.27 -10.995) (layer F.Fab) (width 0.1))
  (fp_line (start 1.27 -10.995) (end 1.27 -10.595) (layer F.Fab) (width 0.1))
  (fp_line (start 1.27 -10.595) (end 2.555 -10.595) (layer F.Fab) (width 0.1))
  (fp_line (start 2.555 -10.595) (end 2.555 -10.995) (layer F.Fab) (width 0.1))
  (fp_line (start 2.555 -10.995) (end 1.27 -10.995) (layer F.Fab) (width 0.1))
  (fp_line (start -1.27 -9.725) (end -1.27 -9.325) (layer F.Fab) (width 0.1))
  (fp_line (start -1.27 -9.325) (end -2.555 -9.325) (layer F.Fab) (width 0.1))
  (fp_line (start -2.555 -9.325) (end -2.555 -9.725) (layer F.Fab) (width 0.1))
  (fp_line (start -2.555 -9.725) (end -1.27 -9.725) (layer F.Fab) (width 0.1))
  (fp_line (start 1.27 -9.725) (end 1.27 -9.325) (layer F.Fab) (width 0.1))
  (fp_line (start 1.27 -9.325) (end 2.555 -9.325) (layer F.Fab) (width 0.1))
  (fp_line (start 2.555 -9.325) (end 2.555 -9.725) (layer F.Fab) (width 0.1))
  (fp_line (start 2.555 -9.725) (end 1.27 -9.725) (layer F.Fab) (width 0.1))
  (fp_line (start -1.27 -8.455) (end -1.27 -8.055) (layer F.Fab) (width 0.1))
  (fp_line (start -1.27 -8.055) (end -2.555 -8.055) (layer F.Fab) (width 0.1))
  (fp_line (start -2.555 -8.055) (end -2.555 -8.455) (layer F.Fab) (width 0.1))
  (fp_line (start -2.555 -8.455) (end -1.27 -8.455) (layer F.Fab) (width 0.1))
  (fp_line (start 1.27 -8.455) (end 1.27 -8.055) (layer F.Fab) (width 0.1))
  (fp_line (start 1.27 -8.055) (end 2.555 -8.055) (layer F.Fab) (width 0.1))
  (fp_line (start 2.555 -8.055) (end 2.555 -8.455) (layer F.Fab) (width 0.1))
  (fp_line (start 2.555 -8.455) (end 1.27 -8.455) (layer F.Fab) (width 0.1))
  (fp_line (start -1.27 -7.185) (end -1.27 -6.785) (layer F.Fab) (width 0.1))
  (fp_line (start -1.27 -6.785) (end -2.555 -6.785) (layer F.Fab) (width 0.1))
  (fp_line (start -2.555 -6.785) (end -2.555 -7.185) (layer F.Fab) (width 0.1))
  (fp_line (start -2.555 -7.185) (end -1.27 -7.185) (layer F.Fab) (width 0.1))
  (fp_line (start 1.27 -7.185) (end 1.27 -6.785) (layer F.Fab) (width 0.1))
  (fp_line (start 1.27 -6.785) (end 2.555 -6.785) (layer F.Fab) (width 0.1))
  (fp_line (start 2.555 -6.785) (end 2.555 -7.185) (layer F.Fab) (width 0.1))
  (fp_line (start 2.555 -7.185) (end 1.27 -7.185) (layer F.Fab) (width 0.1))
  (fp_line (start -1.27 -5.915) (end -1.27 -5.515) (layer F.Fab) (width 0.1))
  (fp_line (start -1.27 -5.515) (end -2.555 -5.515) (layer F.Fab) (width 0.1))
  (fp_line (start -2.555 -5.515) (end -2.555 -5.915) (layer F.Fab) (width 0.1))
  (fp_line (start -2.555 -5.915) (end -1.27 -5.915) (layer F.Fab) (width 0.1))
  (fp_line (start 1.27 -5.915) (end 1.27 -5.515) (layer F.Fab) (width 0.1))
  (fp_line (start 1.27 -5.515) (end 2.555 -5.515) (layer F.Fab) (width 0.1))
  (fp_line (start 2.555 -5.515) (end 2.555 -5.915) (layer F.Fab) (width 0.1))
  (fp_line (start 2.555 -5.915) (end 1.27 -5.915) (layer F.Fab) (width 0.1))
  (fp_line (start -1.27 -4.645) (end -1.27 -4.245) (layer F.Fab) (width 0.1))
  (fp_line (start -1.27 -4.245) (end -2.555 -4.245) (layer F.Fab) (width 0.1))
  (fp_line (start -2.555 -4.245) (end -2.555 -4.645) (layer F.Fab) (width 0.1))
  (fp_line (start -2.555 -4.645) (end -1.27 -4.645) (layer F.Fab) (width 0.1))
  (fp_line (start 1.27 -4.645) (end 1.27 -4.245) (layer F.Fab) (width 0.1))
  (fp_line (start 1.27 -4.245) (end 2.555 -4.245) (layer F.Fab) (width 0.1))
  (fp_line (start 2.555 -4.245) (end 2.555 -4.645) (layer F.Fab) (width 0.1))
  (fp_line (start 2.555 -4.645) (end 1.27 -4.645) (layer F.Fab) (width 0.1))
  (fp_line (start -1.27 -3.375) (end -1.27 -2.975) (layer F.Fab) (width 0.1))
  (fp_line (start -1.27 -2.975) (end -2.555 -2.975) (layer F.Fab) (width 0.1))
  (fp_line (start -2.555 -2.975) (end -2.555 -3.375) (layer F.Fab) (width 0.1))
  (fp_line (start -2.555 -3.375) (end -1.27 -3.375) (layer F.Fab) (width 0.1))
  (fp_line (start 1.27 -3.375) (end 1.27 -2.975) (layer F.Fab) (width 0.1))
  (fp_line (start 1.27 -2.975) (end 2.555 -2.975) (layer F.Fab) (width 0.1))
  (fp_line (start 2.555 -2.975) (end 2.555 -3.375) (layer F.Fab) (width 0.1))
  (fp_line (start 2.555 -3.375) (end 1.27 -3.375) (layer F.Fab) (width 0.1))
  (fp_line (start -1.27 -2.105) (end -1.27 -1.705) (layer F.Fab) (width 0.1))
  (fp_line (start -1.27 -1.705) (end -2.555 -1.705) (layer F.Fab) (width 0.1))
  (fp_line (start -2.555 -1.705) (end -2.555 -2.105) (layer F.Fab) (width 0.1))
  (fp_line (start -2.555 -2.105) (end -1.27 -2.105) (layer F.Fab) (width 0.1))
  (fp_line (start 1.27 -2.105) (end 1.27 -1.705) (layer F.Fab) (width 0.1))
  (fp_line (start 1.27 -1.705) (end 2.555 -1.705) (layer F.Fab) (width 0.1))
  (fp_line (start 2.555 -1.705) (end 2.555 -2.105) (layer F.Fab) (width 0.1))
  (fp_line (start 2.555 -2.105) (end 1.27 -2.105) (layer F.Fab) (width 0.1))
  (fp_line (start -1.27 -0.835) (end -1.27 -0.435) (layer F.Fab) (width 0.1))
  (fp_line (start -1.27 -0.435) (end -2.555 -0.435) (layer F.Fab) (width 0.1))
  (fp_line (start -2.555 -0.435) (end -2.555 -0.835) (layer F.Fab) (width 0.1))
  (fp_line (start -2.555 -0.835) (end -1.27 -0.835) (layer F.Fab) (width 0.1))
  (fp_line (start 1.27 -0.835) (end 1.27 -0.435) (layer F.Fab) (width 0.1))
  (fp_line (start 1.27 -0.435) (end 2.555 -0.435) (layer F.Fab) (width 0.1))
  (fp_line (start 2.555 -0.435) (end 2.555 -0.835) (layer F.Fab) (width 0.1))
  (fp_line (start 2.555 -0.835) (end 1.27 -0.835) (layer F.Fab) (width 0.1))
  (fp_line (start -1.27 0.435) (end -1.27 0.835) (layer F.Fab) (width 0.1))
  (fp_line (start -1.27 0.835) (end -2.555 0.835) (layer F.Fab) (width 0.1))
  (fp_line (start -2.555 0.835) (end -2.555 0.435) (layer F.Fab) (width 0.1))
  (fp_line (start -2.555 0.435) (end -1.27 0.435) (layer F.Fab) (width 0.1))
  (fp_line (start 1.27 0.435) (end 1.27 0.835) (layer F.Fab) (width 0.1))
  (fp_line (start 1.27 0.835) (end 2.555 0.835) (layer F.Fab) (width 0.1))
  (fp_line (start 2.555 0.835) (end 2.555 0.435) (layer F.Fab) (width 0.1))
  (fp_line (start 2.555 0.435) (end 1.27 0.435) (layer F.Fab) (width 0.1))
  (fp_line (start -1.27 1.705) (end -1.27 2.105) (layer F.Fab) (width 0.1))
  (fp_line (start -1.27 2.105) (end -2.555 2.105) (layer F.Fab) (width 0.1))
  (fp_line (start -2.555 2.105) (end -2.555 1.705) (layer F.Fab) (width 0.1))
  (fp_line (start -2.555 1.705) (end -1.27 1.705) (layer F.Fab) (width 0.1))
  (fp_line (start 1.27 1.705) (end 1.27 2.105) (layer F.Fab) (width 0.1))
  (fp_line (start 1.27 2.105) (end 2.555 2.105) (layer F.Fab) (width 0.1))
  (fp_line (start 2.555 2.105) (end 2.555 1.705) (layer F.Fab) (width 0.1))
  (fp_line (start 2.555 1.705) (end 1.27 1.705) (layer F.Fab) (width 0.1))
  (fp_line (start -1.27 2.975) (end -1.27 3.375) (layer F.Fab) (width 0.1))
  (fp_line (start -1.27 3.375) (end -2.555 3.375) (layer F.Fab) (width 0.1))
  (fp_line (start -2.555 3.375) (end -2.555 2.975) (layer F.Fab) (width 0.1))
  (fp_line (start -2.555 2.975) (end -1.27 2.975) (layer F.Fab) (width 0.1))
  (fp_line (start 1.27 2.975) (end 1.27 3.375) (layer F.Fab) (width 0.1))
  (fp_line (start 1.27 3.375) (end 2.555 3.375) (layer F.Fab) (width 0.1))
  (fp_line (start 2.555 3.375) (end 2.555 2.975) (layer F.Fab) (width 0.1))
  (fp_line (start 2.555 2.975) (end 1.27 2.975) (layer F.Fab) (width 0.1))
  (fp_line (start -1.27 4.245) (end -1.27 4.645) (layer F.Fab) (width 0.1))
  (fp_line (start -1.27 4.645) (end -2.555 4.645) (layer F.Fab) (width 0.1))
  (fp_line (start -2.555 4.645) (end -2.555 4.245) (layer F.Fab) (width 0.1))
  (fp_line (start -2.555 4.245) (end -1.27 4.245) (layer F.Fab) (width 0.1))
  (fp_line (start 1.27 4.245) (end 1.27 4.645) (layer F.Fab) (width 0.1))
  (fp_line (start 1.27 4.645) (end 2.555 4.645) (layer F.Fab) (width 0.1))
  (fp_line (start 2.555 4.645) (end 2.555 4.245) (layer F.Fab) (width 0.1))
  (fp_line (start 2.555 4.245) (end 1.27 4.245) (layer F.Fab) (width 0.1))
  (fp_line (start -1.27 5.515) (end -1.27 5.915) (layer F.Fab) (width 0.1))
  (fp_line (start -1.27 5.915) (end -2.555 5.915) (layer F.Fab) (width 0.1))
  (fp_line (start -2.555 5.915) (end -2.555 5.515) (layer F.Fab) (width 0.1))
  (fp_line (start -2.555 5.515) (end -1.27 5.515) (layer F.Fab) (width 0.1))
  (fp_line (start 1.27 5.515) (end 1.27 5.915) (layer F.Fab) (width 0.1))
  (fp_line (start 1.27 5.915) (end 2.555 5.915) (layer F.Fab) (width 0.1))
  (fp_line (start 2.555 5.915) (end 2.555 5.515) (layer F.Fab) (width 0.1))
  (fp_line (start 2.555 5.515) (end 1.27 5.515) (layer F.Fab) (width 0.1))
  (fp_line (start -1.27 6.785) (end -1.27 7.185) (layer F.Fab) (width 0.1))
  (fp_line (start -1.27 7.185) (end -2.555 7.185) (layer F.Fab) (width 0.1))
  (fp_line (start -2.555 7.185) (end -2.555 6.785) (layer F.Fab) (width 0.1))
  (fp_line (start -2.555 6.785) (end -1.27 6.785) (layer F.Fab) (width 0.1))
  (fp_line (start 1.27 6.785) (end 1.27 7.185) (layer F.Fab) (width 0.1))
  (fp_line (start 1.27 7.185) (end 2.555 7.185) (layer F.Fab) (width 0.1))
  (fp_line (start 2.555 7.185) (end 2.555 6.785) (layer F.Fab) (width 0.1))
  (fp_line (start 2.555 6.785) (end 1.27 6.785) (layer F.Fab) (width 0.1))
  (fp_line (start -1.27 8.055) (end -1.27 8.455) (layer F.Fab) (width 0.1))
  (fp_line (start -1.27 8.455) (end -2.555 8.455) (layer F.Fab) (width 0.1))
  (fp_line (start -2.555 8.455) (end -2.555 8.055) (layer F.Fab) (width 0.1))
  (fp_line (start -2.555 8.055) (end -1.27 8.055) (layer F.Fab) (width 0.1))
  (fp_line (start 1.27 8.055) (end 1.27 8.455) (layer F.Fab) (width 0.1))
  (fp_line (start 1.27 8.455) (end 2.555 8.455) (layer F.Fab) (width 0.1))
  (fp_line (start 2.555 8.455) (end 2.555 8.055) (layer F.Fab) (width 0.1))
  (fp_line (start 2.555 8.055) (end 1.27 8.055) (layer F.Fab) (width 0.1))
  (fp_line (start -1.27 9.325) (end -1.27 9.725) (layer F.Fab) (width 0.1))
  (fp_line (start -1.27 9.725) (end -2.555 9.725) (layer F.Fab) (width 0.1))
  (fp_line (start -2.555 9.725) (end -2.555 9.325) (layer F.Fab) (width 0.1))
  (fp_line (start -2.555 9.325) (end -1.27 9.325) (layer F.Fab) (width 0.1))
  (fp_line (start 1.27 9.325) (end 1.27 9.725) (layer F.Fab) (width 0.1))
  (fp_line (start 1.27 9.725) (end 2.555 9.725) (layer F.Fab) (width 0.1))
  (fp_line (start 2.555 9.725) (end 2.555 9.325) (layer F.Fab) (width 0.1))
  (fp_line (start 2.555 9.325) (end 1.27 9.325) (layer F.Fab) (width 0.1))
  (fp_line (start -1.27 10.595) (end -1.27 10.995) (layer F.Fab) (width 0.1))
  (fp_line (start -1.27 10.995) (end -2.555 10.995) (layer F.Fab) (width 0.1))
  (fp_line (start -2.555 10.995) (end -2.555 10.595) (layer F.Fab) (width 0.1))
  (fp_line (start -2.555 10.595) (end -1.27 10.595) (layer F.Fab) (width 0.1))
  (fp_line (start 1.27 10.595) (end 1.27 10.995) (layer F.Fab) (width 0.1))
  (fp_line (start 1.27 10.995) (end 2.555 10.995) (layer F.Fab) (width 0.1))
  (fp_line (start 2.555 10.995) (end 2.555 10.595) (layer F.Fab) (width 0.1))
  (fp_line (start 2.555 10.595) (end 1.27 10.595) (layer F.Fab) (width 0.1))
  (fp_line (start -1.27 11.865) (end -1.27 12.265) (layer F.Fab) (width 0.1))
  (fp_line (start -1.27 12.265) (end -2.555 12.265) (layer F.Fab) (width 0.1))
  (fp_line (start -2.555 12.265) (end -2.555 11.865) (layer F.Fab) (width 0.1))
  (fp_line (start -2.555 11.865) (end -1.27 11.865) (layer F.Fab) (width 0.1))
  (fp_line (start 1.27 11.865) (end 1.27 12.265) (layer F.Fab) (width 0.1))
  (fp_line (start 1.27 12.265) (end 2.555 12.265) (layer F.Fab) (width 0.1))
  (fp_line (start 2.555 12.265) (end 2.555 11.865) (layer F.Fab) (width 0.1))
  (fp_line (start 2.555 11.865) (end 1.27 11.865) (layer F.Fab) (width 0.1))
  (fp_line (start -1.27 13.135) (end -1.27 13.535) (layer F.Fab) (width 0.1))
  (fp_line (start -1.27 13.535) (end -2.555 13.535) (layer F.Fab) (width 0.1))
  (fp_line (start -2.555 13.535) (end -2.555 13.135) (layer F.Fab) (width 0.1))
  (fp_line (start -2.555 13.135) (end -1.27 13.135) (layer F.Fab) (width 0.1))
  (fp_line (start 1.27 13.135) (end 1.27 13.535) (layer F.Fab) (width 0.1))
  (fp_line (start 1.27 13.535) (end 2.555 13.535) (layer F.Fab) (width 0.1))
  (fp_line (start 2.555 13.535) (end 2.555 13.135) (layer F.Fab) (width 0.1))
  (fp_line (start 2.555 13.135) (end 1.27 13.135) (layer F.Fab) (width 0.1))
  (fp_line (start -1.27 14.405) (end -1.27 14.805) (layer F.Fab) (width 0.1))
  (fp_line (start -1.27 14.805) (end -2.555 14.805) (layer F.Fab) (width 0.1))
  (fp_line (start -2.555 14.805) (end -2.555 14.405) (layer F.Fab) (width 0.1))
  (fp_line (start -2.555 14.405) (end -1.27 14.405) (layer F.Fab) (width 0.1))
  (fp_line (start 1.27 14.405) (end 1.27 14.805) (layer F.Fab) (width 0.1))
  (fp_line (start 1.27 14.805) (end 2.555 14.805) (layer F.Fab) (width 0.1))
  (fp_line (start 2.555 14.805) (end 2.555 14.405) (layer F.Fab) (width 0.1))
  (fp_line (start 2.555 14.405) (end 1.27 14.405) (layer F.Fab) (width 0.1))
  (fp_line (start -1.27 15.675) (end -1.27 16.075) (layer F.Fab) (width 0.1))
  (fp_line (start -1.27 16.075) (end -2.555 16.075) (layer F.Fab) (width 0.1))
  (fp_line (start -2.555 16.075) (end -2.555 15.675) (layer F.Fab) (width 0.1))
  (fp_line (start -2.555 15.675) (end -1.27 15.675) (layer F.Fab) (width 0.1))
  (fp_line (start 1.27 15.675) (end 1.27 16.075) (layer F.Fab) (width 0.1))
  (fp_line (start 1.27 16.075) (end 2.555 16.075) (layer F.Fab) (width 0.1))
  (fp_line (start 2.555 16.075) (end 2.555 15.675) (layer F.Fab) (width 0.1))
  (fp_line (start 2.555 15.675) (end 1.27 15.675) (layer F.Fab) (width 0.1))
  (fp_line (start -1.27 16.945) (end -1.27 17.345) (layer F.Fab) (width 0.1))
  (fp_line (start -1.27 17.345) (end -2.555 17.345) (layer F.Fab) (width 0.1))
  (fp_line (start -2.555 17.345) (end -2.555 16.945) (layer F.Fab) (width 0.1))
  (fp_line (start -2.555 16.945) (end -1.27 16.945) (layer F.Fab) (width 0.1))
  (fp_line (start 1.27 16.945) (end 1.27 17.345) (layer F.Fab) (width 0.1))
  (fp_line (start 1.27 17.345) (end 2.555 17.345) (layer F.Fab) (width 0.1))
  (fp_line (start 2.555 17.345) (end 2.555 16.945) (layer F.Fab) (width 0.1))
  (fp_line (start 2.555 16.945) (end 1.27 16.945) (layer F.Fab) (width 0.1))
  (fp_line (start -1.33 -17.82) (end -1.33 -17.84) (layer F.SilkS) (width 0.12))
  (fp_line (start -1.33 -17.84) (end 1.33 -17.84) (layer F.SilkS) (width 0.12))
  (fp_line (start 1.33 -17.84) (end 1.33 -17.82) (layer F.SilkS) (width 0.12))
  (fp_line (start -1.33 17.82) (end -1.33 17.84) (layer F.SilkS) (width 0.12))
  (fp_line (start -1.33 17.84) (end 1.33 17.84) (layer F.SilkS) (width 0.12))
  (fp_line (start 1.33 17.84) (end 1.33 17.82) (layer F.SilkS) (width 0.12))
  (fp_line (start -3.635 -17.82) (end -1.33 -17.82) (layer F.SilkS) (width 0.12))
  (fp_line (start -3.9 -18.05) (end -3.9 18.05) (layer F.CrtYd) (width 0.05))
  (fp_line (start -3.9 18.05) (end 3.9 18.05) (layer F.CrtYd) (width 0.05))
  (fp_line (start 3.9 18.05) (end 3.9 -18.05) (layer F.CrtYd) (width 0.05))
  (fp_line (start 3.9 -18.05) (end -3.9 -18.05) (layer F.CrtYd) (width 0.05))
  (pad 1 smd rect (at -2.585 -17.145) (size 2.1 0.75) (layers F.Cu F.Mask))
  (pad 2 smd rect (at 2.585 -17.145) (size 2.1 0.75) (layers F.Cu F.Mask))
  (pad 3 smd rect (at -2.585 -15.875) (size 2.1 0.75) (layers F.Cu F.Mask))
  (pad 4 smd rect (at 2.585 -15.875) (size 2.1 0.75) (layers F.Cu F.Mask))
  (pad 5 smd rect (at -2.585 -14.605) (size 2.1 0.75) (layers F.Cu F.Mask))
  (pad 6 smd rect (at 2.585 -14.605) (size 2.1 0.75) (layers F.Cu F.Mask))
  (pad 7 smd rect (at -2.585 -13.335) (size 2.1 0.75) (layers F.Cu F.Mask))
  (pad 8 smd rect (at 2.585 -13.335) (size 2.1 0.75) (layers F.Cu F.Mask))
  (pad 9 smd rect (at -2.585 -12.065) (size 2.1 0.75) (layers F.Cu F.Mask))
  (pad 10 smd rect (at 2.585 -12.065) (size 2.1 0.75) (layers F.Cu F.Mask))
  (pad 11 smd rect (at -2.585 -10.795) (size 2.1 0.75) (layers F.Cu F.Mask))
  (pad 12 smd rect (at 2.585 -10.795) (size 2.1 0.75) (layers F.Cu F.Mask))
  (pad 13 smd rect (at -2.585 -9.525) (size 2.1 0.75) (layers F.Cu F.Mask))
  (pad 14 smd rect (at 2.585 -9.525) (size 2.1 0.75) (layers F.Cu F.Mask))
  (pad 15 smd rect (at -2.585 -8.255) (size 2.1 0.75) (layers F.Cu F.Mask))
  (pad 16 smd rect (at 2.585 -8.255) (size 2.1 0.75) (layers F.Cu F.Mask))
  (pad 17 smd rect (at -2.585 -6.985) (size 2.1 0.75) (layers F.Cu F.Mask))
  (pad 18 smd rect (at 2.585 -6.985) (size 2.1 0.75) (layers F.Cu F.Mask))
  (pad 19 smd rect (at -2.585 -5.715) (size 2.1 0.75) (layers F.Cu F.Mask))
  (pad 20 smd rect (at 2.585 -5.715) (size 2.1 0.75) (layers F.Cu F.Mask))
  (pad 21 smd rect (at -2.585 -4.445) (size 2.1 0.75) (layers F.Cu F.Mask))
  (pad 22 smd rect (at 2.585 -4.445) (size 2.1 0.75) (layers F.Cu F.Mask))
  (pad 23 smd rect (at -2.585 -3.175) (size 2.1 0.75) (layers F.Cu F.Mask))
  (pad 24 smd rect (at 2.585 -3.175) (size 2.1 0.75) (layers F.Cu F.Mask))
  (pad 25 smd rect (at -2.585 -1.905) (size 2.1 0.75) (layers F.Cu F.Mask))
  (pad 26 smd rect (at 2.585 -1.905) (size 2.1 0.75) (layers F.Cu F.Mask))
  (pad 27 smd rect (at -2.585 -0.635) (size 2.1 0.75) (layers F.Cu F.Mask))
  (pad 28 smd rect (at 2.585 -0.635) (size 2.1 0.75) (layers F.Cu F.Mask))
  (pad 29 smd rect (at -2.585 0.635) (size 2.1 0.75) (layers F.Cu F.Mask))
  (pad 30 smd rect (at 2.585 0.635) (size 2.1 0.75) (layers F.Cu F.Mask))
  (pad 31 smd rect (at -2.585 1.905) (size 2.1 0.75) (layers F.Cu F.Mask))
  (pad 32 smd rect (at 2.585 1.905) (size 2.1 0.75) (layers F.Cu F.Mask))
  (pad 33 smd rect (at -2.585 3.175) (size 2.1 0.75) (layers F.Cu F.Mask))
  (pad 34 smd rect (at 2.585 3.175) (size 2.1 0.75) (layers F.Cu F.Mask))
  (pad 35 smd rect (at -2.585 4.445) (size 2.1 0.75) (layers F.Cu F.Mask))
  (pad 36 smd rect (at 2.585 4.445) (size 2.1 0.75) (layers F.Cu F.Mask))
  (pad 37 smd rect (at -2.585 5.715) (size 2.1 0.75) (layers F.Cu F.Mask))
  (pad 38 smd rect (at 2.585 5.715) (size 2.1 0.75) (layers F.Cu F.Mask))
  (pad 39 smd rect (at -2.585 6.985) (size 2.1 0.75) (layers F.Cu F.Mask))
  (pad 40 smd rect (at 2.585 6.985) (size 2.1 0.75) (layers F.Cu F.Mask))
  (pad 41 smd rect (at -2.585 8.255) (size 2.1 0.75) (layers F.Cu F.Mask))
  (pad 42 smd rect (at 2.585 8.255) (size 2.1 0.75) (layers F.Cu F.Mask))
  (pad 43 smd rect (at -2.585 9.525) (size 2.1 0.75) (layers F.Cu F.Mask))
  (pad 44 smd rect (at 2.585 9.525) (size 2.1 0.75) (layers F.Cu F.Mask))
  (pad 45 smd rect (at -2.585 10.795) (size 2.1 0.75) (layers F.Cu F.Mask))
  (pad 46 smd rect (at 2.585 10.795) (size 2.1 0.75) (layers F.Cu F.Mask))
  (pad 47 smd rect (at -2.585 12.065) (size 2.1 0.75) (layers F.Cu F.Mask))
  (pad 48 smd rect (at 2.585 12.065) (size 2.1 0.75) (layers F.Cu F.Mask))
  (pad 49 smd rect (at -2.585 13.335) (size 2.1 0.75) (layers F.Cu F.Mask))
  (pad 50 smd rect (at 2.585 13.335) (size 2.1 0.75) (layers F.Cu F.Mask))
  (pad 51 smd rect (at -2.585 14.605) (size 2.1 0.75) (layers F.Cu F.Mask))
  (pad 52 smd rect (at 2.585 14.605) (size 2.1 0.75) (layers F.Cu F.Mask))
  (pad 53 smd rect (at -2.585 15.875) (size 2.1 0.75) (layers F.Cu F.Mask))
  (pad 54 smd rect (at 2.585 15.875) (size 2.1 0.75) (layers F.Cu F.Mask))
  (pad 55 smd rect (at -2.585 17.145) (size 2.1 0.75) (layers F.Cu F.Mask))
  (pad 56 smd rect (at 2.585 17.145) (size 2.1 0.75) (layers F.Cu F.Mask))
  (model Pin_Headers.3dshapes/Pin_Header_Straight_2x28_Pitch1.27mm_SMD.wrl
    (at (xyz 0 0 0))
    (scale (xyz 1 1 1))
    (rotate (xyz 0 0 0))
  )
)