(module Pin_Header_Straight_1x35_Pitch2.54mm_SMD_Pin1Right (layer F.Cu) (tedit 588DAF2A)
  (descr "surface-mounted straight pin header, 1x35, 2.54mm pitch, single row, style 2 (pin 1 right)")
  (tags "Surface mounted pin header SMD 1x35 2.54mm single row style2 pin1 right")
  (attr smd)
  (fp_text reference REF** (at 0 -45.51) (layer F.SilkS)
    (effects (font (size 1 1) (thickness 0.15)))
  )
  (fp_text value Pin_Header_Straight_1x35_Pitch2.54mm_SMD_Pin1Right (at 0 45.51) (layer F.Fab)
    (effects (font (size 1 1) (thickness 0.15)))
  )
  (fp_line (start -1.27 -44.45) (end -1.27 44.45) (layer F.Fab) (width 0.1))
  (fp_line (start -1.27 44.45) (end 1.27 44.45) (layer F.Fab) (width 0.1))
  (fp_line (start 1.27 44.45) (end 1.27 -44.45) (layer F.Fab) (width 0.1))
  (fp_line (start 1.27 -44.45) (end -1.27 -44.45) (layer F.Fab) (width 0.1))
  (fp_line (start -1.27 -40.96) (end -1.27 -40.32) (layer F.Fab) (width 0.1))
  (fp_line (start -1.27 -40.32) (end -2.65 -40.32) (layer F.Fab) (width 0.1))
  (fp_line (start -2.65 -40.32) (end -2.65 -40.96) (layer F.Fab) (width 0.1))
  (fp_line (start -2.65 -40.96) (end -1.27 -40.96) (layer F.Fab) (width 0.1))
  (fp_line (start -1.27 -35.88) (end -1.27 -35.24) (layer F.Fab) (width 0.1))
  (fp_line (start -1.27 -35.24) (end -2.65 -35.24) (layer F.Fab) (width 0.1))
  (fp_line (start -2.65 -35.24) (end -2.65 -35.88) (layer F.Fab) (width 0.1))
  (fp_line (start -2.65 -35.88) (end -1.27 -35.88) (layer F.Fab) (width 0.1))
  (fp_line (start -1.27 -30.8) (end -1.27 -30.16) (layer F.Fab) (width 0.1))
  (fp_line (start -1.27 -30.16) (end -2.65 -30.16) (layer F.Fab) (width 0.1))
  (fp_line (start -2.65 -30.16) (end -2.65 -30.8) (layer F.Fab) (width 0.1))
  (fp_line (start -2.65 -30.8) (end -1.27 -30.8) (layer F.Fab) (width 0.1))
  (fp_line (start -1.27 -25.72) (end -1.27 -25.08) (layer F.Fab) (width 0.1))
  (fp_line (start -1.27 -25.08) (end -2.65 -25.08) (layer F.Fab) (width 0.1))
  (fp_line (start -2.65 -25.08) (end -2.65 -25.72) (layer F.Fab) (width 0.1))
  (fp_line (start -2.65 -25.72) (end -1.27 -25.72) (layer F.Fab) (width 0.1))
  (fp_line (start -1.27 -20.64) (end -1.27 -20) (layer F.Fab) (width 0.1))
  (fp_line (start -1.27 -20) (end -2.65 -20) (layer F.Fab) (width 0.1))
  (fp_line (start -2.65 -20) (end -2.65 -20.64) (layer F.Fab) (width 0.1))
  (fp_line (start -2.65 -20.64) (end -1.27 -20.64) (layer F.Fab) (width 0.1))
  (fp_line (start -1.27 -15.56) (end -1.27 -14.92) (layer F.Fab) (width 0.1))
  (fp_line (start -1.27 -14.92) (end -2.65 -14.92) (layer F.Fab) (width 0.1))
  (fp_line (start -2.65 -14.92) (end -2.65 -15.56) (layer F.Fab) (width 0.1))
  (fp_line (start -2.65 -15.56) (end -1.27 -15.56) (layer F.Fab) (width 0.1))
  (fp_line (start -1.27 -10.48) (end -1.27 -9.84) (layer F.Fab) (width 0.1))
  (fp_line (start -1.27 -9.84) (end -2.65 -9.84) (layer F.Fab) (width 0.1))
  (fp_line (start -2.65 -9.84) (end -2.65 -10.48) (layer F.Fab) (width 0.1))
  (fp_line (start -2.65 -10.48) (end -1.27 -10.48) (layer F.Fab) (width 0.1))
  (fp_line (start -1.27 -5.4) (end -1.27 -4.76) (layer F.Fab) (width 0.1))
  (fp_line (start -1.27 -4.76) (end -2.65 -4.76) (layer F.Fab) (width 0.1))
  (fp_line (start -2.65 -4.76) (end -2.65 -5.4) (layer F.Fab) (width 0.1))
  (fp_line (start -2.65 -5.4) (end -1.27 -5.4) (layer F.Fab) (width 0.1))
  (fp_line (start -1.27 -0.32) (end -1.27 0.32) (layer F.Fab) (width 0.1))
  (fp_line (start -1.27 0.32) (end -2.65 0.32) (layer F.Fab) (width 0.1))
  (fp_line (start -2.65 0.32) (end -2.65 -0.32) (layer F.Fab) (width 0.1))
  (fp_line (start -2.65 -0.32) (end -1.27 -0.32) (layer F.Fab) (width 0.1))
  (fp_line (start -1.27 4.76) (end -1.27 5.4) (layer F.Fab) (width 0.1))
  (fp_line (start -1.27 5.4) (end -2.65 5.4) (layer F.Fab) (width 0.1))
  (fp_line (start -2.65 5.4) (end -2.65 4.76) (layer F.Fab) (width 0.1))
  (fp_line (start -2.65 4.76) (end -1.27 4.76) (layer F.Fab) (width 0.1))
  (fp_line (start -1.27 9.84) (end -1.27 10.48) (layer F.Fab) (width 0.1))
  (fp_line (start -1.27 10.48) (end -2.65 10.48) (layer F.Fab) (width 0.1))
  (fp_line (start -2.65 10.48) (end -2.65 9.84) (layer F.Fab) (width 0.1))
  (fp_line (start -2.65 9.84) (end -1.27 9.84) (layer F.Fab) (width 0.1))
  (fp_line (start -1.27 14.92) (end -1.27 15.56) (layer F.Fab) (width 0.1))
  (fp_line (start -1.27 15.56) (end -2.65 15.56) (layer F.Fab) (width 0.1))
  (fp_line (start -2.65 15.56) (end -2.65 14.92) (layer F.Fab) (width 0.1))
  (fp_line (start -2.65 14.92) (end -1.27 14.92) (layer F.Fab) (width 0.1))
  (fp_line (start -1.27 20) (end -1.27 20.64) (layer F.Fab) (width 0.1))
  (fp_line (start -1.27 20.64) (end -2.65 20.64) (layer F.Fab) (width 0.1))
  (fp_line (start -2.65 20.64) (end -2.65 20) (layer F.Fab) (width 0.1))
  (fp_line (start -2.65 20) (end -1.27 20) (layer F.Fab) (width 0.1))
  (fp_line (start -1.27 25.08) (end -1.27 25.72) (layer F.Fab) (width 0.1))
  (fp_line (start -1.27 25.72) (end -2.65 25.72) (layer F.Fab) (width 0.1))
  (fp_line (start -2.65 25.72) (end -2.65 25.08) (layer F.Fab) (width 0.1))
  (fp_line (start -2.65 25.08) (end -1.27 25.08) (layer F.Fab) (width 0.1))
  (fp_line (start -1.27 30.16) (end -1.27 30.8) (layer F.Fab) (width 0.1))
  (fp_line (start -1.27 30.8) (end -2.65 30.8) (layer F.Fab) (width 0.1))
  (fp_line (start -2.65 30.8) (end -2.65 30.16) (layer F.Fab) (width 0.1))
  (fp_line (start -2.65 30.16) (end -1.27 30.16) (layer F.Fab) (width 0.1))
  (fp_line (start -1.27 35.24) (end -1.27 35.88) (layer F.Fab) (width 0.1))
  (fp_line (start -1.27 35.88) (end -2.65 35.88) (layer F.Fab) (width 0.1))
  (fp_line (start -2.65 35.88) (end -2.65 35.24) (layer F.Fab) (width 0.1))
  (fp_line (start -2.65 35.24) (end -1.27 35.24) (layer F.Fab) (width 0.1))
  (fp_line (start -1.27 40.32) (end -1.27 40.96) (layer F.Fab) (width 0.1))
  (fp_line (start -1.27 40.96) (end -2.65 40.96) (layer F.Fab) (width 0.1))
  (fp_line (start -2.65 40.96) (end -2.65 40.32) (layer F.Fab) (width 0.1))
  (fp_line (start -2.65 40.32) (end -1.27 40.32) (layer F.Fab) (width 0.1))
  (fp_line (start 1.27 -43.5) (end 1.27 -42.86) (layer F.Fab) (width 0.1))
  (fp_line (start 1.27 -42.86) (end 2.65 -42.86) (layer F.Fab) (width 0.1))
  (fp_line (start 2.65 -42.86) (end 2.65 -43.5) (layer F.Fab) (width 0.1))
  (fp_line (start 2.65 -43.5) (end 1.27 -43.5) (layer F.Fab) (width 0.1))
  (fp_line (start 1.27 -38.42) (end 1.27 -37.78) (layer F.Fab) (width 0.1))
  (fp_line (start 1.27 -37.78) (end 2.65 -37.78) (layer F.Fab) (width 0.1))
  (fp_line (start 2.65 -37.78) (end 2.65 -38.42) (layer F.Fab) (width 0.1))
  (fp_line (start 2.65 -38.42) (end 1.27 -38.42) (layer F.Fab) (width 0.1))
  (fp_line (start 1.27 -33.34) (end 1.27 -32.7) (layer F.Fab) (width 0.1))
  (fp_line (start 1.27 -32.7) (end 2.65 -32.7) (layer F.Fab) (width 0.1))
  (fp_line (start 2.65 -32.7) (end 2.65 -33.34) (layer F.Fab) (width 0.1))
  (fp_line (start 2.65 -33.34) (end 1.27 -33.34) (layer F.Fab) (width 0.1))
  (fp_line (start 1.27 -28.26) (end 1.27 -27.62) (layer F.Fab) (width 0.1))
  (fp_line (start 1.27 -27.62) (end 2.65 -27.62) (layer F.Fab) (width 0.1))
  (fp_line (start 2.65 -27.62) (end 2.65 -28.26) (layer F.Fab) (width 0.1))
  (fp_line (start 2.65 -28.26) (end 1.27 -28.26) (layer F.Fab) (width 0.1))
  (fp_line (start 1.27 -23.18) (end 1.27 -22.54) (layer F.Fab) (width 0.1))
  (fp_line (start 1.27 -22.54) (end 2.65 -22.54) (layer F.Fab) (width 0.1))
  (fp_line (start 2.65 -22.54) (end 2.65 -23.18) (layer F.Fab) (width 0.1))
  (fp_line (start 2.65 -23.18) (end 1.27 -23.18) (layer F.Fab) (width 0.1))
  (fp_line (start 1.27 -18.1) (end 1.27 -17.46) (layer F.Fab) (width 0.1))
  (fp_line (start 1.27 -17.46) (end 2.65 -17.46) (layer F.Fab) (width 0.1))
  (fp_line (start 2.65 -17.46) (end 2.65 -18.1) (layer F.Fab) (width 0.1))
  (fp_line (start 2.65 -18.1) (end 1.27 -18.1) (layer F.Fab) (width 0.1))
  (fp_line (start 1.27 -13.02) (end 1.27 -12.38) (layer F.Fab) (width 0.1))
  (fp_line (start 1.27 -12.38) (end 2.65 -12.38) (layer F.Fab) (width 0.1))
  (fp_line (start 2.65 -12.38) (end 2.65 -13.02) (layer F.Fab) (width 0.1))
  (fp_line (start 2.65 -13.02) (end 1.27 -13.02) (layer F.Fab) (width 0.1))
  (fp_line (start 1.27 -7.94) (end 1.27 -7.3) (layer F.Fab) (width 0.1))
  (fp_line (start 1.27 -7.3) (end 2.65 -7.3) (layer F.Fab) (width 0.1))
  (fp_line (start 2.65 -7.3) (end 2.65 -7.94) (layer F.Fab) (width 0.1))
  (fp_line (start 2.65 -7.94) (end 1.27 -7.94) (layer F.Fab) (width 0.1))
  (fp_line (start 1.27 -2.86) (end 1.27 -2.22) (layer F.Fab) (width 0.1))
  (fp_line (start 1.27 -2.22) (end 2.65 -2.22) (layer F.Fab) (width 0.1))
  (fp_line (start 2.65 -2.22) (end 2.65 -2.86) (layer F.Fab) (width 0.1))
  (fp_line (start 2.65 -2.86) (end 1.27 -2.86) (layer F.Fab) (width 0.1))
  (fp_line (start 1.27 2.22) (end 1.27 2.86) (layer F.Fab) (width 0.1))
  (fp_line (start 1.27 2.86) (end 2.65 2.86) (layer F.Fab) (width 0.1))
  (fp_line (start 2.65 2.86) (end 2.65 2.22) (layer F.Fab) (width 0.1))
  (fp_line (start 2.65 2.22) (end 1.27 2.22) (layer F.Fab) (width 0.1))
  (fp_line (start 1.27 7.3) (end 1.27 7.94) (layer F.Fab) (width 0.1))
  (fp_line (start 1.27 7.94) (end 2.65 7.94) (layer F.Fab) (width 0.1))
  (fp_line (start 2.65 7.94) (end 2.65 7.3) (layer F.Fab) (width 0.1))
  (fp_line (start 2.65 7.3) (end 1.27 7.3) (layer F.Fab) (width 0.1))
  (fp_line (start 1.27 12.38) (end 1.27 13.02) (layer F.Fab) (width 0.1))
  (fp_line (start 1.27 13.02) (end 2.65 13.02) (layer F.Fab) (width 0.1))
  (fp_line (start 2.65 13.02) (end 2.65 12.38) (layer F.Fab) (width 0.1))
  (fp_line (start 2.65 12.38) (end 1.27 12.38) (layer F.Fab) (width 0.1))
  (fp_line (start 1.27 17.46) (end 1.27 18.1) (layer F.Fab) (width 0.1))
  (fp_line (start 1.27 18.1) (end 2.65 18.1) (layer F.Fab) (width 0.1))
  (fp_line (start 2.65 18.1) (end 2.65 17.46) (layer F.Fab) (width 0.1))
  (fp_line (start 2.65 17.46) (end 1.27 17.46) (layer F.Fab) (width 0.1))
  (fp_line (start 1.27 22.54) (end 1.27 23.18) (layer F.Fab) (width 0.1))
  (fp_line (start 1.27 23.18) (end 2.65 23.18) (layer F.Fab) (width 0.1))
  (fp_line (start 2.65 23.18) (end 2.65 22.54) (layer F.Fab) (width 0.1))
  (fp_line (start 2.65 22.54) (end 1.27 22.54) (layer F.Fab) (width 0.1))
  (fp_line (start 1.27 27.62) (end 1.27 28.26) (layer F.Fab) (width 0.1))
  (fp_line (start 1.27 28.26) (end 2.65 28.26) (layer F.Fab) (width 0.1))
  (fp_line (start 2.65 28.26) (end 2.65 27.62) (layer F.Fab) (width 0.1))
  (fp_line (start 2.65 27.62) (end 1.27 27.62) (layer F.Fab) (width 0.1))
  (fp_line (start 1.27 32.7) (end 1.27 33.34) (layer F.Fab) (width 0.1))
  (fp_line (start 1.27 33.34) (end 2.65 33.34) (layer F.Fab) (width 0.1))
  (fp_line (start 2.65 33.34) (end 2.65 32.7) (layer F.Fab) (width 0.1))
  (fp_line (start 2.65 32.7) (end 1.27 32.7) (layer F.Fab) (width 0.1))
  (fp_line (start 1.27 37.78) (end 1.27 38.42) (layer F.Fab) (width 0.1))
  (fp_line (start 1.27 38.42) (end 2.65 38.42) (layer F.Fab) (width 0.1))
  (fp_line (start 2.65 38.42) (end 2.65 37.78) (layer F.Fab) (width 0.1))
  (fp_line (start 2.65 37.78) (end 1.27 37.78) (layer F.Fab) (width 0.1))
  (fp_line (start 1.27 42.86) (end 1.27 43.5) (layer F.Fab) (width 0.1))
  (fp_line (start 1.27 43.5) (end 2.65 43.5) (layer F.Fab) (width 0.1))
  (fp_line (start 2.65 43.5) (end 2.65 42.86) (layer F.Fab) (width 0.1))
  (fp_line (start 2.65 42.86) (end 1.27 42.86) (layer F.Fab) (width 0.1))
  (fp_line (start -1.33 -43.98) (end -1.33 -44.51) (layer F.SilkS) (width 0.12))
  (fp_line (start -1.33 -44.51) (end 1.33 -44.51) (layer F.SilkS) (width 0.12))
  (fp_line (start 1.33 -44.51) (end 1.33 -43.98) (layer F.SilkS) (width 0.12))
  (fp_line (start -1.33 43.98) (end -1.33 44.51) (layer F.SilkS) (width 0.12))
  (fp_line (start -1.33 44.51) (end 1.33 44.51) (layer F.SilkS) (width 0.12))
  (fp_line (start 1.33 44.51) (end 1.33 43.98) (layer F.SilkS) (width 0.12))
  (fp_line (start 1.33 -42.5) (end 1.33 -38.78) (layer F.SilkS) (width 0.12))
  (fp_line (start 1.33 -37.42) (end 1.33 -33.7) (layer F.SilkS) (width 0.12))
  (fp_line (start 1.33 -32.34) (end 1.33 -28.62) (layer F.SilkS) (width 0.12))
  (fp_line (start 1.33 -27.26) (end 1.33 -23.54) (layer F.SilkS) (width 0.12))
  (fp_line (start 1.33 -22.18) (end 1.33 -18.46) (layer F.SilkS) (width 0.12))
  (fp_line (start 1.33 -17.1) (end 1.33 -13.38) (layer F.SilkS) (width 0.12))
  (fp_line (start 1.33 -12.02) (end 1.33 -8.3) (layer F.SilkS) (width 0.12))
  (fp_line (start 1.33 -6.94) (end 1.33 -3.22) (layer F.SilkS) (width 0.12))
  (fp_line (start 1.33 -1.86) (end 1.33 1.86) (layer F.SilkS) (width 0.12))
  (fp_line (start 1.33 3.22) (end 1.33 6.94) (layer F.SilkS) (width 0.12))
  (fp_line (start 1.33 8.3) (end 1.33 12.02) (layer F.SilkS) (width 0.12))
  (fp_line (start 1.33 13.38) (end 1.33 17.1) (layer F.SilkS) (width 0.12))
  (fp_line (start 1.33 18.46) (end 1.33 22.18) (layer F.SilkS) (width 0.12))
  (fp_line (start 1.33 23.54) (end 1.33 27.26) (layer F.SilkS) (width 0.12))
  (fp_line (start 1.33 28.62) (end 1.33 32.34) (layer F.SilkS) (width 0.12))
  (fp_line (start 1.33 33.7) (end 1.33 37.42) (layer F.SilkS) (width 0.12))
  (fp_line (start 1.33 38.78) (end 1.33 42.5) (layer F.SilkS) (width 0.12))
  (fp_line (start -1.33 -44.51) (end -1.33 -41.32) (layer F.SilkS) (width 0.12))
  (fp_line (start 1.33 -43.98) (end 3 -43.98) (layer F.SilkS) (width 0.12))
  (fp_line (start -1.33 -39.96) (end -1.33 -36.24) (layer F.SilkS) (width 0.12))
  (fp_line (start -1.33 -34.88) (end -1.33 -31.16) (layer F.SilkS) (width 0.12))
  (fp_line (start -1.33 -29.8) (end -1.33 -26.08) (layer F.SilkS) (width 0.12))
  (fp_line (start -1.33 -24.72) (end -1.33 -21) (layer F.SilkS) (width 0.12))
  (fp_line (start -1.33 -19.64) (end -1.33 -15.92) (layer F.SilkS) (width 0.12))
  (fp_line (start -1.33 -14.56) (end -1.33 -10.84) (layer F.SilkS) (width 0.12))
  (fp_line (start -1.33 -9.48) (end -1.33 -5.76) (layer F.SilkS) (width 0.12))
  (fp_line (start -1.33 -4.4) (end -1.33 -0.68) (layer F.SilkS) (width 0.12))
  (fp_line (start -1.33 0.68) (end -1.33 4.4) (layer F.SilkS) (width 0.12))
  (fp_line (start -1.33 5.76) (end -1.33 9.48) (layer F.SilkS) (width 0.12))
  (fp_line (start -1.33 10.84) (end -1.33 14.56) (layer F.SilkS) (width 0.12))
  (fp_line (start -1.33 15.92) (end -1.33 19.64) (layer F.SilkS) (width 0.12))
  (fp_line (start -1.33 21) (end -1.33 24.72) (layer F.SilkS) (width 0.12))
  (fp_line (start -1.33 26.08) (end -1.33 29.8) (layer F.SilkS) (width 0.12))
  (fp_line (start -1.33 31.16) (end -1.33 34.88) (layer F.SilkS) (width 0.12))
  (fp_line (start -1.33 36.24) (end -1.33 39.96) (layer F.SilkS) (width 0.12))
  (fp_line (start -1.33 41.32) (end -1.33 44.51) (layer F.SilkS) (width 0.12))
  (fp_line (start -3.25 -44.7) (end -3.25 44.7) (layer F.CrtYd) (width 0.05))
  (fp_line (start -3.25 44.7) (end 3.25 44.7) (layer F.CrtYd) (width 0.05))
  (fp_line (start 3.25 44.7) (end 3.25 -44.7) (layer F.CrtYd) (width 0.05))
  (fp_line (start 3.25 -44.7) (end -3.25 -44.7) (layer F.CrtYd) (width 0.05))
  (pad 2 smd rect (at -1.5 -40.64) (size 3 1) (layers F.Cu F.Mask))
  (pad 4 smd rect (at -1.5 -35.56) (size 3 1) (layers F.Cu F.Mask))
  (pad 6 smd rect (at -1.5 -30.48) (size 3 1) (layers F.Cu F.Mask))
  (pad 8 smd rect (at -1.5 -25.4) (size 3 1) (layers F.Cu F.Mask))
  (pad 10 smd rect (at -1.5 -20.32) (size 3 1) (layers F.Cu F.Mask))
  (pad 12 smd rect (at -1.5 -15.24) (size 3 1) (layers F.Cu F.Mask))
  (pad 14 smd rect (at -1.5 -10.16) (size 3 1) (layers F.Cu F.Mask))
  (pad 16 smd rect (at -1.5 -5.08) (size 3 1) (layers F.Cu F.Mask))
  (pad 18 smd rect (at -1.5 0) (size 3 1) (layers F.Cu F.Mask))
  (pad 20 smd rect (at -1.5 5.08) (size 3 1) (layers F.Cu F.Mask))
  (pad 22 smd rect (at -1.5 10.16) (size 3 1) (layers F.Cu F.Mask))
  (pad 24 smd rect (at -1.5 15.24) (size 3 1) (layers F.Cu F.Mask))
  (pad 26 smd rect (at -1.5 20.32) (size 3 1) (layers F.Cu F.Mask))
  (pad 28 smd rect (at -1.5 25.4) (size 3 1) (layers F.Cu F.Mask))
  (pad 30 smd rect (at -1.5 30.48) (size 3 1) (layers F.Cu F.Mask))
  (pad 32 smd rect (at -1.5 35.56) (size 3 1) (layers F.Cu F.Mask))
  (pad 34 smd rect (at -1.5 40.64) (size 3 1) (layers F.Cu F.Mask))
  (pad 1 smd rect (at 1.5 -43.18) (size 3 1) (layers F.Cu F.Mask))
  (pad 3 smd rect (at 1.5 -38.1) (size 3 1) (layers F.Cu F.Mask))
  (pad 5 smd rect (at 1.5 -33.02) (size 3 1) (layers F.Cu F.Mask))
  (pad 7 smd rect (at 1.5 -27.94) (size 3 1) (layers F.Cu F.Mask))
  (pad 9 smd rect (at 1.5 -22.86) (size 3 1) (layers F.Cu F.Mask))
  (pad 11 smd rect (at 1.5 -17.78) (size 3 1) (layers F.Cu F.Mask))
  (pad 13 smd rect (at 1.5 -12.7) (size 3 1) (layers F.Cu F.Mask))
  (pad 15 smd rect (at 1.5 -7.62) (size 3 1) (layers F.Cu F.Mask))
  (pad 17 smd rect (at 1.5 -2.54) (size 3 1) (layers F.Cu F.Mask))
  (pad 19 smd rect (at 1.5 2.54) (size 3 1) (layers F.Cu F.Mask))
  (pad 21 smd rect (at 1.5 7.62) (size 3 1) (layers F.Cu F.Mask))
  (pad 23 smd rect (at 1.5 12.7) (size 3 1) (layers F.Cu F.Mask))
  (pad 25 smd rect (at 1.5 17.78) (size 3 1) (layers F.Cu F.Mask))
  (pad 27 smd rect (at 1.5 22.86) (size 3 1) (layers F.Cu F.Mask))
  (pad 29 smd rect (at 1.5 27.94) (size 3 1) (layers F.Cu F.Mask))
  (pad 31 smd rect (at 1.5 33.02) (size 3 1) (layers F.Cu F.Mask))
  (pad 33 smd rect (at 1.5 38.1) (size 3 1) (layers F.Cu F.Mask))
  (pad 35 smd rect (at 1.5 43.18) (size 3 1) (layers F.Cu F.Mask))
  (model Pin_Headers.3dshapes/Pin_Header_Straight_1x35_Pitch2.54mm_SMD_Pin1Right.wrl
    (at (xyz 0 0 0))
    (scale (xyz 1 1 1))
    (rotate (xyz 0 0 0))
  )
)