(module Pin_Header_Straight_2x04_Pitch2.00mm_SMD (layer F.Cu) (tedit 588DAF31)
  (descr "surface-mounted straight pin header, 2x04, 2.00mm pitch, double rows")
  (tags "Surface mounted pin header SMD 2x04 2.00mm double row")
  (attr smd)
  (fp_text reference REF** (at 0 -5.06) (layer F.SilkS)
    (effects (font (size 1 1) (thickness 0.15)))
  )
  (fp_text value Pin_Header_Straight_2x04_Pitch2.00mm_SMD (at 0 5.06) (layer F.Fab)
    (effects (font (size 1 1) (thickness 0.15)))
  )
  (fp_line (start -2 -4) (end -2 4) (layer F.Fab) (width 0.1))
  (fp_line (start -2 4) (end 2 4) (layer F.Fab) (width 0.1))
  (fp_line (start 2 4) (end 2 -4) (layer F.Fab) (width 0.1))
  (fp_line (start 2 -4) (end -2 -4) (layer F.Fab) (width 0.1))
  (fp_line (start -2 -3.25) (end -2 -2.75) (layer F.Fab) (width 0.1))
  (fp_line (start -2 -2.75) (end -3 -2.75) (layer F.Fab) (width 0.1))
  (fp_line (start -3 -2.75) (end -3 -3.25) (layer F.Fab) (width 0.1))
  (fp_line (start -3 -3.25) (end -2 -3.25) (layer F.Fab) (width 0.1))
  (fp_line (start 2 -3.25) (end 2 -2.75) (layer F.Fab) (width 0.1))
  (fp_line (start 2 -2.75) (end 3 -2.75) (layer F.Fab) (width 0.1))
  (fp_line (start 3 -2.75) (end 3 -3.25) (layer F.Fab) (width 0.1))
  (fp_line (start 3 -3.25) (end 2 -3.25) (layer F.Fab) (width 0.1))
  (fp_line (start -2 -1.25) (end -2 -0.75) (layer F.Fab) (width 0.1))
  (fp_line (start -2 -0.75) (end -3 -0.75) (layer F.Fab) (width 0.1))
  (fp_line (start -3 -0.75) (end -3 -1.25) (layer F.Fab) (width 0.1))
  (fp_line (start -3 -1.25) (end -2 -1.25) (layer F.Fab) (width 0.1))
  (fp_line (start 2 -1.25) (end 2 -0.75) (layer F.Fab) (width 0.1))
  (fp_line (start 2 -0.75) (end 3 -0.75) (layer F.Fab) (width 0.1))
  (fp_line (start 3 -0.75) (end 3 -1.25) (layer F.Fab) (width 0.1))
  (fp_line (start 3 -1.25) (end 2 -1.25) (layer F.Fab) (width 0.1))
  (fp_line (start -2 0.75) (end -2 1.25) (layer F.Fab) (width 0.1))
  (fp_line (start -2 1.25) (end -3 1.25) (layer F.Fab) (width 0.1))
  (fp_line (start -3 1.25) (end -3 0.75) (layer F.Fab) (width 0.1))
  (fp_line (start -3 0.75) (end -2 0.75) (layer F.Fab) (width 0.1))
  (fp_line (start 2 0.75) (end 2 1.25) (layer F.Fab) (width 0.1))
  (fp_line (start 2 1.25) (end 3 1.25) (layer F.Fab) (width 0.1))
  (fp_line (start 3 1.25) (end 3 0.75) (layer F.Fab) (width 0.1))
  (fp_line (start 3 0.75) (end 2 0.75) (layer F.Fab) (width 0.1))
  (fp_line (start -2 2.75) (end -2 3.25) (layer F.Fab) (width 0.1))
  (fp_line (start -2 3.25) (end -3 3.25) (layer F.Fab) (width 0.1))
  (fp_line (start -3 3.25) (end -3 2.75) (layer F.Fab) (width 0.1))
  (fp_line (start -3 2.75) (end -2 2.75) (layer F.Fab) (width 0.1))
  (fp_line (start 2 2.75) (end 2 3.25) (layer F.Fab) (width 0.1))
  (fp_line (start 2 3.25) (end 3 3.25) (layer F.Fab) (width 0.1))
  (fp_line (start 3 3.25) (end 3 2.75) (layer F.Fab) (width 0.1))
  (fp_line (start 3 2.75) (end 2 2.75) (layer F.Fab) (width 0.1))
  (fp_line (start -2.06 -3.8) (end -2.06 -4.06) (layer F.SilkS) (width 0.12))
  (fp_line (start -2.06 -4.06) (end 2.06 -4.06) (layer F.SilkS) (width 0.12))
  (fp_line (start 2.06 -4.06) (end 2.06 -3.8) (layer F.SilkS) (width 0.12))
  (fp_line (start -2.06 3.8) (end -2.06 4.06) (layer F.SilkS) (width 0.12))
  (fp_line (start -2.06 4.06) (end 2.06 4.06) (layer F.SilkS) (width 0.12))
  (fp_line (start 2.06 4.06) (end 2.06 3.8) (layer F.SilkS) (width 0.12))
  (fp_line (start -4.5 -3.8) (end -2.06 -3.8) (layer F.SilkS) (width 0.12))
  (fp_line (start -4.75 -4.25) (end -4.75 4.25) (layer F.CrtYd) (width 0.05))
  (fp_line (start -4.75 4.25) (end 4.75 4.25) (layer F.CrtYd) (width 0.05))
  (fp_line (start 4.75 4.25) (end 4.75 -4.25) (layer F.CrtYd) (width 0.05))
  (fp_line (start 4.75 -4.25) (end -4.75 -4.25) (layer F.CrtYd) (width 0.05))
  (pad 1 smd rect (at -3.125 -3) (size 2.75 1) (layers F.Cu F.Mask))
  (pad 2 smd rect (at 3.125 -3) (size 2.75 1) (layers F.Cu F.Mask))
  (pad 3 smd rect (at -3.125 -1) (size 2.75 1) (layers F.Cu F.Mask))
  (pad 4 smd rect (at 3.125 -1) (size 2.75 1) (layers F.Cu F.Mask))
  (pad 5 smd rect (at -3.125 1) (size 2.75 1) (layers F.Cu F.Mask))
  (pad 6 smd rect (at 3.125 1) (size 2.75 1) (layers F.Cu F.Mask))
  (pad 7 smd rect (at -3.125 3) (size 2.75 1) (layers F.Cu F.Mask))
  (pad 8 smd rect (at 3.125 3) (size 2.75 1) (layers F.Cu F.Mask))
  (model Pin_Headers.3dshapes/Pin_Header_Straight_2x04_Pitch2.00mm_SMD.wrl
    (at (xyz 0 0 0))
    (scale (xyz 1 1 1))
    (rotate (xyz 0 0 0))
  )
)