(module Pin_Header_Straight_2x37_Pitch2.54mm_SMD (layer F.Cu) (tedit 588DAF2D)
  (descr "surface-mounted straight pin header, 2x37, 2.54mm pitch, double rows")
  (tags "Surface mounted pin header SMD 2x37 2.54mm double row")
  (attr smd)
  (fp_text reference REF** (at 0 -48.05) (layer F.SilkS)
    (effects (font (size 1 1) (thickness 0.15)))
  )
  (fp_text value Pin_Header_Straight_2x37_Pitch2.54mm_SMD (at 0 48.05) (layer F.Fab)
    (effects (font (size 1 1) (thickness 0.15)))
  )
  (fp_line (start -2.54 -46.99) (end -2.54 46.99) (layer F.Fab) (width 0.1))
  (fp_line (start -2.54 46.99) (end 2.54 46.99) (layer F.Fab) (width 0.1))
  (fp_line (start 2.54 46.99) (end 2.54 -46.99) (layer F.Fab) (width 0.1))
  (fp_line (start 2.54 -46.99) (end -2.54 -46.99) (layer F.Fab) (width 0.1))
  (fp_line (start -2.54 -46.04) (end -2.54 -45.4) (layer F.Fab) (width 0.1))
  (fp_line (start -2.54 -45.4) (end -3.92 -45.4) (layer F.Fab) (width 0.1))
  (fp_line (start -3.92 -45.4) (end -3.92 -46.04) (layer F.Fab) (width 0.1))
  (fp_line (start -3.92 -46.04) (end -2.54 -46.04) (layer F.Fab) (width 0.1))
  (fp_line (start 2.54 -46.04) (end 2.54 -45.4) (layer F.Fab) (width 0.1))
  (fp_line (start 2.54 -45.4) (end 3.92 -45.4) (layer F.Fab) (width 0.1))
  (fp_line (start 3.92 -45.4) (end 3.92 -46.04) (layer F.Fab) (width 0.1))
  (fp_line (start 3.92 -46.04) (end 2.54 -46.04) (layer F.Fab) (width 0.1))
  (fp_line (start -2.54 -43.5) (end -2.54 -42.86) (layer F.Fab) (width 0.1))
  (fp_line (start -2.54 -42.86) (end -3.92 -42.86) (layer F.Fab) (width 0.1))
  (fp_line (start -3.92 -42.86) (end -3.92 -43.5) (layer F.Fab) (width 0.1))
  (fp_line (start -3.92 -43.5) (end -2.54 -43.5) (layer F.Fab) (width 0.1))
  (fp_line (start 2.54 -43.5) (end 2.54 -42.86) (layer F.Fab) (width 0.1))
  (fp_line (start 2.54 -42.86) (end 3.92 -42.86) (layer F.Fab) (width 0.1))
  (fp_line (start 3.92 -42.86) (end 3.92 -43.5) (layer F.Fab) (width 0.1))
  (fp_line (start 3.92 -43.5) (end 2.54 -43.5) (layer F.Fab) (width 0.1))
  (fp_line (start -2.54 -40.96) (end -2.54 -40.32) (layer F.Fab) (width 0.1))
  (fp_line (start -2.54 -40.32) (end -3.92 -40.32) (layer F.Fab) (width 0.1))
  (fp_line (start -3.92 -40.32) (end -3.92 -40.96) (layer F.Fab) (width 0.1))
  (fp_line (start -3.92 -40.96) (end -2.54 -40.96) (layer F.Fab) (width 0.1))
  (fp_line (start 2.54 -40.96) (end 2.54 -40.32) (layer F.Fab) (width 0.1))
  (fp_line (start 2.54 -40.32) (end 3.92 -40.32) (layer F.Fab) (width 0.1))
  (fp_line (start 3.92 -40.32) (end 3.92 -40.96) (layer F.Fab) (width 0.1))
  (fp_line (start 3.92 -40.96) (end 2.54 -40.96) (layer F.Fab) (width 0.1))
  (fp_line (start -2.54 -38.42) (end -2.54 -37.78) (layer F.Fab) (width 0.1))
  (fp_line (start -2.54 -37.78) (end -3.92 -37.78) (layer F.Fab) (width 0.1))
  (fp_line (start -3.92 -37.78) (end -3.92 -38.42) (layer F.Fab) (width 0.1))
  (fp_line (start -3.92 -38.42) (end -2.54 -38.42) (layer F.Fab) (width 0.1))
  (fp_line (start 2.54 -38.42) (end 2.54 -37.78) (layer F.Fab) (width 0.1))
  (fp_line (start 2.54 -37.78) (end 3.92 -37.78) (layer F.Fab) (width 0.1))
  (fp_line (start 3.92 -37.78) (end 3.92 -38.42) (layer F.Fab) (width 0.1))
  (fp_line (start 3.92 -38.42) (end 2.54 -38.42) (layer F.Fab) (width 0.1))
  (fp_line (start -2.54 -35.88) (end -2.54 -35.24) (layer F.Fab) (width 0.1))
  (fp_line (start -2.54 -35.24) (end -3.92 -35.24) (layer F.Fab) (width 0.1))
  (fp_line (start -3.92 -35.24) (end -3.92 -35.88) (layer F.Fab) (width 0.1))
  (fp_line (start -3.92 -35.88) (end -2.54 -35.88) (layer F.Fab) (width 0.1))
  (fp_line (start 2.54 -35.88) (end 2.54 -35.24) (layer F.Fab) (width 0.1))
  (fp_line (start 2.54 -35.24) (end 3.92 -35.24) (layer F.Fab) (width 0.1))
  (fp_line (start 3.92 -35.24) (end 3.92 -35.88) (layer F.Fab) (width 0.1))
  (fp_line (start 3.92 -35.88) (end 2.54 -35.88) (layer F.Fab) (width 0.1))
  (fp_line (start -2.54 -33.34) (end -2.54 -32.7) (layer F.Fab) (width 0.1))
  (fp_line (start -2.54 -32.7) (end -3.92 -32.7) (layer F.Fab) (width 0.1))
  (fp_line (start -3.92 -32.7) (end -3.92 -33.34) (layer F.Fab) (width 0.1))
  (fp_line (start -3.92 -33.34) (end -2.54 -33.34) (layer F.Fab) (width 0.1))
  (fp_line (start 2.54 -33.34) (end 2.54 -32.7) (layer F.Fab) (width 0.1))
  (fp_line (start 2.54 -32.7) (end 3.92 -32.7) (layer F.Fab) (width 0.1))
  (fp_line (start 3.92 -32.7) (end 3.92 -33.34) (layer F.Fab) (width 0.1))
  (fp_line (start 3.92 -33.34) (end 2.54 -33.34) (layer F.Fab) (width 0.1))
  (fp_line (start -2.54 -30.8) (end -2.54 -30.16) (layer F.Fab) (width 0.1))
  (fp_line (start -2.54 -30.16) (end -3.92 -30.16) (layer F.Fab) (width 0.1))
  (fp_line (start -3.92 -30.16) (end -3.92 -30.8) (layer F.Fab) (width 0.1))
  (fp_line (start -3.92 -30.8) (end -2.54 -30.8) (layer F.Fab) (width 0.1))
  (fp_line (start 2.54 -30.8) (end 2.54 -30.16) (layer F.Fab) (width 0.1))
  (fp_line (start 2.54 -30.16) (end 3.92 -30.16) (layer F.Fab) (width 0.1))
  (fp_line (start 3.92 -30.16) (end 3.92 -30.8) (layer F.Fab) (width 0.1))
  (fp_line (start 3.92 -30.8) (end 2.54 -30.8) (layer F.Fab) (width 0.1))
  (fp_line (start -2.54 -28.26) (end -2.54 -27.62) (layer F.Fab) (width 0.1))
  (fp_line (start -2.54 -27.62) (end -3.92 -27.62) (layer F.Fab) (width 0.1))
  (fp_line (start -3.92 -27.62) (end -3.92 -28.26) (layer F.Fab) (width 0.1))
  (fp_line (start -3.92 -28.26) (end -2.54 -28.26) (layer F.Fab) (width 0.1))
  (fp_line (start 2.54 -28.26) (end 2.54 -27.62) (layer F.Fab) (width 0.1))
  (fp_line (start 2.54 -27.62) (end 3.92 -27.62) (layer F.Fab) (width 0.1))
  (fp_line (start 3.92 -27.62) (end 3.92 -28.26) (layer F.Fab) (width 0.1))
  (fp_line (start 3.92 -28.26) (end 2.54 -28.26) (layer F.Fab) (width 0.1))
  (fp_line (start -2.54 -25.72) (end -2.54 -25.08) (layer F.Fab) (width 0.1))
  (fp_line (start -2.54 -25.08) (end -3.92 -25.08) (layer F.Fab) (width 0.1))
  (fp_line (start -3.92 -25.08) (end -3.92 -25.72) (layer F.Fab) (width 0.1))
  (fp_line (start -3.92 -25.72) (end -2.54 -25.72) (layer F.Fab) (width 0.1))
  (fp_line (start 2.54 -25.72) (end 2.54 -25.08) (layer F.Fab) (width 0.1))
  (fp_line (start 2.54 -25.08) (end 3.92 -25.08) (layer F.Fab) (width 0.1))
  (fp_line (start 3.92 -25.08) (end 3.92 -25.72) (layer F.Fab) (width 0.1))
  (fp_line (start 3.92 -25.72) (end 2.54 -25.72) (layer F.Fab) (width 0.1))
  (fp_line (start -2.54 -23.18) (end -2.54 -22.54) (layer F.Fab) (width 0.1))
  (fp_line (start -2.54 -22.54) (end -3.92 -22.54) (layer F.Fab) (width 0.1))
  (fp_line (start -3.92 -22.54) (end -3.92 -23.18) (layer F.Fab) (width 0.1))
  (fp_line (start -3.92 -23.18) (end -2.54 -23.18) (layer F.Fab) (width 0.1))
  (fp_line (start 2.54 -23.18) (end 2.54 -22.54) (layer F.Fab) (width 0.1))
  (fp_line (start 2.54 -22.54) (end 3.92 -22.54) (layer F.Fab) (width 0.1))
  (fp_line (start 3.92 -22.54) (end 3.92 -23.18) (layer F.Fab) (width 0.1))
  (fp_line (start 3.92 -23.18) (end 2.54 -23.18) (layer F.Fab) (width 0.1))
  (fp_line (start -2.54 -20.64) (end -2.54 -20) (layer F.Fab) (width 0.1))
  (fp_line (start -2.54 -20) (end -3.92 -20) (layer F.Fab) (width 0.1))
  (fp_line (start -3.92 -20) (end -3.92 -20.64) (layer F.Fab) (width 0.1))
  (fp_line (start -3.92 -20.64) (end -2.54 -20.64) (layer F.Fab) (width 0.1))
  (fp_line (start 2.54 -20.64) (end 2.54 -20) (layer F.Fab) (width 0.1))
  (fp_line (start 2.54 -20) (end 3.92 -20) (layer F.Fab) (width 0.1))
  (fp_line (start 3.92 -20) (end 3.92 -20.64) (layer F.Fab) (width 0.1))
  (fp_line (start 3.92 -20.64) (end 2.54 -20.64) (layer F.Fab) (width 0.1))
  (fp_line (start -2.54 -18.1) (end -2.54 -17.46) (layer F.Fab) (width 0.1))
  (fp_line (start -2.54 -17.46) (end -3.92 -17.46) (layer F.Fab) (width 0.1))
  (fp_line (start -3.92 -17.46) (end -3.92 -18.1) (layer F.Fab) (width 0.1))
  (fp_line (start -3.92 -18.1) (end -2.54 -18.1) (layer F.Fab) (width 0.1))
  (fp_line (start 2.54 -18.1) (end 2.54 -17.46) (layer F.Fab) (width 0.1))
  (fp_line (start 2.54 -17.46) (end 3.92 -17.46) (layer F.Fab) (width 0.1))
  (fp_line (start 3.92 -17.46) (end 3.92 -18.1) (layer F.Fab) (width 0.1))
  (fp_line (start 3.92 -18.1) (end 2.54 -18.1) (layer F.Fab) (width 0.1))
  (fp_line (start -2.54 -15.56) (end -2.54 -14.92) (layer F.Fab) (width 0.1))
  (fp_line (start -2.54 -14.92) (end -3.92 -14.92) (layer F.Fab) (width 0.1))
  (fp_line (start -3.92 -14.92) (end -3.92 -15.56) (layer F.Fab) (width 0.1))
  (fp_line (start -3.92 -15.56) (end -2.54 -15.56) (layer F.Fab) (width 0.1))
  (fp_line (start 2.54 -15.56) (end 2.54 -14.92) (layer F.Fab) (width 0.1))
  (fp_line (start 2.54 -14.92) (end 3.92 -14.92) (layer F.Fab) (width 0.1))
  (fp_line (start 3.92 -14.92) (end 3.92 -15.56) (layer F.Fab) (width 0.1))
  (fp_line (start 3.92 -15.56) (end 2.54 -15.56) (layer F.Fab) (width 0.1))
  (fp_line (start -2.54 -13.02) (end -2.54 -12.38) (layer F.Fab) (width 0.1))
  (fp_line (start -2.54 -12.38) (end -3.92 -12.38) (layer F.Fab) (width 0.1))
  (fp_line (start -3.92 -12.38) (end -3.92 -13.02) (layer F.Fab) (width 0.1))
  (fp_line (start -3.92 -13.02) (end -2.54 -13.02) (layer F.Fab) (width 0.1))
  (fp_line (start 2.54 -13.02) (end 2.54 -12.38) (layer F.Fab) (width 0.1))
  (fp_line (start 2.54 -12.38) (end 3.92 -12.38) (layer F.Fab) (width 0.1))
  (fp_line (start 3.92 -12.38) (end 3.92 -13.02) (layer F.Fab) (width 0.1))
  (fp_line (start 3.92 -13.02) (end 2.54 -13.02) (layer F.Fab) (width 0.1))
  (fp_line (start -2.54 -10.48) (end -2.54 -9.84) (layer F.Fab) (width 0.1))
  (fp_line (start -2.54 -9.84) (end -3.92 -9.84) (layer F.Fab) (width 0.1))
  (fp_line (start -3.92 -9.84) (end -3.92 -10.48) (layer F.Fab) (width 0.1))
  (fp_line (start -3.92 -10.48) (end -2.54 -10.48) (layer F.Fab) (width 0.1))
  (fp_line (start 2.54 -10.48) (end 2.54 -9.84) (layer F.Fab) (width 0.1))
  (fp_line (start 2.54 -9.84) (end 3.92 -9.84) (layer F.Fab) (width 0.1))
  (fp_line (start 3.92 -9.84) (end 3.92 -10.48) (layer F.Fab) (width 0.1))
  (fp_line (start 3.92 -10.48) (end 2.54 -10.48) (layer F.Fab) (width 0.1))
  (fp_line (start -2.54 -7.94) (end -2.54 -7.3) (layer F.Fab) (width 0.1))
  (fp_line (start -2.54 -7.3) (end -3.92 -7.3) (layer F.Fab) (width 0.1))
  (fp_line (start -3.92 -7.3) (end -3.92 -7.94) (layer F.Fab) (width 0.1))
  (fp_line (start -3.92 -7.94) (end -2.54 -7.94) (layer F.Fab) (width 0.1))
  (fp_line (start 2.54 -7.94) (end 2.54 -7.3) (layer F.Fab) (width 0.1))
  (fp_line (start 2.54 -7.3) (end 3.92 -7.3) (layer F.Fab) (width 0.1))
  (fp_line (start 3.92 -7.3) (end 3.92 -7.94) (layer F.Fab) (width 0.1))
  (fp_line (start 3.92 -7.94) (end 2.54 -7.94) (layer F.Fab) (width 0.1))
  (fp_line (start -2.54 -5.4) (end -2.54 -4.76) (layer F.Fab) (width 0.1))
  (fp_line (start -2.54 -4.76) (end -3.92 -4.76) (layer F.Fab) (width 0.1))
  (fp_line (start -3.92 -4.76) (end -3.92 -5.4) (layer F.Fab) (width 0.1))
  (fp_line (start -3.92 -5.4) (end -2.54 -5.4) (layer F.Fab) (width 0.1))
  (fp_line (start 2.54 -5.4) (end 2.54 -4.76) (layer F.Fab) (width 0.1))
  (fp_line (start 2.54 -4.76) (end 3.92 -4.76) (layer F.Fab) (width 0.1))
  (fp_line (start 3.92 -4.76) (end 3.92 -5.4) (layer F.Fab) (width 0.1))
  (fp_line (start 3.92 -5.4) (end 2.54 -5.4) (layer F.Fab) (width 0.1))
  (fp_line (start -2.54 -2.86) (end -2.54 -2.22) (layer F.Fab) (width 0.1))
  (fp_line (start -2.54 -2.22) (end -3.92 -2.22) (layer F.Fab) (width 0.1))
  (fp_line (start -3.92 -2.22) (end -3.92 -2.86) (layer F.Fab) (width 0.1))
  (fp_line (start -3.92 -2.86) (end -2.54 -2.86) (layer F.Fab) (width 0.1))
  (fp_line (start 2.54 -2.86) (end 2.54 -2.22) (layer F.Fab) (width 0.1))
  (fp_line (start 2.54 -2.22) (end 3.92 -2.22) (layer F.Fab) (width 0.1))
  (fp_line (start 3.92 -2.22) (end 3.92 -2.86) (layer F.Fab) (width 0.1))
  (fp_line (start 3.92 -2.86) (end 2.54 -2.86) (layer F.Fab) (width 0.1))
  (fp_line (start -2.54 -0.32) (end -2.54 0.32) (layer F.Fab) (width 0.1))
  (fp_line (start -2.54 0.32) (end -3.92 0.32) (layer F.Fab) (width 0.1))
  (fp_line (start -3.92 0.32) (end -3.92 -0.32) (layer F.Fab) (width 0.1))
  (fp_line (start -3.92 -0.32) (end -2.54 -0.32) (layer F.Fab) (width 0.1))
  (fp_line (start 2.54 -0.32) (end 2.54 0.32) (layer F.Fab) (width 0.1))
  (fp_line (start 2.54 0.32) (end 3.92 0.32) (layer F.Fab) (width 0.1))
  (fp_line (start 3.92 0.32) (end 3.92 -0.32) (layer F.Fab) (width 0.1))
  (fp_line (start 3.92 -0.32) (end 2.54 -0.32) (layer F.Fab) (width 0.1))
  (fp_line (start -2.54 2.22) (end -2.54 2.86) (layer F.Fab) (width 0.1))
  (fp_line (start -2.54 2.86) (end -3.92 2.86) (layer F.Fab) (width 0.1))
  (fp_line (start -3.92 2.86) (end -3.92 2.22) (layer F.Fab) (width 0.1))
  (fp_line (start -3.92 2.22) (end -2.54 2.22) (layer F.Fab) (width 0.1))
  (fp_line (start 2.54 2.22) (end 2.54 2.86) (layer F.Fab) (width 0.1))
  (fp_line (start 2.54 2.86) (end 3.92 2.86) (layer F.Fab) (width 0.1))
  (fp_line (start 3.92 2.86) (end 3.92 2.22) (layer F.Fab) (width 0.1))
  (fp_line (start 3.92 2.22) (end 2.54 2.22) (layer F.Fab) (width 0.1))
  (fp_line (start -2.54 4.76) (end -2.54 5.4) (layer F.Fab) (width 0.1))
  (fp_line (start -2.54 5.4) (end -3.92 5.4) (layer F.Fab) (width 0.1))
  (fp_line (start -3.92 5.4) (end -3.92 4.76) (layer F.Fab) (width 0.1))
  (fp_line (start -3.92 4.76) (end -2.54 4.76) (layer F.Fab) (width 0.1))
  (fp_line (start 2.54 4.76) (end 2.54 5.4) (layer F.Fab) (width 0.1))
  (fp_line (start 2.54 5.4) (end 3.92 5.4) (layer F.Fab) (width 0.1))
  (fp_line (start 3.92 5.4) (end 3.92 4.76) (layer F.Fab) (width 0.1))
  (fp_line (start 3.92 4.76) (end 2.54 4.76) (layer F.Fab) (width 0.1))
  (fp_line (start -2.54 7.3) (end -2.54 7.94) (layer F.Fab) (width 0.1))
  (fp_line (start -2.54 7.94) (end -3.92 7.94) (layer F.Fab) (width 0.1))
  (fp_line (start -3.92 7.94) (end -3.92 7.3) (layer F.Fab) (width 0.1))
  (fp_line (start -3.92 7.3) (end -2.54 7.3) (layer F.Fab) (width 0.1))
  (fp_line (start 2.54 7.3) (end 2.54 7.94) (layer F.Fab) (width 0.1))
  (fp_line (start 2.54 7.94) (end 3.92 7.94) (layer F.Fab) (width 0.1))
  (fp_line (start 3.92 7.94) (end 3.92 7.3) (layer F.Fab) (width 0.1))
  (fp_line (start 3.92 7.3) (end 2.54 7.3) (layer F.Fab) (width 0.1))
  (fp_line (start -2.54 9.84) (end -2.54 10.48) (layer F.Fab) (width 0.1))
  (fp_line (start -2.54 10.48) (end -3.92 10.48) (layer F.Fab) (width 0.1))
  (fp_line (start -3.92 10.48) (end -3.92 9.84) (layer F.Fab) (width 0.1))
  (fp_line (start -3.92 9.84) (end -2.54 9.84) (layer F.Fab) (width 0.1))
  (fp_line (start 2.54 9.84) (end 2.54 10.48) (layer F.Fab) (width 0.1))
  (fp_line (start 2.54 10.48) (end 3.92 10.48) (layer F.Fab) (width 0.1))
  (fp_line (start 3.92 10.48) (end 3.92 9.84) (layer F.Fab) (width 0.1))
  (fp_line (start 3.92 9.84) (end 2.54 9.84) (layer F.Fab) (width 0.1))
  (fp_line (start -2.54 12.38) (end -2.54 13.02) (layer F.Fab) (width 0.1))
  (fp_line (start -2.54 13.02) (end -3.92 13.02) (layer F.Fab) (width 0.1))
  (fp_line (start -3.92 13.02) (end -3.92 12.38) (layer F.Fab) (width 0.1))
  (fp_line (start -3.92 12.38) (end -2.54 12.38) (layer F.Fab) (width 0.1))
  (fp_line (start 2.54 12.38) (end 2.54 13.02) (layer F.Fab) (width 0.1))
  (fp_line (start 2.54 13.02) (end 3.92 13.02) (layer F.Fab) (width 0.1))
  (fp_line (start 3.92 13.02) (end 3.92 12.38) (layer F.Fab) (width 0.1))
  (fp_line (start 3.92 12.38) (end 2.54 12.38) (layer F.Fab) (width 0.1))
  (fp_line (start -2.54 14.92) (end -2.54 15.56) (layer F.Fab) (width 0.1))
  (fp_line (start -2.54 15.56) (end -3.92 15.56) (layer F.Fab) (width 0.1))
  (fp_line (start -3.92 15.56) (end -3.92 14.92) (layer F.Fab) (width 0.1))
  (fp_line (start -3.92 14.92) (end -2.54 14.92) (layer F.Fab) (width 0.1))
  (fp_line (start 2.54 14.92) (end 2.54 15.56) (layer F.Fab) (width 0.1))
  (fp_line (start 2.54 15.56) (end 3.92 15.56) (layer F.Fab) (width 0.1))
  (fp_line (start 3.92 15.56) (end 3.92 14.92) (layer F.Fab) (width 0.1))
  (fp_line (start 3.92 14.92) (end 2.54 14.92) (layer F.Fab) (width 0.1))
  (fp_line (start -2.54 17.46) (end -2.54 18.1) (layer F.Fab) (width 0.1))
  (fp_line (start -2.54 18.1) (end -3.92 18.1) (layer F.Fab) (width 0.1))
  (fp_line (start -3.92 18.1) (end -3.92 17.46) (layer F.Fab) (width 0.1))
  (fp_line (start -3.92 17.46) (end -2.54 17.46) (layer F.Fab) (width 0.1))
  (fp_line (start 2.54 17.46) (end 2.54 18.1) (layer F.Fab) (width 0.1))
  (fp_line (start 2.54 18.1) (end 3.92 18.1) (layer F.Fab) (width 0.1))
  (fp_line (start 3.92 18.1) (end 3.92 17.46) (layer F.Fab) (width 0.1))
  (fp_line (start 3.92 17.46) (end 2.54 17.46) (layer F.Fab) (width 0.1))
  (fp_line (start -2.54 20) (end -2.54 20.64) (layer F.Fab) (width 0.1))
  (fp_line (start -2.54 20.64) (end -3.92 20.64) (layer F.Fab) (width 0.1))
  (fp_line (start -3.92 20.64) (end -3.92 20) (layer F.Fab) (width 0.1))
  (fp_line (start -3.92 20) (end -2.54 20) (layer F.Fab) (width 0.1))
  (fp_line (start 2.54 20) (end 2.54 20.64) (layer F.Fab) (width 0.1))
  (fp_line (start 2.54 20.64) (end 3.92 20.64) (layer F.Fab) (width 0.1))
  (fp_line (start 3.92 20.64) (end 3.92 20) (layer F.Fab) (width 0.1))
  (fp_line (start 3.92 20) (end 2.54 20) (layer F.Fab) (width 0.1))
  (fp_line (start -2.54 22.54) (end -2.54 23.18) (layer F.Fab) (width 0.1))
  (fp_line (start -2.54 23.18) (end -3.92 23.18) (layer F.Fab) (width 0.1))
  (fp_line (start -3.92 23.18) (end -3.92 22.54) (layer F.Fab) (width 0.1))
  (fp_line (start -3.92 22.54) (end -2.54 22.54) (layer F.Fab) (width 0.1))
  (fp_line (start 2.54 22.54) (end 2.54 23.18) (layer F.Fab) (width 0.1))
  (fp_line (start 2.54 23.18) (end 3.92 23.18) (layer F.Fab) (width 0.1))
  (fp_line (start 3.92 23.18) (end 3.92 22.54) (layer F.Fab) (width 0.1))
  (fp_line (start 3.92 22.54) (end 2.54 22.54) (layer F.Fab) (width 0.1))
  (fp_line (start -2.54 25.08) (end -2.54 25.72) (layer F.Fab) (width 0.1))
  (fp_line (start -2.54 25.72) (end -3.92 25.72) (layer F.Fab) (width 0.1))
  (fp_line (start -3.92 25.72) (end -3.92 25.08) (layer F.Fab) (width 0.1))
  (fp_line (start -3.92 25.08) (end -2.54 25.08) (layer F.Fab) (width 0.1))
  (fp_line (start 2.54 25.08) (end 2.54 25.72) (layer F.Fab) (width 0.1))
  (fp_line (start 2.54 25.72) (end 3.92 25.72) (layer F.Fab) (width 0.1))
  (fp_line (start 3.92 25.72) (end 3.92 25.08) (layer F.Fab) (width 0.1))
  (fp_line (start 3.92 25.08) (end 2.54 25.08) (layer F.Fab) (width 0.1))
  (fp_line (start -2.54 27.62) (end -2.54 28.26) (layer F.Fab) (width 0.1))
  (fp_line (start -2.54 28.26) (end -3.92 28.26) (layer F.Fab) (width 0.1))
  (fp_line (start -3.92 28.26) (end -3.92 27.62) (layer F.Fab) (width 0.1))
  (fp_line (start -3.92 27.62) (end -2.54 27.62) (layer F.Fab) (width 0.1))
  (fp_line (start 2.54 27.62) (end 2.54 28.26) (layer F.Fab) (width 0.1))
  (fp_line (start 2.54 28.26) (end 3.92 28.26) (layer F.Fab) (width 0.1))
  (fp_line (start 3.92 28.26) (end 3.92 27.62) (layer F.Fab) (width 0.1))
  (fp_line (start 3.92 27.62) (end 2.54 27.62) (layer F.Fab) (width 0.1))
  (fp_line (start -2.54 30.16) (end -2.54 30.8) (layer F.Fab) (width 0.1))
  (fp_line (start -2.54 30.8) (end -3.92 30.8) (layer F.Fab) (width 0.1))
  (fp_line (start -3.92 30.8) (end -3.92 30.16) (layer F.Fab) (width 0.1))
  (fp_line (start -3.92 30.16) (end -2.54 30.16) (layer F.Fab) (width 0.1))
  (fp_line (start 2.54 30.16) (end 2.54 30.8) (layer F.Fab) (width 0.1))
  (fp_line (start 2.54 30.8) (end 3.92 30.8) (layer F.Fab) (width 0.1))
  (fp_line (start 3.92 30.8) (end 3.92 30.16) (layer F.Fab) (width 0.1))
  (fp_line (start 3.92 30.16) (end 2.54 30.16) (layer F.Fab) (width 0.1))
  (fp_line (start -2.54 32.7) (end -2.54 33.34) (layer F.Fab) (width 0.1))
  (fp_line (start -2.54 33.34) (end -3.92 33.34) (layer F.Fab) (width 0.1))
  (fp_line (start -3.92 33.34) (end -3.92 32.7) (layer F.Fab) (width 0.1))
  (fp_line (start -3.92 32.7) (end -2.54 32.7) (layer F.Fab) (width 0.1))
  (fp_line (start 2.54 32.7) (end 2.54 33.34) (layer F.Fab) (width 0.1))
  (fp_line (start 2.54 33.34) (end 3.92 33.34) (layer F.Fab) (width 0.1))
  (fp_line (start 3.92 33.34) (end 3.92 32.7) (layer F.Fab) (width 0.1))
  (fp_line (start 3.92 32.7) (end 2.54 32.7) (layer F.Fab) (width 0.1))
  (fp_line (start -2.54 35.24) (end -2.54 35.88) (layer F.Fab) (width 0.1))
  (fp_line (start -2.54 35.88) (end -3.92 35.88) (layer F.Fab) (width 0.1))
  (fp_line (start -3.92 35.88) (end -3.92 35.24) (layer F.Fab) (width 0.1))
  (fp_line (start -3.92 35.24) (end -2.54 35.24) (layer F.Fab) (width 0.1))
  (fp_line (start 2.54 35.24) (end 2.54 35.88) (layer F.Fab) (width 0.1))
  (fp_line (start 2.54 35.88) (end 3.92 35.88) (layer F.Fab) (width 0.1))
  (fp_line (start 3.92 35.88) (end 3.92 35.24) (layer F.Fab) (width 0.1))
  (fp_line (start 3.92 35.24) (end 2.54 35.24) (layer F.Fab) (width 0.1))
  (fp_line (start -2.54 37.78) (end -2.54 38.42) (layer F.Fab) (width 0.1))
  (fp_line (start -2.54 38.42) (end -3.92 38.42) (layer F.Fab) (width 0.1))
  (fp_line (start -3.92 38.42) (end -3.92 37.78) (layer F.Fab) (width 0.1))
  (fp_line (start -3.92 37.78) (end -2.54 37.78) (layer F.Fab) (width 0.1))
  (fp_line (start 2.54 37.78) (end 2.54 38.42) (layer F.Fab) (width 0.1))
  (fp_line (start 2.54 38.42) (end 3.92 38.42) (layer F.Fab) (width 0.1))
  (fp_line (start 3.92 38.42) (end 3.92 37.78) (layer F.Fab) (width 0.1))
  (fp_line (start 3.92 37.78) (end 2.54 37.78) (layer F.Fab) (width 0.1))
  (fp_line (start -2.54 40.32) (end -2.54 40.96) (layer F.Fab) (width 0.1))
  (fp_line (start -2.54 40.96) (end -3.92 40.96) (layer F.Fab) (width 0.1))
  (fp_line (start -3.92 40.96) (end -3.92 40.32) (layer F.Fab) (width 0.1))
  (fp_line (start -3.92 40.32) (end -2.54 40.32) (layer F.Fab) (width 0.1))
  (fp_line (start 2.54 40.32) (end 2.54 40.96) (layer F.Fab) (width 0.1))
  (fp_line (start 2.54 40.96) (end 3.92 40.96) (layer F.Fab) (width 0.1))
  (fp_line (start 3.92 40.96) (end 3.92 40.32) (layer F.Fab) (width 0.1))
  (fp_line (start 3.92 40.32) (end 2.54 40.32) (layer F.Fab) (width 0.1))
  (fp_line (start -2.54 42.86) (end -2.54 43.5) (layer F.Fab) (width 0.1))
  (fp_line (start -2.54 43.5) (end -3.92 43.5) (layer F.Fab) (width 0.1))
  (fp_line (start -3.92 43.5) (end -3.92 42.86) (layer F.Fab) (width 0.1))
  (fp_line (start -3.92 42.86) (end -2.54 42.86) (layer F.Fab) (width 0.1))
  (fp_line (start 2.54 42.86) (end 2.54 43.5) (layer F.Fab) (width 0.1))
  (fp_line (start 2.54 43.5) (end 3.92 43.5) (layer F.Fab) (width 0.1))
  (fp_line (start 3.92 43.5) (end 3.92 42.86) (layer F.Fab) (width 0.1))
  (fp_line (start 3.92 42.86) (end 2.54 42.86) (layer F.Fab) (width 0.1))
  (fp_line (start -2.54 45.4) (end -2.54 46.04) (layer F.Fab) (width 0.1))
  (fp_line (start -2.54 46.04) (end -3.92 46.04) (layer F.Fab) (width 0.1))
  (fp_line (start -3.92 46.04) (end -3.92 45.4) (layer F.Fab) (width 0.1))
  (fp_line (start -3.92 45.4) (end -2.54 45.4) (layer F.Fab) (width 0.1))
  (fp_line (start 2.54 45.4) (end 2.54 46.04) (layer F.Fab) (width 0.1))
  (fp_line (start 2.54 46.04) (end 3.92 46.04) (layer F.Fab) (width 0.1))
  (fp_line (start 3.92 46.04) (end 3.92 45.4) (layer F.Fab) (width 0.1))
  (fp_line (start 3.92 45.4) (end 2.54 45.4) (layer F.Fab) (width 0.1))
  (fp_line (start -2.6 -46.52) (end -2.6 -47.05) (layer F.SilkS) (width 0.12))
  (fp_line (start -2.6 -47.05) (end 2.6 -47.05) (layer F.SilkS) (width 0.12))
  (fp_line (start 2.6 -47.05) (end 2.6 -46.52) (layer F.SilkS) (width 0.12))
  (fp_line (start -2.6 46.52) (end -2.6 47.05) (layer F.SilkS) (width 0.12))
  (fp_line (start -2.6 47.05) (end 2.6 47.05) (layer F.SilkS) (width 0.12))
  (fp_line (start 2.6 47.05) (end 2.6 46.52) (layer F.SilkS) (width 0.12))
  (fp_line (start -4.27 -46.52) (end -2.6 -46.52) (layer F.SilkS) (width 0.12))
  (fp_line (start -4.55 -47.25) (end -4.55 47.25) (layer F.CrtYd) (width 0.05))
  (fp_line (start -4.55 47.25) (end 4.55 47.25) (layer F.CrtYd) (width 0.05))
  (fp_line (start 4.55 47.25) (end 4.55 -47.25) (layer F.CrtYd) (width 0.05))
  (fp_line (start 4.55 -47.25) (end -4.55 -47.25) (layer F.CrtYd) (width 0.05))
  (pad 1 smd rect (at -2.77 -45.72) (size 3 1) (layers F.Cu F.Mask))
  (pad 2 smd rect (at 2.77 -45.72) (size 3 1) (layers F.Cu F.Mask))
  (pad 3 smd rect (at -2.77 -43.18) (size 3 1) (layers F.Cu F.Mask))
  (pad 4 smd rect (at 2.77 -43.18) (size 3 1) (layers F.Cu F.Mask))
  (pad 5 smd rect (at -2.77 -40.64) (size 3 1) (layers F.Cu F.Mask))
  (pad 6 smd rect (at 2.77 -40.64) (size 3 1) (layers F.Cu F.Mask))
  (pad 7 smd rect (at -2.77 -38.1) (size 3 1) (layers F.Cu F.Mask))
  (pad 8 smd rect (at 2.77 -38.1) (size 3 1) (layers F.Cu F.Mask))
  (pad 9 smd rect (at -2.77 -35.56) (size 3 1) (layers F.Cu F.Mask))
  (pad 10 smd rect (at 2.77 -35.56) (size 3 1) (layers F.Cu F.Mask))
  (pad 11 smd rect (at -2.77 -33.02) (size 3 1) (layers F.Cu F.Mask))
  (pad 12 smd rect (at 2.77 -33.02) (size 3 1) (layers F.Cu F.Mask))
  (pad 13 smd rect (at -2.77 -30.48) (size 3 1) (layers F.Cu F.Mask))
  (pad 14 smd rect (at 2.77 -30.48) (size 3 1) (layers F.Cu F.Mask))
  (pad 15 smd rect (at -2.77 -27.94) (size 3 1) (layers F.Cu F.Mask))
  (pad 16 smd rect (at 2.77 -27.94) (size 3 1) (layers F.Cu F.Mask))
  (pad 17 smd rect (at -2.77 -25.4) (size 3 1) (layers F.Cu F.Mask))
  (pad 18 smd rect (at 2.77 -25.4) (size 3 1) (layers F.Cu F.Mask))
  (pad 19 smd rect (at -2.77 -22.86) (size 3 1) (layers F.Cu F.Mask))
  (pad 20 smd rect (at 2.77 -22.86) (size 3 1) (layers F.Cu F.Mask))
  (pad 21 smd rect (at -2.77 -20.32) (size 3 1) (layers F.Cu F.Mask))
  (pad 22 smd rect (at 2.77 -20.32) (size 3 1) (layers F.Cu F.Mask))
  (pad 23 smd rect (at -2.77 -17.78) (size 3 1) (layers F.Cu F.Mask))
  (pad 24 smd rect (at 2.77 -17.78) (size 3 1) (layers F.Cu F.Mask))
  (pad 25 smd rect (at -2.77 -15.24) (size 3 1) (layers F.Cu F.Mask))
  (pad 26 smd rect (at 2.77 -15.24) (size 3 1) (layers F.Cu F.Mask))
  (pad 27 smd rect (at -2.77 -12.7) (size 3 1) (layers F.Cu F.Mask))
  (pad 28 smd rect (at 2.77 -12.7) (size 3 1) (layers F.Cu F.Mask))
  (pad 29 smd rect (at -2.77 -10.16) (size 3 1) (layers F.Cu F.Mask))
  (pad 30 smd rect (at 2.77 -10.16) (size 3 1) (layers F.Cu F.Mask))
  (pad 31 smd rect (at -2.77 -7.62) (size 3 1) (layers F.Cu F.Mask))
  (pad 32 smd rect (at 2.77 -7.62) (size 3 1) (layers F.Cu F.Mask))
  (pad 33 smd rect (at -2.77 -5.08) (size 3 1) (layers F.Cu F.Mask))
  (pad 34 smd rect (at 2.77 -5.08) (size 3 1) (layers F.Cu F.Mask))
  (pad 35 smd rect (at -2.77 -2.54) (size 3 1) (layers F.Cu F.Mask))
  (pad 36 smd rect (at 2.77 -2.54) (size 3 1) (layers F.Cu F.Mask))
  (pad 37 smd rect (at -2.77 0) (size 3 1) (layers F.Cu F.Mask))
  (pad 38 smd rect (at 2.77 0) (size 3 1) (layers F.Cu F.Mask))
  (pad 39 smd rect (at -2.77 2.54) (size 3 1) (layers F.Cu F.Mask))
  (pad 40 smd rect (at 2.77 2.54) (size 3 1) (layers F.Cu F.Mask))
  (pad 41 smd rect (at -2.77 5.08) (size 3 1) (layers F.Cu F.Mask))
  (pad 42 smd rect (at 2.77 5.08) (size 3 1) (layers F.Cu F.Mask))
  (pad 43 smd rect (at -2.77 7.62) (size 3 1) (layers F.Cu F.Mask))
  (pad 44 smd rect (at 2.77 7.62) (size 3 1) (layers F.Cu F.Mask))
  (pad 45 smd rect (at -2.77 10.16) (size 3 1) (layers F.Cu F.Mask))
  (pad 46 smd rect (at 2.77 10.16) (size 3 1) (layers F.Cu F.Mask))
  (pad 47 smd rect (at -2.77 12.7) (size 3 1) (layers F.Cu F.Mask))
  (pad 48 smd rect (at 2.77 12.7) (size 3 1) (layers F.Cu F.Mask))
  (pad 49 smd rect (at -2.77 15.24) (size 3 1) (layers F.Cu F.Mask))
  (pad 50 smd rect (at 2.77 15.24) (size 3 1) (layers F.Cu F.Mask))
  (pad 51 smd rect (at -2.77 17.78) (size 3 1) (layers F.Cu F.Mask))
  (pad 52 smd rect (at 2.77 17.78) (size 3 1) (layers F.Cu F.Mask))
  (pad 53 smd rect (at -2.77 20.32) (size 3 1) (layers F.Cu F.Mask))
  (pad 54 smd rect (at 2.77 20.32) (size 3 1) (layers F.Cu F.Mask))
  (pad 55 smd rect (at -2.77 22.86) (size 3 1) (layers F.Cu F.Mask))
  (pad 56 smd rect (at 2.77 22.86) (size 3 1) (layers F.Cu F.Mask))
  (pad 57 smd rect (at -2.77 25.4) (size 3 1) (layers F.Cu F.Mask))
  (pad 58 smd rect (at 2.77 25.4) (size 3 1) (layers F.Cu F.Mask))
  (pad 59 smd rect (at -2.77 27.94) (size 3 1) (layers F.Cu F.Mask))
  (pad 60 smd rect (at 2.77 27.94) (size 3 1) (layers F.Cu F.Mask))
  (pad 61 smd rect (at -2.77 30.48) (size 3 1) (layers F.Cu F.Mask))
  (pad 62 smd rect (at 2.77 30.48) (size 3 1) (layers F.Cu F.Mask))
  (pad 63 smd rect (at -2.77 33.02) (size 3 1) (layers F.Cu F.Mask))
  (pad 64 smd rect (at 2.77 33.02) (size 3 1) (layers F.Cu F.Mask))
  (pad 65 smd rect (at -2.77 35.56) (size 3 1) (layers F.Cu F.Mask))
  (pad 66 smd rect (at 2.77 35.56) (size 3 1) (layers F.Cu F.Mask))
  (pad 67 smd rect (at -2.77 38.1) (size 3 1) (layers F.Cu F.Mask))
  (pad 68 smd rect (at 2.77 38.1) (size 3 1) (layers F.Cu F.Mask))
  (pad 69 smd rect (at -2.77 40.64) (size 3 1) (layers F.Cu F.Mask))
  (pad 70 smd rect (at 2.77 40.64) (size 3 1) (layers F.Cu F.Mask))
  (pad 71 smd rect (at -2.77 43.18) (size 3 1) (layers F.Cu F.Mask))
  (pad 72 smd rect (at 2.77 43.18) (size 3 1) (layers F.Cu F.Mask))
  (pad 73 smd rect (at -2.77 45.72) (size 3 1) (layers F.Cu F.Mask))
  (pad 74 smd rect (at 2.77 45.72) (size 3 1) (layers F.Cu F.Mask))
  (model Pin_Headers.3dshapes/Pin_Header_Straight_2x37_Pitch2.54mm_SMD.wrl
    (at (xyz 0 0 0))
    (scale (xyz 1 1 1))
    (rotate (xyz 0 0 0))
  )
)