(module Pin_Header_Straight_1x10_Pitch1.27mm_SMD_Pin1Right (layer F.Cu) (tedit 588DAF33)
  (descr "surface-mounted straight pin header, 1x10, 1.27mm pitch, single row, style 2 (pin 1 right)")
  (tags "Surface mounted pin header SMD 1x10 1.27mm single row style2 pin1 right")
  (attr smd)
  (fp_text reference REF** (at 0 -7.41) (layer F.SilkS)
    (effects (font (size 1 1) (thickness 0.15)))
  )
  (fp_text value Pin_Header_Straight_1x10_Pitch1.27mm_SMD_Pin1Right (at 0 7.41) (layer F.Fab)
    (effects (font (size 1 1) (thickness 0.15)))
  )
  (fp_line (start -0.635 -6.35) (end -0.635 6.35) (layer F.Fab) (width 0.1))
  (fp_line (start -0.635 6.35) (end 0.635 6.35) (layer F.Fab) (width 0.1))
  (fp_line (start 0.635 6.35) (end 0.635 -6.35) (layer F.Fab) (width 0.1))
  (fp_line (start 0.635 -6.35) (end -0.635 -6.35) (layer F.Fab) (width 0.1))
  (fp_line (start -0.635 -4.645) (end -0.635 -4.245) (layer F.Fab) (width 0.1))
  (fp_line (start -0.635 -4.245) (end -1.92 -4.245) (layer F.Fab) (width 0.1))
  (fp_line (start -1.92 -4.245) (end -1.92 -4.645) (layer F.Fab) (width 0.1))
  (fp_line (start -1.92 -4.645) (end -0.635 -4.645) (layer F.Fab) (width 0.1))
  (fp_line (start -0.635 -2.105) (end -0.635 -1.705) (layer F.Fab) (width 0.1))
  (fp_line (start -0.635 -1.705) (end -1.92 -1.705) (layer F.Fab) (width 0.1))
  (fp_line (start -1.92 -1.705) (end -1.92 -2.105) (layer F.Fab) (width 0.1))
  (fp_line (start -1.92 -2.105) (end -0.635 -2.105) (layer F.Fab) (width 0.1))
  (fp_line (start -0.635 0.435) (end -0.635 0.835) (layer F.Fab) (width 0.1))
  (fp_line (start -0.635 0.835) (end -1.92 0.835) (layer F.Fab) (width 0.1))
  (fp_line (start -1.92 0.835) (end -1.92 0.435) (layer F.Fab) (width 0.1))
  (fp_line (start -1.92 0.435) (end -0.635 0.435) (layer F.Fab) (width 0.1))
  (fp_line (start -0.635 2.975) (end -0.635 3.375) (layer F.Fab) (width 0.1))
  (fp_line (start -0.635 3.375) (end -1.92 3.375) (layer F.Fab) (width 0.1))
  (fp_line (start -1.92 3.375) (end -1.92 2.975) (layer F.Fab) (width 0.1))
  (fp_line (start -1.92 2.975) (end -0.635 2.975) (layer F.Fab) (width 0.1))
  (fp_line (start -0.635 5.515) (end -0.635 5.915) (layer F.Fab) (width 0.1))
  (fp_line (start -0.635 5.915) (end -1.92 5.915) (layer F.Fab) (width 0.1))
  (fp_line (start -1.92 5.915) (end -1.92 5.515) (layer F.Fab) (width 0.1))
  (fp_line (start -1.92 5.515) (end -0.635 5.515) (layer F.Fab) (width 0.1))
  (fp_line (start 0.635 -5.915) (end 0.635 -5.515) (layer F.Fab) (width 0.1))
  (fp_line (start 0.635 -5.515) (end 1.92 -5.515) (layer F.Fab) (width 0.1))
  (fp_line (start 1.92 -5.515) (end 1.92 -5.915) (layer F.Fab) (width 0.1))
  (fp_line (start 1.92 -5.915) (end 0.635 -5.915) (layer F.Fab) (width 0.1))
  (fp_line (start 0.635 -3.375) (end 0.635 -2.975) (layer F.Fab) (width 0.1))
  (fp_line (start 0.635 -2.975) (end 1.92 -2.975) (layer F.Fab) (width 0.1))
  (fp_line (start 1.92 -2.975) (end 1.92 -3.375) (layer F.Fab) (width 0.1))
  (fp_line (start 1.92 -3.375) (end 0.635 -3.375) (layer F.Fab) (width 0.1))
  (fp_line (start 0.635 -0.835) (end 0.635 -0.435) (layer F.Fab) (width 0.1))
  (fp_line (start 0.635 -0.435) (end 1.92 -0.435) (layer F.Fab) (width 0.1))
  (fp_line (start 1.92 -0.435) (end 1.92 -0.835) (layer F.Fab) (width 0.1))
  (fp_line (start 1.92 -0.835) (end 0.635 -0.835) (layer F.Fab) (width 0.1))
  (fp_line (start 0.635 1.705) (end 0.635 2.105) (layer F.Fab) (width 0.1))
  (fp_line (start 0.635 2.105) (end 1.92 2.105) (layer F.Fab) (width 0.1))
  (fp_line (start 1.92 2.105) (end 1.92 1.705) (layer F.Fab) (width 0.1))
  (fp_line (start 1.92 1.705) (end 0.635 1.705) (layer F.Fab) (width 0.1))
  (fp_line (start 0.635 4.245) (end 0.635 4.645) (layer F.Fab) (width 0.1))
  (fp_line (start 0.635 4.645) (end 1.92 4.645) (layer F.Fab) (width 0.1))
  (fp_line (start 1.92 4.645) (end 1.92 4.245) (layer F.Fab) (width 0.1))
  (fp_line (start 1.92 4.245) (end 0.635 4.245) (layer F.Fab) (width 0.1))
  (fp_line (start -0.695 -6.39) (end -0.695 -6.41) (layer F.SilkS) (width 0.12))
  (fp_line (start -0.695 -6.41) (end 0.695 -6.41) (layer F.SilkS) (width 0.12))
  (fp_line (start 0.695 -6.41) (end 0.695 -6.39) (layer F.SilkS) (width 0.12))
  (fp_line (start -0.695 6.39) (end -0.695 6.41) (layer F.SilkS) (width 0.12))
  (fp_line (start -0.695 6.41) (end 0.695 6.41) (layer F.SilkS) (width 0.12))
  (fp_line (start 0.695 6.41) (end 0.695 6.39) (layer F.SilkS) (width 0.12))
  (fp_line (start 0.695 -5.16) (end 0.695 -3.73) (layer F.SilkS) (width 0.12))
  (fp_line (start 0.695 -2.62) (end 0.695 -1.19) (layer F.SilkS) (width 0.12))
  (fp_line (start 0.695 -0.08) (end 0.695 1.35) (layer F.SilkS) (width 0.12))
  (fp_line (start 0.695 2.46) (end 0.695 3.89) (layer F.SilkS) (width 0.12))
  (fp_line (start 0.695 5) (end 0.695 6.41) (layer F.SilkS) (width 0.12))
  (fp_line (start -0.695 -6.41) (end -0.695 -5) (layer F.SilkS) (width 0.12))
  (fp_line (start 0.695 -6.39) (end 3 -6.39) (layer F.SilkS) (width 0.12))
  (fp_line (start -0.695 -3.89) (end -0.695 -2.46) (layer F.SilkS) (width 0.12))
  (fp_line (start -0.695 -1.35) (end -0.695 0.08) (layer F.SilkS) (width 0.12))
  (fp_line (start -0.695 1.19) (end -0.695 2.62) (layer F.SilkS) (width 0.12))
  (fp_line (start -0.695 3.73) (end -0.695 5.16) (layer F.SilkS) (width 0.12))
  (fp_line (start -3.25 -6.6) (end -3.25 6.6) (layer F.CrtYd) (width 0.05))
  (fp_line (start -3.25 6.6) (end 3.25 6.6) (layer F.CrtYd) (width 0.05))
  (fp_line (start 3.25 6.6) (end 3.25 -6.6) (layer F.CrtYd) (width 0.05))
  (fp_line (start 3.25 -6.6) (end -3.25 -6.6) (layer F.CrtYd) (width 0.05))
  (pad 2 smd rect (at -1.95 -4.445) (size 2.1 0.75) (layers F.Cu F.Mask))
  (pad 4 smd rect (at -1.95 -1.905) (size 2.1 0.75) (layers F.Cu F.Mask))
  (pad 6 smd rect (at -1.95 0.635) (size 2.1 0.75) (layers F.Cu F.Mask))
  (pad 8 smd rect (at -1.95 3.175) (size 2.1 0.75) (layers F.Cu F.Mask))
  (pad 10 smd rect (at -1.95 5.715) (size 2.1 0.75) (layers F.Cu F.Mask))
  (pad 1 smd rect (at 1.95 -5.715) (size 2.1 0.75) (layers F.Cu F.Mask))
  (pad 3 smd rect (at 1.95 -3.175) (size 2.1 0.75) (layers F.Cu F.Mask))
  (pad 5 smd rect (at 1.95 -0.635) (size 2.1 0.75) (layers F.Cu F.Mask))
  (pad 7 smd rect (at 1.95 1.905) (size 2.1 0.75) (layers F.Cu F.Mask))
  (pad 9 smd rect (at 1.95 4.445) (size 2.1 0.75) (layers F.Cu F.Mask))
  (model Pin_Headers.3dshapes/Pin_Header_Straight_1x10_Pitch1.27mm_SMD_Pin1Right.wrl
    (at (xyz 0 0 0))
    (scale (xyz 1 1 1))
    (rotate (xyz 0 0 0))
  )
)