(module Pin_Header_Straight_1x02_Pitch2.00mm_SMD_Pin1Right (layer F.Cu) (tedit 588DAF2D)
  (descr "surface-mounted straight pin header, 1x02, 2.00mm pitch, single row, style 2 (pin 1 right)")
  (tags "Surface mounted pin header SMD 1x02 2.00mm single row style2 pin1 right")
  (attr smd)
  (fp_text reference REF** (at 0 -3.06) (layer F.SilkS)
    (effects (font (size 1 1) (thickness 0.15)))
  )
  (fp_text value Pin_Header_Straight_1x02_Pitch2.00mm_SMD_Pin1Right (at 0 3.06) (layer F.Fab)
    (effects (font (size 1 1) (thickness 0.15)))
  )
  (fp_line (start -1 -2) (end -1 2) (layer F.Fab) (width 0.1))
  (fp_line (start -1 2) (end 1 2) (layer F.Fab) (width 0.1))
  (fp_line (start 1 2) (end 1 -2) (layer F.Fab) (width 0.1))
  (fp_line (start 1 -2) (end -1 -2) (layer F.Fab) (width 0.1))
  (fp_line (start -1 0.75) (end -1 1.25) (layer F.Fab) (width 0.1))
  (fp_line (start -1 1.25) (end -2 1.25) (layer F.Fab) (width 0.1))
  (fp_line (start -2 1.25) (end -2 0.75) (layer F.Fab) (width 0.1))
  (fp_line (start -2 0.75) (end -1 0.75) (layer F.Fab) (width 0.1))
  (fp_line (start 1 -1.25) (end 1 -0.75) (layer F.Fab) (width 0.1))
  (fp_line (start 1 -0.75) (end 2 -0.75) (layer F.Fab) (width 0.1))
  (fp_line (start 2 -0.75) (end 2 -1.25) (layer F.Fab) (width 0.1))
  (fp_line (start 2 -1.25) (end 1 -1.25) (layer F.Fab) (width 0.1))
  (fp_line (start -1.06 -1.8) (end -1.06 -2.06) (layer F.SilkS) (width 0.12))
  (fp_line (start -1.06 -2.06) (end 1.06 -2.06) (layer F.SilkS) (width 0.12))
  (fp_line (start 1.06 -2.06) (end 1.06 -1.8) (layer F.SilkS) (width 0.12))
  (fp_line (start -1.06 1.8) (end -1.06 2.06) (layer F.SilkS) (width 0.12))
  (fp_line (start -1.06 2.06) (end 1.06 2.06) (layer F.SilkS) (width 0.12))
  (fp_line (start 1.06 2.06) (end 1.06 1.8) (layer F.SilkS) (width 0.12))
  (fp_line (start 1.06 -0.32) (end 1.06 2.06) (layer F.SilkS) (width 0.12))
  (fp_line (start -1.06 -2.06) (end -1.06 0.32) (layer F.SilkS) (width 0.12))
  (fp_line (start 1.06 -1.8) (end 3.5 -1.8) (layer F.SilkS) (width 0.12))
  (fp_line (start -3.75 -2.25) (end -3.75 2.25) (layer F.CrtYd) (width 0.05))
  (fp_line (start -3.75 2.25) (end 3.75 2.25) (layer F.CrtYd) (width 0.05))
  (fp_line (start 3.75 2.25) (end 3.75 -2.25) (layer F.CrtYd) (width 0.05))
  (fp_line (start 3.75 -2.25) (end -3.75 -2.25) (layer F.CrtYd) (width 0.05))
  (pad 2 smd rect (at -2.125 1) (size 2.75 1) (layers F.Cu F.Mask))
  (pad 1 smd rect (at 2.125 -1) (size 2.75 1) (layers F.Cu F.Mask))
  (model Pin_Headers.3dshapes/Pin_Header_Straight_1x02_Pitch2.00mm_SMD_Pin1Right.wrl
    (at (xyz 0 0 0))
    (scale (xyz 1 1 1))
    (rotate (xyz 0 0 0))
  )
)