(module Pin_Header_Straight_1x20_Pitch2.00mm_SMD_Pin1Right (layer F.Cu) (tedit 588DAF2E)
  (descr "surface-mounted straight pin header, 1x20, 2.00mm pitch, single row, style 2 (pin 1 right)")
  (tags "Surface mounted pin header SMD 1x20 2.00mm single row style2 pin1 right")
  (attr smd)
  (fp_text reference REF** (at 0 -21.06) (layer F.SilkS)
    (effects (font (size 1 1) (thickness 0.15)))
  )
  (fp_text value Pin_Header_Straight_1x20_Pitch2.00mm_SMD_Pin1Right (at 0 21.06) (layer F.Fab)
    (effects (font (size 1 1) (thickness 0.15)))
  )
  (fp_line (start -1 -20) (end -1 20) (layer F.Fab) (width 0.1))
  (fp_line (start -1 20) (end 1 20) (layer F.Fab) (width 0.1))
  (fp_line (start 1 20) (end 1 -20) (layer F.Fab) (width 0.1))
  (fp_line (start 1 -20) (end -1 -20) (layer F.Fab) (width 0.1))
  (fp_line (start -1 -17.25) (end -1 -16.75) (layer F.Fab) (width 0.1))
  (fp_line (start -1 -16.75) (end -2 -16.75) (layer F.Fab) (width 0.1))
  (fp_line (start -2 -16.75) (end -2 -17.25) (layer F.Fab) (width 0.1))
  (fp_line (start -2 -17.25) (end -1 -17.25) (layer F.Fab) (width 0.1))
  (fp_line (start -1 -13.25) (end -1 -12.75) (layer F.Fab) (width 0.1))
  (fp_line (start -1 -12.75) (end -2 -12.75) (layer F.Fab) (width 0.1))
  (fp_line (start -2 -12.75) (end -2 -13.25) (layer F.Fab) (width 0.1))
  (fp_line (start -2 -13.25) (end -1 -13.25) (layer F.Fab) (width 0.1))
  (fp_line (start -1 -9.25) (end -1 -8.75) (layer F.Fab) (width 0.1))
  (fp_line (start -1 -8.75) (end -2 -8.75) (layer F.Fab) (width 0.1))
  (fp_line (start -2 -8.75) (end -2 -9.25) (layer F.Fab) (width 0.1))
  (fp_line (start -2 -9.25) (end -1 -9.25) (layer F.Fab) (width 0.1))
  (fp_line (start -1 -5.25) (end -1 -4.75) (layer F.Fab) (width 0.1))
  (fp_line (start -1 -4.75) (end -2 -4.75) (layer F.Fab) (width 0.1))
  (fp_line (start -2 -4.75) (end -2 -5.25) (layer F.Fab) (width 0.1))
  (fp_line (start -2 -5.25) (end -1 -5.25) (layer F.Fab) (width 0.1))
  (fp_line (start -1 -1.25) (end -1 -0.75) (layer F.Fab) (width 0.1))
  (fp_line (start -1 -0.75) (end -2 -0.75) (layer F.Fab) (width 0.1))
  (fp_line (start -2 -0.75) (end -2 -1.25) (layer F.Fab) (width 0.1))
  (fp_line (start -2 -1.25) (end -1 -1.25) (layer F.Fab) (width 0.1))
  (fp_line (start -1 2.75) (end -1 3.25) (layer F.Fab) (width 0.1))
  (fp_line (start -1 3.25) (end -2 3.25) (layer F.Fab) (width 0.1))
  (fp_line (start -2 3.25) (end -2 2.75) (layer F.Fab) (width 0.1))
  (fp_line (start -2 2.75) (end -1 2.75) (layer F.Fab) (width 0.1))
  (fp_line (start -1 6.75) (end -1 7.25) (layer F.Fab) (width 0.1))
  (fp_line (start -1 7.25) (end -2 7.25) (layer F.Fab) (width 0.1))
  (fp_line (start -2 7.25) (end -2 6.75) (layer F.Fab) (width 0.1))
  (fp_line (start -2 6.75) (end -1 6.75) (layer F.Fab) (width 0.1))
  (fp_line (start -1 10.75) (end -1 11.25) (layer F.Fab) (width 0.1))
  (fp_line (start -1 11.25) (end -2 11.25) (layer F.Fab) (width 0.1))
  (fp_line (start -2 11.25) (end -2 10.75) (layer F.Fab) (width 0.1))
  (fp_line (start -2 10.75) (end -1 10.75) (layer F.Fab) (width 0.1))
  (fp_line (start -1 14.75) (end -1 15.25) (layer F.Fab) (width 0.1))
  (fp_line (start -1 15.25) (end -2 15.25) (layer F.Fab) (width 0.1))
  (fp_line (start -2 15.25) (end -2 14.75) (layer F.Fab) (width 0.1))
  (fp_line (start -2 14.75) (end -1 14.75) (layer F.Fab) (width 0.1))
  (fp_line (start -1 18.75) (end -1 19.25) (layer F.Fab) (width 0.1))
  (fp_line (start -1 19.25) (end -2 19.25) (layer F.Fab) (width 0.1))
  (fp_line (start -2 19.25) (end -2 18.75) (layer F.Fab) (width 0.1))
  (fp_line (start -2 18.75) (end -1 18.75) (layer F.Fab) (width 0.1))
  (fp_line (start 1 -19.25) (end 1 -18.75) (layer F.Fab) (width 0.1))
  (fp_line (start 1 -18.75) (end 2 -18.75) (layer F.Fab) (width 0.1))
  (fp_line (start 2 -18.75) (end 2 -19.25) (layer F.Fab) (width 0.1))
  (fp_line (start 2 -19.25) (end 1 -19.25) (layer F.Fab) (width 0.1))
  (fp_line (start 1 -15.25) (end 1 -14.75) (layer F.Fab) (width 0.1))
  (fp_line (start 1 -14.75) (end 2 -14.75) (layer F.Fab) (width 0.1))
  (fp_line (start 2 -14.75) (end 2 -15.25) (layer F.Fab) (width 0.1))
  (fp_line (start 2 -15.25) (end 1 -15.25) (layer F.Fab) (width 0.1))
  (fp_line (start 1 -11.25) (end 1 -10.75) (layer F.Fab) (width 0.1))
  (fp_line (start 1 -10.75) (end 2 -10.75) (layer F.Fab) (width 0.1))
  (fp_line (start 2 -10.75) (end 2 -11.25) (layer F.Fab) (width 0.1))
  (fp_line (start 2 -11.25) (end 1 -11.25) (layer F.Fab) (width 0.1))
  (fp_line (start 1 -7.25) (end 1 -6.75) (layer F.Fab) (width 0.1))
  (fp_line (start 1 -6.75) (end 2 -6.75) (layer F.Fab) (width 0.1))
  (fp_line (start 2 -6.75) (end 2 -7.25) (layer F.Fab) (width 0.1))
  (fp_line (start 2 -7.25) (end 1 -7.25) (layer F.Fab) (width 0.1))
  (fp_line (start 1 -3.25) (end 1 -2.75) (layer F.Fab) (width 0.1))
  (fp_line (start 1 -2.75) (end 2 -2.75) (layer F.Fab) (width 0.1))
  (fp_line (start 2 -2.75) (end 2 -3.25) (layer F.Fab) (width 0.1))
  (fp_line (start 2 -3.25) (end 1 -3.25) (layer F.Fab) (width 0.1))
  (fp_line (start 1 0.75) (end 1 1.25) (layer F.Fab) (width 0.1))
  (fp_line (start 1 1.25) (end 2 1.25) (layer F.Fab) (width 0.1))
  (fp_line (start 2 1.25) (end 2 0.75) (layer F.Fab) (width 0.1))
  (fp_line (start 2 0.75) (end 1 0.75) (layer F.Fab) (width 0.1))
  (fp_line (start 1 4.75) (end 1 5.25) (layer F.Fab) (width 0.1))
  (fp_line (start 1 5.25) (end 2 5.25) (layer F.Fab) (width 0.1))
  (fp_line (start 2 5.25) (end 2 4.75) (layer F.Fab) (width 0.1))
  (fp_line (start 2 4.75) (end 1 4.75) (layer F.Fab) (width 0.1))
  (fp_line (start 1 8.75) (end 1 9.25) (layer F.Fab) (width 0.1))
  (fp_line (start 1 9.25) (end 2 9.25) (layer F.Fab) (width 0.1))
  (fp_line (start 2 9.25) (end 2 8.75) (layer F.Fab) (width 0.1))
  (fp_line (start 2 8.75) (end 1 8.75) (layer F.Fab) (width 0.1))
  (fp_line (start 1 12.75) (end 1 13.25) (layer F.Fab) (width 0.1))
  (fp_line (start 1 13.25) (end 2 13.25) (layer F.Fab) (width 0.1))
  (fp_line (start 2 13.25) (end 2 12.75) (layer F.Fab) (width 0.1))
  (fp_line (start 2 12.75) (end 1 12.75) (layer F.Fab) (width 0.1))
  (fp_line (start 1 16.75) (end 1 17.25) (layer F.Fab) (width 0.1))
  (fp_line (start 1 17.25) (end 2 17.25) (layer F.Fab) (width 0.1))
  (fp_line (start 2 17.25) (end 2 16.75) (layer F.Fab) (width 0.1))
  (fp_line (start 2 16.75) (end 1 16.75) (layer F.Fab) (width 0.1))
  (fp_line (start -1.06 -19.8) (end -1.06 -20.06) (layer F.SilkS) (width 0.12))
  (fp_line (start -1.06 -20.06) (end 1.06 -20.06) (layer F.SilkS) (width 0.12))
  (fp_line (start 1.06 -20.06) (end 1.06 -19.8) (layer F.SilkS) (width 0.12))
  (fp_line (start -1.06 19.8) (end -1.06 20.06) (layer F.SilkS) (width 0.12))
  (fp_line (start -1.06 20.06) (end 1.06 20.06) (layer F.SilkS) (width 0.12))
  (fp_line (start 1.06 20.06) (end 1.06 19.8) (layer F.SilkS) (width 0.12))
  (fp_line (start 1.06 -18.32) (end 1.06 -15.68) (layer F.SilkS) (width 0.12))
  (fp_line (start 1.06 -14.32) (end 1.06 -11.68) (layer F.SilkS) (width 0.12))
  (fp_line (start 1.06 -10.32) (end 1.06 -7.68) (layer F.SilkS) (width 0.12))
  (fp_line (start 1.06 -6.32) (end 1.06 -3.68) (layer F.SilkS) (width 0.12))
  (fp_line (start 1.06 -2.32) (end 1.06 0.32) (layer F.SilkS) (width 0.12))
  (fp_line (start 1.06 1.68) (end 1.06 4.32) (layer F.SilkS) (width 0.12))
  (fp_line (start 1.06 5.68) (end 1.06 8.32) (layer F.SilkS) (width 0.12))
  (fp_line (start 1.06 9.68) (end 1.06 12.32) (layer F.SilkS) (width 0.12))
  (fp_line (start 1.06 13.68) (end 1.06 16.32) (layer F.SilkS) (width 0.12))
  (fp_line (start 1.06 17.68) (end 1.06 20.06) (layer F.SilkS) (width 0.12))
  (fp_line (start -1.06 -20.06) (end -1.06 -17.68) (layer F.SilkS) (width 0.12))
  (fp_line (start 1.06 -19.8) (end 3.5 -19.8) (layer F.SilkS) (width 0.12))
  (fp_line (start -1.06 -16.32) (end -1.06 -13.68) (layer F.SilkS) (width 0.12))
  (fp_line (start -1.06 -12.32) (end -1.06 -9.68) (layer F.SilkS) (width 0.12))
  (fp_line (start -1.06 -8.32) (end -1.06 -5.68) (layer F.SilkS) (width 0.12))
  (fp_line (start -1.06 -4.32) (end -1.06 -1.68) (layer F.SilkS) (width 0.12))
  (fp_line (start -1.06 -0.32) (end -1.06 2.32) (layer F.SilkS) (width 0.12))
  (fp_line (start -1.06 3.68) (end -1.06 6.32) (layer F.SilkS) (width 0.12))
  (fp_line (start -1.06 7.68) (end -1.06 10.32) (layer F.SilkS) (width 0.12))
  (fp_line (start -1.06 11.68) (end -1.06 14.32) (layer F.SilkS) (width 0.12))
  (fp_line (start -1.06 15.68) (end -1.06 18.32) (layer F.SilkS) (width 0.12))
  (fp_line (start -3.75 -20.25) (end -3.75 20.25) (layer F.CrtYd) (width 0.05))
  (fp_line (start -3.75 20.25) (end 3.75 20.25) (layer F.CrtYd) (width 0.05))
  (fp_line (start 3.75 20.25) (end 3.75 -20.25) (layer F.CrtYd) (width 0.05))
  (fp_line (start 3.75 -20.25) (end -3.75 -20.25) (layer F.CrtYd) (width 0.05))
  (pad 2 smd rect (at -2.125 -17) (size 2.75 1) (layers F.Cu F.Mask))
  (pad 4 smd rect (at -2.125 -13) (size 2.75 1) (layers F.Cu F.Mask))
  (pad 6 smd rect (at -2.125 -9) (size 2.75 1) (layers F.Cu F.Mask))
  (pad 8 smd rect (at -2.125 -5) (size 2.75 1) (layers F.Cu F.Mask))
  (pad 10 smd rect (at -2.125 -1) (size 2.75 1) (layers F.Cu F.Mask))
  (pad 12 smd rect (at -2.125 3) (size 2.75 1) (layers F.Cu F.Mask))
  (pad 14 smd rect (at -2.125 7) (size 2.75 1) (layers F.Cu F.Mask))
  (pad 16 smd rect (at -2.125 11) (size 2.75 1) (layers F.Cu F.Mask))
  (pad 18 smd rect (at -2.125 15) (size 2.75 1) (layers F.Cu F.Mask))
  (pad 20 smd rect (at -2.125 19) (size 2.75 1) (layers F.Cu F.Mask))
  (pad 1 smd rect (at 2.125 -19) (size 2.75 1) (layers F.Cu F.Mask))
  (pad 3 smd rect (at 2.125 -15) (size 2.75 1) (layers F.Cu F.Mask))
  (pad 5 smd rect (at 2.125 -11) (size 2.75 1) (layers F.Cu F.Mask))
  (pad 7 smd rect (at 2.125 -7) (size 2.75 1) (layers F.Cu F.Mask))
  (pad 9 smd rect (at 2.125 -3) (size 2.75 1) (layers F.Cu F.Mask))
  (pad 11 smd rect (at 2.125 1) (size 2.75 1) (layers F.Cu F.Mask))
  (pad 13 smd rect (at 2.125 5) (size 2.75 1) (layers F.Cu F.Mask))
  (pad 15 smd rect (at 2.125 9) (size 2.75 1) (layers F.Cu F.Mask))
  (pad 17 smd rect (at 2.125 13) (size 2.75 1) (layers F.Cu F.Mask))
  (pad 19 smd rect (at 2.125 17) (size 2.75 1) (layers F.Cu F.Mask))
  (model Pin_Headers.3dshapes/Pin_Header_Straight_1x20_Pitch2.00mm_SMD_Pin1Right.wrl
    (at (xyz 0 0 0))
    (scale (xyz 1 1 1))
    (rotate (xyz 0 0 0))
  )
)