(module Pin_Header_Straight_1x03_Pitch2.54mm_SMD_Pin1Right (layer F.Cu) (tedit 588DAF27)
  (descr "surface-mounted straight pin header, 1x03, 2.54mm pitch, single row, style 2 (pin 1 right)")
  (tags "Surface mounted pin header SMD 1x03 2.54mm single row style2 pin1 right")
  (attr smd)
  (fp_text reference REF** (at 0 -4.87) (layer F.SilkS)
    (effects (font (size 1 1) (thickness 0.15)))
  )
  (fp_text value Pin_Header_Straight_1x03_Pitch2.54mm_SMD_Pin1Right (at 0 4.87) (layer F.Fab)
    (effects (font (size 1 1) (thickness 0.15)))
  )
  (fp_line (start -1.27 -3.81) (end -1.27 3.81) (layer F.Fab) (width 0.1))
  (fp_line (start -1.27 3.81) (end 1.27 3.81) (layer F.Fab) (width 0.1))
  (fp_line (start 1.27 3.81) (end 1.27 -3.81) (layer F.Fab) (width 0.1))
  (fp_line (start 1.27 -3.81) (end -1.27 -3.81) (layer F.Fab) (width 0.1))
  (fp_line (start -1.27 -0.32) (end -1.27 0.32) (layer F.Fab) (width 0.1))
  (fp_line (start -1.27 0.32) (end -2.65 0.32) (layer F.Fab) (width 0.1))
  (fp_line (start -2.65 0.32) (end -2.65 -0.32) (layer F.Fab) (width 0.1))
  (fp_line (start -2.65 -0.32) (end -1.27 -0.32) (layer F.Fab) (width 0.1))
  (fp_line (start 1.27 -2.86) (end 1.27 -2.22) (layer F.Fab) (width 0.1))
  (fp_line (start 1.27 -2.22) (end 2.65 -2.22) (layer F.Fab) (width 0.1))
  (fp_line (start 2.65 -2.22) (end 2.65 -2.86) (layer F.Fab) (width 0.1))
  (fp_line (start 2.65 -2.86) (end 1.27 -2.86) (layer F.Fab) (width 0.1))
  (fp_line (start 1.27 2.22) (end 1.27 2.86) (layer F.Fab) (width 0.1))
  (fp_line (start 1.27 2.86) (end 2.65 2.86) (layer F.Fab) (width 0.1))
  (fp_line (start 2.65 2.86) (end 2.65 2.22) (layer F.Fab) (width 0.1))
  (fp_line (start 2.65 2.22) (end 1.27 2.22) (layer F.Fab) (width 0.1))
  (fp_line (start -1.33 -3.34) (end -1.33 -3.87) (layer F.SilkS) (width 0.12))
  (fp_line (start -1.33 -3.87) (end 1.33 -3.87) (layer F.SilkS) (width 0.12))
  (fp_line (start 1.33 -3.87) (end 1.33 -3.34) (layer F.SilkS) (width 0.12))
  (fp_line (start -1.33 3.34) (end -1.33 3.87) (layer F.SilkS) (width 0.12))
  (fp_line (start -1.33 3.87) (end 1.33 3.87) (layer F.SilkS) (width 0.12))
  (fp_line (start 1.33 3.87) (end 1.33 3.34) (layer F.SilkS) (width 0.12))
  (fp_line (start 1.33 -1.86) (end 1.33 1.86) (layer F.SilkS) (width 0.12))
  (fp_line (start -1.33 -3.87) (end -1.33 -0.68) (layer F.SilkS) (width 0.12))
  (fp_line (start 1.33 -3.34) (end 3 -3.34) (layer F.SilkS) (width 0.12))
  (fp_line (start -1.33 0.68) (end -1.33 3.87) (layer F.SilkS) (width 0.12))
  (fp_line (start -3.25 -4.1) (end -3.25 4.1) (layer F.CrtYd) (width 0.05))
  (fp_line (start -3.25 4.1) (end 3.25 4.1) (layer F.CrtYd) (width 0.05))
  (fp_line (start 3.25 4.1) (end 3.25 -4.1) (layer F.CrtYd) (width 0.05))
  (fp_line (start 3.25 -4.1) (end -3.25 -4.1) (layer F.CrtYd) (width 0.05))
  (pad 2 smd rect (at -1.5 0) (size 3 1) (layers F.Cu F.Mask))
  (pad 1 smd rect (at 1.5 -2.54) (size 3 1) (layers F.Cu F.Mask))
  (pad 3 smd rect (at 1.5 2.54) (size 3 1) (layers F.Cu F.Mask))
  (model Pin_Headers.3dshapes/Pin_Header_Straight_1x03_Pitch2.54mm_SMD_Pin1Right.wrl
    (at (xyz 0 0 0))
    (scale (xyz 1 1 1))
    (rotate (xyz 0 0 0))
  )
)