(module Pin_Header_Straight_1x07_Pitch1.27mm_SMD_Pin1Left (layer F.Cu) (tedit 588DAF33)
  (descr "surface-mounted straight pin header, 1x07, 1.27mm pitch, single row, style 1 (pin 1 left)")
  (tags "Surface mounted pin header SMD 1x07 1.27mm single row style1 pin1 left")
  (attr smd)
  (fp_text reference REF** (at 0 -5.505) (layer F.SilkS)
    (effects (font (size 1 1) (thickness 0.15)))
  )
  (fp_text value Pin_Header_Straight_1x07_Pitch1.27mm_SMD_Pin1Left (at 0 5.505) (layer F.Fab)
    (effects (font (size 1 1) (thickness 0.15)))
  )
  (fp_line (start -0.635 -4.445) (end -0.635 4.445) (layer F.Fab) (width 0.1))
  (fp_line (start -0.635 4.445) (end 0.635 4.445) (layer F.Fab) (width 0.1))
  (fp_line (start 0.635 4.445) (end 0.635 -4.445) (layer F.Fab) (width 0.1))
  (fp_line (start 0.635 -4.445) (end -0.635 -4.445) (layer F.Fab) (width 0.1))
  (fp_line (start -0.635 -4.01) (end -0.635 -3.61) (layer F.Fab) (width 0.1))
  (fp_line (start -0.635 -3.61) (end -1.92 -3.61) (layer F.Fab) (width 0.1))
  (fp_line (start -1.92 -3.61) (end -1.92 -4.01) (layer F.Fab) (width 0.1))
  (fp_line (start -1.92 -4.01) (end -0.635 -4.01) (layer F.Fab) (width 0.1))
  (fp_line (start -0.635 -1.47) (end -0.635 -1.07) (layer F.Fab) (width 0.1))
  (fp_line (start -0.635 -1.07) (end -1.92 -1.07) (layer F.Fab) (width 0.1))
  (fp_line (start -1.92 -1.07) (end -1.92 -1.47) (layer F.Fab) (width 0.1))
  (fp_line (start -1.92 -1.47) (end -0.635 -1.47) (layer F.Fab) (width 0.1))
  (fp_line (start -0.635 1.07) (end -0.635 1.47) (layer F.Fab) (width 0.1))
  (fp_line (start -0.635 1.47) (end -1.92 1.47) (layer F.Fab) (width 0.1))
  (fp_line (start -1.92 1.47) (end -1.92 1.07) (layer F.Fab) (width 0.1))
  (fp_line (start -1.92 1.07) (end -0.635 1.07) (layer F.Fab) (width 0.1))
  (fp_line (start -0.635 3.61) (end -0.635 4.01) (layer F.Fab) (width 0.1))
  (fp_line (start -0.635 4.01) (end -1.92 4.01) (layer F.Fab) (width 0.1))
  (fp_line (start -1.92 4.01) (end -1.92 3.61) (layer F.Fab) (width 0.1))
  (fp_line (start -1.92 3.61) (end -0.635 3.61) (layer F.Fab) (width 0.1))
  (fp_line (start 0.635 -2.74) (end 0.635 -2.34) (layer F.Fab) (width 0.1))
  (fp_line (start 0.635 -2.34) (end 1.92 -2.34) (layer F.Fab) (width 0.1))
  (fp_line (start 1.92 -2.34) (end 1.92 -2.74) (layer F.Fab) (width 0.1))
  (fp_line (start 1.92 -2.74) (end 0.635 -2.74) (layer F.Fab) (width 0.1))
  (fp_line (start 0.635 -0.2) (end 0.635 0.2) (layer F.Fab) (width 0.1))
  (fp_line (start 0.635 0.2) (end 1.92 0.2) (layer F.Fab) (width 0.1))
  (fp_line (start 1.92 0.2) (end 1.92 -0.2) (layer F.Fab) (width 0.1))
  (fp_line (start 1.92 -0.2) (end 0.635 -0.2) (layer F.Fab) (width 0.1))
  (fp_line (start 0.635 2.34) (end 0.635 2.74) (layer F.Fab) (width 0.1))
  (fp_line (start 0.635 2.74) (end 1.92 2.74) (layer F.Fab) (width 0.1))
  (fp_line (start 1.92 2.74) (end 1.92 2.34) (layer F.Fab) (width 0.1))
  (fp_line (start 1.92 2.34) (end 0.635 2.34) (layer F.Fab) (width 0.1))
  (fp_line (start -0.695 -4.485) (end -0.695 -4.505) (layer F.SilkS) (width 0.12))
  (fp_line (start -0.695 -4.505) (end 0.695 -4.505) (layer F.SilkS) (width 0.12))
  (fp_line (start 0.695 -4.505) (end 0.695 -4.485) (layer F.SilkS) (width 0.12))
  (fp_line (start -0.695 4.485) (end -0.695 4.505) (layer F.SilkS) (width 0.12))
  (fp_line (start -0.695 4.505) (end 0.695 4.505) (layer F.SilkS) (width 0.12))
  (fp_line (start 0.695 4.505) (end 0.695 4.485) (layer F.SilkS) (width 0.12))
  (fp_line (start 0.695 -4.505) (end 0.695 -3.095) (layer F.SilkS) (width 0.12))
  (fp_line (start -0.695 -4.485) (end -3 -4.485) (layer F.SilkS) (width 0.12))
  (fp_line (start 0.695 -1.985) (end 0.695 -0.555) (layer F.SilkS) (width 0.12))
  (fp_line (start 0.695 0.555) (end 0.695 1.985) (layer F.SilkS) (width 0.12))
  (fp_line (start 0.695 3.095) (end 0.695 4.505) (layer F.SilkS) (width 0.12))
  (fp_line (start -0.695 -3.255) (end -0.695 -1.825) (layer F.SilkS) (width 0.12))
  (fp_line (start -0.695 -0.715) (end -0.695 0.715) (layer F.SilkS) (width 0.12))
  (fp_line (start -0.695 1.825) (end -0.695 3.255) (layer F.SilkS) (width 0.12))
  (fp_line (start -3.25 -4.7) (end -3.25 4.7) (layer F.CrtYd) (width 0.05))
  (fp_line (start -3.25 4.7) (end 3.25 4.7) (layer F.CrtYd) (width 0.05))
  (fp_line (start 3.25 4.7) (end 3.25 -4.7) (layer F.CrtYd) (width 0.05))
  (fp_line (start 3.25 -4.7) (end -3.25 -4.7) (layer F.CrtYd) (width 0.05))
  (pad 1 smd rect (at -1.95 -3.81) (size 2.1 0.75) (layers F.Cu F.Mask))
  (pad 3 smd rect (at -1.95 -1.27) (size 2.1 0.75) (layers F.Cu F.Mask))
  (pad 5 smd rect (at -1.95 1.27) (size 2.1 0.75) (layers F.Cu F.Mask))
  (pad 7 smd rect (at -1.95 3.81) (size 2.1 0.75) (layers F.Cu F.Mask))
  (pad 2 smd rect (at 1.95 -2.54) (size 2.1 0.75) (layers F.Cu F.Mask))
  (pad 4 smd rect (at 1.95 0) (size 2.1 0.75) (layers F.Cu F.Mask))
  (pad 6 smd rect (at 1.95 2.54) (size 2.1 0.75) (layers F.Cu F.Mask))
  (model Pin_Headers.3dshapes/Pin_Header_Straight_1x07_Pitch1.27mm_SMD_Pin1Left.wrl
    (at (xyz 0 0 0))
    (scale (xyz 1 1 1))
    (rotate (xyz 0 0 0))
  )
)