(module Pin_Header_Straight_2x18_Pitch1.27mm_SMD (layer F.Cu) (tedit 588DAF38)
  (descr "surface-mounted straight pin header, 2x18, 1.27mm pitch, double rows")
  (tags "Surface mounted pin header SMD 2x18 1.27mm double row")
  (attr smd)
  (fp_text reference REF** (at 0 -12.49) (layer F.SilkS)
    (effects (font (size 1 1) (thickness 0.15)))
  )
  (fp_text value Pin_Header_Straight_2x18_Pitch1.27mm_SMD (at 0 12.49) (layer F.Fab)
    (effects (font (size 1 1) (thickness 0.15)))
  )
  (fp_line (start -1.27 -11.43) (end -1.27 11.43) (layer F.Fab) (width 0.1))
  (fp_line (start -1.27 11.43) (end 1.27 11.43) (layer F.Fab) (width 0.1))
  (fp_line (start 1.27 11.43) (end 1.27 -11.43) (layer F.Fab) (width 0.1))
  (fp_line (start 1.27 -11.43) (end -1.27 -11.43) (layer F.Fab) (width 0.1))
  (fp_line (start -1.27 -10.995) (end -1.27 -10.595) (layer F.Fab) (width 0.1))
  (fp_line (start -1.27 -10.595) (end -2.555 -10.595) (layer F.Fab) (width 0.1))
  (fp_line (start -2.555 -10.595) (end -2.555 -10.995) (layer F.Fab) (width 0.1))
  (fp_line (start -2.555 -10.995) (end -1.27 -10.995) (layer F.Fab) (width 0.1))
  (fp_line (start 1.27 -10.995) (end 1.27 -10.595) (layer F.Fab) (width 0.1))
  (fp_line (start 1.27 -10.595) (end 2.555 -10.595) (layer F.Fab) (width 0.1))
  (fp_line (start 2.555 -10.595) (end 2.555 -10.995) (layer F.Fab) (width 0.1))
  (fp_line (start 2.555 -10.995) (end 1.27 -10.995) (layer F.Fab) (width 0.1))
  (fp_line (start -1.27 -9.725) (end -1.27 -9.325) (layer F.Fab) (width 0.1))
  (fp_line (start -1.27 -9.325) (end -2.555 -9.325) (layer F.Fab) (width 0.1))
  (fp_line (start -2.555 -9.325) (end -2.555 -9.725) (layer F.Fab) (width 0.1))
  (fp_line (start -2.555 -9.725) (end -1.27 -9.725) (layer F.Fab) (width 0.1))
  (fp_line (start 1.27 -9.725) (end 1.27 -9.325) (layer F.Fab) (width 0.1))
  (fp_line (start 1.27 -9.325) (end 2.555 -9.325) (layer F.Fab) (width 0.1))
  (fp_line (start 2.555 -9.325) (end 2.555 -9.725) (layer F.Fab) (width 0.1))
  (fp_line (start 2.555 -9.725) (end 1.27 -9.725) (layer F.Fab) (width 0.1))
  (fp_line (start -1.27 -8.455) (end -1.27 -8.055) (layer F.Fab) (width 0.1))
  (fp_line (start -1.27 -8.055) (end -2.555 -8.055) (layer F.Fab) (width 0.1))
  (fp_line (start -2.555 -8.055) (end -2.555 -8.455) (layer F.Fab) (width 0.1))
  (fp_line (start -2.555 -8.455) (end -1.27 -8.455) (layer F.Fab) (width 0.1))
  (fp_line (start 1.27 -8.455) (end 1.27 -8.055) (layer F.Fab) (width 0.1))
  (fp_line (start 1.27 -8.055) (end 2.555 -8.055) (layer F.Fab) (width 0.1))
  (fp_line (start 2.555 -8.055) (end 2.555 -8.455) (layer F.Fab) (width 0.1))
  (fp_line (start 2.555 -8.455) (end 1.27 -8.455) (layer F.Fab) (width 0.1))
  (fp_line (start -1.27 -7.185) (end -1.27 -6.785) (layer F.Fab) (width 0.1))
  (fp_line (start -1.27 -6.785) (end -2.555 -6.785) (layer F.Fab) (width 0.1))
  (fp_line (start -2.555 -6.785) (end -2.555 -7.185) (layer F.Fab) (width 0.1))
  (fp_line (start -2.555 -7.185) (end -1.27 -7.185) (layer F.Fab) (width 0.1))
  (fp_line (start 1.27 -7.185) (end 1.27 -6.785) (layer F.Fab) (width 0.1))
  (fp_line (start 1.27 -6.785) (end 2.555 -6.785) (layer F.Fab) (width 0.1))
  (fp_line (start 2.555 -6.785) (end 2.555 -7.185) (layer F.Fab) (width 0.1))
  (fp_line (start 2.555 -7.185) (end 1.27 -7.185) (layer F.Fab) (width 0.1))
  (fp_line (start -1.27 -5.915) (end -1.27 -5.515) (layer F.Fab) (width 0.1))
  (fp_line (start -1.27 -5.515) (end -2.555 -5.515) (layer F.Fab) (width 0.1))
  (fp_line (start -2.555 -5.515) (end -2.555 -5.915) (layer F.Fab) (width 0.1))
  (fp_line (start -2.555 -5.915) (end -1.27 -5.915) (layer F.Fab) (width 0.1))
  (fp_line (start 1.27 -5.915) (end 1.27 -5.515) (layer F.Fab) (width 0.1))
  (fp_line (start 1.27 -5.515) (end 2.555 -5.515) (layer F.Fab) (width 0.1))
  (fp_line (start 2.555 -5.515) (end 2.555 -5.915) (layer F.Fab) (width 0.1))
  (fp_line (start 2.555 -5.915) (end 1.27 -5.915) (layer F.Fab) (width 0.1))
  (fp_line (start -1.27 -4.645) (end -1.27 -4.245) (layer F.Fab) (width 0.1))
  (fp_line (start -1.27 -4.245) (end -2.555 -4.245) (layer F.Fab) (width 0.1))
  (fp_line (start -2.555 -4.245) (end -2.555 -4.645) (layer F.Fab) (width 0.1))
  (fp_line (start -2.555 -4.645) (end -1.27 -4.645) (layer F.Fab) (width 0.1))
  (fp_line (start 1.27 -4.645) (end 1.27 -4.245) (layer F.Fab) (width 0.1))
  (fp_line (start 1.27 -4.245) (end 2.555 -4.245) (layer F.Fab) (width 0.1))
  (fp_line (start 2.555 -4.245) (end 2.555 -4.645) (layer F.Fab) (width 0.1))
  (fp_line (start 2.555 -4.645) (end 1.27 -4.645) (layer F.Fab) (width 0.1))
  (fp_line (start -1.27 -3.375) (end -1.27 -2.975) (layer F.Fab) (width 0.1))
  (fp_line (start -1.27 -2.975) (end -2.555 -2.975) (layer F.Fab) (width 0.1))
  (fp_line (start -2.555 -2.975) (end -2.555 -3.375) (layer F.Fab) (width 0.1))
  (fp_line (start -2.555 -3.375) (end -1.27 -3.375) (layer F.Fab) (width 0.1))
  (fp_line (start 1.27 -3.375) (end 1.27 -2.975) (layer F.Fab) (width 0.1))
  (fp_line (start 1.27 -2.975) (end 2.555 -2.975) (layer F.Fab) (width 0.1))
  (fp_line (start 2.555 -2.975) (end 2.555 -3.375) (layer F.Fab) (width 0.1))
  (fp_line (start 2.555 -3.375) (end 1.27 -3.375) (layer F.Fab) (width 0.1))
  (fp_line (start -1.27 -2.105) (end -1.27 -1.705) (layer F.Fab) (width 0.1))
  (fp_line (start -1.27 -1.705) (end -2.555 -1.705) (layer F.Fab) (width 0.1))
  (fp_line (start -2.555 -1.705) (end -2.555 -2.105) (layer F.Fab) (width 0.1))
  (fp_line (start -2.555 -2.105) (end -1.27 -2.105) (layer F.Fab) (width 0.1))
  (fp_line (start 1.27 -2.105) (end 1.27 -1.705) (layer F.Fab) (width 0.1))
  (fp_line (start 1.27 -1.705) (end 2.555 -1.705) (layer F.Fab) (width 0.1))
  (fp_line (start 2.555 -1.705) (end 2.555 -2.105) (layer F.Fab) (width 0.1))
  (fp_line (start 2.555 -2.105) (end 1.27 -2.105) (layer F.Fab) (width 0.1))
  (fp_line (start -1.27 -0.835) (end -1.27 -0.435) (layer F.Fab) (width 0.1))
  (fp_line (start -1.27 -0.435) (end -2.555 -0.435) (layer F.Fab) (width 0.1))
  (fp_line (start -2.555 -0.435) (end -2.555 -0.835) (layer F.Fab) (width 0.1))
  (fp_line (start -2.555 -0.835) (end -1.27 -0.835) (layer F.Fab) (width 0.1))
  (fp_line (start 1.27 -0.835) (end 1.27 -0.435) (layer F.Fab) (width 0.1))
  (fp_line (start 1.27 -0.435) (end 2.555 -0.435) (layer F.Fab) (width 0.1))
  (fp_line (start 2.555 -0.435) (end 2.555 -0.835) (layer F.Fab) (width 0.1))
  (fp_line (start 2.555 -0.835) (end 1.27 -0.835) (layer F.Fab) (width 0.1))
  (fp_line (start -1.27 0.435) (end -1.27 0.835) (layer F.Fab) (width 0.1))
  (fp_line (start -1.27 0.835) (end -2.555 0.835) (layer F.Fab) (width 0.1))
  (fp_line (start -2.555 0.835) (end -2.555 0.435) (layer F.Fab) (width 0.1))
  (fp_line (start -2.555 0.435) (end -1.27 0.435) (layer F.Fab) (width 0.1))
  (fp_line (start 1.27 0.435) (end 1.27 0.835) (layer F.Fab) (width 0.1))
  (fp_line (start 1.27 0.835) (end 2.555 0.835) (layer F.Fab) (width 0.1))
  (fp_line (start 2.555 0.835) (end 2.555 0.435) (layer F.Fab) (width 0.1))
  (fp_line (start 2.555 0.435) (end 1.27 0.435) (layer F.Fab) (width 0.1))
  (fp_line (start -1.27 1.705) (end -1.27 2.105) (layer F.Fab) (width 0.1))
  (fp_line (start -1.27 2.105) (end -2.555 2.105) (layer F.Fab) (width 0.1))
  (fp_line (start -2.555 2.105) (end -2.555 1.705) (layer F.Fab) (width 0.1))
  (fp_line (start -2.555 1.705) (end -1.27 1.705) (layer F.Fab) (width 0.1))
  (fp_line (start 1.27 1.705) (end 1.27 2.105) (layer F.Fab) (width 0.1))
  (fp_line (start 1.27 2.105) (end 2.555 2.105) (layer F.Fab) (width 0.1))
  (fp_line (start 2.555 2.105) (end 2.555 1.705) (layer F.Fab) (width 0.1))
  (fp_line (start 2.555 1.705) (end 1.27 1.705) (layer F.Fab) (width 0.1))
  (fp_line (start -1.27 2.975) (end -1.27 3.375) (layer F.Fab) (width 0.1))
  (fp_line (start -1.27 3.375) (end -2.555 3.375) (layer F.Fab) (width 0.1))
  (fp_line (start -2.555 3.375) (end -2.555 2.975) (layer F.Fab) (width 0.1))
  (fp_line (start -2.555 2.975) (end -1.27 2.975) (layer F.Fab) (width 0.1))
  (fp_line (start 1.27 2.975) (end 1.27 3.375) (layer F.Fab) (width 0.1))
  (fp_line (start 1.27 3.375) (end 2.555 3.375) (layer F.Fab) (width 0.1))
  (fp_line (start 2.555 3.375) (end 2.555 2.975) (layer F.Fab) (width 0.1))
  (fp_line (start 2.555 2.975) (end 1.27 2.975) (layer F.Fab) (width 0.1))
  (fp_line (start -1.27 4.245) (end -1.27 4.645) (layer F.Fab) (width 0.1))
  (fp_line (start -1.27 4.645) (end -2.555 4.645) (layer F.Fab) (width 0.1))
  (fp_line (start -2.555 4.645) (end -2.555 4.245) (layer F.Fab) (width 0.1))
  (fp_line (start -2.555 4.245) (end -1.27 4.245) (layer F.Fab) (width 0.1))
  (fp_line (start 1.27 4.245) (end 1.27 4.645) (layer F.Fab) (width 0.1))
  (fp_line (start 1.27 4.645) (end 2.555 4.645) (layer F.Fab) (width 0.1))
  (fp_line (start 2.555 4.645) (end 2.555 4.245) (layer F.Fab) (width 0.1))
  (fp_line (start 2.555 4.245) (end 1.27 4.245) (layer F.Fab) (width 0.1))
  (fp_line (start -1.27 5.515) (end -1.27 5.915) (layer F.Fab) (width 0.1))
  (fp_line (start -1.27 5.915) (end -2.555 5.915) (layer F.Fab) (width 0.1))
  (fp_line (start -2.555 5.915) (end -2.555 5.515) (layer F.Fab) (width 0.1))
  (fp_line (start -2.555 5.515) (end -1.27 5.515) (layer F.Fab) (width 0.1))
  (fp_line (start 1.27 5.515) (end 1.27 5.915) (layer F.Fab) (width 0.1))
  (fp_line (start 1.27 5.915) (end 2.555 5.915) (layer F.Fab) (width 0.1))
  (fp_line (start 2.555 5.915) (end 2.555 5.515) (layer F.Fab) (width 0.1))
  (fp_line (start 2.555 5.515) (end 1.27 5.515) (layer F.Fab) (width 0.1))
  (fp_line (start -1.27 6.785) (end -1.27 7.185) (layer F.Fab) (width 0.1))
  (fp_line (start -1.27 7.185) (end -2.555 7.185) (layer F.Fab) (width 0.1))
  (fp_line (start -2.555 7.185) (end -2.555 6.785) (layer F.Fab) (width 0.1))
  (fp_line (start -2.555 6.785) (end -1.27 6.785) (layer F.Fab) (width 0.1))
  (fp_line (start 1.27 6.785) (end 1.27 7.185) (layer F.Fab) (width 0.1))
  (fp_line (start 1.27 7.185) (end 2.555 7.185) (layer F.Fab) (width 0.1))
  (fp_line (start 2.555 7.185) (end 2.555 6.785) (layer F.Fab) (width 0.1))
  (fp_line (start 2.555 6.785) (end 1.27 6.785) (layer F.Fab) (width 0.1))
  (fp_line (start -1.27 8.055) (end -1.27 8.455) (layer F.Fab) (width 0.1))
  (fp_line (start -1.27 8.455) (end -2.555 8.455) (layer F.Fab) (width 0.1))
  (fp_line (start -2.555 8.455) (end -2.555 8.055) (layer F.Fab) (width 0.1))
  (fp_line (start -2.555 8.055) (end -1.27 8.055) (layer F.Fab) (width 0.1))
  (fp_line (start 1.27 8.055) (end 1.27 8.455) (layer F.Fab) (width 0.1))
  (fp_line (start 1.27 8.455) (end 2.555 8.455) (layer F.Fab) (width 0.1))
  (fp_line (start 2.555 8.455) (end 2.555 8.055) (layer F.Fab) (width 0.1))
  (fp_line (start 2.555 8.055) (end 1.27 8.055) (layer F.Fab) (width 0.1))
  (fp_line (start -1.27 9.325) (end -1.27 9.725) (layer F.Fab) (width 0.1))
  (fp_line (start -1.27 9.725) (end -2.555 9.725) (layer F.Fab) (width 0.1))
  (fp_line (start -2.555 9.725) (end -2.555 9.325) (layer F.Fab) (width 0.1))
  (fp_line (start -2.555 9.325) (end -1.27 9.325) (layer F.Fab) (width 0.1))
  (fp_line (start 1.27 9.325) (end 1.27 9.725) (layer F.Fab) (width 0.1))
  (fp_line (start 1.27 9.725) (end 2.555 9.725) (layer F.Fab) (width 0.1))
  (fp_line (start 2.555 9.725) (end 2.555 9.325) (layer F.Fab) (width 0.1))
  (fp_line (start 2.555 9.325) (end 1.27 9.325) (layer F.Fab) (width 0.1))
  (fp_line (start -1.27 10.595) (end -1.27 10.995) (layer F.Fab) (width 0.1))
  (fp_line (start -1.27 10.995) (end -2.555 10.995) (layer F.Fab) (width 0.1))
  (fp_line (start -2.555 10.995) (end -2.555 10.595) (layer F.Fab) (width 0.1))
  (fp_line (start -2.555 10.595) (end -1.27 10.595) (layer F.Fab) (width 0.1))
  (fp_line (start 1.27 10.595) (end 1.27 10.995) (layer F.Fab) (width 0.1))
  (fp_line (start 1.27 10.995) (end 2.555 10.995) (layer F.Fab) (width 0.1))
  (fp_line (start 2.555 10.995) (end 2.555 10.595) (layer F.Fab) (width 0.1))
  (fp_line (start 2.555 10.595) (end 1.27 10.595) (layer F.Fab) (width 0.1))
  (fp_line (start -1.33 -11.47) (end -1.33 -11.49) (layer F.SilkS) (width 0.12))
  (fp_line (start -1.33 -11.49) (end 1.33 -11.49) (layer F.SilkS) (width 0.12))
  (fp_line (start 1.33 -11.49) (end 1.33 -11.47) (layer F.SilkS) (width 0.12))
  (fp_line (start -1.33 11.47) (end -1.33 11.49) (layer F.SilkS) (width 0.12))
  (fp_line (start -1.33 11.49) (end 1.33 11.49) (layer F.SilkS) (width 0.12))
  (fp_line (start 1.33 11.49) (end 1.33 11.47) (layer F.SilkS) (width 0.12))
  (fp_line (start -3.635 -11.47) (end -1.33 -11.47) (layer F.SilkS) (width 0.12))
  (fp_line (start -3.9 -11.7) (end -3.9 11.7) (layer F.CrtYd) (width 0.05))
  (fp_line (start -3.9 11.7) (end 3.9 11.7) (layer F.CrtYd) (width 0.05))
  (fp_line (start 3.9 11.7) (end 3.9 -11.7) (layer F.CrtYd) (width 0.05))
  (fp_line (start 3.9 -11.7) (end -3.9 -11.7) (layer F.CrtYd) (width 0.05))
  (pad 1 smd rect (at -2.585 -10.795) (size 2.1 0.75) (layers F.Cu F.Mask))
  (pad 2 smd rect (at 2.585 -10.795) (size 2.1 0.75) (layers F.Cu F.Mask))
  (pad 3 smd rect (at -2.585 -9.525) (size 2.1 0.75) (layers F.Cu F.Mask))
  (pad 4 smd rect (at 2.585 -9.525) (size 2.1 0.75) (layers F.Cu F.Mask))
  (pad 5 smd rect (at -2.585 -8.255) (size 2.1 0.75) (layers F.Cu F.Mask))
  (pad 6 smd rect (at 2.585 -8.255) (size 2.1 0.75) (layers F.Cu F.Mask))
  (pad 7 smd rect (at -2.585 -6.985) (size 2.1 0.75) (layers F.Cu F.Mask))
  (pad 8 smd rect (at 2.585 -6.985) (size 2.1 0.75) (layers F.Cu F.Mask))
  (pad 9 smd rect (at -2.585 -5.715) (size 2.1 0.75) (layers F.Cu F.Mask))
  (pad 10 smd rect (at 2.585 -5.715) (size 2.1 0.75) (layers F.Cu F.Mask))
  (pad 11 smd rect (at -2.585 -4.445) (size 2.1 0.75) (layers F.Cu F.Mask))
  (pad 12 smd rect (at 2.585 -4.445) (size 2.1 0.75) (layers F.Cu F.Mask))
  (pad 13 smd rect (at -2.585 -3.175) (size 2.1 0.75) (layers F.Cu F.Mask))
  (pad 14 smd rect (at 2.585 -3.175) (size 2.1 0.75) (layers F.Cu F.Mask))
  (pad 15 smd rect (at -2.585 -1.905) (size 2.1 0.75) (layers F.Cu F.Mask))
  (pad 16 smd rect (at 2.585 -1.905) (size 2.1 0.75) (layers F.Cu F.Mask))
  (pad 17 smd rect (at -2.585 -0.635) (size 2.1 0.75) (layers F.Cu F.Mask))
  (pad 18 smd rect (at 2.585 -0.635) (size 2.1 0.75) (layers F.Cu F.Mask))
  (pad 19 smd rect (at -2.585 0.635) (size 2.1 0.75) (layers F.Cu F.Mask))
  (pad 20 smd rect (at 2.585 0.635) (size 2.1 0.75) (layers F.Cu F.Mask))
  (pad 21 smd rect (at -2.585 1.905) (size 2.1 0.75) (layers F.Cu F.Mask))
  (pad 22 smd rect (at 2.585 1.905) (size 2.1 0.75) (layers F.Cu F.Mask))
  (pad 23 smd rect (at -2.585 3.175) (size 2.1 0.75) (layers F.Cu F.Mask))
  (pad 24 smd rect (at 2.585 3.175) (size 2.1 0.75) (layers F.Cu F.Mask))
  (pad 25 smd rect (at -2.585 4.445) (size 2.1 0.75) (layers F.Cu F.Mask))
  (pad 26 smd rect (at 2.585 4.445) (size 2.1 0.75) (layers F.Cu F.Mask))
  (pad 27 smd rect (at -2.585 5.715) (size 2.1 0.75) (layers F.Cu F.Mask))
  (pad 28 smd rect (at 2.585 5.715) (size 2.1 0.75) (layers F.Cu F.Mask))
  (pad 29 smd rect (at -2.585 6.985) (size 2.1 0.75) (layers F.Cu F.Mask))
  (pad 30 smd rect (at 2.585 6.985) (size 2.1 0.75) (layers F.Cu F.Mask))
  (pad 31 smd rect (at -2.585 8.255) (size 2.1 0.75) (layers F.Cu F.Mask))
  (pad 32 smd rect (at 2.585 8.255) (size 2.1 0.75) (layers F.Cu F.Mask))
  (pad 33 smd rect (at -2.585 9.525) (size 2.1 0.75) (layers F.Cu F.Mask))
  (pad 34 smd rect (at 2.585 9.525) (size 2.1 0.75) (layers F.Cu F.Mask))
  (pad 35 smd rect (at -2.585 10.795) (size 2.1 0.75) (layers F.Cu F.Mask))
  (pad 36 smd rect (at 2.585 10.795) (size 2.1 0.75) (layers F.Cu F.Mask))
  (model Pin_Headers.3dshapes/Pin_Header_Straight_2x18_Pitch1.27mm_SMD.wrl
    (at (xyz 0 0 0))
    (scale (xyz 1 1 1))
    (rotate (xyz 0 0 0))
  )
)