(module Pin_Header_Straight_1x16_Pitch2.54mm_SMD_Pin1Right (layer F.Cu) (tedit 588DAF28)
  (descr "surface-mounted straight pin header, 1x16, 2.54mm pitch, single row, style 2 (pin 1 right)")
  (tags "Surface mounted pin header SMD 1x16 2.54mm single row style2 pin1 right")
  (attr smd)
  (fp_text reference REF** (at 0 -21.38) (layer F.SilkS)
    (effects (font (size 1 1) (thickness 0.15)))
  )
  (fp_text value Pin_Header_Straight_1x16_Pitch2.54mm_SMD_Pin1Right (at 0 21.38) (layer F.Fab)
    (effects (font (size 1 1) (thickness 0.15)))
  )
  (fp_line (start -1.27 -20.32) (end -1.27 20.32) (layer F.Fab) (width 0.1))
  (fp_line (start -1.27 20.32) (end 1.27 20.32) (layer F.Fab) (width 0.1))
  (fp_line (start 1.27 20.32) (end 1.27 -20.32) (layer F.Fab) (width 0.1))
  (fp_line (start 1.27 -20.32) (end -1.27 -20.32) (layer F.Fab) (width 0.1))
  (fp_line (start -1.27 -16.83) (end -1.27 -16.19) (layer F.Fab) (width 0.1))
  (fp_line (start -1.27 -16.19) (end -2.65 -16.19) (layer F.Fab) (width 0.1))
  (fp_line (start -2.65 -16.19) (end -2.65 -16.83) (layer F.Fab) (width 0.1))
  (fp_line (start -2.65 -16.83) (end -1.27 -16.83) (layer F.Fab) (width 0.1))
  (fp_line (start -1.27 -11.75) (end -1.27 -11.11) (layer F.Fab) (width 0.1))
  (fp_line (start -1.27 -11.11) (end -2.65 -11.11) (layer F.Fab) (width 0.1))
  (fp_line (start -2.65 -11.11) (end -2.65 -11.75) (layer F.Fab) (width 0.1))
  (fp_line (start -2.65 -11.75) (end -1.27 -11.75) (layer F.Fab) (width 0.1))
  (fp_line (start -1.27 -6.67) (end -1.27 -6.03) (layer F.Fab) (width 0.1))
  (fp_line (start -1.27 -6.03) (end -2.65 -6.03) (layer F.Fab) (width 0.1))
  (fp_line (start -2.65 -6.03) (end -2.65 -6.67) (layer F.Fab) (width 0.1))
  (fp_line (start -2.65 -6.67) (end -1.27 -6.67) (layer F.Fab) (width 0.1))
  (fp_line (start -1.27 -1.59) (end -1.27 -0.95) (layer F.Fab) (width 0.1))
  (fp_line (start -1.27 -0.95) (end -2.65 -0.95) (layer F.Fab) (width 0.1))
  (fp_line (start -2.65 -0.95) (end -2.65 -1.59) (layer F.Fab) (width 0.1))
  (fp_line (start -2.65 -1.59) (end -1.27 -1.59) (layer F.Fab) (width 0.1))
  (fp_line (start -1.27 3.49) (end -1.27 4.13) (layer F.Fab) (width 0.1))
  (fp_line (start -1.27 4.13) (end -2.65 4.13) (layer F.Fab) (width 0.1))
  (fp_line (start -2.65 4.13) (end -2.65 3.49) (layer F.Fab) (width 0.1))
  (fp_line (start -2.65 3.49) (end -1.27 3.49) (layer F.Fab) (width 0.1))
  (fp_line (start -1.27 8.57) (end -1.27 9.21) (layer F.Fab) (width 0.1))
  (fp_line (start -1.27 9.21) (end -2.65 9.21) (layer F.Fab) (width 0.1))
  (fp_line (start -2.65 9.21) (end -2.65 8.57) (layer F.Fab) (width 0.1))
  (fp_line (start -2.65 8.57) (end -1.27 8.57) (layer F.Fab) (width 0.1))
  (fp_line (start -1.27 13.65) (end -1.27 14.29) (layer F.Fab) (width 0.1))
  (fp_line (start -1.27 14.29) (end -2.65 14.29) (layer F.Fab) (width 0.1))
  (fp_line (start -2.65 14.29) (end -2.65 13.65) (layer F.Fab) (width 0.1))
  (fp_line (start -2.65 13.65) (end -1.27 13.65) (layer F.Fab) (width 0.1))
  (fp_line (start -1.27 18.73) (end -1.27 19.37) (layer F.Fab) (width 0.1))
  (fp_line (start -1.27 19.37) (end -2.65 19.37) (layer F.Fab) (width 0.1))
  (fp_line (start -2.65 19.37) (end -2.65 18.73) (layer F.Fab) (width 0.1))
  (fp_line (start -2.65 18.73) (end -1.27 18.73) (layer F.Fab) (width 0.1))
  (fp_line (start 1.27 -19.37) (end 1.27 -18.73) (layer F.Fab) (width 0.1))
  (fp_line (start 1.27 -18.73) (end 2.65 -18.73) (layer F.Fab) (width 0.1))
  (fp_line (start 2.65 -18.73) (end 2.65 -19.37) (layer F.Fab) (width 0.1))
  (fp_line (start 2.65 -19.37) (end 1.27 -19.37) (layer F.Fab) (width 0.1))
  (fp_line (start 1.27 -14.29) (end 1.27 -13.65) (layer F.Fab) (width 0.1))
  (fp_line (start 1.27 -13.65) (end 2.65 -13.65) (layer F.Fab) (width 0.1))
  (fp_line (start 2.65 -13.65) (end 2.65 -14.29) (layer F.Fab) (width 0.1))
  (fp_line (start 2.65 -14.29) (end 1.27 -14.29) (layer F.Fab) (width 0.1))
  (fp_line (start 1.27 -9.21) (end 1.27 -8.57) (layer F.Fab) (width 0.1))
  (fp_line (start 1.27 -8.57) (end 2.65 -8.57) (layer F.Fab) (width 0.1))
  (fp_line (start 2.65 -8.57) (end 2.65 -9.21) (layer F.Fab) (width 0.1))
  (fp_line (start 2.65 -9.21) (end 1.27 -9.21) (layer F.Fab) (width 0.1))
  (fp_line (start 1.27 -4.13) (end 1.27 -3.49) (layer F.Fab) (width 0.1))
  (fp_line (start 1.27 -3.49) (end 2.65 -3.49) (layer F.Fab) (width 0.1))
  (fp_line (start 2.65 -3.49) (end 2.65 -4.13) (layer F.Fab) (width 0.1))
  (fp_line (start 2.65 -4.13) (end 1.27 -4.13) (layer F.Fab) (width 0.1))
  (fp_line (start 1.27 0.95) (end 1.27 1.59) (layer F.Fab) (width 0.1))
  (fp_line (start 1.27 1.59) (end 2.65 1.59) (layer F.Fab) (width 0.1))
  (fp_line (start 2.65 1.59) (end 2.65 0.95) (layer F.Fab) (width 0.1))
  (fp_line (start 2.65 0.95) (end 1.27 0.95) (layer F.Fab) (width 0.1))
  (fp_line (start 1.27 6.03) (end 1.27 6.67) (layer F.Fab) (width 0.1))
  (fp_line (start 1.27 6.67) (end 2.65 6.67) (layer F.Fab) (width 0.1))
  (fp_line (start 2.65 6.67) (end 2.65 6.03) (layer F.Fab) (width 0.1))
  (fp_line (start 2.65 6.03) (end 1.27 6.03) (layer F.Fab) (width 0.1))
  (fp_line (start 1.27 11.11) (end 1.27 11.75) (layer F.Fab) (width 0.1))
  (fp_line (start 1.27 11.75) (end 2.65 11.75) (layer F.Fab) (width 0.1))
  (fp_line (start 2.65 11.75) (end 2.65 11.11) (layer F.Fab) (width 0.1))
  (fp_line (start 2.65 11.11) (end 1.27 11.11) (layer F.Fab) (width 0.1))
  (fp_line (start 1.27 16.19) (end 1.27 16.83) (layer F.Fab) (width 0.1))
  (fp_line (start 1.27 16.83) (end 2.65 16.83) (layer F.Fab) (width 0.1))
  (fp_line (start 2.65 16.83) (end 2.65 16.19) (layer F.Fab) (width 0.1))
  (fp_line (start 2.65 16.19) (end 1.27 16.19) (layer F.Fab) (width 0.1))
  (fp_line (start -1.33 -19.85) (end -1.33 -20.38) (layer F.SilkS) (width 0.12))
  (fp_line (start -1.33 -20.38) (end 1.33 -20.38) (layer F.SilkS) (width 0.12))
  (fp_line (start 1.33 -20.38) (end 1.33 -19.85) (layer F.SilkS) (width 0.12))
  (fp_line (start -1.33 19.85) (end -1.33 20.38) (layer F.SilkS) (width 0.12))
  (fp_line (start -1.33 20.38) (end 1.33 20.38) (layer F.SilkS) (width 0.12))
  (fp_line (start 1.33 20.38) (end 1.33 19.85) (layer F.SilkS) (width 0.12))
  (fp_line (start 1.33 -18.37) (end 1.33 -14.65) (layer F.SilkS) (width 0.12))
  (fp_line (start 1.33 -13.29) (end 1.33 -9.57) (layer F.SilkS) (width 0.12))
  (fp_line (start 1.33 -8.21) (end 1.33 -4.49) (layer F.SilkS) (width 0.12))
  (fp_line (start 1.33 -3.13) (end 1.33 0.59) (layer F.SilkS) (width 0.12))
  (fp_line (start 1.33 1.95) (end 1.33 5.67) (layer F.SilkS) (width 0.12))
  (fp_line (start 1.33 7.03) (end 1.33 10.75) (layer F.SilkS) (width 0.12))
  (fp_line (start 1.33 12.11) (end 1.33 15.83) (layer F.SilkS) (width 0.12))
  (fp_line (start 1.33 17.19) (end 1.33 20.38) (layer F.SilkS) (width 0.12))
  (fp_line (start -1.33 -20.38) (end -1.33 -17.19) (layer F.SilkS) (width 0.12))
  (fp_line (start 1.33 -19.85) (end 3 -19.85) (layer F.SilkS) (width 0.12))
  (fp_line (start -1.33 -15.83) (end -1.33 -12.11) (layer F.SilkS) (width 0.12))
  (fp_line (start -1.33 -10.75) (end -1.33 -7.03) (layer F.SilkS) (width 0.12))
  (fp_line (start -1.33 -5.67) (end -1.33 -1.95) (layer F.SilkS) (width 0.12))
  (fp_line (start -1.33 -0.59) (end -1.33 3.13) (layer F.SilkS) (width 0.12))
  (fp_line (start -1.33 4.49) (end -1.33 8.21) (layer F.SilkS) (width 0.12))
  (fp_line (start -1.33 9.57) (end -1.33 13.29) (layer F.SilkS) (width 0.12))
  (fp_line (start -1.33 14.65) (end -1.33 18.37) (layer F.SilkS) (width 0.12))
  (fp_line (start -3.25 -20.6) (end -3.25 20.6) (layer F.CrtYd) (width 0.05))
  (fp_line (start -3.25 20.6) (end 3.25 20.6) (layer F.CrtYd) (width 0.05))
  (fp_line (start 3.25 20.6) (end 3.25 -20.6) (layer F.CrtYd) (width 0.05))
  (fp_line (start 3.25 -20.6) (end -3.25 -20.6) (layer F.CrtYd) (width 0.05))
  (pad 2 smd rect (at -1.5 -16.51) (size 3 1) (layers F.Cu F.Mask))
  (pad 4 smd rect (at -1.5 -11.43) (size 3 1) (layers F.Cu F.Mask))
  (pad 6 smd rect (at -1.5 -6.35) (size 3 1) (layers F.Cu F.Mask))
  (pad 8 smd rect (at -1.5 -1.27) (size 3 1) (layers F.Cu F.Mask))
  (pad 10 smd rect (at -1.5 3.81) (size 3 1) (layers F.Cu F.Mask))
  (pad 12 smd rect (at -1.5 8.89) (size 3 1) (layers F.Cu F.Mask))
  (pad 14 smd rect (at -1.5 13.97) (size 3 1) (layers F.Cu F.Mask))
  (pad 16 smd rect (at -1.5 19.05) (size 3 1) (layers F.Cu F.Mask))
  (pad 1 smd rect (at 1.5 -19.05) (size 3 1) (layers F.Cu F.Mask))
  (pad 3 smd rect (at 1.5 -13.97) (size 3 1) (layers F.Cu F.Mask))
  (pad 5 smd rect (at 1.5 -8.89) (size 3 1) (layers F.Cu F.Mask))
  (pad 7 smd rect (at 1.5 -3.81) (size 3 1) (layers F.Cu F.Mask))
  (pad 9 smd rect (at 1.5 1.27) (size 3 1) (layers F.Cu F.Mask))
  (pad 11 smd rect (at 1.5 6.35) (size 3 1) (layers F.Cu F.Mask))
  (pad 13 smd rect (at 1.5 11.43) (size 3 1) (layers F.Cu F.Mask))
  (pad 15 smd rect (at 1.5 16.51) (size 3 1) (layers F.Cu F.Mask))
  (model Pin_Headers.3dshapes/Pin_Header_Straight_1x16_Pitch2.54mm_SMD_Pin1Right.wrl
    (at (xyz 0 0 0))
    (scale (xyz 1 1 1))
    (rotate (xyz 0 0 0))
  )
)