(module Pin_Header_Straight_1x19_Pitch2.00mm_SMD_Pin1Left (layer F.Cu) (tedit 588DAF2E)
  (descr "surface-mounted straight pin header, 1x19, 2.00mm pitch, single row, style 1 (pin 1 left)")
  (tags "Surface mounted pin header SMD 1x19 2.00mm single row style1 pin1 left")
  (attr smd)
  (fp_text reference REF** (at 0 -20.06) (layer F.SilkS)
    (effects (font (size 1 1) (thickness 0.15)))
  )
  (fp_text value Pin_Header_Straight_1x19_Pitch2.00mm_SMD_Pin1Left (at 0 20.06) (layer F.Fab)
    (effects (font (size 1 1) (thickness 0.15)))
  )
  (fp_line (start -1 -19) (end -1 19) (layer F.Fab) (width 0.1))
  (fp_line (start -1 19) (end 1 19) (layer F.Fab) (width 0.1))
  (fp_line (start 1 19) (end 1 -19) (layer F.Fab) (width 0.1))
  (fp_line (start 1 -19) (end -1 -19) (layer F.Fab) (width 0.1))
  (fp_line (start -1 -18.25) (end -1 -17.75) (layer F.Fab) (width 0.1))
  (fp_line (start -1 -17.75) (end -2 -17.75) (layer F.Fab) (width 0.1))
  (fp_line (start -2 -17.75) (end -2 -18.25) (layer F.Fab) (width 0.1))
  (fp_line (start -2 -18.25) (end -1 -18.25) (layer F.Fab) (width 0.1))
  (fp_line (start -1 -14.25) (end -1 -13.75) (layer F.Fab) (width 0.1))
  (fp_line (start -1 -13.75) (end -2 -13.75) (layer F.Fab) (width 0.1))
  (fp_line (start -2 -13.75) (end -2 -14.25) (layer F.Fab) (width 0.1))
  (fp_line (start -2 -14.25) (end -1 -14.25) (layer F.Fab) (width 0.1))
  (fp_line (start -1 -10.25) (end -1 -9.75) (layer F.Fab) (width 0.1))
  (fp_line (start -1 -9.75) (end -2 -9.75) (layer F.Fab) (width 0.1))
  (fp_line (start -2 -9.75) (end -2 -10.25) (layer F.Fab) (width 0.1))
  (fp_line (start -2 -10.25) (end -1 -10.25) (layer F.Fab) (width 0.1))
  (fp_line (start -1 -6.25) (end -1 -5.75) (layer F.Fab) (width 0.1))
  (fp_line (start -1 -5.75) (end -2 -5.75) (layer F.Fab) (width 0.1))
  (fp_line (start -2 -5.75) (end -2 -6.25) (layer F.Fab) (width 0.1))
  (fp_line (start -2 -6.25) (end -1 -6.25) (layer F.Fab) (width 0.1))
  (fp_line (start -1 -2.25) (end -1 -1.75) (layer F.Fab) (width 0.1))
  (fp_line (start -1 -1.75) (end -2 -1.75) (layer F.Fab) (width 0.1))
  (fp_line (start -2 -1.75) (end -2 -2.25) (layer F.Fab) (width 0.1))
  (fp_line (start -2 -2.25) (end -1 -2.25) (layer F.Fab) (width 0.1))
  (fp_line (start -1 1.75) (end -1 2.25) (layer F.Fab) (width 0.1))
  (fp_line (start -1 2.25) (end -2 2.25) (layer F.Fab) (width 0.1))
  (fp_line (start -2 2.25) (end -2 1.75) (layer F.Fab) (width 0.1))
  (fp_line (start -2 1.75) (end -1 1.75) (layer F.Fab) (width 0.1))
  (fp_line (start -1 5.75) (end -1 6.25) (layer F.Fab) (width 0.1))
  (fp_line (start -1 6.25) (end -2 6.25) (layer F.Fab) (width 0.1))
  (fp_line (start -2 6.25) (end -2 5.75) (layer F.Fab) (width 0.1))
  (fp_line (start -2 5.75) (end -1 5.75) (layer F.Fab) (width 0.1))
  (fp_line (start -1 9.75) (end -1 10.25) (layer F.Fab) (width 0.1))
  (fp_line (start -1 10.25) (end -2 10.25) (layer F.Fab) (width 0.1))
  (fp_line (start -2 10.25) (end -2 9.75) (layer F.Fab) (width 0.1))
  (fp_line (start -2 9.75) (end -1 9.75) (layer F.Fab) (width 0.1))
  (fp_line (start -1 13.75) (end -1 14.25) (layer F.Fab) (width 0.1))
  (fp_line (start -1 14.25) (end -2 14.25) (layer F.Fab) (width 0.1))
  (fp_line (start -2 14.25) (end -2 13.75) (layer F.Fab) (width 0.1))
  (fp_line (start -2 13.75) (end -1 13.75) (layer F.Fab) (width 0.1))
  (fp_line (start -1 17.75) (end -1 18.25) (layer F.Fab) (width 0.1))
  (fp_line (start -1 18.25) (end -2 18.25) (layer F.Fab) (width 0.1))
  (fp_line (start -2 18.25) (end -2 17.75) (layer F.Fab) (width 0.1))
  (fp_line (start -2 17.75) (end -1 17.75) (layer F.Fab) (width 0.1))
  (fp_line (start 1 -16.25) (end 1 -15.75) (layer F.Fab) (width 0.1))
  (fp_line (start 1 -15.75) (end 2 -15.75) (layer F.Fab) (width 0.1))
  (fp_line (start 2 -15.75) (end 2 -16.25) (layer F.Fab) (width 0.1))
  (fp_line (start 2 -16.25) (end 1 -16.25) (layer F.Fab) (width 0.1))
  (fp_line (start 1 -12.25) (end 1 -11.75) (layer F.Fab) (width 0.1))
  (fp_line (start 1 -11.75) (end 2 -11.75) (layer F.Fab) (width 0.1))
  (fp_line (start 2 -11.75) (end 2 -12.25) (layer F.Fab) (width 0.1))
  (fp_line (start 2 -12.25) (end 1 -12.25) (layer F.Fab) (width 0.1))
  (fp_line (start 1 -8.25) (end 1 -7.75) (layer F.Fab) (width 0.1))
  (fp_line (start 1 -7.75) (end 2 -7.75) (layer F.Fab) (width 0.1))
  (fp_line (start 2 -7.75) (end 2 -8.25) (layer F.Fab) (width 0.1))
  (fp_line (start 2 -8.25) (end 1 -8.25) (layer F.Fab) (width 0.1))
  (fp_line (start 1 -4.25) (end 1 -3.75) (layer F.Fab) (width 0.1))
  (fp_line (start 1 -3.75) (end 2 -3.75) (layer F.Fab) (width 0.1))
  (fp_line (start 2 -3.75) (end 2 -4.25) (layer F.Fab) (width 0.1))
  (fp_line (start 2 -4.25) (end 1 -4.25) (layer F.Fab) (width 0.1))
  (fp_line (start 1 -0.25) (end 1 0.25) (layer F.Fab) (width 0.1))
  (fp_line (start 1 0.25) (end 2 0.25) (layer F.Fab) (width 0.1))
  (fp_line (start 2 0.25) (end 2 -0.25) (layer F.Fab) (width 0.1))
  (fp_line (start 2 -0.25) (end 1 -0.25) (layer F.Fab) (width 0.1))
  (fp_line (start 1 3.75) (end 1 4.25) (layer F.Fab) (width 0.1))
  (fp_line (start 1 4.25) (end 2 4.25) (layer F.Fab) (width 0.1))
  (fp_line (start 2 4.25) (end 2 3.75) (layer F.Fab) (width 0.1))
  (fp_line (start 2 3.75) (end 1 3.75) (layer F.Fab) (width 0.1))
  (fp_line (start 1 7.75) (end 1 8.25) (layer F.Fab) (width 0.1))
  (fp_line (start 1 8.25) (end 2 8.25) (layer F.Fab) (width 0.1))
  (fp_line (start 2 8.25) (end 2 7.75) (layer F.Fab) (width 0.1))
  (fp_line (start 2 7.75) (end 1 7.75) (layer F.Fab) (width 0.1))
  (fp_line (start 1 11.75) (end 1 12.25) (layer F.Fab) (width 0.1))
  (fp_line (start 1 12.25) (end 2 12.25) (layer F.Fab) (width 0.1))
  (fp_line (start 2 12.25) (end 2 11.75) (layer F.Fab) (width 0.1))
  (fp_line (start 2 11.75) (end 1 11.75) (layer F.Fab) (width 0.1))
  (fp_line (start 1 15.75) (end 1 16.25) (layer F.Fab) (width 0.1))
  (fp_line (start 1 16.25) (end 2 16.25) (layer F.Fab) (width 0.1))
  (fp_line (start 2 16.25) (end 2 15.75) (layer F.Fab) (width 0.1))
  (fp_line (start 2 15.75) (end 1 15.75) (layer F.Fab) (width 0.1))
  (fp_line (start -1.06 -18.8) (end -1.06 -19.06) (layer F.SilkS) (width 0.12))
  (fp_line (start -1.06 -19.06) (end 1.06 -19.06) (layer F.SilkS) (width 0.12))
  (fp_line (start 1.06 -19.06) (end 1.06 -18.8) (layer F.SilkS) (width 0.12))
  (fp_line (start -1.06 18.8) (end -1.06 19.06) (layer F.SilkS) (width 0.12))
  (fp_line (start -1.06 19.06) (end 1.06 19.06) (layer F.SilkS) (width 0.12))
  (fp_line (start 1.06 19.06) (end 1.06 18.8) (layer F.SilkS) (width 0.12))
  (fp_line (start 1.06 -19.06) (end 1.06 -16.68) (layer F.SilkS) (width 0.12))
  (fp_line (start -1.06 -18.8) (end -3.5 -18.8) (layer F.SilkS) (width 0.12))
  (fp_line (start 1.06 -15.32) (end 1.06 -12.68) (layer F.SilkS) (width 0.12))
  (fp_line (start 1.06 -11.32) (end 1.06 -8.68) (layer F.SilkS) (width 0.12))
  (fp_line (start 1.06 -7.32) (end 1.06 -4.68) (layer F.SilkS) (width 0.12))
  (fp_line (start 1.06 -3.32) (end 1.06 -0.68) (layer F.SilkS) (width 0.12))
  (fp_line (start 1.06 0.68) (end 1.06 3.32) (layer F.SilkS) (width 0.12))
  (fp_line (start 1.06 4.68) (end 1.06 7.32) (layer F.SilkS) (width 0.12))
  (fp_line (start 1.06 8.68) (end 1.06 11.32) (layer F.SilkS) (width 0.12))
  (fp_line (start 1.06 12.68) (end 1.06 15.32) (layer F.SilkS) (width 0.12))
  (fp_line (start 1.06 16.68) (end 1.06 19.06) (layer F.SilkS) (width 0.12))
  (fp_line (start -1.06 -17.32) (end -1.06 -14.68) (layer F.SilkS) (width 0.12))
  (fp_line (start -1.06 -13.32) (end -1.06 -10.68) (layer F.SilkS) (width 0.12))
  (fp_line (start -1.06 -9.32) (end -1.06 -6.68) (layer F.SilkS) (width 0.12))
  (fp_line (start -1.06 -5.32) (end -1.06 -2.68) (layer F.SilkS) (width 0.12))
  (fp_line (start -1.06 -1.32) (end -1.06 1.32) (layer F.SilkS) (width 0.12))
  (fp_line (start -1.06 2.68) (end -1.06 5.32) (layer F.SilkS) (width 0.12))
  (fp_line (start -1.06 6.68) (end -1.06 9.32) (layer F.SilkS) (width 0.12))
  (fp_line (start -1.06 10.68) (end -1.06 13.32) (layer F.SilkS) (width 0.12))
  (fp_line (start -1.06 14.68) (end -1.06 17.32) (layer F.SilkS) (width 0.12))
  (fp_line (start -3.75 -19.25) (end -3.75 19.25) (layer F.CrtYd) (width 0.05))
  (fp_line (start -3.75 19.25) (end 3.75 19.25) (layer F.CrtYd) (width 0.05))
  (fp_line (start 3.75 19.25) (end 3.75 -19.25) (layer F.CrtYd) (width 0.05))
  (fp_line (start 3.75 -19.25) (end -3.75 -19.25) (layer F.CrtYd) (width 0.05))
  (pad 1 smd rect (at -2.125 -18) (size 2.75 1) (layers F.Cu F.Mask))
  (pad 3 smd rect (at -2.125 -14) (size 2.75 1) (layers F.Cu F.Mask))
  (pad 5 smd rect (at -2.125 -10) (size 2.75 1) (layers F.Cu F.Mask))
  (pad 7 smd rect (at -2.125 -6) (size 2.75 1) (layers F.Cu F.Mask))
  (pad 9 smd rect (at -2.125 -2) (size 2.75 1) (layers F.Cu F.Mask))
  (pad 11 smd rect (at -2.125 2) (size 2.75 1) (layers F.Cu F.Mask))
  (pad 13 smd rect (at -2.125 6) (size 2.75 1) (layers F.Cu F.Mask))
  (pad 15 smd rect (at -2.125 10) (size 2.75 1) (layers F.Cu F.Mask))
  (pad 17 smd rect (at -2.125 14) (size 2.75 1) (layers F.Cu F.Mask))
  (pad 19 smd rect (at -2.125 18) (size 2.75 1) (layers F.Cu F.Mask))
  (pad 2 smd rect (at 2.125 -16) (size 2.75 1) (layers F.Cu F.Mask))
  (pad 4 smd rect (at 2.125 -12) (size 2.75 1) (layers F.Cu F.Mask))
  (pad 6 smd rect (at 2.125 -8) (size 2.75 1) (layers F.Cu F.Mask))
  (pad 8 smd rect (at 2.125 -4) (size 2.75 1) (layers F.Cu F.Mask))
  (pad 10 smd rect (at 2.125 0) (size 2.75 1) (layers F.Cu F.Mask))
  (pad 12 smd rect (at 2.125 4) (size 2.75 1) (layers F.Cu F.Mask))
  (pad 14 smd rect (at 2.125 8) (size 2.75 1) (layers F.Cu F.Mask))
  (pad 16 smd rect (at 2.125 12) (size 2.75 1) (layers F.Cu F.Mask))
  (pad 18 smd rect (at 2.125 16) (size 2.75 1) (layers F.Cu F.Mask))
  (model Pin_Headers.3dshapes/Pin_Header_Straight_1x19_Pitch2.00mm_SMD_Pin1Left.wrl
    (at (xyz 0 0 0))
    (scale (xyz 1 1 1))
    (rotate (xyz 0 0 0))
  )
)