(module Pin_Header_Straight_2x21_Pitch1.27mm_SMD (layer F.Cu) (tedit 588DAF38)
  (descr "surface-mounted straight pin header, 2x21, 1.27mm pitch, double rows")
  (tags "Surface mounted pin header SMD 2x21 1.27mm double row")
  (attr smd)
  (fp_text reference REF** (at 0 -14.395) (layer F.SilkS)
    (effects (font (size 1 1) (thickness 0.15)))
  )
  (fp_text value Pin_Header_Straight_2x21_Pitch1.27mm_SMD (at 0 14.395) (layer F.Fab)
    (effects (font (size 1 1) (thickness 0.15)))
  )
  (fp_line (start -1.27 -13.335) (end -1.27 13.335) (layer F.Fab) (width 0.1))
  (fp_line (start -1.27 13.335) (end 1.27 13.335) (layer F.Fab) (width 0.1))
  (fp_line (start 1.27 13.335) (end 1.27 -13.335) (layer F.Fab) (width 0.1))
  (fp_line (start 1.27 -13.335) (end -1.27 -13.335) (layer F.Fab) (width 0.1))
  (fp_line (start -1.27 -12.9) (end -1.27 -12.5) (layer F.Fab) (width 0.1))
  (fp_line (start -1.27 -12.5) (end -2.555 -12.5) (layer F.Fab) (width 0.1))
  (fp_line (start -2.555 -12.5) (end -2.555 -12.9) (layer F.Fab) (width 0.1))
  (fp_line (start -2.555 -12.9) (end -1.27 -12.9) (layer F.Fab) (width 0.1))
  (fp_line (start 1.27 -12.9) (end 1.27 -12.5) (layer F.Fab) (width 0.1))
  (fp_line (start 1.27 -12.5) (end 2.555 -12.5) (layer F.Fab) (width 0.1))
  (fp_line (start 2.555 -12.5) (end 2.555 -12.9) (layer F.Fab) (width 0.1))
  (fp_line (start 2.555 -12.9) (end 1.27 -12.9) (layer F.Fab) (width 0.1))
  (fp_line (start -1.27 -11.63) (end -1.27 -11.23) (layer F.Fab) (width 0.1))
  (fp_line (start -1.27 -11.23) (end -2.555 -11.23) (layer F.Fab) (width 0.1))
  (fp_line (start -2.555 -11.23) (end -2.555 -11.63) (layer F.Fab) (width 0.1))
  (fp_line (start -2.555 -11.63) (end -1.27 -11.63) (layer F.Fab) (width 0.1))
  (fp_line (start 1.27 -11.63) (end 1.27 -11.23) (layer F.Fab) (width 0.1))
  (fp_line (start 1.27 -11.23) (end 2.555 -11.23) (layer F.Fab) (width 0.1))
  (fp_line (start 2.555 -11.23) (end 2.555 -11.63) (layer F.Fab) (width 0.1))
  (fp_line (start 2.555 -11.63) (end 1.27 -11.63) (layer F.Fab) (width 0.1))
  (fp_line (start -1.27 -10.36) (end -1.27 -9.96) (layer F.Fab) (width 0.1))
  (fp_line (start -1.27 -9.96) (end -2.555 -9.96) (layer F.Fab) (width 0.1))
  (fp_line (start -2.555 -9.96) (end -2.555 -10.36) (layer F.Fab) (width 0.1))
  (fp_line (start -2.555 -10.36) (end -1.27 -10.36) (layer F.Fab) (width 0.1))
  (fp_line (start 1.27 -10.36) (end 1.27 -9.96) (layer F.Fab) (width 0.1))
  (fp_line (start 1.27 -9.96) (end 2.555 -9.96) (layer F.Fab) (width 0.1))
  (fp_line (start 2.555 -9.96) (end 2.555 -10.36) (layer F.Fab) (width 0.1))
  (fp_line (start 2.555 -10.36) (end 1.27 -10.36) (layer F.Fab) (width 0.1))
  (fp_line (start -1.27 -9.09) (end -1.27 -8.69) (layer F.Fab) (width 0.1))
  (fp_line (start -1.27 -8.69) (end -2.555 -8.69) (layer F.Fab) (width 0.1))
  (fp_line (start -2.555 -8.69) (end -2.555 -9.09) (layer F.Fab) (width 0.1))
  (fp_line (start -2.555 -9.09) (end -1.27 -9.09) (layer F.Fab) (width 0.1))
  (fp_line (start 1.27 -9.09) (end 1.27 -8.69) (layer F.Fab) (width 0.1))
  (fp_line (start 1.27 -8.69) (end 2.555 -8.69) (layer F.Fab) (width 0.1))
  (fp_line (start 2.555 -8.69) (end 2.555 -9.09) (layer F.Fab) (width 0.1))
  (fp_line (start 2.555 -9.09) (end 1.27 -9.09) (layer F.Fab) (width 0.1))
  (fp_line (start -1.27 -7.82) (end -1.27 -7.42) (layer F.Fab) (width 0.1))
  (fp_line (start -1.27 -7.42) (end -2.555 -7.42) (layer F.Fab) (width 0.1))
  (fp_line (start -2.555 -7.42) (end -2.555 -7.82) (layer F.Fab) (width 0.1))
  (fp_line (start -2.555 -7.82) (end -1.27 -7.82) (layer F.Fab) (width 0.1))
  (fp_line (start 1.27 -7.82) (end 1.27 -7.42) (layer F.Fab) (width 0.1))
  (fp_line (start 1.27 -7.42) (end 2.555 -7.42) (layer F.Fab) (width 0.1))
  (fp_line (start 2.555 -7.42) (end 2.555 -7.82) (layer F.Fab) (width 0.1))
  (fp_line (start 2.555 -7.82) (end 1.27 -7.82) (layer F.Fab) (width 0.1))
  (fp_line (start -1.27 -6.55) (end -1.27 -6.15) (layer F.Fab) (width 0.1))
  (fp_line (start -1.27 -6.15) (end -2.555 -6.15) (layer F.Fab) (width 0.1))
  (fp_line (start -2.555 -6.15) (end -2.555 -6.55) (layer F.Fab) (width 0.1))
  (fp_line (start -2.555 -6.55) (end -1.27 -6.55) (layer F.Fab) (width 0.1))
  (fp_line (start 1.27 -6.55) (end 1.27 -6.15) (layer F.Fab) (width 0.1))
  (fp_line (start 1.27 -6.15) (end 2.555 -6.15) (layer F.Fab) (width 0.1))
  (fp_line (start 2.555 -6.15) (end 2.555 -6.55) (layer F.Fab) (width 0.1))
  (fp_line (start 2.555 -6.55) (end 1.27 -6.55) (layer F.Fab) (width 0.1))
  (fp_line (start -1.27 -5.28) (end -1.27 -4.88) (layer F.Fab) (width 0.1))
  (fp_line (start -1.27 -4.88) (end -2.555 -4.88) (layer F.Fab) (width 0.1))
  (fp_line (start -2.555 -4.88) (end -2.555 -5.28) (layer F.Fab) (width 0.1))
  (fp_line (start -2.555 -5.28) (end -1.27 -5.28) (layer F.Fab) (width 0.1))
  (fp_line (start 1.27 -5.28) (end 1.27 -4.88) (layer F.Fab) (width 0.1))
  (fp_line (start 1.27 -4.88) (end 2.555 -4.88) (layer F.Fab) (width 0.1))
  (fp_line (start 2.555 -4.88) (end 2.555 -5.28) (layer F.Fab) (width 0.1))
  (fp_line (start 2.555 -5.28) (end 1.27 -5.28) (layer F.Fab) (width 0.1))
  (fp_line (start -1.27 -4.01) (end -1.27 -3.61) (layer F.Fab) (width 0.1))
  (fp_line (start -1.27 -3.61) (end -2.555 -3.61) (layer F.Fab) (width 0.1))
  (fp_line (start -2.555 -3.61) (end -2.555 -4.01) (layer F.Fab) (width 0.1))
  (fp_line (start -2.555 -4.01) (end -1.27 -4.01) (layer F.Fab) (width 0.1))
  (fp_line (start 1.27 -4.01) (end 1.27 -3.61) (layer F.Fab) (width 0.1))
  (fp_line (start 1.27 -3.61) (end 2.555 -3.61) (layer F.Fab) (width 0.1))
  (fp_line (start 2.555 -3.61) (end 2.555 -4.01) (layer F.Fab) (width 0.1))
  (fp_line (start 2.555 -4.01) (end 1.27 -4.01) (layer F.Fab) (width 0.1))
  (fp_line (start -1.27 -2.74) (end -1.27 -2.34) (layer F.Fab) (width 0.1))
  (fp_line (start -1.27 -2.34) (end -2.555 -2.34) (layer F.Fab) (width 0.1))
  (fp_line (start -2.555 -2.34) (end -2.555 -2.74) (layer F.Fab) (width 0.1))
  (fp_line (start -2.555 -2.74) (end -1.27 -2.74) (layer F.Fab) (width 0.1))
  (fp_line (start 1.27 -2.74) (end 1.27 -2.34) (layer F.Fab) (width 0.1))
  (fp_line (start 1.27 -2.34) (end 2.555 -2.34) (layer F.Fab) (width 0.1))
  (fp_line (start 2.555 -2.34) (end 2.555 -2.74) (layer F.Fab) (width 0.1))
  (fp_line (start 2.555 -2.74) (end 1.27 -2.74) (layer F.Fab) (width 0.1))
  (fp_line (start -1.27 -1.47) (end -1.27 -1.07) (layer F.Fab) (width 0.1))
  (fp_line (start -1.27 -1.07) (end -2.555 -1.07) (layer F.Fab) (width 0.1))
  (fp_line (start -2.555 -1.07) (end -2.555 -1.47) (layer F.Fab) (width 0.1))
  (fp_line (start -2.555 -1.47) (end -1.27 -1.47) (layer F.Fab) (width 0.1))
  (fp_line (start 1.27 -1.47) (end 1.27 -1.07) (layer F.Fab) (width 0.1))
  (fp_line (start 1.27 -1.07) (end 2.555 -1.07) (layer F.Fab) (width 0.1))
  (fp_line (start 2.555 -1.07) (end 2.555 -1.47) (layer F.Fab) (width 0.1))
  (fp_line (start 2.555 -1.47) (end 1.27 -1.47) (layer F.Fab) (width 0.1))
  (fp_line (start -1.27 -0.2) (end -1.27 0.2) (layer F.Fab) (width 0.1))
  (fp_line (start -1.27 0.2) (end -2.555 0.2) (layer F.Fab) (width 0.1))
  (fp_line (start -2.555 0.2) (end -2.555 -0.2) (layer F.Fab) (width 0.1))
  (fp_line (start -2.555 -0.2) (end -1.27 -0.2) (layer F.Fab) (width 0.1))
  (fp_line (start 1.27 -0.2) (end 1.27 0.2) (layer F.Fab) (width 0.1))
  (fp_line (start 1.27 0.2) (end 2.555 0.2) (layer F.Fab) (width 0.1))
  (fp_line (start 2.555 0.2) (end 2.555 -0.2) (layer F.Fab) (width 0.1))
  (fp_line (start 2.555 -0.2) (end 1.27 -0.2) (layer F.Fab) (width 0.1))
  (fp_line (start -1.27 1.07) (end -1.27 1.47) (layer F.Fab) (width 0.1))
  (fp_line (start -1.27 1.47) (end -2.555 1.47) (layer F.Fab) (width 0.1))
  (fp_line (start -2.555 1.47) (end -2.555 1.07) (layer F.Fab) (width 0.1))
  (fp_line (start -2.555 1.07) (end -1.27 1.07) (layer F.Fab) (width 0.1))
  (fp_line (start 1.27 1.07) (end 1.27 1.47) (layer F.Fab) (width 0.1))
  (fp_line (start 1.27 1.47) (end 2.555 1.47) (layer F.Fab) (width 0.1))
  (fp_line (start 2.555 1.47) (end 2.555 1.07) (layer F.Fab) (width 0.1))
  (fp_line (start 2.555 1.07) (end 1.27 1.07) (layer F.Fab) (width 0.1))
  (fp_line (start -1.27 2.34) (end -1.27 2.74) (layer F.Fab) (width 0.1))
  (fp_line (start -1.27 2.74) (end -2.555 2.74) (layer F.Fab) (width 0.1))
  (fp_line (start -2.555 2.74) (end -2.555 2.34) (layer F.Fab) (width 0.1))
  (fp_line (start -2.555 2.34) (end -1.27 2.34) (layer F.Fab) (width 0.1))
  (fp_line (start 1.27 2.34) (end 1.27 2.74) (layer F.Fab) (width 0.1))
  (fp_line (start 1.27 2.74) (end 2.555 2.74) (layer F.Fab) (width 0.1))
  (fp_line (start 2.555 2.74) (end 2.555 2.34) (layer F.Fab) (width 0.1))
  (fp_line (start 2.555 2.34) (end 1.27 2.34) (layer F.Fab) (width 0.1))
  (fp_line (start -1.27 3.61) (end -1.27 4.01) (layer F.Fab) (width 0.1))
  (fp_line (start -1.27 4.01) (end -2.555 4.01) (layer F.Fab) (width 0.1))
  (fp_line (start -2.555 4.01) (end -2.555 3.61) (layer F.Fab) (width 0.1))
  (fp_line (start -2.555 3.61) (end -1.27 3.61) (layer F.Fab) (width 0.1))
  (fp_line (start 1.27 3.61) (end 1.27 4.01) (layer F.Fab) (width 0.1))
  (fp_line (start 1.27 4.01) (end 2.555 4.01) (layer F.Fab) (width 0.1))
  (fp_line (start 2.555 4.01) (end 2.555 3.61) (layer F.Fab) (width 0.1))
  (fp_line (start 2.555 3.61) (end 1.27 3.61) (layer F.Fab) (width 0.1))
  (fp_line (start -1.27 4.88) (end -1.27 5.28) (layer F.Fab) (width 0.1))
  (fp_line (start -1.27 5.28) (end -2.555 5.28) (layer F.Fab) (width 0.1))
  (fp_line (start -2.555 5.28) (end -2.555 4.88) (layer F.Fab) (width 0.1))
  (fp_line (start -2.555 4.88) (end -1.27 4.88) (layer F.Fab) (width 0.1))
  (fp_line (start 1.27 4.88) (end 1.27 5.28) (layer F.Fab) (width 0.1))
  (fp_line (start 1.27 5.28) (end 2.555 5.28) (layer F.Fab) (width 0.1))
  (fp_line (start 2.555 5.28) (end 2.555 4.88) (layer F.Fab) (width 0.1))
  (fp_line (start 2.555 4.88) (end 1.27 4.88) (layer F.Fab) (width 0.1))
  (fp_line (start -1.27 6.15) (end -1.27 6.55) (layer F.Fab) (width 0.1))
  (fp_line (start -1.27 6.55) (end -2.555 6.55) (layer F.Fab) (width 0.1))
  (fp_line (start -2.555 6.55) (end -2.555 6.15) (layer F.Fab) (width 0.1))
  (fp_line (start -2.555 6.15) (end -1.27 6.15) (layer F.Fab) (width 0.1))
  (fp_line (start 1.27 6.15) (end 1.27 6.55) (layer F.Fab) (width 0.1))
  (fp_line (start 1.27 6.55) (end 2.555 6.55) (layer F.Fab) (width 0.1))
  (fp_line (start 2.555 6.55) (end 2.555 6.15) (layer F.Fab) (width 0.1))
  (fp_line (start 2.555 6.15) (end 1.27 6.15) (layer F.Fab) (width 0.1))
  (fp_line (start -1.27 7.42) (end -1.27 7.82) (layer F.Fab) (width 0.1))
  (fp_line (start -1.27 7.82) (end -2.555 7.82) (layer F.Fab) (width 0.1))
  (fp_line (start -2.555 7.82) (end -2.555 7.42) (layer F.Fab) (width 0.1))
  (fp_line (start -2.555 7.42) (end -1.27 7.42) (layer F.Fab) (width 0.1))
  (fp_line (start 1.27 7.42) (end 1.27 7.82) (layer F.Fab) (width 0.1))
  (fp_line (start 1.27 7.82) (end 2.555 7.82) (layer F.Fab) (width 0.1))
  (fp_line (start 2.555 7.82) (end 2.555 7.42) (layer F.Fab) (width 0.1))
  (fp_line (start 2.555 7.42) (end 1.27 7.42) (layer F.Fab) (width 0.1))
  (fp_line (start -1.27 8.69) (end -1.27 9.09) (layer F.Fab) (width 0.1))
  (fp_line (start -1.27 9.09) (end -2.555 9.09) (layer F.Fab) (width 0.1))
  (fp_line (start -2.555 9.09) (end -2.555 8.69) (layer F.Fab) (width 0.1))
  (fp_line (start -2.555 8.69) (end -1.27 8.69) (layer F.Fab) (width 0.1))
  (fp_line (start 1.27 8.69) (end 1.27 9.09) (layer F.Fab) (width 0.1))
  (fp_line (start 1.27 9.09) (end 2.555 9.09) (layer F.Fab) (width 0.1))
  (fp_line (start 2.555 9.09) (end 2.555 8.69) (layer F.Fab) (width 0.1))
  (fp_line (start 2.555 8.69) (end 1.27 8.69) (layer F.Fab) (width 0.1))
  (fp_line (start -1.27 9.96) (end -1.27 10.36) (layer F.Fab) (width 0.1))
  (fp_line (start -1.27 10.36) (end -2.555 10.36) (layer F.Fab) (width 0.1))
  (fp_line (start -2.555 10.36) (end -2.555 9.96) (layer F.Fab) (width 0.1))
  (fp_line (start -2.555 9.96) (end -1.27 9.96) (layer F.Fab) (width 0.1))
  (fp_line (start 1.27 9.96) (end 1.27 10.36) (layer F.Fab) (width 0.1))
  (fp_line (start 1.27 10.36) (end 2.555 10.36) (layer F.Fab) (width 0.1))
  (fp_line (start 2.555 10.36) (end 2.555 9.96) (layer F.Fab) (width 0.1))
  (fp_line (start 2.555 9.96) (end 1.27 9.96) (layer F.Fab) (width 0.1))
  (fp_line (start -1.27 11.23) (end -1.27 11.63) (layer F.Fab) (width 0.1))
  (fp_line (start -1.27 11.63) (end -2.555 11.63) (layer F.Fab) (width 0.1))
  (fp_line (start -2.555 11.63) (end -2.555 11.23) (layer F.Fab) (width 0.1))
  (fp_line (start -2.555 11.23) (end -1.27 11.23) (layer F.Fab) (width 0.1))
  (fp_line (start 1.27 11.23) (end 1.27 11.63) (layer F.Fab) (width 0.1))
  (fp_line (start 1.27 11.63) (end 2.555 11.63) (layer F.Fab) (width 0.1))
  (fp_line (start 2.555 11.63) (end 2.555 11.23) (layer F.Fab) (width 0.1))
  (fp_line (start 2.555 11.23) (end 1.27 11.23) (layer F.Fab) (width 0.1))
  (fp_line (start -1.27 12.5) (end -1.27 12.9) (layer F.Fab) (width 0.1))
  (fp_line (start -1.27 12.9) (end -2.555 12.9) (layer F.Fab) (width 0.1))
  (fp_line (start -2.555 12.9) (end -2.555 12.5) (layer F.Fab) (width 0.1))
  (fp_line (start -2.555 12.5) (end -1.27 12.5) (layer F.Fab) (width 0.1))
  (fp_line (start 1.27 12.5) (end 1.27 12.9) (layer F.Fab) (width 0.1))
  (fp_line (start 1.27 12.9) (end 2.555 12.9) (layer F.Fab) (width 0.1))
  (fp_line (start 2.555 12.9) (end 2.555 12.5) (layer F.Fab) (width 0.1))
  (fp_line (start 2.555 12.5) (end 1.27 12.5) (layer F.Fab) (width 0.1))
  (fp_line (start -1.33 -13.375) (end -1.33 -13.395) (layer F.SilkS) (width 0.12))
  (fp_line (start -1.33 -13.395) (end 1.33 -13.395) (layer F.SilkS) (width 0.12))
  (fp_line (start 1.33 -13.395) (end 1.33 -13.375) (layer F.SilkS) (width 0.12))
  (fp_line (start -1.33 13.375) (end -1.33 13.395) (layer F.SilkS) (width 0.12))
  (fp_line (start -1.33 13.395) (end 1.33 13.395) (layer F.SilkS) (width 0.12))
  (fp_line (start 1.33 13.395) (end 1.33 13.375) (layer F.SilkS) (width 0.12))
  (fp_line (start -3.635 -13.375) (end -1.33 -13.375) (layer F.SilkS) (width 0.12))
  (fp_line (start -3.9 -13.6) (end -3.9 13.6) (layer F.CrtYd) (width 0.05))
  (fp_line (start -3.9 13.6) (end 3.9 13.6) (layer F.CrtYd) (width 0.05))
  (fp_line (start 3.9 13.6) (end 3.9 -13.6) (layer F.CrtYd) (width 0.05))
  (fp_line (start 3.9 -13.6) (end -3.9 -13.6) (layer F.CrtYd) (width 0.05))
  (pad 1 smd rect (at -2.585 -12.7) (size 2.1 0.75) (layers F.Cu F.Mask))
  (pad 2 smd rect (at 2.585 -12.7) (size 2.1 0.75) (layers F.Cu F.Mask))
  (pad 3 smd rect (at -2.585 -11.43) (size 2.1 0.75) (layers F.Cu F.Mask))
  (pad 4 smd rect (at 2.585 -11.43) (size 2.1 0.75) (layers F.Cu F.Mask))
  (pad 5 smd rect (at -2.585 -10.16) (size 2.1 0.75) (layers F.Cu F.Mask))
  (pad 6 smd rect (at 2.585 -10.16) (size 2.1 0.75) (layers F.Cu F.Mask))
  (pad 7 smd rect (at -2.585 -8.89) (size 2.1 0.75) (layers F.Cu F.Mask))
  (pad 8 smd rect (at 2.585 -8.89) (size 2.1 0.75) (layers F.Cu F.Mask))
  (pad 9 smd rect (at -2.585 -7.62) (size 2.1 0.75) (layers F.Cu F.Mask))
  (pad 10 smd rect (at 2.585 -7.62) (size 2.1 0.75) (layers F.Cu F.Mask))
  (pad 11 smd rect (at -2.585 -6.35) (size 2.1 0.75) (layers F.Cu F.Mask))
  (pad 12 smd rect (at 2.585 -6.35) (size 2.1 0.75) (layers F.Cu F.Mask))
  (pad 13 smd rect (at -2.585 -5.08) (size 2.1 0.75) (layers F.Cu F.Mask))
  (pad 14 smd rect (at 2.585 -5.08) (size 2.1 0.75) (layers F.Cu F.Mask))
  (pad 15 smd rect (at -2.585 -3.81) (size 2.1 0.75) (layers F.Cu F.Mask))
  (pad 16 smd rect (at 2.585 -3.81) (size 2.1 0.75) (layers F.Cu F.Mask))
  (pad 17 smd rect (at -2.585 -2.54) (size 2.1 0.75) (layers F.Cu F.Mask))
  (pad 18 smd rect (at 2.585 -2.54) (size 2.1 0.75) (layers F.Cu F.Mask))
  (pad 19 smd rect (at -2.585 -1.27) (size 2.1 0.75) (layers F.Cu F.Mask))
  (pad 20 smd rect (at 2.585 -1.27) (size 2.1 0.75) (layers F.Cu F.Mask))
  (pad 21 smd rect (at -2.585 0) (size 2.1 0.75) (layers F.Cu F.Mask))
  (pad 22 smd rect (at 2.585 0) (size 2.1 0.75) (layers F.Cu F.Mask))
  (pad 23 smd rect (at -2.585 1.27) (size 2.1 0.75) (layers F.Cu F.Mask))
  (pad 24 smd rect (at 2.585 1.27) (size 2.1 0.75) (layers F.Cu F.Mask))
  (pad 25 smd rect (at -2.585 2.54) (size 2.1 0.75) (layers F.Cu F.Mask))
  (pad 26 smd rect (at 2.585 2.54) (size 2.1 0.75) (layers F.Cu F.Mask))
  (pad 27 smd rect (at -2.585 3.81) (size 2.1 0.75) (layers F.Cu F.Mask))
  (pad 28 smd rect (at 2.585 3.81) (size 2.1 0.75) (layers F.Cu F.Mask))
  (pad 29 smd rect (at -2.585 5.08) (size 2.1 0.75) (layers F.Cu F.Mask))
  (pad 30 smd rect (at 2.585 5.08) (size 2.1 0.75) (layers F.Cu F.Mask))
  (pad 31 smd rect (at -2.585 6.35) (size 2.1 0.75) (layers F.Cu F.Mask))
  (pad 32 smd rect (at 2.585 6.35) (size 2.1 0.75) (layers F.Cu F.Mask))
  (pad 33 smd rect (at -2.585 7.62) (size 2.1 0.75) (layers F.Cu F.Mask))
  (pad 34 smd rect (at 2.585 7.62) (size 2.1 0.75) (layers F.Cu F.Mask))
  (pad 35 smd rect (at -2.585 8.89) (size 2.1 0.75) (layers F.Cu F.Mask))
  (pad 36 smd rect (at 2.585 8.89) (size 2.1 0.75) (layers F.Cu F.Mask))
  (pad 37 smd rect (at -2.585 10.16) (size 2.1 0.75) (layers F.Cu F.Mask))
  (pad 38 smd rect (at 2.585 10.16) (size 2.1 0.75) (layers F.Cu F.Mask))
  (pad 39 smd rect (at -2.585 11.43) (size 2.1 0.75) (layers F.Cu F.Mask))
  (pad 40 smd rect (at 2.585 11.43) (size 2.1 0.75) (layers F.Cu F.Mask))
  (pad 41 smd rect (at -2.585 12.7) (size 2.1 0.75) (layers F.Cu F.Mask))
  (pad 42 smd rect (at 2.585 12.7) (size 2.1 0.75) (layers F.Cu F.Mask))
  (model Pin_Headers.3dshapes/Pin_Header_Straight_2x21_Pitch1.27mm_SMD.wrl
    (at (xyz 0 0 0))
    (scale (xyz 1 1 1))
    (rotate (xyz 0 0 0))
  )
)