(module Oscillator_SMD_TXC_7C-4pin_5.0x3.2mm (layer F.Cu) (tedit 5873E0AF)
  (descr "Miniature Crystal Clock Oscillator TXC 7C series, http://www.txccorp.com/download/products/osc/7C_o.pdf, 5.0x3.2mm^2 package")
  (tags "SMD SMT crystal oscillator")
  (attr smd)
  (fp_text reference REF** (at 0 -2.8) (layer F.SilkS)
    (effects (font (size 1 1) (thickness 0.15)))
  )
  (fp_text value Oscillator_SMD_TXC_7C-4pin_5.0x3.2mm (at 0 2.8) (layer F.Fab)
    (effects (font (size 1 1) (thickness 0.15)))
  )
  (fp_circle (center 0 0) (end 0.5 0) (layer F.Adhes) (width 0.1))
  (fp_circle (center 0 0) (end 0.416667 0) (layer F.Adhes) (width 0.16666666666666666))
  (fp_circle (center 0 0) (end 0.266667 0) (layer F.Adhes) (width 0.16666666666666666))
  (fp_circle (center 0 0) (end 0.116667 0) (layer F.Adhes) (width 0.23333333333333345))
  (fp_line (start -2.3 -1.6) (end 2.3 -1.6) (layer F.Fab) (width 0.1))
  (fp_line (start 2.3 -1.6) (end 2.5 -1.4) (layer F.Fab) (width 0.1))
  (fp_line (start 2.5 -1.4) (end 2.5 1.4) (layer F.Fab) (width 0.1))
  (fp_line (start 2.5 1.4) (end 2.3 1.6) (layer F.Fab) (width 0.1))
  (fp_line (start 2.3 1.6) (end -2.3 1.6) (layer F.Fab) (width 0.1))
  (fp_line (start -2.3 1.6) (end -2.5 1.4) (layer F.Fab) (width 0.1))
  (fp_line (start -2.5 1.4) (end -2.5 -1.4) (layer F.Fab) (width 0.1))
  (fp_line (start -2.5 -1.4) (end -2.3 -1.6) (layer F.Fab) (width 0.1))
  (fp_line (start -2.5 0.6) (end -1.5 1.6) (layer F.Fab) (width 0.1))
  (fp_line (start 2.17 -1.8) (end 2.7 -1.8) (layer F.SilkS) (width 0.12))
  (fp_line (start 2.7 -1.8) (end 2.7 1.8) (layer F.SilkS) (width 0.12))
  (fp_line (start 2.7 1.8) (end 2.17 1.8) (layer F.SilkS) (width 0.12))
  (fp_line (start -0.37 -1.8) (end 0.37 -1.8) (layer F.SilkS) (width 0.12))
  (fp_line (start -2.17 2.04) (end -2.17 1.8) (layer F.SilkS) (width 0.12))
  (fp_line (start -2.17 1.8) (end -2.7 1.8) (layer F.SilkS) (width 0.12))
  (fp_line (start -2.7 1.8) (end -2.7 -1.8) (layer F.SilkS) (width 0.12))
  (fp_line (start -2.7 -1.8) (end -2.17 -1.8) (layer F.SilkS) (width 0.12))
  (fp_line (start 0.37 1.8) (end -0.37 1.8) (layer F.SilkS) (width 0.12))
  (fp_line (start -0.37 1.8) (end -0.37 2.04) (layer F.SilkS) (width 0.12))
  (fp_line (start -2.8 -2) (end -2.8 2) (layer F.CrtYd) (width 0.05))
  (fp_line (start -2.8 2) (end 2.8 2) (layer F.CrtYd) (width 0.05))
  (fp_line (start 2.8 2) (end 2.8 -2) (layer F.CrtYd) (width 0.05))
  (fp_line (start 2.8 -2) (end -2.8 -2) (layer F.CrtYd) (width 0.05))
  (pad 1 smd rect (at -1.27 1.1) (size 1.4 1.2) (layers F.Cu F.Mask))
  (pad 2 smd rect (at 1.27 1.1) (size 1.4 1.2) (layers F.Cu F.Mask))
  (pad 3 smd rect (at 1.27 -1.1) (size 1.4 1.2) (layers F.Cu F.Mask))
  (pad 4 smd rect (at -1.27 -1.1) (size 1.4 1.2) (layers F.Cu F.Mask))
  (model Oscillators.3dshapes/Oscillator_SMD_TXC_7C-4pin_5.0x3.2mm.wrl
    (at (xyz 0 0 0))
    (scale (xyz 1 1 1))
    (rotate (xyz 0 0 0))
  )
)