(module Oscillator_SMD_Fordahl_DFAS7-4pin_19.9x12.9mm_HandSoldering (layer F.Cu) (tedit 5873E0AF)
  (descr "Miniature Crystal Clock Oscillator TXCO Fordahl DFA S7-K/L, http://www.iqdfrequencyproducts.com/products/details/iqxo-70-11-30.pdf, hand-soldering, 19.9x12.9mm^2 package")
  (tags "SMD SMT crystal oscillator hand-soldering")
  (attr smd)
  (fp_text reference REF** (at 0 -7.65) (layer F.SilkS)
    (effects (font (size 1 1) (thickness 0.15)))
  )
  (fp_text value Oscillator_SMD_Fordahl_DFAS7-4pin_19.9x12.9mm_HandSoldering (at 0 7.65) (layer F.Fab)
    (effects (font (size 1 1) (thickness 0.15)))
  )
  (fp_circle (center 0 0) (end 1 0) (layer F.Adhes) (width 0.1))
  (fp_circle (center 0 0) (end 0.833333 0) (layer F.Adhes) (width 0.3333333333333333))
  (fp_circle (center 0 0) (end 0.533333 0) (layer F.Adhes) (width 0.3333333333333333))
  (fp_circle (center 0 0) (end 0.233333 0) (layer F.Adhes) (width 0.4666666666666669))
  (fp_line (start -7.95 -6.45) (end 7.95 -6.45) (layer F.Fab) (width 0.1))
  (fp_line (start 7.95 -6.45) (end 9.95 -4.45) (layer F.Fab) (width 0.1))
  (fp_line (start 9.95 -4.45) (end 9.95 4.45) (layer F.Fab) (width 0.1))
  (fp_line (start 9.95 4.45) (end 7.95 6.45) (layer F.Fab) (width 0.1))
  (fp_line (start 7.95 6.45) (end -7.95 6.45) (layer F.Fab) (width 0.1))
  (fp_line (start -7.95 6.45) (end -9.95 4.45) (layer F.Fab) (width 0.1))
  (fp_line (start -9.95 4.45) (end -9.95 -4.45) (layer F.Fab) (width 0.1))
  (fp_line (start -9.95 -4.45) (end -7.95 -6.45) (layer F.Fab) (width 0.1))
  (fp_line (start -9.95 3.45) (end -6.95 6.45) (layer F.Fab) (width 0.1))
  (fp_line (start -10.15 -4.78) (end -10.15 -6.65) (layer F.SilkS) (width 0.12))
  (fp_line (start -10.15 -6.65) (end 10.15 -6.65) (layer F.SilkS) (width 0.12))
  (fp_line (start 10.15 -6.65) (end 10.15 -4.78) (layer F.SilkS) (width 0.12))
  (fp_line (start -12.3 4.78) (end -10.15 4.78) (layer F.SilkS) (width 0.12))
  (fp_line (start -10.15 4.78) (end -10.15 6.65) (layer F.SilkS) (width 0.12))
  (fp_line (start -10.15 6.65) (end 10.15 6.65) (layer F.SilkS) (width 0.12))
  (fp_line (start 10.15 6.65) (end 10.15 4.78) (layer F.SilkS) (width 0.12))
  (fp_line (start -12.3 2.95) (end -10.15 2.95) (layer F.SilkS) (width 0.12))
  (fp_line (start -10.15 2.95) (end -10.15 -2.95) (layer F.SilkS) (width 0.12))
  (fp_line (start 10.15 -2.95) (end 10.15 2.95) (layer F.SilkS) (width 0.12))
  (fp_line (start -12.4 -6.7) (end -12.4 6.7) (layer F.CrtYd) (width 0.05))
  (fp_line (start -12.4 6.7) (end 12.4 6.7) (layer F.CrtYd) (width 0.05))
  (fp_line (start 12.4 6.7) (end 12.4 -6.7) (layer F.CrtYd) (width 0.05))
  (fp_line (start 12.4 -6.7) (end -12.4 -6.7) (layer F.CrtYd) (width 0.05))
  (pad 1 smd rect (at -10.15 3.865) (size 3.9 1.43) (layers F.Cu F.Mask))
  (pad 2 smd rect (at 10.15 3.865) (size 3.9 1.43) (layers F.Cu F.Mask))
  (pad 3 smd rect (at 10.15 -3.865) (size 3.9 1.43) (layers F.Cu F.Mask))
  (pad 4 smd rect (at -10.15 -3.865) (size 3.9 1.43) (layers F.Cu F.Mask))
  (model Oscillators.3dshapes/Oscillator_SMD_Fordahl_DFAS7-4pin_19.9x12.9mm_HandSoldering.wrl
    (at (xyz 0 0 0))
    (scale (xyz 1 1 1))
    (rotate (xyz 0 0 0))
  )
)