(module Oscillator_SMD_Fordahl_DFAS11-4pin_7.0x5.0mm (layer F.Cu) (tedit 5873E0AF)
  (descr "Miniature Crystal Clock Oscillator TXCO Fordahl DFA S11-OV/UOV, http://www.iqdfrequencyproducts.com/products/details/iqxo-70-11-30.pdf, 7.0x5.0mm^2 package")
  (tags "SMD SMT crystal oscillator")
  (attr smd)
  (fp_text reference REF** (at 0 -4.2) (layer F.SilkS)
    (effects (font (size 1 1) (thickness 0.15)))
  )
  (fp_text value Oscillator_SMD_Fordahl_DFAS11-4pin_7.0x5.0mm (at 0 4.2) (layer F.Fab)
    (effects (font (size 1 1) (thickness 0.15)))
  )
  (fp_circle (center 0 0) (end 1 0) (layer F.Adhes) (width 0.1))
  (fp_circle (center 0 0) (end 0.833333 0) (layer F.Adhes) (width 0.3333333333333333))
  (fp_circle (center 0 0) (end 0.533333 0) (layer F.Adhes) (width 0.3333333333333333))
  (fp_circle (center 0 0) (end 0.233333 0) (layer F.Adhes) (width 0.4666666666666669))
  (fp_line (start -3.4 -2.5) (end 3.4 -2.5) (layer F.Fab) (width 0.1))
  (fp_line (start 3.4 -2.5) (end 3.5 -2.4) (layer F.Fab) (width 0.1))
  (fp_line (start 3.5 -2.4) (end 3.5 2.4) (layer F.Fab) (width 0.1))
  (fp_line (start 3.5 2.4) (end 3.4 2.5) (layer F.Fab) (width 0.1))
  (fp_line (start 3.4 2.5) (end -3.4 2.5) (layer F.Fab) (width 0.1))
  (fp_line (start -3.4 2.5) (end -3.5 2.4) (layer F.Fab) (width 0.1))
  (fp_line (start -3.5 2.4) (end -3.5 -2.4) (layer F.Fab) (width 0.1))
  (fp_line (start -3.5 -2.4) (end -3.4 -2.5) (layer F.Fab) (width 0.1))
  (fp_line (start -3.5 1.5) (end -2.5 2.5) (layer F.Fab) (width 0.1))
  (fp_line (start 3.44 -2.7) (end 3.7 -2.7) (layer F.SilkS) (width 0.12))
  (fp_line (start 3.7 -2.7) (end 3.7 2.7) (layer F.SilkS) (width 0.12))
  (fp_line (start 3.7 2.7) (end 3.44 2.7) (layer F.SilkS) (width 0.12))
  (fp_line (start -1.64 -2.7) (end 1.64 -2.7) (layer F.SilkS) (width 0.12))
  (fp_line (start -3.44 3.4) (end -3.44 2.7) (layer F.SilkS) (width 0.12))
  (fp_line (start -3.44 2.7) (end -3.7 2.7) (layer F.SilkS) (width 0.12))
  (fp_line (start -3.7 2.7) (end -3.7 -2.7) (layer F.SilkS) (width 0.12))
  (fp_line (start -3.7 -2.7) (end -3.44 -2.7) (layer F.SilkS) (width 0.12))
  (fp_line (start 1.64 2.7) (end -1.64 2.7) (layer F.SilkS) (width 0.12))
  (fp_line (start -1.64 2.7) (end -1.64 3.4) (layer F.SilkS) (width 0.12))
  (fp_line (start -3.8 -3.5) (end -3.8 3.5) (layer F.CrtYd) (width 0.05))
  (fp_line (start -3.8 3.5) (end 3.8 3.5) (layer F.CrtYd) (width 0.05))
  (fp_line (start 3.8 3.5) (end 3.8 -3.5) (layer F.CrtYd) (width 0.05))
  (fp_line (start 3.8 -3.5) (end -3.8 -3.5) (layer F.CrtYd) (width 0.05))
  (pad 1 smd rect (at -2.54 2.2) (size 1.4 2) (layers F.Cu F.Mask))
  (pad 2 smd rect (at 2.54 2.2) (size 1.4 2) (layers F.Cu F.Mask))
  (pad 3 smd rect (at 2.54 -2.2) (size 1.4 2) (layers F.Cu F.Mask))
  (pad 4 smd rect (at -2.54 -2.2) (size 1.4 2) (layers F.Cu F.Mask))
  (model Oscillators.3dshapes/Oscillator_SMD_Fordahl_DFAS11-4pin_7.0x5.0mm.wrl
    (at (xyz 0 0 0))
    (scale (xyz 1 1 1))
    (rotate (xyz 0 0 0))
  )
)