(module Oscillator_SMD_SI570_SI571_Standard (layer F.Cu) (tedit 58775B8C)
  (descr "SI570, SI571, Programmable oscillator, Standard")
  (tags "SI570 SI571 Programmable oscillator Standard")
  (attr smd)
  (fp_text reference REF** (at 0 -4.2) (layer F.SilkS)
    (effects (font (size 1 1) (thickness 0.15)))
  )
  (fp_text value Oscillator_SMD_SI570_SI571_Standard (at -0.1 4.4) (layer F.Fab)
    (effects (font (size 1 1) (thickness 0.15)))
  )
  (fp_line (start -3.6 2.6) (end -3.5 2.6) (layer F.SilkS) (width 0.12))
  (fp_line (start 3.6 2.5) (end 3.6 2.6) (layer F.SilkS) (width 0.12))
  (fp_line (start 3.6 2.6) (end 3.5 2.6) (layer F.SilkS) (width 0.12))
  (fp_line (start 3.6 -2.5) (end 3.6 -2.6) (layer F.SilkS) (width 0.12))
  (fp_line (start 3.6 -2.6) (end 3.5 -2.6) (layer F.SilkS) (width 0.12))
  (fp_line (start -3.6 -2.5) (end -3.6 -2.6) (layer F.SilkS) (width 0.12))
  (fp_line (start -3.6 -2.6) (end -3.5 -2.6) (layer F.SilkS) (width 0.12))
  (fp_line (start -3.6 -2.5) (end -3.6 -0.8) (layer F.SilkS) (width 0.12))
  (fp_line (start 3.6 -0.8) (end 3.6 -2.5) (layer F.SilkS) (width 0.12))
  (fp_line (start 3.6 2.5) (end 3.6 0.8) (layer F.SilkS) (width 0.12))
  (fp_line (start -3.6 0.8) (end -3.6 3.2) (layer F.SilkS) (width 0.12))
  (fp_line (start 3.9 -3.5) (end 3.9 3.5) (layer F.CrtYd) (width 0.05))
  (fp_line (start 3.9 3.5) (end -3.9 3.5) (layer F.CrtYd) (width 0.05))
  (fp_line (start -3.9 3.5) (end -3.9 -3.5) (layer F.CrtYd) (width 0.05))
  (fp_line (start -3.9 -3.5) (end 3.9 -3.5) (layer F.CrtYd) (width 0.05))
  (fp_line (start -3.5 1.1) (end -2.1 2.5) (layer F.Fab) (width 0.1))
  (fp_line (start 3.5 2.5) (end 3.5 -2.5) (layer F.Fab) (width 0.1))
  (fp_line (start 3.5 -2.5) (end -3.5 -2.5) (layer F.Fab) (width 0.1))
  (fp_line (start -3.5 -2.5) (end -3.5 2.5) (layer F.Fab) (width 0.1))
  (fp_line (start -3.5 2.5) (end 3.5 2.5) (layer F.Fab) (width 0.1))
  (fp_circle (center 0 0) (end 0.35 0) (layer F.Adhes) (width 0.38))
  (fp_circle (center 0 0) (end 0.15 0) (layer F.Adhes) (width 0.38))
  (fp_circle (center -1 0) (end -0.55 0) (layer F.Adhes) (width 0.38))
  (fp_circle (center 1 0) (end 0.55 0) (layer F.Adhes) (width 0.38))
  (fp_circle (center 1 0) (end 0.85 0) (layer F.Adhes) (width 0.38))
  (fp_circle (center -1 0) (end -0.85 0) (layer F.Adhes) (width 0.38))
  (pad 1 smd rect (at -2.5 2.1) (size 1.7 2.15) (layers F.Cu F.Paste F.Mask))
  (pad 2 smd rect (at 0 2.1) (size 1.7 2.15) (layers F.Cu F.Paste F.Mask))
  (pad 3 smd rect (at 2.5 2.1) (size 1.7 2.15) (layers F.Cu F.Paste F.Mask))
  (pad 4 smd rect (at 2.5 -2.1) (size 1.7 2.15) (layers F.Cu F.Paste F.Mask))
  (pad 5 smd rect (at 0 -2.1) (size 1.7 2.15) (layers F.Cu F.Paste F.Mask))
  (pad 6 smd rect (at -2.5 -2.1) (size 1.7 2.15) (layers F.Cu F.Paste F.Mask))
  (pad 7 smd rect (at -2.85 0) (size 1.55 1.3) (layers F.Cu F.Paste F.Mask))
  (pad 8 smd rect (at 2.85 0) (size 1.55 1.3) (layers F.Cu F.Paste F.Mask))
)
