(module HVSOF5 (layer F.Cu) (tedit 58961760)
  (descr "HVSOF5, http://rohmfs.rohm.com/en/techdata_basic/ic/package/hvsof5_1-e.pdf")
  (tags HVSOF5)
  (attr smd)
  (fp_text reference REF** (at 0 -1.8) (layer F.SilkS)
    (effects (font (size 1 1) (thickness 0.15)))
  )
  (fp_text value HVSOF5 (at 0 1.9) (layer F.Fab)
    (effects (font (size 1 1) (thickness 0.15)))
  )
  (fp_line (start -0.6 -0.5) (end -0.3 -0.8) (layer F.Fab) (width 0.1))
  (fp_line (start -0.6 -0.5) (end -0.6 0.8) (layer F.Fab) (width 0.1))
  (fp_line (start 0.6 -0.8) (end 0.6 0.8) (layer F.Fab) (width 0.1))
  (fp_line (start 0.6 0.8) (end -0.6 0.8) (layer F.Fab) (width 0.1))
  (fp_line (start 0.6 -0.8) (end -0.3 -0.8) (layer F.Fab) (width 0.1))
  (fp_line (start -0.6 0.95) (end 0.6 0.95) (layer F.SilkS) (width 0.12))
  (fp_line (start -0.8 -0.95) (end 0.6 -0.95) (layer F.SilkS) (width 0.12))
  (fp_line (start -1.06 -1.05) (end 1.06 -1.05) (layer F.CrtYd) (width 0.05))
  (fp_line (start -1.06 -1.05) (end -1.06 1.05) (layer F.CrtYd) (width 0.05))
  (fp_line (start 1.06 1.05) (end 1.06 -1.05) (layer F.CrtYd) (width 0.05))
  (fp_line (start 1.06 1.05) (end -1.06 1.05) (layer F.CrtYd) (width 0.05))
  (pad 2 smd rect (at 0.51 0 270) (size 0.25 0.38) (layers F.Cu F.Paste F.Mask))
  (pad 2 smd trapezoid (at 0.26 0 270) (size 0.47 0.12) (rect_delta 0 0.23 ) (layers F.Cu F.Paste F.Mask))
  (pad 2 smd rect (at 0 0 270) (size 0.7 0.4) (layers F.Cu F.Paste F.Mask))
  (pad 5 smd rect (at 0.68 -0.5 270) (size 0.25 0.35) (layers F.Cu F.Paste F.Mask))
  (pad 2 smd rect (at -0.58 0 270) (size 0.25 0.53) (layers F.Cu F.Paste F.Mask))
  (pad 4 smd rect (at 0.68 0.5 270) (size 0.25 0.35) (layers F.Cu F.Paste F.Mask))
  (pad 3 smd rect (at -0.68 0.5 270) (size 0.25 0.35) (layers F.Cu F.Paste F.Mask))
  (pad 1 smd rect (at -0.68 -0.5 270) (size 0.25 0.35) (layers F.Cu F.Paste F.Mask))
  (pad 2 smd trapezoid (at -0.26 0 270) (size 0.47 0.12) (rect_delta 0 -0.23 ) (layers F.Cu F.Paste F.Mask))
)
