(module SOT-143R_Reverse_Handsoldering (layer F.Cu) (tedit 58961EDA)
  (descr "SOT-143R Reverse Handsoldering")
  (tags "SOT-143 Reverse Handsoldering")
  (attr smd)
  (fp_text reference REF** (at 0.03 -2.38) (layer F.SilkS)
    (effects (font (size 1 1) (thickness 0.15)))
  )
  (fp_text value SOT-143R_Reverse_Handsoldering (at -0.02 2.42 180) (layer F.Fab)
    (effects (font (size 1 1) (thickness 0.15)))
  )
  (fp_line (start 1.2 -1.55) (end -1.15 -1.55) (layer F.SilkS) (width 0.12))
  (fp_line (start 1.2 1.55) (end -3.15 1.55) (layer F.SilkS) (width 0.12))
  (fp_line (start -0.7 1.5) (end -1.2 1) (layer F.Fab) (width 0.1))
  (fp_line (start -1.2 -1.5) (end 1.2 -1.5) (layer F.Fab) (width 0.1))
  (fp_line (start -1.2 1) (end -1.2 -1.5) (layer F.Fab) (width 0.1))
  (fp_line (start 1.2 1.5) (end -0.7 1.5) (layer F.Fab) (width 0.1))
  (fp_line (start 1.2 -1.5) (end 1.2 1.5) (layer F.Fab) (width 0.1))
  (fp_line (start 3.45 -1.75) (end 3.45 1.75) (layer F.CrtYd) (width 0.05))
  (fp_line (start 3.45 -1.75) (end -3.45 -1.75) (layer F.CrtYd) (width 0.05))
  (fp_line (start -3.45 1.75) (end 3.45 1.75) (layer F.CrtYd) (width 0.05))
  (fp_line (start -3.45 1.75) (end -3.45 -1.75) (layer F.CrtYd) (width 0.05))
  (pad 1 smd rect (at -1.8 0.77 270) (size 1.2 2.8) (layers F.Cu F.Paste F.Mask))
  (pad 2 smd rect (at -1.8 -0.95 270) (size 1 2.8) (layers F.Cu F.Paste F.Mask))
  (pad 4 smd rect (at 1.8 0.95 270) (size 1 2.8) (layers F.Cu F.Paste F.Mask))
  (pad 3 smd trapezoid (at 1.8 -0.95 270) (size 1 2.8) (layers F.Cu F.Paste F.Mask))
  (model TO_SOT_Packages_SMD.3dshapes/SOT-143R_Reverse_Handsoldering.wrl
    (at (xyz 0 0 0))
    (scale (xyz 1 1 1))
    (rotate (xyz 0 0 90))
  )
)
