(module SOT-383F (layer F.Cu) (tedit 5883B0A6)
  (descr "8-pin SOT-383F, http://www.mouser.com/ds/2/80/CPDVR085V0C-HF-RevB-10783.pdf")
  (tags SOT-383F)
  (attr smd)
  (fp_text reference REF** (at 0 -1.85) (layer F.SilkS)
    (effects (font (size 1 1) (thickness 0.15)))
  )
  (fp_text value SOT-383F (at 0 1.9) (layer F.Fab)
    (effects (font (size 1 1) (thickness 0.15)))
  )
  (fp_line (start -0.85 1.05) (end 0.85 1.05) (layer F.SilkS) (width 0.12))
  (fp_line (start 0.85 -1.05) (end -1.1 -1.05) (layer F.SilkS) (width 0.12))
  (fp_line (start -0.6 -1) (end 0.85 -1) (layer F.Fab) (width 0.1))
  (fp_line (start -0.85 -0.75) (end -0.85 1) (layer F.Fab) (width 0.1))
  (fp_line (start -0.85 -0.75) (end -0.6 -1) (layer F.Fab) (width 0.1))
  (fp_line (start -0.85 1) (end 0.85 1) (layer F.Fab) (width 0.1))
  (fp_line (start 0.85 1) (end 0.85 -1) (layer F.Fab) (width 0.1))
  (fp_line (start -1.32 -1.25) (end 1.32 -1.25) (layer F.CrtYd) (width 0.05))
  (fp_line (start -1.32 -1.25) (end -1.32 1.25) (layer F.CrtYd) (width 0.05))
  (fp_line (start 1.32 1.25) (end 1.32 -1.25) (layer F.CrtYd) (width 0.05))
  (fp_line (start 1.32 1.25) (end -1.32 1.25) (layer F.CrtYd) (width 0.05))
  (pad 1 smd rect (at -0.76 -0.75) (size 0.63 0.3) (layers F.Cu F.Paste F.Mask))
  (pad 2 smd rect (at -0.76 -0.25) (size 0.63 0.3) (layers F.Cu F.Paste F.Mask))
  (pad 3 smd rect (at -0.76 0.25) (size 0.63 0.3) (layers F.Cu F.Paste F.Mask))
  (pad 4 smd rect (at -0.76 0.75) (size 0.63 0.3) (layers F.Cu F.Paste F.Mask))
  (pad 5 smd rect (at 0.76 0.75) (size 0.63 0.3) (layers F.Cu F.Paste F.Mask))
  (pad 6 smd rect (at 0.76 0.25) (size 0.63 0.3) (layers F.Cu F.Paste F.Mask))
  (pad 7 smd rect (at 0.76 -0.25) (size 0.63 0.3) (layers F.Cu F.Paste F.Mask))
  (pad 8 smd rect (at 0.76 -0.75) (size 0.63 0.3) (layers F.Cu F.Paste F.Mask))
  (pad 9 smd rect (at 0 0) (size 0.45 1.5) (layers F.Cu F.Paste F.Mask))
)
