(module SOT-23-8 (layer F.Cu) (tedit 58836C3B)
  (descr "8-pin SOT-23 package, http://www.analog.com/media/en/package-pcb-resources/package/pkg_pdf/sot-23rj/rj_8.pdf")
  (tags SOT-23-8)
  (attr smd)
  (fp_text reference REF** (at 0 -2.5) (layer F.SilkS)
    (effects (font (size 1 1) (thickness 0.15)))
  )
  (fp_text value SOT-23-8 (at 0 2.5) (layer F.Fab)
    (effects (font (size 1 1) (thickness 0.15)))
  )
  (fp_line (start -0.9 1.61) (end 0.9 1.61) (layer F.SilkS) (width 0.12))
  (fp_line (start 0.9 -1.61) (end -1.55 -1.61) (layer F.SilkS) (width 0.12))
  (fp_line (start 1.9 -1.8) (end -1.9 -1.8) (layer F.CrtYd) (width 0.05))
  (fp_line (start 1.9 1.8) (end 1.9 -1.8) (layer F.CrtYd) (width 0.05))
  (fp_line (start -1.9 1.8) (end 1.9 1.8) (layer F.CrtYd) (width 0.05))
  (fp_line (start -1.9 -1.8) (end -1.9 1.8) (layer F.CrtYd) (width 0.05))
  (fp_line (start -0.9 -0.9) (end -0.25 -1.55) (layer F.Fab) (width 0.1))
  (fp_line (start 0.9 -1.55) (end -0.25 -1.55) (layer F.Fab) (width 0.1))
  (fp_line (start -0.9 -0.9) (end -0.9 1.55) (layer F.Fab) (width 0.1))
  (fp_line (start 0.9 1.55) (end -0.9 1.55) (layer F.Fab) (width 0.1))
  (fp_line (start 0.9 -1.55) (end 0.9 1.55) (layer F.Fab) (width 0.1))
  (pad 1 smd rect (at -1.1 -0.98) (size 1.06 0.4) (layers F.Cu F.Paste F.Mask))
  (pad 2 smd rect (at -1.1 -0.33) (size 1.06 0.4) (layers F.Cu F.Paste F.Mask))
  (pad 3 smd rect (at -1.1 0.33) (size 1.06 0.4) (layers F.Cu F.Paste F.Mask))
  (pad 4 smd rect (at -1.1 0.98) (size 1.06 0.4) (layers F.Cu F.Paste F.Mask))
  (pad 5 smd rect (at 1.1 0.98) (size 1.06 0.4) (layers F.Cu F.Paste F.Mask))
  (pad 6 smd rect (at 1.1 0.33) (size 1.06 0.4) (layers F.Cu F.Paste F.Mask))
  (pad 7 smd rect (at 1.1 -0.33) (size 1.06 0.4) (layers F.Cu F.Paste F.Mask))
  (pad 8 smd rect (at 1.1 -0.98) (size 1.06 0.4) (layers F.Cu F.Paste F.Mask))
  (model TO_SOT_Packages_SMD.3dshapes/SOT-23-8.wrl
    (at (xyz 0 0 0))
    (scale (xyz 1 1 1))
    (rotate (xyz 0 0 0))
  )
)
