(module TSOT-23_HandSoldering (layer F.Cu) (tedit 588357EE)
  (descr "5-pin TSOT23 package, http://cds.linear.com/docs/en/packaging/SOT_5_05-08-1635.pdf")
  (tags "TSOT-23 Hand-soldering")
  (attr smd)
  (fp_text reference REF** (at 0 -2.45) (layer F.SilkS)
    (effects (font (size 1 1) (thickness 0.15)))
  )
  (fp_text value TSOT-23_HandSoldering (at 0 2.5) (layer F.Fab)
    (effects (font (size 1 1) (thickness 0.15)))
  )
  (fp_line (start 0.95 0.5) (end 0.95 1.55) (layer F.SilkS) (width 0.12))
  (fp_line (start 0.95 1.55) (end -0.9 1.55) (layer F.SilkS) (width 0.12))
  (fp_line (start 0.95 -1.5) (end 0.95 -0.5) (layer F.SilkS) (width 0.12))
  (fp_line (start 0.93 -1.51) (end -1.5 -1.51) (layer F.SilkS) (width 0.12))
  (fp_line (start -0.88 -1) (end -0.43 -1.45) (layer F.Fab) (width 0.1))
  (fp_line (start 0.88 -1.45) (end -0.43 -1.45) (layer F.Fab) (width 0.1))
  (fp_line (start -0.88 -1) (end -0.88 1.45) (layer F.Fab) (width 0.1))
  (fp_line (start 0.88 1.45) (end -0.88 1.45) (layer F.Fab) (width 0.1))
  (fp_line (start 0.88 -1.45) (end 0.88 1.45) (layer F.Fab) (width 0.1))
  (fp_line (start -2.96 -1.7) (end 2.96 -1.7) (layer F.CrtYd) (width 0.05))
  (fp_line (start -2.96 -1.7) (end -2.96 1.7) (layer F.CrtYd) (width 0.05))
  (fp_line (start 2.96 1.7) (end 2.96 -1.7) (layer F.CrtYd) (width 0.05))
  (fp_line (start 2.96 1.7) (end -2.96 1.7) (layer F.CrtYd) (width 0.05))
  (pad 1 smd rect (at -1.71 -0.95) (size 2 0.65) (layers F.Cu F.Paste F.Mask))
  (pad 2 smd rect (at -1.71 0.95) (size 2 0.65) (layers F.Cu F.Paste F.Mask))
  (pad 3 smd rect (at 1.71 0) (size 2 0.65) (layers F.Cu F.Paste F.Mask))
)
