(module JST_PH_S3B-PH-SM4-TB_03x2.00mm_Angled (layer F.Cu) (tedit 58A227A3)
  (descr "JST PH series connector, S3B-PH-SM4-TB, side entry type, surface mount, Datasheet: http://www.jst-mfg.com/product/pdf/eng/ePH.pdf")
  (tags "connector jst ph")
  (attr smd)
  (fp_text reference REF** (at 0 -5.625) (layer F.SilkS)
    (effects (font (size 1 1) (thickness 0.15)))
  )
  (fp_text value JST_PH_S3B-PH-SM4-TB_03x2.00mm_Angled (at 0 5.375) (layer F.Fab)
    (effects (font (size 1 1) (thickness 0.15)))
  )
  (fp_line (start -4.15 -1.625) (end -4.15 -3.225) (layer F.Fab) (width 0.1))
  (fp_line (start -4.15 -3.225) (end -4.95 -3.225) (layer F.Fab) (width 0.1))
  (fp_line (start -4.95 -3.225) (end -4.95 4.375) (layer F.Fab) (width 0.1))
  (fp_line (start -4.95 4.375) (end 4.95 4.375) (layer F.Fab) (width 0.1))
  (fp_line (start 4.95 4.375) (end 4.95 -3.225) (layer F.Fab) (width 0.1))
  (fp_line (start 4.95 -3.225) (end 4.15 -3.225) (layer F.Fab) (width 0.1))
  (fp_line (start 4.15 -3.225) (end 4.15 -1.625) (layer F.Fab) (width 0.1))
  (fp_line (start 4.15 -1.625) (end -4.15 -1.625) (layer F.Fab) (width 0.1))
  (fp_line (start -2.775 -1.725) (end -4.05 -1.725) (layer F.SilkS) (width 0.12))
  (fp_line (start -4.05 -1.725) (end -4.05 -3.325) (layer F.SilkS) (width 0.12))
  (fp_line (start -4.05 -3.325) (end -5.05 -3.325) (layer F.SilkS) (width 0.12))
  (fp_line (start -5.05 -3.325) (end -5.05 0.9) (layer F.SilkS) (width 0.12))
  (fp_line (start 5.05 0.9) (end 5.05 -3.325) (layer F.SilkS) (width 0.12))
  (fp_line (start 5.05 -3.325) (end 4.05 -3.325) (layer F.SilkS) (width 0.12))
  (fp_line (start 4.05 -3.325) (end 4.05 -1.725) (layer F.SilkS) (width 0.12))
  (fp_line (start 4.05 -1.725) (end 2.775 -1.725) (layer F.SilkS) (width 0.12))
  (fp_line (start -1.5 4.475) (end -1.5 3.175) (layer F.SilkS) (width 0.12))
  (fp_line (start -1.5 3.175) (end 1.5 3.175) (layer F.SilkS) (width 0.12))
  (fp_line (start 1.5 3.175) (end 1.5 4.475) (layer F.SilkS) (width 0.12))
  (fp_line (start -5.05 -1.725) (end -4.05 -1.725) (layer F.SilkS) (width 0.12))
  (fp_line (start 5.05 -1.725) (end 4.05 -1.725) (layer F.SilkS) (width 0.12))
  (fp_line (start -3.325 4.475) (end 3.325 4.475) (layer F.SilkS) (width 0.12))
  (fp_line (start -3.2 -0.7) (end -3.2 2.7) (layer F.SilkS) (width 0.12))
  (fp_line (start -3.2 2.7) (end -2.2 2.7) (layer F.SilkS) (width 0.12))
  (fp_line (start -2.2 2.7) (end -2.2 -0.7) (layer F.SilkS) (width 0.12))
  (fp_line (start -2.2 -0.7) (end -3.2 -0.7) (layer F.SilkS) (width 0.12))
  (fp_line (start 3.2 -0.7) (end 3.2 2.7) (layer F.SilkS) (width 0.12))
  (fp_line (start 3.2 2.7) (end 2.2 2.7) (layer F.SilkS) (width 0.12))
  (fp_line (start 2.2 2.7) (end 2.2 -0.7) (layer F.SilkS) (width 0.12))
  (fp_line (start 2.2 -0.7) (end 3.2 -0.7) (layer F.SilkS) (width 0.12))
  (fp_line (start -2.775 -1.725) (end -2.775 -4.625) (layer F.SilkS) (width 0.12))
  (fp_line (start -3 -1.625) (end -2 -0.625) (layer F.Fab) (width 0.1))
  (fp_line (start -2 -0.625) (end -1 -1.625) (layer F.Fab) (width 0.1))
  (fp_line (start -5.6 -5.13) (end -5.6 5.07) (layer F.CrtYd) (width 0.05))
  (fp_line (start -5.6 5.07) (end 5.6 5.07) (layer F.CrtYd) (width 0.05))
  (fp_line (start 5.6 5.07) (end 5.6 -5.13) (layer F.CrtYd) (width 0.05))
  (fp_line (start 5.6 -5.13) (end -5.6 -5.13) (layer F.CrtYd) (width 0.05))
  (pad 0 smd rect (at -2 -2.875) (size 1 3.5) (layers F.Cu F.Mask F.Paste))
  (pad 1 smd rect (at 0 -2.875) (size 1 3.5) (layers F.Cu F.Mask F.Paste))
  (pad 2 smd rect (at 2 -2.875) (size 1 3.5) (layers F.Cu F.Mask F.Paste))
  (pad "" smd rect (at -4.35 2.875) (size 1.5 3.4) (layers F.Cu F.Mask F.Paste))
  (pad "" smd rect (at 4.35 2.875) (size 1.5 3.4) (layers F.Cu F.Mask F.Paste))
  (fp_text user %R (at 0 1.5) (layer F.Fab)
    (effects (font (size 1 1) (thickness 0.15)))
  )
  (model Connectors_JST.3dshapes/JST_PH_S3B-PH-SM4-TB_03x2.00mm_Angled.wrl
    (at (xyz 0 0 0))
    (scale (xyz 1 1 1))
    (rotate (xyz 0 0 0))
  )
)