(module JST_PH_B3B-PH-K_03x2.00mm_Straight (layer F.Cu) (tedit 58A2F0E8)
  (descr "JST PH series connector, B3B-PH-K, top entry type, through hole, Datasheet: http://www.jst-mfg.com/product/pdf/eng/ePH.pdf")
  (tags "connector jst ph")
  (fp_text reference REF** (at 1.5 -2.8) (layer F.SilkS)
    (effects (font (size 1 1) (thickness 0.15)))
  )
  (fp_text value JST_PH_B3B-PH-K_03x2.00mm_Straight (at 2 3.8) (layer F.Fab)
    (effects (font (size 1 1) (thickness 0.15)))
  )
  (fp_line (start -2.05 -1.8) (end -2.05 2.9) (layer F.SilkS) (width 0.12))
  (fp_line (start -2.05 2.9) (end 6.05 2.9) (layer F.SilkS) (width 0.12))
  (fp_line (start 6.05 2.9) (end 6.05 -1.8) (layer F.SilkS) (width 0.12))
  (fp_line (start 6.05 -1.8) (end -2.05 -1.8) (layer F.SilkS) (width 0.12))
  (fp_line (start 0.5 -1.8) (end 0.5 -1.2) (layer F.SilkS) (width 0.12))
  (fp_line (start 0.5 -1.2) (end -1.45 -1.2) (layer F.SilkS) (width 0.12))
  (fp_line (start -1.45 -1.2) (end -1.45 2.3) (layer F.SilkS) (width 0.12))
  (fp_line (start -1.45 2.3) (end 5.45 2.3) (layer F.SilkS) (width 0.12))
  (fp_line (start 5.45 2.3) (end 5.45 -1.2) (layer F.SilkS) (width 0.12))
  (fp_line (start 5.45 -1.2) (end 3.5 -1.2) (layer F.SilkS) (width 0.12))
  (fp_line (start 3.5 -1.2) (end 3.5 -1.8) (layer F.SilkS) (width 0.12))
  (fp_line (start -2.05 -0.5) (end -1.45 -0.5) (layer F.SilkS) (width 0.12))
  (fp_line (start -2.05 0.8) (end -1.45 0.8) (layer F.SilkS) (width 0.12))
  (fp_line (start 6.05 -0.5) (end 5.45 -0.5) (layer F.SilkS) (width 0.12))
  (fp_line (start 6.05 0.8) (end 5.45 0.8) (layer F.SilkS) (width 0.12))
  (fp_line (start -0.3 -1.8) (end -0.3 -2) (layer F.SilkS) (width 0.12))
  (fp_line (start -0.3 -2) (end -0.6 -2) (layer F.SilkS) (width 0.12))
  (fp_line (start -0.6 -2) (end -0.6 -1.8) (layer F.SilkS) (width 0.12))
  (fp_line (start -0.3 -1.9) (end -0.6 -1.9) (layer F.SilkS) (width 0.12))
  (fp_line (start 0.9 2.3) (end 0.9 1.8) (layer F.SilkS) (width 0.12))
  (fp_line (start 0.9 1.8) (end 1.1 1.8) (layer F.SilkS) (width 0.12))
  (fp_line (start 1.1 1.8) (end 1.1 2.3) (layer F.SilkS) (width 0.12))
  (fp_line (start 1 2.3) (end 1 1.8) (layer F.SilkS) (width 0.12))
  (fp_line (start 2.9 2.3) (end 2.9 1.8) (layer F.SilkS) (width 0.12))
  (fp_line (start 2.9 1.8) (end 3.1 1.8) (layer F.SilkS) (width 0.12))
  (fp_line (start 3.1 1.8) (end 3.1 2.3) (layer F.SilkS) (width 0.12))
  (fp_line (start 3 2.3) (end 3 1.8) (layer F.SilkS) (width 0.12))
  (fp_line (start -1.1 -2.1) (end -2.35 -2.1) (layer F.SilkS) (width 0.12))
  (fp_line (start -2.35 -2.1) (end -2.35 -0.85) (layer F.SilkS) (width 0.12))
  (fp_line (start -1.1 -2.1) (end -2.35 -2.1) (layer F.Fab) (width 0.1))
  (fp_line (start -2.35 -2.1) (end -2.35 -0.85) (layer F.Fab) (width 0.1))
  (fp_line (start -1.95 -1.7) (end -1.95 2.8) (layer F.Fab) (width 0.1))
  (fp_line (start -1.95 2.8) (end 5.95 2.8) (layer F.Fab) (width 0.1))
  (fp_line (start 5.95 2.8) (end 5.95 -1.7) (layer F.Fab) (width 0.1))
  (fp_line (start 5.95 -1.7) (end -1.95 -1.7) (layer F.Fab) (width 0.1))
  (fp_line (start -2.45 -2.2) (end -2.45 3.3) (layer F.CrtYd) (width 0.05))
  (fp_line (start -2.45 3.3) (end 6.45 3.3) (layer F.CrtYd) (width 0.05))
  (fp_line (start 6.45 3.3) (end 6.45 -2.2) (layer F.CrtYd) (width 0.05))
  (fp_line (start 6.45 -2.2) (end -2.45 -2.2) (layer F.CrtYd) (width 0.05))
  (pad 1 thru_hole rect (at 0 0) (size 1.2 1.7) (drill 0.7) (layers *.Cu *.Mask))
  (pad 2 thru_hole oval (at 2 0) (size 1.2 1.7) (drill 0.7) (layers *.Cu *.Mask))
  (pad 3 thru_hole oval (at 4 0) (size 1.2 1.7) (drill 0.7) (layers *.Cu *.Mask))
  (fp_text user %R (at 2 1.5) (layer F.Fab)
    (effects (font (size 1 1) (thickness 0.15)))
  )
  (model Connectors_JST.3dshapes/JST_PH_B3B-PH-K_03x2.00mm_Straight.wrl
    (at (xyz 0 0 0))
    (scale (xyz 1 1 1))
    (rotate (xyz 0 0 0))
  )
)