(module JST_PH_B15B-PH-K_15x2.00mm_Straight (layer F.Cu) (tedit 58A2F0E8)
  (descr "JST PH series connector, B15B-PH-K, top entry type, through hole, Datasheet: http://www.jst-mfg.com/product/pdf/eng/ePH.pdf")
  (tags "connector jst ph")
  (fp_text reference REF** (at 1.5 -2.8) (layer F.SilkS)
    (effects (font (size 1 1) (thickness 0.15)))
  )
  (fp_text value JST_PH_B15B-PH-K_15x2.00mm_Straight (at 14 3.8) (layer F.Fab)
    (effects (font (size 1 1) (thickness 0.15)))
  )
  (fp_line (start -2.05 -1.8) (end -2.05 2.9) (layer F.SilkS) (width 0.12))
  (fp_line (start -2.05 2.9) (end 30.05 2.9) (layer F.SilkS) (width 0.12))
  (fp_line (start 30.05 2.9) (end 30.05 -1.8) (layer F.SilkS) (width 0.12))
  (fp_line (start 30.05 -1.8) (end -2.05 -1.8) (layer F.SilkS) (width 0.12))
  (fp_line (start 0.5 -1.8) (end 0.5 -1.2) (layer F.SilkS) (width 0.12))
  (fp_line (start 0.5 -1.2) (end -1.45 -1.2) (layer F.SilkS) (width 0.12))
  (fp_line (start -1.45 -1.2) (end -1.45 2.3) (layer F.SilkS) (width 0.12))
  (fp_line (start -1.45 2.3) (end 29.45 2.3) (layer F.SilkS) (width 0.12))
  (fp_line (start 29.45 2.3) (end 29.45 -1.2) (layer F.SilkS) (width 0.12))
  (fp_line (start 29.45 -1.2) (end 27.5 -1.2) (layer F.SilkS) (width 0.12))
  (fp_line (start 27.5 -1.2) (end 27.5 -1.8) (layer F.SilkS) (width 0.12))
  (fp_line (start -2.05 -0.5) (end -1.45 -0.5) (layer F.SilkS) (width 0.12))
  (fp_line (start -2.05 0.8) (end -1.45 0.8) (layer F.SilkS) (width 0.12))
  (fp_line (start 30.05 -0.5) (end 29.45 -0.5) (layer F.SilkS) (width 0.12))
  (fp_line (start 30.05 0.8) (end 29.45 0.8) (layer F.SilkS) (width 0.12))
  (fp_line (start -0.3 -1.8) (end -0.3 -2) (layer F.SilkS) (width 0.12))
  (fp_line (start -0.3 -2) (end -0.6 -2) (layer F.SilkS) (width 0.12))
  (fp_line (start -0.6 -2) (end -0.6 -1.8) (layer F.SilkS) (width 0.12))
  (fp_line (start -0.3 -1.9) (end -0.6 -1.9) (layer F.SilkS) (width 0.12))
  (fp_line (start 0.9 2.3) (end 0.9 1.8) (layer F.SilkS) (width 0.12))
  (fp_line (start 0.9 1.8) (end 1.1 1.8) (layer F.SilkS) (width 0.12))
  (fp_line (start 1.1 1.8) (end 1.1 2.3) (layer F.SilkS) (width 0.12))
  (fp_line (start 1 2.3) (end 1 1.8) (layer F.SilkS) (width 0.12))
  (fp_line (start 2.9 2.3) (end 2.9 1.8) (layer F.SilkS) (width 0.12))
  (fp_line (start 2.9 1.8) (end 3.1 1.8) (layer F.SilkS) (width 0.12))
  (fp_line (start 3.1 1.8) (end 3.1 2.3) (layer F.SilkS) (width 0.12))
  (fp_line (start 3 2.3) (end 3 1.8) (layer F.SilkS) (width 0.12))
  (fp_line (start 4.9 2.3) (end 4.9 1.8) (layer F.SilkS) (width 0.12))
  (fp_line (start 4.9 1.8) (end 5.1 1.8) (layer F.SilkS) (width 0.12))
  (fp_line (start 5.1 1.8) (end 5.1 2.3) (layer F.SilkS) (width 0.12))
  (fp_line (start 5 2.3) (end 5 1.8) (layer F.SilkS) (width 0.12))
  (fp_line (start 6.9 2.3) (end 6.9 1.8) (layer F.SilkS) (width 0.12))
  (fp_line (start 6.9 1.8) (end 7.1 1.8) (layer F.SilkS) (width 0.12))
  (fp_line (start 7.1 1.8) (end 7.1 2.3) (layer F.SilkS) (width 0.12))
  (fp_line (start 7 2.3) (end 7 1.8) (layer F.SilkS) (width 0.12))
  (fp_line (start 8.9 2.3) (end 8.9 1.8) (layer F.SilkS) (width 0.12))
  (fp_line (start 8.9 1.8) (end 9.1 1.8) (layer F.SilkS) (width 0.12))
  (fp_line (start 9.1 1.8) (end 9.1 2.3) (layer F.SilkS) (width 0.12))
  (fp_line (start 9 2.3) (end 9 1.8) (layer F.SilkS) (width 0.12))
  (fp_line (start 10.9 2.3) (end 10.9 1.8) (layer F.SilkS) (width 0.12))
  (fp_line (start 10.9 1.8) (end 11.1 1.8) (layer F.SilkS) (width 0.12))
  (fp_line (start 11.1 1.8) (end 11.1 2.3) (layer F.SilkS) (width 0.12))
  (fp_line (start 11 2.3) (end 11 1.8) (layer F.SilkS) (width 0.12))
  (fp_line (start 12.9 2.3) (end 12.9 1.8) (layer F.SilkS) (width 0.12))
  (fp_line (start 12.9 1.8) (end 13.1 1.8) (layer F.SilkS) (width 0.12))
  (fp_line (start 13.1 1.8) (end 13.1 2.3) (layer F.SilkS) (width 0.12))
  (fp_line (start 13 2.3) (end 13 1.8) (layer F.SilkS) (width 0.12))
  (fp_line (start 14.9 2.3) (end 14.9 1.8) (layer F.SilkS) (width 0.12))
  (fp_line (start 14.9 1.8) (end 15.1 1.8) (layer F.SilkS) (width 0.12))
  (fp_line (start 15.1 1.8) (end 15.1 2.3) (layer F.SilkS) (width 0.12))
  (fp_line (start 15 2.3) (end 15 1.8) (layer F.SilkS) (width 0.12))
  (fp_line (start 16.9 2.3) (end 16.9 1.8) (layer F.SilkS) (width 0.12))
  (fp_line (start 16.9 1.8) (end 17.1 1.8) (layer F.SilkS) (width 0.12))
  (fp_line (start 17.1 1.8) (end 17.1 2.3) (layer F.SilkS) (width 0.12))
  (fp_line (start 17 2.3) (end 17 1.8) (layer F.SilkS) (width 0.12))
  (fp_line (start 18.9 2.3) (end 18.9 1.8) (layer F.SilkS) (width 0.12))
  (fp_line (start 18.9 1.8) (end 19.1 1.8) (layer F.SilkS) (width 0.12))
  (fp_line (start 19.1 1.8) (end 19.1 2.3) (layer F.SilkS) (width 0.12))
  (fp_line (start 19 2.3) (end 19 1.8) (layer F.SilkS) (width 0.12))
  (fp_line (start 20.9 2.3) (end 20.9 1.8) (layer F.SilkS) (width 0.12))
  (fp_line (start 20.9 1.8) (end 21.1 1.8) (layer F.SilkS) (width 0.12))
  (fp_line (start 21.1 1.8) (end 21.1 2.3) (layer F.SilkS) (width 0.12))
  (fp_line (start 21 2.3) (end 21 1.8) (layer F.SilkS) (width 0.12))
  (fp_line (start 22.9 2.3) (end 22.9 1.8) (layer F.SilkS) (width 0.12))
  (fp_line (start 22.9 1.8) (end 23.1 1.8) (layer F.SilkS) (width 0.12))
  (fp_line (start 23.1 1.8) (end 23.1 2.3) (layer F.SilkS) (width 0.12))
  (fp_line (start 23 2.3) (end 23 1.8) (layer F.SilkS) (width 0.12))
  (fp_line (start 24.9 2.3) (end 24.9 1.8) (layer F.SilkS) (width 0.12))
  (fp_line (start 24.9 1.8) (end 25.1 1.8) (layer F.SilkS) (width 0.12))
  (fp_line (start 25.1 1.8) (end 25.1 2.3) (layer F.SilkS) (width 0.12))
  (fp_line (start 25 2.3) (end 25 1.8) (layer F.SilkS) (width 0.12))
  (fp_line (start 26.9 2.3) (end 26.9 1.8) (layer F.SilkS) (width 0.12))
  (fp_line (start 26.9 1.8) (end 27.1 1.8) (layer F.SilkS) (width 0.12))
  (fp_line (start 27.1 1.8) (end 27.1 2.3) (layer F.SilkS) (width 0.12))
  (fp_line (start 27 2.3) (end 27 1.8) (layer F.SilkS) (width 0.12))
  (fp_line (start -1.1 -2.1) (end -2.35 -2.1) (layer F.SilkS) (width 0.12))
  (fp_line (start -2.35 -2.1) (end -2.35 -0.85) (layer F.SilkS) (width 0.12))
  (fp_line (start -1.1 -2.1) (end -2.35 -2.1) (layer F.Fab) (width 0.1))
  (fp_line (start -2.35 -2.1) (end -2.35 -0.85) (layer F.Fab) (width 0.1))
  (fp_line (start -1.95 -1.7) (end -1.95 2.8) (layer F.Fab) (width 0.1))
  (fp_line (start -1.95 2.8) (end 29.95 2.8) (layer F.Fab) (width 0.1))
  (fp_line (start 29.95 2.8) (end 29.95 -1.7) (layer F.Fab) (width 0.1))
  (fp_line (start 29.95 -1.7) (end -1.95 -1.7) (layer F.Fab) (width 0.1))
  (fp_line (start -2.45 -2.2) (end -2.45 3.3) (layer F.CrtYd) (width 0.05))
  (fp_line (start -2.45 3.3) (end 30.45 3.3) (layer F.CrtYd) (width 0.05))
  (fp_line (start 30.45 3.3) (end 30.45 -2.2) (layer F.CrtYd) (width 0.05))
  (fp_line (start 30.45 -2.2) (end -2.45 -2.2) (layer F.CrtYd) (width 0.05))
  (pad 1 thru_hole rect (at 0 0) (size 1.2 1.7) (drill 0.7) (layers *.Cu *.Mask))
  (pad 2 thru_hole oval (at 2 0) (size 1.2 1.7) (drill 0.7) (layers *.Cu *.Mask))
  (pad 3 thru_hole oval (at 4 0) (size 1.2 1.7) (drill 0.7) (layers *.Cu *.Mask))
  (pad 4 thru_hole oval (at 6 0) (size 1.2 1.7) (drill 0.7) (layers *.Cu *.Mask))
  (pad 5 thru_hole oval (at 8 0) (size 1.2 1.7) (drill 0.7) (layers *.Cu *.Mask))
  (pad 6 thru_hole oval (at 10 0) (size 1.2 1.7) (drill 0.7) (layers *.Cu *.Mask))
  (pad 7 thru_hole oval (at 12 0) (size 1.2 1.7) (drill 0.7) (layers *.Cu *.Mask))
  (pad 8 thru_hole oval (at 14 0) (size 1.2 1.7) (drill 0.7) (layers *.Cu *.Mask))
  (pad 9 thru_hole oval (at 16 0) (size 1.2 1.7) (drill 0.7) (layers *.Cu *.Mask))
  (pad 10 thru_hole oval (at 18 0) (size 1.2 1.7) (drill 0.7) (layers *.Cu *.Mask))
  (pad 11 thru_hole oval (at 20 0) (size 1.2 1.7) (drill 0.7) (layers *.Cu *.Mask))
  (pad 12 thru_hole oval (at 22 0) (size 1.2 1.7) (drill 0.7) (layers *.Cu *.Mask))
  (pad 13 thru_hole oval (at 24 0) (size 1.2 1.7) (drill 0.7) (layers *.Cu *.Mask))
  (pad 14 thru_hole oval (at 26 0) (size 1.2 1.7) (drill 0.7) (layers *.Cu *.Mask))
  (pad 15 thru_hole oval (at 28 0) (size 1.2 1.7) (drill 0.7) (layers *.Cu *.Mask))
  (fp_text user %R (at 14 1.5) (layer F.Fab)
    (effects (font (size 1 1) (thickness 0.15)))
  )
  (model Connectors_JST.3dshapes/JST_PH_B15B-PH-K_15x2.00mm_Straight.wrl
    (at (xyz 0 0 0))
    (scale (xyz 1 1 1))
    (rotate (xyz 0 0 0))
  )
)