(module JST_PH_B8B-PH-SM4-TB_08x2.00mm_Straight (layer F.Cu) (tedit 58A22A27)
  (descr "JST PH series connector, B8B-PH-SM4-TB, top entry type, surface mount, Datasheet: http://www.jst-mfg.com/product/pdf/eng/ePH.pdf")
  (tags "connector jst ph")
  (attr smd)
  (fp_text reference REF** (at 0 -4.625) (layer F.SilkS)
    (effects (font (size 1 1) (thickness 0.15)))
  )
  (fp_text value JST_PH_B8B-PH-SM4-TB_08x2.00mm_Straight (at 0 4.875) (layer F.Fab)
    (effects (font (size 1 1) (thickness 0.15)))
  )
  (fp_line (start -10.075 -2.9) (end -10.075 -3.725) (layer F.SilkS) (width 0.12))
  (fp_line (start -10.075 -3.725) (end 10.075 -3.725) (layer F.SilkS) (width 0.12))
  (fp_line (start 10.075 -3.725) (end 10.075 -2.9) (layer F.SilkS) (width 0.12))
  (fp_line (start -10.075 0.65) (end -10.075 1.475) (layer F.SilkS) (width 0.12))
  (fp_line (start -10.075 1.475) (end -7.775 1.475) (layer F.SilkS) (width 0.12))
  (fp_line (start 10.075 0.65) (end 10.075 1.475) (layer F.SilkS) (width 0.12))
  (fp_line (start 10.075 1.475) (end 7.775 1.475) (layer F.SilkS) (width 0.12))
  (fp_line (start -6.575 -3.725) (end -6.575 -3.025) (layer F.SilkS) (width 0.12))
  (fp_line (start -6.575 -3.025) (end -8.275 -3.025) (layer F.SilkS) (width 0.12))
  (fp_line (start -8.275 -3.025) (end -8.275 0.675) (layer F.SilkS) (width 0.12))
  (fp_line (start -8.275 0.675) (end -7.775 0.675) (layer F.SilkS) (width 0.12))
  (fp_line (start 6.575 -3.725) (end 6.575 -3.025) (layer F.SilkS) (width 0.12))
  (fp_line (start 6.575 -3.025) (end 8.275 -3.025) (layer F.SilkS) (width 0.12))
  (fp_line (start 8.275 -3.025) (end 8.275 0.675) (layer F.SilkS) (width 0.12))
  (fp_line (start 8.275 0.675) (end 7.775 0.675) (layer F.SilkS) (width 0.12))
  (fp_line (start -9.975 -3.625) (end -9.975 1.375) (layer F.Fab) (width 0.1))
  (fp_line (start -9.975 1.375) (end 9.975 1.375) (layer F.Fab) (width 0.1))
  (fp_line (start 9.975 1.375) (end 9.975 -3.625) (layer F.Fab) (width 0.1))
  (fp_line (start 9.975 -3.625) (end -9.975 -3.625) (layer F.Fab) (width 0.1))
  (fp_line (start -7.775 1.475) (end -7.775 3.875) (layer F.SilkS) (width 0.12))
  (fp_line (start -8 1.375) (end -7 0.375) (layer F.Fab) (width 0.1))
  (fp_line (start -7 0.375) (end -6 1.375) (layer F.Fab) (width 0.1))
  (fp_line (start -10.7 -4.13) (end -10.7 4.38) (layer F.CrtYd) (width 0.05))
  (fp_line (start -10.7 4.38) (end 10.7 4.38) (layer F.CrtYd) (width 0.05))
  (fp_line (start 10.7 4.38) (end 10.7 -4.13) (layer F.CrtYd) (width 0.05))
  (fp_line (start 10.7 -4.13) (end -10.7 -4.13) (layer F.CrtYd) (width 0.05))
  (pad 0 smd rect (at -7 1.125) (size 1 5.5) (layers F.Cu F.Mask F.Paste))
  (pad 1 smd rect (at -5 1.125) (size 1 5.5) (layers F.Cu F.Mask F.Paste))
  (pad 2 smd rect (at -3 1.125) (size 1 5.5) (layers F.Cu F.Mask F.Paste))
  (pad 3 smd rect (at -1 1.125) (size 1 5.5) (layers F.Cu F.Mask F.Paste))
  (pad 4 smd rect (at 1 1.125) (size 1 5.5) (layers F.Cu F.Mask F.Paste))
  (pad 5 smd rect (at 3 1.125) (size 1 5.5) (layers F.Cu F.Mask F.Paste))
  (pad 6 smd rect (at 5 1.125) (size 1 5.5) (layers F.Cu F.Mask F.Paste))
  (pad 7 smd rect (at 7 1.125) (size 1 5.5) (layers F.Cu F.Mask F.Paste))
  (pad "" smd rect (at -9.4 -1.125) (size 1.6 3) (layers F.Cu F.Mask F.Paste))
  (pad "" smd rect (at 9.4 -1.125) (size 1.6 3) (layers F.Cu F.Mask F.Paste))
  (fp_text user %R (at 0 -2.625) (layer F.Fab)
    (effects (font (size 1 1) (thickness 0.15)))
  )
  (model Connectors_JST.3dshapes/JST_PH_B8B-PH-SM4-TB_08x2.00mm_Straight.wrl
    (at (xyz 0 0 0))
    (scale (xyz 1 1 1))
    (rotate (xyz 0 0 0))
  )
)