(module TO-92_Inline_Wide (layer F.Cu) (tedit 5945D993)
  (descr "TO-92 leads in-line, wide, drill 0.8mm (see NXP sot054_po.pdf)")
  (tags "to-92 sc-43 sc-43a sot54 PA33 transistor")
  (fp_text reference Q1 (at 2.54 -3.556 180) (layer F.SilkS)
    (effects (font (size 1 1) (thickness 0.15)))
  )
  (fp_text value BC547 (at 2.54 2.794) (layer F.SilkS)
    (effects (font (size 1 1) (thickness 0.15)))
  )
  (fp_line (start -1.1 -3) (end 6.1 -3) (layer F.CrtYd) (width 0.05))
  (fp_line (start 6.1 -3) (end 6.1 2.3) (layer F.CrtYd) (width 0.05))
  (fp_line (start 6.1 2.3) (end -1.1 2.3) (layer F.CrtYd) (width 0.05))
  (fp_line (start -1.1 2.3) (end -1.1 -3) (layer F.CrtYd) (width 0.05))
  (fp_line (start 0.74 1.85) (end 4.34 1.85) (layer F.SilkS) (width 0.12))
  (fp_line (start 0.8 1.75) (end 4.3 1.75) (layer F.Fab) (width 0.1))
  (fp_arc (start 2.54 0) (end 0.74 1.85) (angle 20) (layer F.SilkS) (width 0.12))
  (fp_arc (start 2.54 0) (end 2.54 -2.6) (angle -65) (layer F.SilkS) (width 0.12))
  (fp_arc (start 2.54 0) (end 2.54 -2.6) (angle 65) (layer F.SilkS) (width 0.12))
  (fp_arc (start 2.54 0) (end 2.54 -2.48) (angle 135) (layer F.Fab) (width 0.1))
  (fp_arc (start 2.54 0) (end 2.54 -2.48) (angle -135) (layer F.Fab) (width 0.1))
  (fp_arc (start 2.54 0) (end 4.34 1.85) (angle -20) (layer F.SilkS) (width 0.12))
  (pad 2 thru_hole circle (at 2.54 0 90) (size 1.524 1.524) (drill 0.8) (layers *.Mask B.Cu))
  (pad 3 thru_hole circle (at 5.08 0 90) (size 1.524 1.524) (drill 0.8) (layers *.Mask B.Cu))
  (pad 1 thru_hole rect (at 0 0 90) (size 1.524 1.524) (drill 0.8) (layers *.Mask B.Cu))
  (model TO_SOT_Packages_THT.3dshapes/TO-92_Inline_Wide.wrl
    (at (xyz 0.1 0 0))
    (scale (xyz 1 1 1))
    (rotate (xyz 0 0 -90))
  )
)
