(module RC03 (layer F.Cu) (tedit 5945D971)
  (descr "Resistor, RC03")
  (tags R)
  (autoplace_cost180 10)
  (fp_text reference R25 (at 0 0) (layer F.SilkS)
    (effects (font (size 1.397 1.27) (thickness 0.2032)))
  )
  (fp_text value 10k (at 0 2.032) (layer F.SilkS)
    (effects (font (size 1.397 1.27) (thickness 0.2032)))
  )
  (fp_line (start 2.159 0) (end 3.81 0) (layer F.SilkS) (width 0.254))
  (fp_line (start -2.159 0) (end -3.81 0) (layer F.SilkS) (width 0.254))
  (fp_line (start -2.159 -0.889) (end -2.159 0.889) (layer F.SilkS) (width 0.254))
  (fp_line (start -2.159 0.889) (end 2.159 0.889) (layer F.SilkS) (width 0.254))
  (fp_line (start 2.159 0.889) (end 2.159 -0.889) (layer F.SilkS) (width 0.254))
  (fp_line (start 2.159 -0.889) (end -2.159 -0.889) (layer F.SilkS) (width 0.254))
  (pad 1 thru_hole circle (at -3.81 0) (size 1.99898 1.99898) (drill 0.8001) (layers *.Mask B.Cu F.SilkS))
  (pad 2 thru_hole circle (at 3.81 0) (size 1.99898 1.99898) (drill 0.8001) (layers *.Mask B.Cu F.SilkS))
  (model walter/pth_resistors/rc03.wrl
    (at (xyz 0 0 0))
    (scale (xyz 1 1 1))
    (rotate (xyz 0 0 0))
  )
)
