(module Socket_Strip_Straight_2x04_Pitch1.27mm_SMD (layer F.Cu) (tedit 588DE961)
  (descr "surface-mounted straight socket strip, 2x04, 1.27mm pitch, double rows")
  (tags "Surface mounted socket strip SMD 2x04 1.27mm double row")
  (attr smd)
  (fp_text reference REF** (at 0 -3.6) (layer F.SilkS)
    (effects (font (size 1 1) (thickness 0.15)))
  )
  (fp_text value Socket_Strip_Straight_2x04_Pitch1.27mm_SMD (at 0 3.6) (layer F.Fab)
    (effects (font (size 1 1) (thickness 0.15)))
  )
  (fp_line (start -1.27 -2.54) (end -1.27 2.54) (layer F.Fab) (width 0.1))
  (fp_line (start -1.27 2.54) (end 1.27 2.54) (layer F.Fab) (width 0.1))
  (fp_line (start 1.27 2.54) (end 1.27 -2.54) (layer F.Fab) (width 0.1))
  (fp_line (start 1.27 -2.54) (end -1.27 -2.54) (layer F.Fab) (width 0.1))
  (fp_line (start -1.27 -2.105) (end -1.27 -1.705) (layer F.Fab) (width 0.1))
  (fp_line (start -1.27 -1.705) (end -2.555 -1.705) (layer F.Fab) (width 0.1))
  (fp_line (start -2.555 -1.705) (end -2.555 -2.105) (layer F.Fab) (width 0.1))
  (fp_line (start -2.555 -2.105) (end -1.27 -2.105) (layer F.Fab) (width 0.1))
  (fp_line (start 1.27 -2.105) (end 1.27 -1.705) (layer F.Fab) (width 0.1))
  (fp_line (start 1.27 -1.705) (end 2.555 -1.705) (layer F.Fab) (width 0.1))
  (fp_line (start 2.555 -1.705) (end 2.555 -2.105) (layer F.Fab) (width 0.1))
  (fp_line (start 2.555 -2.105) (end 1.27 -2.105) (layer F.Fab) (width 0.1))
  (fp_line (start -1.27 -0.835) (end -1.27 -0.435) (layer F.Fab) (width 0.1))
  (fp_line (start -1.27 -0.435) (end -2.555 -0.435) (layer F.Fab) (width 0.1))
  (fp_line (start -2.555 -0.435) (end -2.555 -0.835) (layer F.Fab) (width 0.1))
  (fp_line (start -2.555 -0.835) (end -1.27 -0.835) (layer F.Fab) (width 0.1))
  (fp_line (start 1.27 -0.835) (end 1.27 -0.435) (layer F.Fab) (width 0.1))
  (fp_line (start 1.27 -0.435) (end 2.555 -0.435) (layer F.Fab) (width 0.1))
  (fp_line (start 2.555 -0.435) (end 2.555 -0.835) (layer F.Fab) (width 0.1))
  (fp_line (start 2.555 -0.835) (end 1.27 -0.835) (layer F.Fab) (width 0.1))
  (fp_line (start -1.27 0.435) (end -1.27 0.835) (layer F.Fab) (width 0.1))
  (fp_line (start -1.27 0.835) (end -2.555 0.835) (layer F.Fab) (width 0.1))
  (fp_line (start -2.555 0.835) (end -2.555 0.435) (layer F.Fab) (width 0.1))
  (fp_line (start -2.555 0.435) (end -1.27 0.435) (layer F.Fab) (width 0.1))
  (fp_line (start 1.27 0.435) (end 1.27 0.835) (layer F.Fab) (width 0.1))
  (fp_line (start 1.27 0.835) (end 2.555 0.835) (layer F.Fab) (width 0.1))
  (fp_line (start 2.555 0.835) (end 2.555 0.435) (layer F.Fab) (width 0.1))
  (fp_line (start 2.555 0.435) (end 1.27 0.435) (layer F.Fab) (width 0.1))
  (fp_line (start -1.27 1.705) (end -1.27 2.105) (layer F.Fab) (width 0.1))
  (fp_line (start -1.27 2.105) (end -2.555 2.105) (layer F.Fab) (width 0.1))
  (fp_line (start -2.555 2.105) (end -2.555 1.705) (layer F.Fab) (width 0.1))
  (fp_line (start -2.555 1.705) (end -1.27 1.705) (layer F.Fab) (width 0.1))
  (fp_line (start 1.27 1.705) (end 1.27 2.105) (layer F.Fab) (width 0.1))
  (fp_line (start 1.27 2.105) (end 2.555 2.105) (layer F.Fab) (width 0.1))
  (fp_line (start 2.555 2.105) (end 2.555 1.705) (layer F.Fab) (width 0.1))
  (fp_line (start 2.555 1.705) (end 1.27 1.705) (layer F.Fab) (width 0.1))
  (fp_line (start -1.33 -2.58) (end -1.33 -2.6) (layer F.SilkS) (width 0.12))
  (fp_line (start -1.33 -2.6) (end 1.33 -2.6) (layer F.SilkS) (width 0.12))
  (fp_line (start 1.33 -2.6) (end 1.33 -2.58) (layer F.SilkS) (width 0.12))
  (fp_line (start -1.33 2.58) (end -1.33 2.6) (layer F.SilkS) (width 0.12))
  (fp_line (start -1.33 2.6) (end 1.33 2.6) (layer F.SilkS) (width 0.12))
  (fp_line (start 1.33 2.6) (end 1.33 2.58) (layer F.SilkS) (width 0.12))
  (fp_line (start 3.635 -2.58) (end 1.33 -2.58) (layer F.SilkS) (width 0.12))
  (fp_line (start -3.9 -2.8) (end -3.9 2.8) (layer F.CrtYd) (width 0.05))
  (fp_line (start -3.9 2.8) (end 3.9 2.8) (layer F.CrtYd) (width 0.05))
  (fp_line (start 3.9 2.8) (end 3.9 -2.8) (layer F.CrtYd) (width 0.05))
  (fp_line (start 3.9 -2.8) (end -3.9 -2.8) (layer F.CrtYd) (width 0.05))
  (pad 1 smd rect (at 2.585 -1.905) (size 2.1 0.75) (layers F.Cu F.Mask))
  (pad 2 smd rect (at -2.585 -1.905) (size 2.1 0.75) (layers F.Cu F.Mask))
  (pad 3 smd rect (at 2.585 -0.635) (size 2.1 0.75) (layers F.Cu F.Mask))
  (pad 4 smd rect (at -2.585 -0.635) (size 2.1 0.75) (layers F.Cu F.Mask))
  (pad 5 smd rect (at 2.585 0.635) (size 2.1 0.75) (layers F.Cu F.Mask))
  (pad 6 smd rect (at -2.585 0.635) (size 2.1 0.75) (layers F.Cu F.Mask))
  (pad 7 smd rect (at 2.585 1.905) (size 2.1 0.75) (layers F.Cu F.Mask))
  (pad 8 smd rect (at -2.585 1.905) (size 2.1 0.75) (layers F.Cu F.Mask))
  (model Socket_Strips.3dshapes/Socket_Strip_Straight_2x04_Pitch1.27mm_SMD.wrl
    (at (xyz 0 0 0))
    (scale (xyz 1 1 1))
    (rotate (xyz 0 0 0))
  )
)