(module Socket_Strip_Angled_1x35_Pitch2.00mm (layer F.Cu) (tedit 588DE95D)
  (descr "Through hole angled socket strip, 1x35, 2.00mm pitch, 6.35mm socket length, single row")
  (tags "Through hole angled socket strip THT 1x35 2.00mm single row")
  (fp_text reference REF** (at -3.31 -2) (layer F.SilkS)
    (effects (font (size 1 1) (thickness 0.15)))
  )
  (fp_text value Socket_Strip_Angled_1x35_Pitch2.00mm (at -3.31 70) (layer F.Fab)
    (effects (font (size 1 1) (thickness 0.15)))
  )
  (fp_line (start -1.27 -1) (end -1.27 1) (layer F.Fab) (width 0.1))
  (fp_line (start -1.27 1) (end -7.62 1) (layer F.Fab) (width 0.1))
  (fp_line (start -7.62 1) (end -7.62 -1) (layer F.Fab) (width 0.1))
  (fp_line (start -7.62 -1) (end -1.27 -1) (layer F.Fab) (width 0.1))
  (fp_line (start 0 -0.25) (end 0 0.25) (layer F.Fab) (width 0.1))
  (fp_line (start 0 0.25) (end -1.27 0.25) (layer F.Fab) (width 0.1))
  (fp_line (start -1.27 0.25) (end -1.27 -0.25) (layer F.Fab) (width 0.1))
  (fp_line (start -1.27 -0.25) (end 0 -0.25) (layer F.Fab) (width 0.1))
  (fp_line (start -1.27 1) (end -1.27 3) (layer F.Fab) (width 0.1))
  (fp_line (start -1.27 3) (end -7.62 3) (layer F.Fab) (width 0.1))
  (fp_line (start -7.62 3) (end -7.62 1) (layer F.Fab) (width 0.1))
  (fp_line (start -7.62 1) (end -1.27 1) (layer F.Fab) (width 0.1))
  (fp_line (start 0 1.75) (end 0 2.25) (layer F.Fab) (width 0.1))
  (fp_line (start 0 2.25) (end -1.27 2.25) (layer F.Fab) (width 0.1))
  (fp_line (start -1.27 2.25) (end -1.27 1.75) (layer F.Fab) (width 0.1))
  (fp_line (start -1.27 1.75) (end 0 1.75) (layer F.Fab) (width 0.1))
  (fp_line (start -1.27 3) (end -1.27 5) (layer F.Fab) (width 0.1))
  (fp_line (start -1.27 5) (end -7.62 5) (layer F.Fab) (width 0.1))
  (fp_line (start -7.62 5) (end -7.62 3) (layer F.Fab) (width 0.1))
  (fp_line (start -7.62 3) (end -1.27 3) (layer F.Fab) (width 0.1))
  (fp_line (start 0 3.75) (end 0 4.25) (layer F.Fab) (width 0.1))
  (fp_line (start 0 4.25) (end -1.27 4.25) (layer F.Fab) (width 0.1))
  (fp_line (start -1.27 4.25) (end -1.27 3.75) (layer F.Fab) (width 0.1))
  (fp_line (start -1.27 3.75) (end 0 3.75) (layer F.Fab) (width 0.1))
  (fp_line (start -1.27 5) (end -1.27 7) (layer F.Fab) (width 0.1))
  (fp_line (start -1.27 7) (end -7.62 7) (layer F.Fab) (width 0.1))
  (fp_line (start -7.62 7) (end -7.62 5) (layer F.Fab) (width 0.1))
  (fp_line (start -7.62 5) (end -1.27 5) (layer F.Fab) (width 0.1))
  (fp_line (start 0 5.75) (end 0 6.25) (layer F.Fab) (width 0.1))
  (fp_line (start 0 6.25) (end -1.27 6.25) (layer F.Fab) (width 0.1))
  (fp_line (start -1.27 6.25) (end -1.27 5.75) (layer F.Fab) (width 0.1))
  (fp_line (start -1.27 5.75) (end 0 5.75) (layer F.Fab) (width 0.1))
  (fp_line (start -1.27 7) (end -1.27 9) (layer F.Fab) (width 0.1))
  (fp_line (start -1.27 9) (end -7.62 9) (layer F.Fab) (width 0.1))
  (fp_line (start -7.62 9) (end -7.62 7) (layer F.Fab) (width 0.1))
  (fp_line (start -7.62 7) (end -1.27 7) (layer F.Fab) (width 0.1))
  (fp_line (start 0 7.75) (end 0 8.25) (layer F.Fab) (width 0.1))
  (fp_line (start 0 8.25) (end -1.27 8.25) (layer F.Fab) (width 0.1))
  (fp_line (start -1.27 8.25) (end -1.27 7.75) (layer F.Fab) (width 0.1))
  (fp_line (start -1.27 7.75) (end 0 7.75) (layer F.Fab) (width 0.1))
  (fp_line (start -1.27 9) (end -1.27 11) (layer F.Fab) (width 0.1))
  (fp_line (start -1.27 11) (end -7.62 11) (layer F.Fab) (width 0.1))
  (fp_line (start -7.62 11) (end -7.62 9) (layer F.Fab) (width 0.1))
  (fp_line (start -7.62 9) (end -1.27 9) (layer F.Fab) (width 0.1))
  (fp_line (start 0 9.75) (end 0 10.25) (layer F.Fab) (width 0.1))
  (fp_line (start 0 10.25) (end -1.27 10.25) (layer F.Fab) (width 0.1))
  (fp_line (start -1.27 10.25) (end -1.27 9.75) (layer F.Fab) (width 0.1))
  (fp_line (start -1.27 9.75) (end 0 9.75) (layer F.Fab) (width 0.1))
  (fp_line (start -1.27 11) (end -1.27 13) (layer F.Fab) (width 0.1))
  (fp_line (start -1.27 13) (end -7.62 13) (layer F.Fab) (width 0.1))
  (fp_line (start -7.62 13) (end -7.62 11) (layer F.Fab) (width 0.1))
  (fp_line (start -7.62 11) (end -1.27 11) (layer F.Fab) (width 0.1))
  (fp_line (start 0 11.75) (end 0 12.25) (layer F.Fab) (width 0.1))
  (fp_line (start 0 12.25) (end -1.27 12.25) (layer F.Fab) (width 0.1))
  (fp_line (start -1.27 12.25) (end -1.27 11.75) (layer F.Fab) (width 0.1))
  (fp_line (start -1.27 11.75) (end 0 11.75) (layer F.Fab) (width 0.1))
  (fp_line (start -1.27 13) (end -1.27 15) (layer F.Fab) (width 0.1))
  (fp_line (start -1.27 15) (end -7.62 15) (layer F.Fab) (width 0.1))
  (fp_line (start -7.62 15) (end -7.62 13) (layer F.Fab) (width 0.1))
  (fp_line (start -7.62 13) (end -1.27 13) (layer F.Fab) (width 0.1))
  (fp_line (start 0 13.75) (end 0 14.25) (layer F.Fab) (width 0.1))
  (fp_line (start 0 14.25) (end -1.27 14.25) (layer F.Fab) (width 0.1))
  (fp_line (start -1.27 14.25) (end -1.27 13.75) (layer F.Fab) (width 0.1))
  (fp_line (start -1.27 13.75) (end 0 13.75) (layer F.Fab) (width 0.1))
  (fp_line (start -1.27 15) (end -1.27 17) (layer F.Fab) (width 0.1))
  (fp_line (start -1.27 17) (end -7.62 17) (layer F.Fab) (width 0.1))
  (fp_line (start -7.62 17) (end -7.62 15) (layer F.Fab) (width 0.1))
  (fp_line (start -7.62 15) (end -1.27 15) (layer F.Fab) (width 0.1))
  (fp_line (start 0 15.75) (end 0 16.25) (layer F.Fab) (width 0.1))
  (fp_line (start 0 16.25) (end -1.27 16.25) (layer F.Fab) (width 0.1))
  (fp_line (start -1.27 16.25) (end -1.27 15.75) (layer F.Fab) (width 0.1))
  (fp_line (start -1.27 15.75) (end 0 15.75) (layer F.Fab) (width 0.1))
  (fp_line (start -1.27 17) (end -1.27 19) (layer F.Fab) (width 0.1))
  (fp_line (start -1.27 19) (end -7.62 19) (layer F.Fab) (width 0.1))
  (fp_line (start -7.62 19) (end -7.62 17) (layer F.Fab) (width 0.1))
  (fp_line (start -7.62 17) (end -1.27 17) (layer F.Fab) (width 0.1))
  (fp_line (start 0 17.75) (end 0 18.25) (layer F.Fab) (width 0.1))
  (fp_line (start 0 18.25) (end -1.27 18.25) (layer F.Fab) (width 0.1))
  (fp_line (start -1.27 18.25) (end -1.27 17.75) (layer F.Fab) (width 0.1))
  (fp_line (start -1.27 17.75) (end 0 17.75) (layer F.Fab) (width 0.1))
  (fp_line (start -1.27 19) (end -1.27 21) (layer F.Fab) (width 0.1))
  (fp_line (start -1.27 21) (end -7.62 21) (layer F.Fab) (width 0.1))
  (fp_line (start -7.62 21) (end -7.62 19) (layer F.Fab) (width 0.1))
  (fp_line (start -7.62 19) (end -1.27 19) (layer F.Fab) (width 0.1))
  (fp_line (start 0 19.75) (end 0 20.25) (layer F.Fab) (width 0.1))
  (fp_line (start 0 20.25) (end -1.27 20.25) (layer F.Fab) (width 0.1))
  (fp_line (start -1.27 20.25) (end -1.27 19.75) (layer F.Fab) (width 0.1))
  (fp_line (start -1.27 19.75) (end 0 19.75) (layer F.Fab) (width 0.1))
  (fp_line (start -1.27 21) (end -1.27 23) (layer F.Fab) (width 0.1))
  (fp_line (start -1.27 23) (end -7.62 23) (layer F.Fab) (width 0.1))
  (fp_line (start -7.62 23) (end -7.62 21) (layer F.Fab) (width 0.1))
  (fp_line (start -7.62 21) (end -1.27 21) (layer F.Fab) (width 0.1))
  (fp_line (start 0 21.75) (end 0 22.25) (layer F.Fab) (width 0.1))
  (fp_line (start 0 22.25) (end -1.27 22.25) (layer F.Fab) (width 0.1))
  (fp_line (start -1.27 22.25) (end -1.27 21.75) (layer F.Fab) (width 0.1))
  (fp_line (start -1.27 21.75) (end 0 21.75) (layer F.Fab) (width 0.1))
  (fp_line (start -1.27 23) (end -1.27 25) (layer F.Fab) (width 0.1))
  (fp_line (start -1.27 25) (end -7.62 25) (layer F.Fab) (width 0.1))
  (fp_line (start -7.62 25) (end -7.62 23) (layer F.Fab) (width 0.1))
  (fp_line (start -7.62 23) (end -1.27 23) (layer F.Fab) (width 0.1))
  (fp_line (start 0 23.75) (end 0 24.25) (layer F.Fab) (width 0.1))
  (fp_line (start 0 24.25) (end -1.27 24.25) (layer F.Fab) (width 0.1))
  (fp_line (start -1.27 24.25) (end -1.27 23.75) (layer F.Fab) (width 0.1))
  (fp_line (start -1.27 23.75) (end 0 23.75) (layer F.Fab) (width 0.1))
  (fp_line (start -1.27 25) (end -1.27 27) (layer F.Fab) (width 0.1))
  (fp_line (start -1.27 27) (end -7.62 27) (layer F.Fab) (width 0.1))
  (fp_line (start -7.62 27) (end -7.62 25) (layer F.Fab) (width 0.1))
  (fp_line (start -7.62 25) (end -1.27 25) (layer F.Fab) (width 0.1))
  (fp_line (start 0 25.75) (end 0 26.25) (layer F.Fab) (width 0.1))
  (fp_line (start 0 26.25) (end -1.27 26.25) (layer F.Fab) (width 0.1))
  (fp_line (start -1.27 26.25) (end -1.27 25.75) (layer F.Fab) (width 0.1))
  (fp_line (start -1.27 25.75) (end 0 25.75) (layer F.Fab) (width 0.1))
  (fp_line (start -1.27 27) (end -1.27 29) (layer F.Fab) (width 0.1))
  (fp_line (start -1.27 29) (end -7.62 29) (layer F.Fab) (width 0.1))
  (fp_line (start -7.62 29) (end -7.62 27) (layer F.Fab) (width 0.1))
  (fp_line (start -7.62 27) (end -1.27 27) (layer F.Fab) (width 0.1))
  (fp_line (start 0 27.75) (end 0 28.25) (layer F.Fab) (width 0.1))
  (fp_line (start 0 28.25) (end -1.27 28.25) (layer F.Fab) (width 0.1))
  (fp_line (start -1.27 28.25) (end -1.27 27.75) (layer F.Fab) (width 0.1))
  (fp_line (start -1.27 27.75) (end 0 27.75) (layer F.Fab) (width 0.1))
  (fp_line (start -1.27 29) (end -1.27 31) (layer F.Fab) (width 0.1))
  (fp_line (start -1.27 31) (end -7.62 31) (layer F.Fab) (width 0.1))
  (fp_line (start -7.62 31) (end -7.62 29) (layer F.Fab) (width 0.1))
  (fp_line (start -7.62 29) (end -1.27 29) (layer F.Fab) (width 0.1))
  (fp_line (start 0 29.75) (end 0 30.25) (layer F.Fab) (width 0.1))
  (fp_line (start 0 30.25) (end -1.27 30.25) (layer F.Fab) (width 0.1))
  (fp_line (start -1.27 30.25) (end -1.27 29.75) (layer F.Fab) (width 0.1))
  (fp_line (start -1.27 29.75) (end 0 29.75) (layer F.Fab) (width 0.1))
  (fp_line (start -1.27 31) (end -1.27 33) (layer F.Fab) (width 0.1))
  (fp_line (start -1.27 33) (end -7.62 33) (layer F.Fab) (width 0.1))
  (fp_line (start -7.62 33) (end -7.62 31) (layer F.Fab) (width 0.1))
  (fp_line (start -7.62 31) (end -1.27 31) (layer F.Fab) (width 0.1))
  (fp_line (start 0 31.75) (end 0 32.25) (layer F.Fab) (width 0.1))
  (fp_line (start 0 32.25) (end -1.27 32.25) (layer F.Fab) (width 0.1))
  (fp_line (start -1.27 32.25) (end -1.27 31.75) (layer F.Fab) (width 0.1))
  (fp_line (start -1.27 31.75) (end 0 31.75) (layer F.Fab) (width 0.1))
  (fp_line (start -1.27 33) (end -1.27 35) (layer F.Fab) (width 0.1))
  (fp_line (start -1.27 35) (end -7.62 35) (layer F.Fab) (width 0.1))
  (fp_line (start -7.62 35) (end -7.62 33) (layer F.Fab) (width 0.1))
  (fp_line (start -7.62 33) (end -1.27 33) (layer F.Fab) (width 0.1))
  (fp_line (start 0 33.75) (end 0 34.25) (layer F.Fab) (width 0.1))
  (fp_line (start 0 34.25) (end -1.27 34.25) (layer F.Fab) (width 0.1))
  (fp_line (start -1.27 34.25) (end -1.27 33.75) (layer F.Fab) (width 0.1))
  (fp_line (start -1.27 33.75) (end 0 33.75) (layer F.Fab) (width 0.1))
  (fp_line (start -1.27 35) (end -1.27 37) (layer F.Fab) (width 0.1))
  (fp_line (start -1.27 37) (end -7.62 37) (layer F.Fab) (width 0.1))
  (fp_line (start -7.62 37) (end -7.62 35) (layer F.Fab) (width 0.1))
  (fp_line (start -7.62 35) (end -1.27 35) (layer F.Fab) (width 0.1))
  (fp_line (start 0 35.75) (end 0 36.25) (layer F.Fab) (width 0.1))
  (fp_line (start 0 36.25) (end -1.27 36.25) (layer F.Fab) (width 0.1))
  (fp_line (start -1.27 36.25) (end -1.27 35.75) (layer F.Fab) (width 0.1))
  (fp_line (start -1.27 35.75) (end 0 35.75) (layer F.Fab) (width 0.1))
  (fp_line (start -1.27 37) (end -1.27 39) (layer F.Fab) (width 0.1))
  (fp_line (start -1.27 39) (end -7.62 39) (layer F.Fab) (width 0.1))
  (fp_line (start -7.62 39) (end -7.62 37) (layer F.Fab) (width 0.1))
  (fp_line (start -7.62 37) (end -1.27 37) (layer F.Fab) (width 0.1))
  (fp_line (start 0 37.75) (end 0 38.25) (layer F.Fab) (width 0.1))
  (fp_line (start 0 38.25) (end -1.27 38.25) (layer F.Fab) (width 0.1))
  (fp_line (start -1.27 38.25) (end -1.27 37.75) (layer F.Fab) (width 0.1))
  (fp_line (start -1.27 37.75) (end 0 37.75) (layer F.Fab) (width 0.1))
  (fp_line (start -1.27 39) (end -1.27 41) (layer F.Fab) (width 0.1))
  (fp_line (start -1.27 41) (end -7.62 41) (layer F.Fab) (width 0.1))
  (fp_line (start -7.62 41) (end -7.62 39) (layer F.Fab) (width 0.1))
  (fp_line (start -7.62 39) (end -1.27 39) (layer F.Fab) (width 0.1))
  (fp_line (start 0 39.75) (end 0 40.25) (layer F.Fab) (width 0.1))
  (fp_line (start 0 40.25) (end -1.27 40.25) (layer F.Fab) (width 0.1))
  (fp_line (start -1.27 40.25) (end -1.27 39.75) (layer F.Fab) (width 0.1))
  (fp_line (start -1.27 39.75) (end 0 39.75) (layer F.Fab) (width 0.1))
  (fp_line (start -1.27 41) (end -1.27 43) (layer F.Fab) (width 0.1))
  (fp_line (start -1.27 43) (end -7.62 43) (layer F.Fab) (width 0.1))
  (fp_line (start -7.62 43) (end -7.62 41) (layer F.Fab) (width 0.1))
  (fp_line (start -7.62 41) (end -1.27 41) (layer F.Fab) (width 0.1))
  (fp_line (start 0 41.75) (end 0 42.25) (layer F.Fab) (width 0.1))
  (fp_line (start 0 42.25) (end -1.27 42.25) (layer F.Fab) (width 0.1))
  (fp_line (start -1.27 42.25) (end -1.27 41.75) (layer F.Fab) (width 0.1))
  (fp_line (start -1.27 41.75) (end 0 41.75) (layer F.Fab) (width 0.1))
  (fp_line (start -1.27 43) (end -1.27 45) (layer F.Fab) (width 0.1))
  (fp_line (start -1.27 45) (end -7.62 45) (layer F.Fab) (width 0.1))
  (fp_line (start -7.62 45) (end -7.62 43) (layer F.Fab) (width 0.1))
  (fp_line (start -7.62 43) (end -1.27 43) (layer F.Fab) (width 0.1))
  (fp_line (start 0 43.75) (end 0 44.25) (layer F.Fab) (width 0.1))
  (fp_line (start 0 44.25) (end -1.27 44.25) (layer F.Fab) (width 0.1))
  (fp_line (start -1.27 44.25) (end -1.27 43.75) (layer F.Fab) (width 0.1))
  (fp_line (start -1.27 43.75) (end 0 43.75) (layer F.Fab) (width 0.1))
  (fp_line (start -1.27 45) (end -1.27 47) (layer F.Fab) (width 0.1))
  (fp_line (start -1.27 47) (end -7.62 47) (layer F.Fab) (width 0.1))
  (fp_line (start -7.62 47) (end -7.62 45) (layer F.Fab) (width 0.1))
  (fp_line (start -7.62 45) (end -1.27 45) (layer F.Fab) (width 0.1))
  (fp_line (start 0 45.75) (end 0 46.25) (layer F.Fab) (width 0.1))
  (fp_line (start 0 46.25) (end -1.27 46.25) (layer F.Fab) (width 0.1))
  (fp_line (start -1.27 46.25) (end -1.27 45.75) (layer F.Fab) (width 0.1))
  (fp_line (start -1.27 45.75) (end 0 45.75) (layer F.Fab) (width 0.1))
  (fp_line (start -1.27 47) (end -1.27 49) (layer F.Fab) (width 0.1))
  (fp_line (start -1.27 49) (end -7.62 49) (layer F.Fab) (width 0.1))
  (fp_line (start -7.62 49) (end -7.62 47) (layer F.Fab) (width 0.1))
  (fp_line (start -7.62 47) (end -1.27 47) (layer F.Fab) (width 0.1))
  (fp_line (start 0 47.75) (end 0 48.25) (layer F.Fab) (width 0.1))
  (fp_line (start 0 48.25) (end -1.27 48.25) (layer F.Fab) (width 0.1))
  (fp_line (start -1.27 48.25) (end -1.27 47.75) (layer F.Fab) (width 0.1))
  (fp_line (start -1.27 47.75) (end 0 47.75) (layer F.Fab) (width 0.1))
  (fp_line (start -1.27 49) (end -1.27 51) (layer F.Fab) (width 0.1))
  (fp_line (start -1.27 51) (end -7.62 51) (layer F.Fab) (width 0.1))
  (fp_line (start -7.62 51) (end -7.62 49) (layer F.Fab) (width 0.1))
  (fp_line (start -7.62 49) (end -1.27 49) (layer F.Fab) (width 0.1))
  (fp_line (start 0 49.75) (end 0 50.25) (layer F.Fab) (width 0.1))
  (fp_line (start 0 50.25) (end -1.27 50.25) (layer F.Fab) (width 0.1))
  (fp_line (start -1.27 50.25) (end -1.27 49.75) (layer F.Fab) (width 0.1))
  (fp_line (start -1.27 49.75) (end 0 49.75) (layer F.Fab) (width 0.1))
  (fp_line (start -1.27 51) (end -1.27 53) (layer F.Fab) (width 0.1))
  (fp_line (start -1.27 53) (end -7.62 53) (layer F.Fab) (width 0.1))
  (fp_line (start -7.62 53) (end -7.62 51) (layer F.Fab) (width 0.1))
  (fp_line (start -7.62 51) (end -1.27 51) (layer F.Fab) (width 0.1))
  (fp_line (start 0 51.75) (end 0 52.25) (layer F.Fab) (width 0.1))
  (fp_line (start 0 52.25) (end -1.27 52.25) (layer F.Fab) (width 0.1))
  (fp_line (start -1.27 52.25) (end -1.27 51.75) (layer F.Fab) (width 0.1))
  (fp_line (start -1.27 51.75) (end 0 51.75) (layer F.Fab) (width 0.1))
  (fp_line (start -1.27 53) (end -1.27 55) (layer F.Fab) (width 0.1))
  (fp_line (start -1.27 55) (end -7.62 55) (layer F.Fab) (width 0.1))
  (fp_line (start -7.62 55) (end -7.62 53) (layer F.Fab) (width 0.1))
  (fp_line (start -7.62 53) (end -1.27 53) (layer F.Fab) (width 0.1))
  (fp_line (start 0 53.75) (end 0 54.25) (layer F.Fab) (width 0.1))
  (fp_line (start 0 54.25) (end -1.27 54.25) (layer F.Fab) (width 0.1))
  (fp_line (start -1.27 54.25) (end -1.27 53.75) (layer F.Fab) (width 0.1))
  (fp_line (start -1.27 53.75) (end 0 53.75) (layer F.Fab) (width 0.1))
  (fp_line (start -1.27 55) (end -1.27 57) (layer F.Fab) (width 0.1))
  (fp_line (start -1.27 57) (end -7.62 57) (layer F.Fab) (width 0.1))
  (fp_line (start -7.62 57) (end -7.62 55) (layer F.Fab) (width 0.1))
  (fp_line (start -7.62 55) (end -1.27 55) (layer F.Fab) (width 0.1))
  (fp_line (start 0 55.75) (end 0 56.25) (layer F.Fab) (width 0.1))
  (fp_line (start 0 56.25) (end -1.27 56.25) (layer F.Fab) (width 0.1))
  (fp_line (start -1.27 56.25) (end -1.27 55.75) (layer F.Fab) (width 0.1))
  (fp_line (start -1.27 55.75) (end 0 55.75) (layer F.Fab) (width 0.1))
  (fp_line (start -1.27 57) (end -1.27 59) (layer F.Fab) (width 0.1))
  (fp_line (start -1.27 59) (end -7.62 59) (layer F.Fab) (width 0.1))
  (fp_line (start -7.62 59) (end -7.62 57) (layer F.Fab) (width 0.1))
  (fp_line (start -7.62 57) (end -1.27 57) (layer F.Fab) (width 0.1))
  (fp_line (start 0 57.75) (end 0 58.25) (layer F.Fab) (width 0.1))
  (fp_line (start 0 58.25) (end -1.27 58.25) (layer F.Fab) (width 0.1))
  (fp_line (start -1.27 58.25) (end -1.27 57.75) (layer F.Fab) (width 0.1))
  (fp_line (start -1.27 57.75) (end 0 57.75) (layer F.Fab) (width 0.1))
  (fp_line (start -1.27 59) (end -1.27 61) (layer F.Fab) (width 0.1))
  (fp_line (start -1.27 61) (end -7.62 61) (layer F.Fab) (width 0.1))
  (fp_line (start -7.62 61) (end -7.62 59) (layer F.Fab) (width 0.1))
  (fp_line (start -7.62 59) (end -1.27 59) (layer F.Fab) (width 0.1))
  (fp_line (start 0 59.75) (end 0 60.25) (layer F.Fab) (width 0.1))
  (fp_line (start 0 60.25) (end -1.27 60.25) (layer F.Fab) (width 0.1))
  (fp_line (start -1.27 60.25) (end -1.27 59.75) (layer F.Fab) (width 0.1))
  (fp_line (start -1.27 59.75) (end 0 59.75) (layer F.Fab) (width 0.1))
  (fp_line (start -1.27 61) (end -1.27 63) (layer F.Fab) (width 0.1))
  (fp_line (start -1.27 63) (end -7.62 63) (layer F.Fab) (width 0.1))
  (fp_line (start -7.62 63) (end -7.62 61) (layer F.Fab) (width 0.1))
  (fp_line (start -7.62 61) (end -1.27 61) (layer F.Fab) (width 0.1))
  (fp_line (start 0 61.75) (end 0 62.25) (layer F.Fab) (width 0.1))
  (fp_line (start 0 62.25) (end -1.27 62.25) (layer F.Fab) (width 0.1))
  (fp_line (start -1.27 62.25) (end -1.27 61.75) (layer F.Fab) (width 0.1))
  (fp_line (start -1.27 61.75) (end 0 61.75) (layer F.Fab) (width 0.1))
  (fp_line (start -1.27 63) (end -1.27 65) (layer F.Fab) (width 0.1))
  (fp_line (start -1.27 65) (end -7.62 65) (layer F.Fab) (width 0.1))
  (fp_line (start -7.62 65) (end -7.62 63) (layer F.Fab) (width 0.1))
  (fp_line (start -7.62 63) (end -1.27 63) (layer F.Fab) (width 0.1))
  (fp_line (start 0 63.75) (end 0 64.25) (layer F.Fab) (width 0.1))
  (fp_line (start 0 64.25) (end -1.27 64.25) (layer F.Fab) (width 0.1))
  (fp_line (start -1.27 64.25) (end -1.27 63.75) (layer F.Fab) (width 0.1))
  (fp_line (start -1.27 63.75) (end 0 63.75) (layer F.Fab) (width 0.1))
  (fp_line (start -1.27 65) (end -1.27 67) (layer F.Fab) (width 0.1))
  (fp_line (start -1.27 67) (end -7.62 67) (layer F.Fab) (width 0.1))
  (fp_line (start -7.62 67) (end -7.62 65) (layer F.Fab) (width 0.1))
  (fp_line (start -7.62 65) (end -1.27 65) (layer F.Fab) (width 0.1))
  (fp_line (start 0 65.75) (end 0 66.25) (layer F.Fab) (width 0.1))
  (fp_line (start 0 66.25) (end -1.27 66.25) (layer F.Fab) (width 0.1))
  (fp_line (start -1.27 66.25) (end -1.27 65.75) (layer F.Fab) (width 0.1))
  (fp_line (start -1.27 65.75) (end 0 65.75) (layer F.Fab) (width 0.1))
  (fp_line (start -1.27 67) (end -1.27 69) (layer F.Fab) (width 0.1))
  (fp_line (start -1.27 69) (end -7.62 69) (layer F.Fab) (width 0.1))
  (fp_line (start -7.62 69) (end -7.62 67) (layer F.Fab) (width 0.1))
  (fp_line (start -7.62 67) (end -1.27 67) (layer F.Fab) (width 0.1))
  (fp_line (start 0 67.75) (end 0 68.25) (layer F.Fab) (width 0.1))
  (fp_line (start 0 68.25) (end -1.27 68.25) (layer F.Fab) (width 0.1))
  (fp_line (start -1.27 68.25) (end -1.27 67.75) (layer F.Fab) (width 0.1))
  (fp_line (start -1.27 67.75) (end 0 67.75) (layer F.Fab) (width 0.1))
  (fp_line (start -1.21 -1.06) (end -1.21 1) (layer F.SilkS) (width 0.12))
  (fp_line (start -1.21 1) (end -7.68 1) (layer F.SilkS) (width 0.12))
  (fp_line (start -7.68 1) (end -7.68 -1.06) (layer F.SilkS) (width 0.12))
  (fp_line (start -7.68 -1.06) (end -1.21 -1.06) (layer F.SilkS) (width 0.12))
  (fp_line (start -0.855 -0.31) (end -1.21 -0.31) (layer F.SilkS) (width 0.12))
  (fp_line (start -0.855 0.31) (end -1.21 0.31) (layer F.SilkS) (width 0.12))
  (fp_line (start -1.21 -0.88) (end -7.68 -0.88) (layer F.SilkS) (width 0.12))
  (fp_line (start -1.21 -0.76) (end -7.68 -0.76) (layer F.SilkS) (width 0.12))
  (fp_line (start -1.21 -0.64) (end -7.68 -0.64) (layer F.SilkS) (width 0.12))
  (fp_line (start -1.21 -0.52) (end -7.68 -0.52) (layer F.SilkS) (width 0.12))
  (fp_line (start -1.21 -0.4) (end -7.68 -0.4) (layer F.SilkS) (width 0.12))
  (fp_line (start -1.21 -0.28) (end -7.68 -0.28) (layer F.SilkS) (width 0.12))
  (fp_line (start -1.21 -0.16) (end -7.68 -0.16) (layer F.SilkS) (width 0.12))
  (fp_line (start -1.21 -0.04) (end -7.68 -0.04) (layer F.SilkS) (width 0.12))
  (fp_line (start -1.21 0.08) (end -7.68 0.08) (layer F.SilkS) (width 0.12))
  (fp_line (start -1.21 0.2) (end -7.68 0.2) (layer F.SilkS) (width 0.12))
  (fp_line (start -1.21 0.32) (end -7.68 0.32) (layer F.SilkS) (width 0.12))
  (fp_line (start -1.21 0.44) (end -7.68 0.44) (layer F.SilkS) (width 0.12))
  (fp_line (start -1.21 0.56) (end -7.68 0.56) (layer F.SilkS) (width 0.12))
  (fp_line (start -1.21 0.68) (end -7.68 0.68) (layer F.SilkS) (width 0.12))
  (fp_line (start -1.21 0.8) (end -7.68 0.8) (layer F.SilkS) (width 0.12))
  (fp_line (start -1.21 0.92) (end -7.68 0.92) (layer F.SilkS) (width 0.12))
  (fp_line (start -1.21 1.04) (end -7.68 1.04) (layer F.SilkS) (width 0.12))
  (fp_line (start -1.21 1) (end -1.21 3) (layer F.SilkS) (width 0.12))
  (fp_line (start -1.21 3) (end -7.68 3) (layer F.SilkS) (width 0.12))
  (fp_line (start -7.68 3) (end -7.68 1) (layer F.SilkS) (width 0.12))
  (fp_line (start -7.68 1) (end -1.21 1) (layer F.SilkS) (width 0.12))
  (fp_line (start -0.855 1.69) (end -1.21 1.69) (layer F.SilkS) (width 0.12))
  (fp_line (start -0.855 2.31) (end -1.21 2.31) (layer F.SilkS) (width 0.12))
  (fp_line (start -1.21 3) (end -1.21 5) (layer F.SilkS) (width 0.12))
  (fp_line (start -1.21 5) (end -7.68 5) (layer F.SilkS) (width 0.12))
  (fp_line (start -7.68 5) (end -7.68 3) (layer F.SilkS) (width 0.12))
  (fp_line (start -7.68 3) (end -1.21 3) (layer F.SilkS) (width 0.12))
  (fp_line (start -0.855 3.69) (end -1.21 3.69) (layer F.SilkS) (width 0.12))
  (fp_line (start -0.855 4.31) (end -1.21 4.31) (layer F.SilkS) (width 0.12))
  (fp_line (start -1.21 5) (end -1.21 7) (layer F.SilkS) (width 0.12))
  (fp_line (start -1.21 7) (end -7.68 7) (layer F.SilkS) (width 0.12))
  (fp_line (start -7.68 7) (end -7.68 5) (layer F.SilkS) (width 0.12))
  (fp_line (start -7.68 5) (end -1.21 5) (layer F.SilkS) (width 0.12))
  (fp_line (start -0.855 5.69) (end -1.21 5.69) (layer F.SilkS) (width 0.12))
  (fp_line (start -0.855 6.31) (end -1.21 6.31) (layer F.SilkS) (width 0.12))
  (fp_line (start -1.21 7) (end -1.21 9) (layer F.SilkS) (width 0.12))
  (fp_line (start -1.21 9) (end -7.68 9) (layer F.SilkS) (width 0.12))
  (fp_line (start -7.68 9) (end -7.68 7) (layer F.SilkS) (width 0.12))
  (fp_line (start -7.68 7) (end -1.21 7) (layer F.SilkS) (width 0.12))
  (fp_line (start -0.855 7.69) (end -1.21 7.69) (layer F.SilkS) (width 0.12))
  (fp_line (start -0.855 8.31) (end -1.21 8.31) (layer F.SilkS) (width 0.12))
  (fp_line (start -1.21 9) (end -1.21 11) (layer F.SilkS) (width 0.12))
  (fp_line (start -1.21 11) (end -7.68 11) (layer F.SilkS) (width 0.12))
  (fp_line (start -7.68 11) (end -7.68 9) (layer F.SilkS) (width 0.12))
  (fp_line (start -7.68 9) (end -1.21 9) (layer F.SilkS) (width 0.12))
  (fp_line (start -0.855 9.69) (end -1.21 9.69) (layer F.SilkS) (width 0.12))
  (fp_line (start -0.855 10.31) (end -1.21 10.31) (layer F.SilkS) (width 0.12))
  (fp_line (start -1.21 11) (end -1.21 13) (layer F.SilkS) (width 0.12))
  (fp_line (start -1.21 13) (end -7.68 13) (layer F.SilkS) (width 0.12))
  (fp_line (start -7.68 13) (end -7.68 11) (layer F.SilkS) (width 0.12))
  (fp_line (start -7.68 11) (end -1.21 11) (layer F.SilkS) (width 0.12))
  (fp_line (start -0.855 11.69) (end -1.21 11.69) (layer F.SilkS) (width 0.12))
  (fp_line (start -0.855 12.31) (end -1.21 12.31) (layer F.SilkS) (width 0.12))
  (fp_line (start -1.21 13) (end -1.21 15) (layer F.SilkS) (width 0.12))
  (fp_line (start -1.21 15) (end -7.68 15) (layer F.SilkS) (width 0.12))
  (fp_line (start -7.68 15) (end -7.68 13) (layer F.SilkS) (width 0.12))
  (fp_line (start -7.68 13) (end -1.21 13) (layer F.SilkS) (width 0.12))
  (fp_line (start -0.855 13.69) (end -1.21 13.69) (layer F.SilkS) (width 0.12))
  (fp_line (start -0.855 14.31) (end -1.21 14.31) (layer F.SilkS) (width 0.12))
  (fp_line (start -1.21 15) (end -1.21 17) (layer F.SilkS) (width 0.12))
  (fp_line (start -1.21 17) (end -7.68 17) (layer F.SilkS) (width 0.12))
  (fp_line (start -7.68 17) (end -7.68 15) (layer F.SilkS) (width 0.12))
  (fp_line (start -7.68 15) (end -1.21 15) (layer F.SilkS) (width 0.12))
  (fp_line (start -0.855 15.69) (end -1.21 15.69) (layer F.SilkS) (width 0.12))
  (fp_line (start -0.855 16.31) (end -1.21 16.31) (layer F.SilkS) (width 0.12))
  (fp_line (start -1.21 17) (end -1.21 19) (layer F.SilkS) (width 0.12))
  (fp_line (start -1.21 19) (end -7.68 19) (layer F.SilkS) (width 0.12))
  (fp_line (start -7.68 19) (end -7.68 17) (layer F.SilkS) (width 0.12))
  (fp_line (start -7.68 17) (end -1.21 17) (layer F.SilkS) (width 0.12))
  (fp_line (start -0.855 17.69) (end -1.21 17.69) (layer F.SilkS) (width 0.12))
  (fp_line (start -0.855 18.31) (end -1.21 18.31) (layer F.SilkS) (width 0.12))
  (fp_line (start -1.21 19) (end -1.21 21) (layer F.SilkS) (width 0.12))
  (fp_line (start -1.21 21) (end -7.68 21) (layer F.SilkS) (width 0.12))
  (fp_line (start -7.68 21) (end -7.68 19) (layer F.SilkS) (width 0.12))
  (fp_line (start -7.68 19) (end -1.21 19) (layer F.SilkS) (width 0.12))
  (fp_line (start -0.855 19.69) (end -1.21 19.69) (layer F.SilkS) (width 0.12))
  (fp_line (start -0.855 20.31) (end -1.21 20.31) (layer F.SilkS) (width 0.12))
  (fp_line (start -1.21 21) (end -1.21 23) (layer F.SilkS) (width 0.12))
  (fp_line (start -1.21 23) (end -7.68 23) (layer F.SilkS) (width 0.12))
  (fp_line (start -7.68 23) (end -7.68 21) (layer F.SilkS) (width 0.12))
  (fp_line (start -7.68 21) (end -1.21 21) (layer F.SilkS) (width 0.12))
  (fp_line (start -0.855 21.69) (end -1.21 21.69) (layer F.SilkS) (width 0.12))
  (fp_line (start -0.855 22.31) (end -1.21 22.31) (layer F.SilkS) (width 0.12))
  (fp_line (start -1.21 23) (end -1.21 25) (layer F.SilkS) (width 0.12))
  (fp_line (start -1.21 25) (end -7.68 25) (layer F.SilkS) (width 0.12))
  (fp_line (start -7.68 25) (end -7.68 23) (layer F.SilkS) (width 0.12))
  (fp_line (start -7.68 23) (end -1.21 23) (layer F.SilkS) (width 0.12))
  (fp_line (start -0.855 23.69) (end -1.21 23.69) (layer F.SilkS) (width 0.12))
  (fp_line (start -0.855 24.31) (end -1.21 24.31) (layer F.SilkS) (width 0.12))
  (fp_line (start -1.21 25) (end -1.21 27) (layer F.SilkS) (width 0.12))
  (fp_line (start -1.21 27) (end -7.68 27) (layer F.SilkS) (width 0.12))
  (fp_line (start -7.68 27) (end -7.68 25) (layer F.SilkS) (width 0.12))
  (fp_line (start -7.68 25) (end -1.21 25) (layer F.SilkS) (width 0.12))
  (fp_line (start -0.855 25.69) (end -1.21 25.69) (layer F.SilkS) (width 0.12))
  (fp_line (start -0.855 26.31) (end -1.21 26.31) (layer F.SilkS) (width 0.12))
  (fp_line (start -1.21 27) (end -1.21 29) (layer F.SilkS) (width 0.12))
  (fp_line (start -1.21 29) (end -7.68 29) (layer F.SilkS) (width 0.12))
  (fp_line (start -7.68 29) (end -7.68 27) (layer F.SilkS) (width 0.12))
  (fp_line (start -7.68 27) (end -1.21 27) (layer F.SilkS) (width 0.12))
  (fp_line (start -0.855 27.69) (end -1.21 27.69) (layer F.SilkS) (width 0.12))
  (fp_line (start -0.855 28.31) (end -1.21 28.31) (layer F.SilkS) (width 0.12))
  (fp_line (start -1.21 29) (end -1.21 31) (layer F.SilkS) (width 0.12))
  (fp_line (start -1.21 31) (end -7.68 31) (layer F.SilkS) (width 0.12))
  (fp_line (start -7.68 31) (end -7.68 29) (layer F.SilkS) (width 0.12))
  (fp_line (start -7.68 29) (end -1.21 29) (layer F.SilkS) (width 0.12))
  (fp_line (start -0.855 29.69) (end -1.21 29.69) (layer F.SilkS) (width 0.12))
  (fp_line (start -0.855 30.31) (end -1.21 30.31) (layer F.SilkS) (width 0.12))
  (fp_line (start -1.21 31) (end -1.21 33) (layer F.SilkS) (width 0.12))
  (fp_line (start -1.21 33) (end -7.68 33) (layer F.SilkS) (width 0.12))
  (fp_line (start -7.68 33) (end -7.68 31) (layer F.SilkS) (width 0.12))
  (fp_line (start -7.68 31) (end -1.21 31) (layer F.SilkS) (width 0.12))
  (fp_line (start -0.855 31.69) (end -1.21 31.69) (layer F.SilkS) (width 0.12))
  (fp_line (start -0.855 32.31) (end -1.21 32.31) (layer F.SilkS) (width 0.12))
  (fp_line (start -1.21 33) (end -1.21 35) (layer F.SilkS) (width 0.12))
  (fp_line (start -1.21 35) (end -7.68 35) (layer F.SilkS) (width 0.12))
  (fp_line (start -7.68 35) (end -7.68 33) (layer F.SilkS) (width 0.12))
  (fp_line (start -7.68 33) (end -1.21 33) (layer F.SilkS) (width 0.12))
  (fp_line (start -0.855 33.69) (end -1.21 33.69) (layer F.SilkS) (width 0.12))
  (fp_line (start -0.855 34.31) (end -1.21 34.31) (layer F.SilkS) (width 0.12))
  (fp_line (start -1.21 35) (end -1.21 37) (layer F.SilkS) (width 0.12))
  (fp_line (start -1.21 37) (end -7.68 37) (layer F.SilkS) (width 0.12))
  (fp_line (start -7.68 37) (end -7.68 35) (layer F.SilkS) (width 0.12))
  (fp_line (start -7.68 35) (end -1.21 35) (layer F.SilkS) (width 0.12))
  (fp_line (start -0.855 35.69) (end -1.21 35.69) (layer F.SilkS) (width 0.12))
  (fp_line (start -0.855 36.31) (end -1.21 36.31) (layer F.SilkS) (width 0.12))
  (fp_line (start -1.21 37) (end -1.21 39) (layer F.SilkS) (width 0.12))
  (fp_line (start -1.21 39) (end -7.68 39) (layer F.SilkS) (width 0.12))
  (fp_line (start -7.68 39) (end -7.68 37) (layer F.SilkS) (width 0.12))
  (fp_line (start -7.68 37) (end -1.21 37) (layer F.SilkS) (width 0.12))
  (fp_line (start -0.855 37.69) (end -1.21 37.69) (layer F.SilkS) (width 0.12))
  (fp_line (start -0.855 38.31) (end -1.21 38.31) (layer F.SilkS) (width 0.12))
  (fp_line (start -1.21 39) (end -1.21 41) (layer F.SilkS) (width 0.12))
  (fp_line (start -1.21 41) (end -7.68 41) (layer F.SilkS) (width 0.12))
  (fp_line (start -7.68 41) (end -7.68 39) (layer F.SilkS) (width 0.12))
  (fp_line (start -7.68 39) (end -1.21 39) (layer F.SilkS) (width 0.12))
  (fp_line (start -0.855 39.69) (end -1.21 39.69) (layer F.SilkS) (width 0.12))
  (fp_line (start -0.855 40.31) (end -1.21 40.31) (layer F.SilkS) (width 0.12))
  (fp_line (start -1.21 41) (end -1.21 43) (layer F.SilkS) (width 0.12))
  (fp_line (start -1.21 43) (end -7.68 43) (layer F.SilkS) (width 0.12))
  (fp_line (start -7.68 43) (end -7.68 41) (layer F.SilkS) (width 0.12))
  (fp_line (start -7.68 41) (end -1.21 41) (layer F.SilkS) (width 0.12))
  (fp_line (start -0.855 41.69) (end -1.21 41.69) (layer F.SilkS) (width 0.12))
  (fp_line (start -0.855 42.31) (end -1.21 42.31) (layer F.SilkS) (width 0.12))
  (fp_line (start -1.21 43) (end -1.21 45) (layer F.SilkS) (width 0.12))
  (fp_line (start -1.21 45) (end -7.68 45) (layer F.SilkS) (width 0.12))
  (fp_line (start -7.68 45) (end -7.68 43) (layer F.SilkS) (width 0.12))
  (fp_line (start -7.68 43) (end -1.21 43) (layer F.SilkS) (width 0.12))
  (fp_line (start -0.855 43.69) (end -1.21 43.69) (layer F.SilkS) (width 0.12))
  (fp_line (start -0.855 44.31) (end -1.21 44.31) (layer F.SilkS) (width 0.12))
  (fp_line (start -1.21 45) (end -1.21 47) (layer F.SilkS) (width 0.12))
  (fp_line (start -1.21 47) (end -7.68 47) (layer F.SilkS) (width 0.12))
  (fp_line (start -7.68 47) (end -7.68 45) (layer F.SilkS) (width 0.12))
  (fp_line (start -7.68 45) (end -1.21 45) (layer F.SilkS) (width 0.12))
  (fp_line (start -0.855 45.69) (end -1.21 45.69) (layer F.SilkS) (width 0.12))
  (fp_line (start -0.855 46.31) (end -1.21 46.31) (layer F.SilkS) (width 0.12))
  (fp_line (start -1.21 47) (end -1.21 49) (layer F.SilkS) (width 0.12))
  (fp_line (start -1.21 49) (end -7.68 49) (layer F.SilkS) (width 0.12))
  (fp_line (start -7.68 49) (end -7.68 47) (layer F.SilkS) (width 0.12))
  (fp_line (start -7.68 47) (end -1.21 47) (layer F.SilkS) (width 0.12))
  (fp_line (start -0.855 47.69) (end -1.21 47.69) (layer F.SilkS) (width 0.12))
  (fp_line (start -0.855 48.31) (end -1.21 48.31) (layer F.SilkS) (width 0.12))
  (fp_line (start -1.21 49) (end -1.21 51) (layer F.SilkS) (width 0.12))
  (fp_line (start -1.21 51) (end -7.68 51) (layer F.SilkS) (width 0.12))
  (fp_line (start -7.68 51) (end -7.68 49) (layer F.SilkS) (width 0.12))
  (fp_line (start -7.68 49) (end -1.21 49) (layer F.SilkS) (width 0.12))
  (fp_line (start -0.855 49.69) (end -1.21 49.69) (layer F.SilkS) (width 0.12))
  (fp_line (start -0.855 50.31) (end -1.21 50.31) (layer F.SilkS) (width 0.12))
  (fp_line (start -1.21 51) (end -1.21 53) (layer F.SilkS) (width 0.12))
  (fp_line (start -1.21 53) (end -7.68 53) (layer F.SilkS) (width 0.12))
  (fp_line (start -7.68 53) (end -7.68 51) (layer F.SilkS) (width 0.12))
  (fp_line (start -7.68 51) (end -1.21 51) (layer F.SilkS) (width 0.12))
  (fp_line (start -0.855 51.69) (end -1.21 51.69) (layer F.SilkS) (width 0.12))
  (fp_line (start -0.855 52.31) (end -1.21 52.31) (layer F.SilkS) (width 0.12))
  (fp_line (start -1.21 53) (end -1.21 55) (layer F.SilkS) (width 0.12))
  (fp_line (start -1.21 55) (end -7.68 55) (layer F.SilkS) (width 0.12))
  (fp_line (start -7.68 55) (end -7.68 53) (layer F.SilkS) (width 0.12))
  (fp_line (start -7.68 53) (end -1.21 53) (layer F.SilkS) (width 0.12))
  (fp_line (start -0.855 53.69) (end -1.21 53.69) (layer F.SilkS) (width 0.12))
  (fp_line (start -0.855 54.31) (end -1.21 54.31) (layer F.SilkS) (width 0.12))
  (fp_line (start -1.21 55) (end -1.21 57) (layer F.SilkS) (width 0.12))
  (fp_line (start -1.21 57) (end -7.68 57) (layer F.SilkS) (width 0.12))
  (fp_line (start -7.68 57) (end -7.68 55) (layer F.SilkS) (width 0.12))
  (fp_line (start -7.68 55) (end -1.21 55) (layer F.SilkS) (width 0.12))
  (fp_line (start -0.855 55.69) (end -1.21 55.69) (layer F.SilkS) (width 0.12))
  (fp_line (start -0.855 56.31) (end -1.21 56.31) (layer F.SilkS) (width 0.12))
  (fp_line (start -1.21 57) (end -1.21 59) (layer F.SilkS) (width 0.12))
  (fp_line (start -1.21 59) (end -7.68 59) (layer F.SilkS) (width 0.12))
  (fp_line (start -7.68 59) (end -7.68 57) (layer F.SilkS) (width 0.12))
  (fp_line (start -7.68 57) (end -1.21 57) (layer F.SilkS) (width 0.12))
  (fp_line (start -0.855 57.69) (end -1.21 57.69) (layer F.SilkS) (width 0.12))
  (fp_line (start -0.855 58.31) (end -1.21 58.31) (layer F.SilkS) (width 0.12))
  (fp_line (start -1.21 59) (end -1.21 61) (layer F.SilkS) (width 0.12))
  (fp_line (start -1.21 61) (end -7.68 61) (layer F.SilkS) (width 0.12))
  (fp_line (start -7.68 61) (end -7.68 59) (layer F.SilkS) (width 0.12))
  (fp_line (start -7.68 59) (end -1.21 59) (layer F.SilkS) (width 0.12))
  (fp_line (start -0.855 59.69) (end -1.21 59.69) (layer F.SilkS) (width 0.12))
  (fp_line (start -0.855 60.31) (end -1.21 60.31) (layer F.SilkS) (width 0.12))
  (fp_line (start -1.21 61) (end -1.21 63) (layer F.SilkS) (width 0.12))
  (fp_line (start -1.21 63) (end -7.68 63) (layer F.SilkS) (width 0.12))
  (fp_line (start -7.68 63) (end -7.68 61) (layer F.SilkS) (width 0.12))
  (fp_line (start -7.68 61) (end -1.21 61) (layer F.SilkS) (width 0.12))
  (fp_line (start -0.855 61.69) (end -1.21 61.69) (layer F.SilkS) (width 0.12))
  (fp_line (start -0.855 62.31) (end -1.21 62.31) (layer F.SilkS) (width 0.12))
  (fp_line (start -1.21 63) (end -1.21 65) (layer F.SilkS) (width 0.12))
  (fp_line (start -1.21 65) (end -7.68 65) (layer F.SilkS) (width 0.12))
  (fp_line (start -7.68 65) (end -7.68 63) (layer F.SilkS) (width 0.12))
  (fp_line (start -7.68 63) (end -1.21 63) (layer F.SilkS) (width 0.12))
  (fp_line (start -0.855 63.69) (end -1.21 63.69) (layer F.SilkS) (width 0.12))
  (fp_line (start -0.855 64.31) (end -1.21 64.31) (layer F.SilkS) (width 0.12))
  (fp_line (start -1.21 65) (end -1.21 67) (layer F.SilkS) (width 0.12))
  (fp_line (start -1.21 67) (end -7.68 67) (layer F.SilkS) (width 0.12))
  (fp_line (start -7.68 67) (end -7.68 65) (layer F.SilkS) (width 0.12))
  (fp_line (start -7.68 65) (end -1.21 65) (layer F.SilkS) (width 0.12))
  (fp_line (start -0.855 65.69) (end -1.21 65.69) (layer F.SilkS) (width 0.12))
  (fp_line (start -0.855 66.31) (end -1.21 66.31) (layer F.SilkS) (width 0.12))
  (fp_line (start -1.21 67) (end -1.21 69.06) (layer F.SilkS) (width 0.12))
  (fp_line (start -1.21 69.06) (end -7.68 69.06) (layer F.SilkS) (width 0.12))
  (fp_line (start -7.68 69.06) (end -7.68 67) (layer F.SilkS) (width 0.12))
  (fp_line (start -7.68 67) (end -1.21 67) (layer F.SilkS) (width 0.12))
  (fp_line (start -0.855 67.69) (end -1.21 67.69) (layer F.SilkS) (width 0.12))
  (fp_line (start -0.855 68.31) (end -1.21 68.31) (layer F.SilkS) (width 0.12))
  (fp_line (start 0 -1) (end 1 -1) (layer F.SilkS) (width 0.12))
  (fp_line (start 1 -1) (end 1 0) (layer F.SilkS) (width 0.12))
  (fp_line (start 1.25 -1.25) (end 1.25 69.25) (layer F.CrtYd) (width 0.05))
  (fp_line (start 1.25 69.25) (end -7.9 69.25) (layer F.CrtYd) (width 0.05))
  (fp_line (start -7.9 69.25) (end -7.9 -1.25) (layer F.CrtYd) (width 0.05))
  (fp_line (start -7.9 -1.25) (end 1.25 -1.25) (layer F.CrtYd) (width 0.05))
  (pad 1 thru_hole rect (at 0 0) (size 1.35 1.35) (drill 0.8) (layers *.Cu *.Mask))
  (pad 2 thru_hole oval (at 0 2) (size 1.35 1.35) (drill 0.8) (layers *.Cu *.Mask))
  (pad 3 thru_hole oval (at 0 4) (size 1.35 1.35) (drill 0.8) (layers *.Cu *.Mask))
  (pad 4 thru_hole oval (at 0 6) (size 1.35 1.35) (drill 0.8) (layers *.Cu *.Mask))
  (pad 5 thru_hole oval (at 0 8) (size 1.35 1.35) (drill 0.8) (layers *.Cu *.Mask))
  (pad 6 thru_hole oval (at 0 10) (size 1.35 1.35) (drill 0.8) (layers *.Cu *.Mask))
  (pad 7 thru_hole oval (at 0 12) (size 1.35 1.35) (drill 0.8) (layers *.Cu *.Mask))
  (pad 8 thru_hole oval (at 0 14) (size 1.35 1.35) (drill 0.8) (layers *.Cu *.Mask))
  (pad 9 thru_hole oval (at 0 16) (size 1.35 1.35) (drill 0.8) (layers *.Cu *.Mask))
  (pad 10 thru_hole oval (at 0 18) (size 1.35 1.35) (drill 0.8) (layers *.Cu *.Mask))
  (pad 11 thru_hole oval (at 0 20) (size 1.35 1.35) (drill 0.8) (layers *.Cu *.Mask))
  (pad 12 thru_hole oval (at 0 22) (size 1.35 1.35) (drill 0.8) (layers *.Cu *.Mask))
  (pad 13 thru_hole oval (at 0 24) (size 1.35 1.35) (drill 0.8) (layers *.Cu *.Mask))
  (pad 14 thru_hole oval (at 0 26) (size 1.35 1.35) (drill 0.8) (layers *.Cu *.Mask))
  (pad 15 thru_hole oval (at 0 28) (size 1.35 1.35) (drill 0.8) (layers *.Cu *.Mask))
  (pad 16 thru_hole oval (at 0 30) (size 1.35 1.35) (drill 0.8) (layers *.Cu *.Mask))
  (pad 17 thru_hole oval (at 0 32) (size 1.35 1.35) (drill 0.8) (layers *.Cu *.Mask))
  (pad 18 thru_hole oval (at 0 34) (size 1.35 1.35) (drill 0.8) (layers *.Cu *.Mask))
  (pad 19 thru_hole oval (at 0 36) (size 1.35 1.35) (drill 0.8) (layers *.Cu *.Mask))
  (pad 20 thru_hole oval (at 0 38) (size 1.35 1.35) (drill 0.8) (layers *.Cu *.Mask))
  (pad 21 thru_hole oval (at 0 40) (size 1.35 1.35) (drill 0.8) (layers *.Cu *.Mask))
  (pad 22 thru_hole oval (at 0 42) (size 1.35 1.35) (drill 0.8) (layers *.Cu *.Mask))
  (pad 23 thru_hole oval (at 0 44) (size 1.35 1.35) (drill 0.8) (layers *.Cu *.Mask))
  (pad 24 thru_hole oval (at 0 46) (size 1.35 1.35) (drill 0.8) (layers *.Cu *.Mask))
  (pad 25 thru_hole oval (at 0 48) (size 1.35 1.35) (drill 0.8) (layers *.Cu *.Mask))
  (pad 26 thru_hole oval (at 0 50) (size 1.35 1.35) (drill 0.8) (layers *.Cu *.Mask))
  (pad 27 thru_hole oval (at 0 52) (size 1.35 1.35) (drill 0.8) (layers *.Cu *.Mask))
  (pad 28 thru_hole oval (at 0 54) (size 1.35 1.35) (drill 0.8) (layers *.Cu *.Mask))
  (pad 29 thru_hole oval (at 0 56) (size 1.35 1.35) (drill 0.8) (layers *.Cu *.Mask))
  (pad 30 thru_hole oval (at 0 58) (size 1.35 1.35) (drill 0.8) (layers *.Cu *.Mask))
  (pad 31 thru_hole oval (at 0 60) (size 1.35 1.35) (drill 0.8) (layers *.Cu *.Mask))
  (pad 32 thru_hole oval (at 0 62) (size 1.35 1.35) (drill 0.8) (layers *.Cu *.Mask))
  (pad 33 thru_hole oval (at 0 64) (size 1.35 1.35) (drill 0.8) (layers *.Cu *.Mask))
  (pad 34 thru_hole oval (at 0 66) (size 1.35 1.35) (drill 0.8) (layers *.Cu *.Mask))
  (pad 35 thru_hole oval (at 0 68) (size 1.35 1.35) (drill 0.8) (layers *.Cu *.Mask))
  (model Socket_Strips.3dshapes/Socket_Strip_Angled_1x35_Pitch2.00mm.wrl
    (at (xyz 0 -1.338583 0))
    (scale (xyz 1 1 1))
    (rotate (xyz 0 0 90))
  )
)