(module Socket_Strip_Straight_2x01_Pitch2.00mm (layer F.Cu) (tedit 588DE95D)
  (descr "Through hole straight socket strip, 2x01, 2.00mm pitch, double rows")
  (tags "Through hole socket strip THT 2x01 2.00mm double row")
  (fp_text reference REF** (at -1 -2.06) (layer F.SilkS)
    (effects (font (size 1 1) (thickness 0.15)))
  )
  (fp_text value Socket_Strip_Straight_2x01_Pitch2.00mm (at -1 2.06) (layer F.Fab)
    (effects (font (size 1 1) (thickness 0.15)))
  )
  (fp_line (start -3 -1) (end -3 1) (layer F.Fab) (width 0.1))
  (fp_line (start -3 1) (end 1 1) (layer F.Fab) (width 0.1))
  (fp_line (start 1 1) (end 1 -1) (layer F.Fab) (width 0.1))
  (fp_line (start 1 -1) (end -3 -1) (layer F.Fab) (width 0.1))
  (fp_line (start 1.06 1) (end 1.06 1.06) (layer F.SilkS) (width 0.12))
  (fp_line (start 1.06 1.06) (end -3.06 1.06) (layer F.SilkS) (width 0.12))
  (fp_line (start -3.06 1.06) (end -3.06 -1.06) (layer F.SilkS) (width 0.12))
  (fp_line (start -3.06 -1.06) (end -1 -1.06) (layer F.SilkS) (width 0.12))
  (fp_line (start -1 -1.06) (end -1 1) (layer F.SilkS) (width 0.12))
  (fp_line (start -1 1) (end 1.06 1) (layer F.SilkS) (width 0.12))
  (fp_line (start 1.06 0) (end 1.06 -1.06) (layer F.SilkS) (width 0.12))
  (fp_line (start 1.06 -1.06) (end 0.06 -1.06) (layer F.SilkS) (width 0.12))
  (fp_line (start -3.25 -1.25) (end -3.25 1.25) (layer F.CrtYd) (width 0.05))
  (fp_line (start -3.25 1.25) (end 1.25 1.25) (layer F.CrtYd) (width 0.05))
  (fp_line (start 1.25 1.25) (end 1.25 -1.25) (layer F.CrtYd) (width 0.05))
  (fp_line (start 1.25 -1.25) (end -3.25 -1.25) (layer F.CrtYd) (width 0.05))
  (pad 1 thru_hole rect (at 0 0) (size 1.35 1.35) (drill 0.8) (layers *.Cu *.Mask))
  (pad 2 thru_hole oval (at -2 0) (size 1.35 1.35) (drill 0.8) (layers *.Cu *.Mask))
  (model Socket_Strips.3dshapes/Socket_Strip_Straight_2x01_Pitch2.00mm.wrl
    (at (xyz 0 0 0))
    (scale (xyz 1 1 1))
    (rotate (xyz 0 0 0))
  )
)