(module Socket_Strip_Angled_2x15_Pitch2.00mm (layer F.Cu) (tedit 588DE95E)
  (descr "Through hole angled socket strip, 2x15, 2.00mm pitch, 6.35mm socket length, double rows")
  (tags "Through hole angled socket strip THT 2x15 2.00mm double row")
  (fp_text reference REF** (at -4.31 -2) (layer F.SilkS)
    (effects (font (size 1 1) (thickness 0.15)))
  )
  (fp_text value Socket_Strip_Angled_2x15_Pitch2.00mm (at -4.31 30) (layer F.Fab)
    (effects (font (size 1 1) (thickness 0.15)))
  )
  (fp_line (start -3.27 -1) (end -3.27 1) (layer F.Fab) (width 0.1))
  (fp_line (start -3.27 1) (end -9.62 1) (layer F.Fab) (width 0.1))
  (fp_line (start -9.62 1) (end -9.62 -1) (layer F.Fab) (width 0.1))
  (fp_line (start -9.62 -1) (end -3.27 -1) (layer F.Fab) (width 0.1))
  (fp_line (start 0 -0.25) (end 0 0.25) (layer F.Fab) (width 0.1))
  (fp_line (start 0 0.25) (end -3.27 0.25) (layer F.Fab) (width 0.1))
  (fp_line (start -3.27 0.25) (end -3.27 -0.25) (layer F.Fab) (width 0.1))
  (fp_line (start -3.27 -0.25) (end 0 -0.25) (layer F.Fab) (width 0.1))
  (fp_line (start -3.27 1) (end -3.27 3) (layer F.Fab) (width 0.1))
  (fp_line (start -3.27 3) (end -9.62 3) (layer F.Fab) (width 0.1))
  (fp_line (start -9.62 3) (end -9.62 1) (layer F.Fab) (width 0.1))
  (fp_line (start -9.62 1) (end -3.27 1) (layer F.Fab) (width 0.1))
  (fp_line (start 0 1.75) (end 0 2.25) (layer F.Fab) (width 0.1))
  (fp_line (start 0 2.25) (end -3.27 2.25) (layer F.Fab) (width 0.1))
  (fp_line (start -3.27 2.25) (end -3.27 1.75) (layer F.Fab) (width 0.1))
  (fp_line (start -3.27 1.75) (end 0 1.75) (layer F.Fab) (width 0.1))
  (fp_line (start -3.27 3) (end -3.27 5) (layer F.Fab) (width 0.1))
  (fp_line (start -3.27 5) (end -9.62 5) (layer F.Fab) (width 0.1))
  (fp_line (start -9.62 5) (end -9.62 3) (layer F.Fab) (width 0.1))
  (fp_line (start -9.62 3) (end -3.27 3) (layer F.Fab) (width 0.1))
  (fp_line (start 0 3.75) (end 0 4.25) (layer F.Fab) (width 0.1))
  (fp_line (start 0 4.25) (end -3.27 4.25) (layer F.Fab) (width 0.1))
  (fp_line (start -3.27 4.25) (end -3.27 3.75) (layer F.Fab) (width 0.1))
  (fp_line (start -3.27 3.75) (end 0 3.75) (layer F.Fab) (width 0.1))
  (fp_line (start -3.27 5) (end -3.27 7) (layer F.Fab) (width 0.1))
  (fp_line (start -3.27 7) (end -9.62 7) (layer F.Fab) (width 0.1))
  (fp_line (start -9.62 7) (end -9.62 5) (layer F.Fab) (width 0.1))
  (fp_line (start -9.62 5) (end -3.27 5) (layer F.Fab) (width 0.1))
  (fp_line (start 0 5.75) (end 0 6.25) (layer F.Fab) (width 0.1))
  (fp_line (start 0 6.25) (end -3.27 6.25) (layer F.Fab) (width 0.1))
  (fp_line (start -3.27 6.25) (end -3.27 5.75) (layer F.Fab) (width 0.1))
  (fp_line (start -3.27 5.75) (end 0 5.75) (layer F.Fab) (width 0.1))
  (fp_line (start -3.27 7) (end -3.27 9) (layer F.Fab) (width 0.1))
  (fp_line (start -3.27 9) (end -9.62 9) (layer F.Fab) (width 0.1))
  (fp_line (start -9.62 9) (end -9.62 7) (layer F.Fab) (width 0.1))
  (fp_line (start -9.62 7) (end -3.27 7) (layer F.Fab) (width 0.1))
  (fp_line (start 0 7.75) (end 0 8.25) (layer F.Fab) (width 0.1))
  (fp_line (start 0 8.25) (end -3.27 8.25) (layer F.Fab) (width 0.1))
  (fp_line (start -3.27 8.25) (end -3.27 7.75) (layer F.Fab) (width 0.1))
  (fp_line (start -3.27 7.75) (end 0 7.75) (layer F.Fab) (width 0.1))
  (fp_line (start -3.27 9) (end -3.27 11) (layer F.Fab) (width 0.1))
  (fp_line (start -3.27 11) (end -9.62 11) (layer F.Fab) (width 0.1))
  (fp_line (start -9.62 11) (end -9.62 9) (layer F.Fab) (width 0.1))
  (fp_line (start -9.62 9) (end -3.27 9) (layer F.Fab) (width 0.1))
  (fp_line (start 0 9.75) (end 0 10.25) (layer F.Fab) (width 0.1))
  (fp_line (start 0 10.25) (end -3.27 10.25) (layer F.Fab) (width 0.1))
  (fp_line (start -3.27 10.25) (end -3.27 9.75) (layer F.Fab) (width 0.1))
  (fp_line (start -3.27 9.75) (end 0 9.75) (layer F.Fab) (width 0.1))
  (fp_line (start -3.27 11) (end -3.27 13) (layer F.Fab) (width 0.1))
  (fp_line (start -3.27 13) (end -9.62 13) (layer F.Fab) (width 0.1))
  (fp_line (start -9.62 13) (end -9.62 11) (layer F.Fab) (width 0.1))
  (fp_line (start -9.62 11) (end -3.27 11) (layer F.Fab) (width 0.1))
  (fp_line (start 0 11.75) (end 0 12.25) (layer F.Fab) (width 0.1))
  (fp_line (start 0 12.25) (end -3.27 12.25) (layer F.Fab) (width 0.1))
  (fp_line (start -3.27 12.25) (end -3.27 11.75) (layer F.Fab) (width 0.1))
  (fp_line (start -3.27 11.75) (end 0 11.75) (layer F.Fab) (width 0.1))
  (fp_line (start -3.27 13) (end -3.27 15) (layer F.Fab) (width 0.1))
  (fp_line (start -3.27 15) (end -9.62 15) (layer F.Fab) (width 0.1))
  (fp_line (start -9.62 15) (end -9.62 13) (layer F.Fab) (width 0.1))
  (fp_line (start -9.62 13) (end -3.27 13) (layer F.Fab) (width 0.1))
  (fp_line (start 0 13.75) (end 0 14.25) (layer F.Fab) (width 0.1))
  (fp_line (start 0 14.25) (end -3.27 14.25) (layer F.Fab) (width 0.1))
  (fp_line (start -3.27 14.25) (end -3.27 13.75) (layer F.Fab) (width 0.1))
  (fp_line (start -3.27 13.75) (end 0 13.75) (layer F.Fab) (width 0.1))
  (fp_line (start -3.27 15) (end -3.27 17) (layer F.Fab) (width 0.1))
  (fp_line (start -3.27 17) (end -9.62 17) (layer F.Fab) (width 0.1))
  (fp_line (start -9.62 17) (end -9.62 15) (layer F.Fab) (width 0.1))
  (fp_line (start -9.62 15) (end -3.27 15) (layer F.Fab) (width 0.1))
  (fp_line (start 0 15.75) (end 0 16.25) (layer F.Fab) (width 0.1))
  (fp_line (start 0 16.25) (end -3.27 16.25) (layer F.Fab) (width 0.1))
  (fp_line (start -3.27 16.25) (end -3.27 15.75) (layer F.Fab) (width 0.1))
  (fp_line (start -3.27 15.75) (end 0 15.75) (layer F.Fab) (width 0.1))
  (fp_line (start -3.27 17) (end -3.27 19) (layer F.Fab) (width 0.1))
  (fp_line (start -3.27 19) (end -9.62 19) (layer F.Fab) (width 0.1))
  (fp_line (start -9.62 19) (end -9.62 17) (layer F.Fab) (width 0.1))
  (fp_line (start -9.62 17) (end -3.27 17) (layer F.Fab) (width 0.1))
  (fp_line (start 0 17.75) (end 0 18.25) (layer F.Fab) (width 0.1))
  (fp_line (start 0 18.25) (end -3.27 18.25) (layer F.Fab) (width 0.1))
  (fp_line (start -3.27 18.25) (end -3.27 17.75) (layer F.Fab) (width 0.1))
  (fp_line (start -3.27 17.75) (end 0 17.75) (layer F.Fab) (width 0.1))
  (fp_line (start -3.27 19) (end -3.27 21) (layer F.Fab) (width 0.1))
  (fp_line (start -3.27 21) (end -9.62 21) (layer F.Fab) (width 0.1))
  (fp_line (start -9.62 21) (end -9.62 19) (layer F.Fab) (width 0.1))
  (fp_line (start -9.62 19) (end -3.27 19) (layer F.Fab) (width 0.1))
  (fp_line (start 0 19.75) (end 0 20.25) (layer F.Fab) (width 0.1))
  (fp_line (start 0 20.25) (end -3.27 20.25) (layer F.Fab) (width 0.1))
  (fp_line (start -3.27 20.25) (end -3.27 19.75) (layer F.Fab) (width 0.1))
  (fp_line (start -3.27 19.75) (end 0 19.75) (layer F.Fab) (width 0.1))
  (fp_line (start -3.27 21) (end -3.27 23) (layer F.Fab) (width 0.1))
  (fp_line (start -3.27 23) (end -9.62 23) (layer F.Fab) (width 0.1))
  (fp_line (start -9.62 23) (end -9.62 21) (layer F.Fab) (width 0.1))
  (fp_line (start -9.62 21) (end -3.27 21) (layer F.Fab) (width 0.1))
  (fp_line (start 0 21.75) (end 0 22.25) (layer F.Fab) (width 0.1))
  (fp_line (start 0 22.25) (end -3.27 22.25) (layer F.Fab) (width 0.1))
  (fp_line (start -3.27 22.25) (end -3.27 21.75) (layer F.Fab) (width 0.1))
  (fp_line (start -3.27 21.75) (end 0 21.75) (layer F.Fab) (width 0.1))
  (fp_line (start -3.27 23) (end -3.27 25) (layer F.Fab) (width 0.1))
  (fp_line (start -3.27 25) (end -9.62 25) (layer F.Fab) (width 0.1))
  (fp_line (start -9.62 25) (end -9.62 23) (layer F.Fab) (width 0.1))
  (fp_line (start -9.62 23) (end -3.27 23) (layer F.Fab) (width 0.1))
  (fp_line (start 0 23.75) (end 0 24.25) (layer F.Fab) (width 0.1))
  (fp_line (start 0 24.25) (end -3.27 24.25) (layer F.Fab) (width 0.1))
  (fp_line (start -3.27 24.25) (end -3.27 23.75) (layer F.Fab) (width 0.1))
  (fp_line (start -3.27 23.75) (end 0 23.75) (layer F.Fab) (width 0.1))
  (fp_line (start -3.27 25) (end -3.27 27) (layer F.Fab) (width 0.1))
  (fp_line (start -3.27 27) (end -9.62 27) (layer F.Fab) (width 0.1))
  (fp_line (start -9.62 27) (end -9.62 25) (layer F.Fab) (width 0.1))
  (fp_line (start -9.62 25) (end -3.27 25) (layer F.Fab) (width 0.1))
  (fp_line (start 0 25.75) (end 0 26.25) (layer F.Fab) (width 0.1))
  (fp_line (start 0 26.25) (end -3.27 26.25) (layer F.Fab) (width 0.1))
  (fp_line (start -3.27 26.25) (end -3.27 25.75) (layer F.Fab) (width 0.1))
  (fp_line (start -3.27 25.75) (end 0 25.75) (layer F.Fab) (width 0.1))
  (fp_line (start -3.27 27) (end -3.27 29) (layer F.Fab) (width 0.1))
  (fp_line (start -3.27 29) (end -9.62 29) (layer F.Fab) (width 0.1))
  (fp_line (start -9.62 29) (end -9.62 27) (layer F.Fab) (width 0.1))
  (fp_line (start -9.62 27) (end -3.27 27) (layer F.Fab) (width 0.1))
  (fp_line (start 0 27.75) (end 0 28.25) (layer F.Fab) (width 0.1))
  (fp_line (start 0 28.25) (end -3.27 28.25) (layer F.Fab) (width 0.1))
  (fp_line (start -3.27 28.25) (end -3.27 27.75) (layer F.Fab) (width 0.1))
  (fp_line (start -3.27 27.75) (end 0 27.75) (layer F.Fab) (width 0.1))
  (fp_line (start -3.21 -1.06) (end -3.21 1) (layer F.SilkS) (width 0.12))
  (fp_line (start -3.21 1) (end -9.68 1) (layer F.SilkS) (width 0.12))
  (fp_line (start -9.68 1) (end -9.68 -1.06) (layer F.SilkS) (width 0.12))
  (fp_line (start -9.68 -1.06) (end -3.21 -1.06) (layer F.SilkS) (width 0.12))
  (fp_line (start -2.855 -0.31) (end -3.21 -0.31) (layer F.SilkS) (width 0.12))
  (fp_line (start -2.855 0.31) (end -3.21 0.31) (layer F.SilkS) (width 0.12))
  (fp_line (start -0.855 -0.31) (end -1.145 -0.31) (layer F.SilkS) (width 0.12))
  (fp_line (start -0.855 0.31) (end -1.145 0.31) (layer F.SilkS) (width 0.12))
  (fp_line (start -3.21 -0.88) (end -9.68 -0.88) (layer F.SilkS) (width 0.12))
  (fp_line (start -3.21 -0.76) (end -9.68 -0.76) (layer F.SilkS) (width 0.12))
  (fp_line (start -3.21 -0.64) (end -9.68 -0.64) (layer F.SilkS) (width 0.12))
  (fp_line (start -3.21 -0.52) (end -9.68 -0.52) (layer F.SilkS) (width 0.12))
  (fp_line (start -3.21 -0.4) (end -9.68 -0.4) (layer F.SilkS) (width 0.12))
  (fp_line (start -3.21 -0.28) (end -9.68 -0.28) (layer F.SilkS) (width 0.12))
  (fp_line (start -3.21 -0.16) (end -9.68 -0.16) (layer F.SilkS) (width 0.12))
  (fp_line (start -3.21 -0.04) (end -9.68 -0.04) (layer F.SilkS) (width 0.12))
  (fp_line (start -3.21 0.08) (end -9.68 0.08) (layer F.SilkS) (width 0.12))
  (fp_line (start -3.21 0.2) (end -9.68 0.2) (layer F.SilkS) (width 0.12))
  (fp_line (start -3.21 0.32) (end -9.68 0.32) (layer F.SilkS) (width 0.12))
  (fp_line (start -3.21 0.44) (end -9.68 0.44) (layer F.SilkS) (width 0.12))
  (fp_line (start -3.21 0.56) (end -9.68 0.56) (layer F.SilkS) (width 0.12))
  (fp_line (start -3.21 0.68) (end -9.68 0.68) (layer F.SilkS) (width 0.12))
  (fp_line (start -3.21 0.8) (end -9.68 0.8) (layer F.SilkS) (width 0.12))
  (fp_line (start -3.21 0.92) (end -9.68 0.92) (layer F.SilkS) (width 0.12))
  (fp_line (start -3.21 1.04) (end -9.68 1.04) (layer F.SilkS) (width 0.12))
  (fp_line (start -3.21 1) (end -3.21 3) (layer F.SilkS) (width 0.12))
  (fp_line (start -3.21 3) (end -9.68 3) (layer F.SilkS) (width 0.12))
  (fp_line (start -9.68 3) (end -9.68 1) (layer F.SilkS) (width 0.12))
  (fp_line (start -9.68 1) (end -3.21 1) (layer F.SilkS) (width 0.12))
  (fp_line (start -2.855 1.69) (end -3.21 1.69) (layer F.SilkS) (width 0.12))
  (fp_line (start -2.855 2.31) (end -3.21 2.31) (layer F.SilkS) (width 0.12))
  (fp_line (start -0.855 1.69) (end -1.145 1.69) (layer F.SilkS) (width 0.12))
  (fp_line (start -0.855 2.31) (end -1.145 2.31) (layer F.SilkS) (width 0.12))
  (fp_line (start -3.21 3) (end -3.21 5) (layer F.SilkS) (width 0.12))
  (fp_line (start -3.21 5) (end -9.68 5) (layer F.SilkS) (width 0.12))
  (fp_line (start -9.68 5) (end -9.68 3) (layer F.SilkS) (width 0.12))
  (fp_line (start -9.68 3) (end -3.21 3) (layer F.SilkS) (width 0.12))
  (fp_line (start -2.855 3.69) (end -3.21 3.69) (layer F.SilkS) (width 0.12))
  (fp_line (start -2.855 4.31) (end -3.21 4.31) (layer F.SilkS) (width 0.12))
  (fp_line (start -0.855 3.69) (end -1.145 3.69) (layer F.SilkS) (width 0.12))
  (fp_line (start -0.855 4.31) (end -1.145 4.31) (layer F.SilkS) (width 0.12))
  (fp_line (start -3.21 5) (end -3.21 7) (layer F.SilkS) (width 0.12))
  (fp_line (start -3.21 7) (end -9.68 7) (layer F.SilkS) (width 0.12))
  (fp_line (start -9.68 7) (end -9.68 5) (layer F.SilkS) (width 0.12))
  (fp_line (start -9.68 5) (end -3.21 5) (layer F.SilkS) (width 0.12))
  (fp_line (start -2.855 5.69) (end -3.21 5.69) (layer F.SilkS) (width 0.12))
  (fp_line (start -2.855 6.31) (end -3.21 6.31) (layer F.SilkS) (width 0.12))
  (fp_line (start -0.855 5.69) (end -1.145 5.69) (layer F.SilkS) (width 0.12))
  (fp_line (start -0.855 6.31) (end -1.145 6.31) (layer F.SilkS) (width 0.12))
  (fp_line (start -3.21 7) (end -3.21 9) (layer F.SilkS) (width 0.12))
  (fp_line (start -3.21 9) (end -9.68 9) (layer F.SilkS) (width 0.12))
  (fp_line (start -9.68 9) (end -9.68 7) (layer F.SilkS) (width 0.12))
  (fp_line (start -9.68 7) (end -3.21 7) (layer F.SilkS) (width 0.12))
  (fp_line (start -2.855 7.69) (end -3.21 7.69) (layer F.SilkS) (width 0.12))
  (fp_line (start -2.855 8.31) (end -3.21 8.31) (layer F.SilkS) (width 0.12))
  (fp_line (start -0.855 7.69) (end -1.145 7.69) (layer F.SilkS) (width 0.12))
  (fp_line (start -0.855 8.31) (end -1.145 8.31) (layer F.SilkS) (width 0.12))
  (fp_line (start -3.21 9) (end -3.21 11) (layer F.SilkS) (width 0.12))
  (fp_line (start -3.21 11) (end -9.68 11) (layer F.SilkS) (width 0.12))
  (fp_line (start -9.68 11) (end -9.68 9) (layer F.SilkS) (width 0.12))
  (fp_line (start -9.68 9) (end -3.21 9) (layer F.SilkS) (width 0.12))
  (fp_line (start -2.855 9.69) (end -3.21 9.69) (layer F.SilkS) (width 0.12))
  (fp_line (start -2.855 10.31) (end -3.21 10.31) (layer F.SilkS) (width 0.12))
  (fp_line (start -0.855 9.69) (end -1.145 9.69) (layer F.SilkS) (width 0.12))
  (fp_line (start -0.855 10.31) (end -1.145 10.31) (layer F.SilkS) (width 0.12))
  (fp_line (start -3.21 11) (end -3.21 13) (layer F.SilkS) (width 0.12))
  (fp_line (start -3.21 13) (end -9.68 13) (layer F.SilkS) (width 0.12))
  (fp_line (start -9.68 13) (end -9.68 11) (layer F.SilkS) (width 0.12))
  (fp_line (start -9.68 11) (end -3.21 11) (layer F.SilkS) (width 0.12))
  (fp_line (start -2.855 11.69) (end -3.21 11.69) (layer F.SilkS) (width 0.12))
  (fp_line (start -2.855 12.31) (end -3.21 12.31) (layer F.SilkS) (width 0.12))
  (fp_line (start -0.855 11.69) (end -1.145 11.69) (layer F.SilkS) (width 0.12))
  (fp_line (start -0.855 12.31) (end -1.145 12.31) (layer F.SilkS) (width 0.12))
  (fp_line (start -3.21 13) (end -3.21 15) (layer F.SilkS) (width 0.12))
  (fp_line (start -3.21 15) (end -9.68 15) (layer F.SilkS) (width 0.12))
  (fp_line (start -9.68 15) (end -9.68 13) (layer F.SilkS) (width 0.12))
  (fp_line (start -9.68 13) (end -3.21 13) (layer F.SilkS) (width 0.12))
  (fp_line (start -2.855 13.69) (end -3.21 13.69) (layer F.SilkS) (width 0.12))
  (fp_line (start -2.855 14.31) (end -3.21 14.31) (layer F.SilkS) (width 0.12))
  (fp_line (start -0.855 13.69) (end -1.145 13.69) (layer F.SilkS) (width 0.12))
  (fp_line (start -0.855 14.31) (end -1.145 14.31) (layer F.SilkS) (width 0.12))
  (fp_line (start -3.21 15) (end -3.21 17) (layer F.SilkS) (width 0.12))
  (fp_line (start -3.21 17) (end -9.68 17) (layer F.SilkS) (width 0.12))
  (fp_line (start -9.68 17) (end -9.68 15) (layer F.SilkS) (width 0.12))
  (fp_line (start -9.68 15) (end -3.21 15) (layer F.SilkS) (width 0.12))
  (fp_line (start -2.855 15.69) (end -3.21 15.69) (layer F.SilkS) (width 0.12))
  (fp_line (start -2.855 16.31) (end -3.21 16.31) (layer F.SilkS) (width 0.12))
  (fp_line (start -0.855 15.69) (end -1.145 15.69) (layer F.SilkS) (width 0.12))
  (fp_line (start -0.855 16.31) (end -1.145 16.31) (layer F.SilkS) (width 0.12))
  (fp_line (start -3.21 17) (end -3.21 19) (layer F.SilkS) (width 0.12))
  (fp_line (start -3.21 19) (end -9.68 19) (layer F.SilkS) (width 0.12))
  (fp_line (start -9.68 19) (end -9.68 17) (layer F.SilkS) (width 0.12))
  (fp_line (start -9.68 17) (end -3.21 17) (layer F.SilkS) (width 0.12))
  (fp_line (start -2.855 17.69) (end -3.21 17.69) (layer F.SilkS) (width 0.12))
  (fp_line (start -2.855 18.31) (end -3.21 18.31) (layer F.SilkS) (width 0.12))
  (fp_line (start -0.855 17.69) (end -1.145 17.69) (layer F.SilkS) (width 0.12))
  (fp_line (start -0.855 18.31) (end -1.145 18.31) (layer F.SilkS) (width 0.12))
  (fp_line (start -3.21 19) (end -3.21 21) (layer F.SilkS) (width 0.12))
  (fp_line (start -3.21 21) (end -9.68 21) (layer F.SilkS) (width 0.12))
  (fp_line (start -9.68 21) (end -9.68 19) (layer F.SilkS) (width 0.12))
  (fp_line (start -9.68 19) (end -3.21 19) (layer F.SilkS) (width 0.12))
  (fp_line (start -2.855 19.69) (end -3.21 19.69) (layer F.SilkS) (width 0.12))
  (fp_line (start -2.855 20.31) (end -3.21 20.31) (layer F.SilkS) (width 0.12))
  (fp_line (start -0.855 19.69) (end -1.145 19.69) (layer F.SilkS) (width 0.12))
  (fp_line (start -0.855 20.31) (end -1.145 20.31) (layer F.SilkS) (width 0.12))
  (fp_line (start -3.21 21) (end -3.21 23) (layer F.SilkS) (width 0.12))
  (fp_line (start -3.21 23) (end -9.68 23) (layer F.SilkS) (width 0.12))
  (fp_line (start -9.68 23) (end -9.68 21) (layer F.SilkS) (width 0.12))
  (fp_line (start -9.68 21) (end -3.21 21) (layer F.SilkS) (width 0.12))
  (fp_line (start -2.855 21.69) (end -3.21 21.69) (layer F.SilkS) (width 0.12))
  (fp_line (start -2.855 22.31) (end -3.21 22.31) (layer F.SilkS) (width 0.12))
  (fp_line (start -0.855 21.69) (end -1.145 21.69) (layer F.SilkS) (width 0.12))
  (fp_line (start -0.855 22.31) (end -1.145 22.31) (layer F.SilkS) (width 0.12))
  (fp_line (start -3.21 23) (end -3.21 25) (layer F.SilkS) (width 0.12))
  (fp_line (start -3.21 25) (end -9.68 25) (layer F.SilkS) (width 0.12))
  (fp_line (start -9.68 25) (end -9.68 23) (layer F.SilkS) (width 0.12))
  (fp_line (start -9.68 23) (end -3.21 23) (layer F.SilkS) (width 0.12))
  (fp_line (start -2.855 23.69) (end -3.21 23.69) (layer F.SilkS) (width 0.12))
  (fp_line (start -2.855 24.31) (end -3.21 24.31) (layer F.SilkS) (width 0.12))
  (fp_line (start -0.855 23.69) (end -1.145 23.69) (layer F.SilkS) (width 0.12))
  (fp_line (start -0.855 24.31) (end -1.145 24.31) (layer F.SilkS) (width 0.12))
  (fp_line (start -3.21 25) (end -3.21 27) (layer F.SilkS) (width 0.12))
  (fp_line (start -3.21 27) (end -9.68 27) (layer F.SilkS) (width 0.12))
  (fp_line (start -9.68 27) (end -9.68 25) (layer F.SilkS) (width 0.12))
  (fp_line (start -9.68 25) (end -3.21 25) (layer F.SilkS) (width 0.12))
  (fp_line (start -2.855 25.69) (end -3.21 25.69) (layer F.SilkS) (width 0.12))
  (fp_line (start -2.855 26.31) (end -3.21 26.31) (layer F.SilkS) (width 0.12))
  (fp_line (start -0.855 25.69) (end -1.145 25.69) (layer F.SilkS) (width 0.12))
  (fp_line (start -0.855 26.31) (end -1.145 26.31) (layer F.SilkS) (width 0.12))
  (fp_line (start -3.21 27) (end -3.21 29.06) (layer F.SilkS) (width 0.12))
  (fp_line (start -3.21 29.06) (end -9.68 29.06) (layer F.SilkS) (width 0.12))
  (fp_line (start -9.68 29.06) (end -9.68 27) (layer F.SilkS) (width 0.12))
  (fp_line (start -9.68 27) (end -3.21 27) (layer F.SilkS) (width 0.12))
  (fp_line (start -2.855 27.69) (end -3.21 27.69) (layer F.SilkS) (width 0.12))
  (fp_line (start -2.855 28.31) (end -3.21 28.31) (layer F.SilkS) (width 0.12))
  (fp_line (start -0.855 27.69) (end -1.145 27.69) (layer F.SilkS) (width 0.12))
  (fp_line (start -0.855 28.31) (end -1.145 28.31) (layer F.SilkS) (width 0.12))
  (fp_line (start 0 -1) (end 1 -1) (layer F.SilkS) (width 0.12))
  (fp_line (start 1 -1) (end 1 0) (layer F.SilkS) (width 0.12))
  (fp_line (start 1.25 -1.25) (end 1.25 29.25) (layer F.CrtYd) (width 0.05))
  (fp_line (start 1.25 29.25) (end -9.9 29.25) (layer F.CrtYd) (width 0.05))
  (fp_line (start -9.9 29.25) (end -9.9 -1.25) (layer F.CrtYd) (width 0.05))
  (fp_line (start -9.9 -1.25) (end 1.25 -1.25) (layer F.CrtYd) (width 0.05))
  (pad 1 thru_hole rect (at 0 0) (size 1.35 1.35) (drill 0.8) (layers *.Cu *.Mask))
  (pad 2 thru_hole oval (at -2 0) (size 1.35 1.35) (drill 0.8) (layers *.Cu *.Mask))
  (pad 3 thru_hole oval (at 0 2) (size 1.35 1.35) (drill 0.8) (layers *.Cu *.Mask))
  (pad 4 thru_hole oval (at -2 2) (size 1.35 1.35) (drill 0.8) (layers *.Cu *.Mask))
  (pad 5 thru_hole oval (at 0 4) (size 1.35 1.35) (drill 0.8) (layers *.Cu *.Mask))
  (pad 6 thru_hole oval (at -2 4) (size 1.35 1.35) (drill 0.8) (layers *.Cu *.Mask))
  (pad 7 thru_hole oval (at 0 6) (size 1.35 1.35) (drill 0.8) (layers *.Cu *.Mask))
  (pad 8 thru_hole oval (at -2 6) (size 1.35 1.35) (drill 0.8) (layers *.Cu *.Mask))
  (pad 9 thru_hole oval (at 0 8) (size 1.35 1.35) (drill 0.8) (layers *.Cu *.Mask))
  (pad 10 thru_hole oval (at -2 8) (size 1.35 1.35) (drill 0.8) (layers *.Cu *.Mask))
  (pad 11 thru_hole oval (at 0 10) (size 1.35 1.35) (drill 0.8) (layers *.Cu *.Mask))
  (pad 12 thru_hole oval (at -2 10) (size 1.35 1.35) (drill 0.8) (layers *.Cu *.Mask))
  (pad 13 thru_hole oval (at 0 12) (size 1.35 1.35) (drill 0.8) (layers *.Cu *.Mask))
  (pad 14 thru_hole oval (at -2 12) (size 1.35 1.35) (drill 0.8) (layers *.Cu *.Mask))
  (pad 15 thru_hole oval (at 0 14) (size 1.35 1.35) (drill 0.8) (layers *.Cu *.Mask))
  (pad 16 thru_hole oval (at -2 14) (size 1.35 1.35) (drill 0.8) (layers *.Cu *.Mask))
  (pad 17 thru_hole oval (at 0 16) (size 1.35 1.35) (drill 0.8) (layers *.Cu *.Mask))
  (pad 18 thru_hole oval (at -2 16) (size 1.35 1.35) (drill 0.8) (layers *.Cu *.Mask))
  (pad 19 thru_hole oval (at 0 18) (size 1.35 1.35) (drill 0.8) (layers *.Cu *.Mask))
  (pad 20 thru_hole oval (at -2 18) (size 1.35 1.35) (drill 0.8) (layers *.Cu *.Mask))
  (pad 21 thru_hole oval (at 0 20) (size 1.35 1.35) (drill 0.8) (layers *.Cu *.Mask))
  (pad 22 thru_hole oval (at -2 20) (size 1.35 1.35) (drill 0.8) (layers *.Cu *.Mask))
  (pad 23 thru_hole oval (at 0 22) (size 1.35 1.35) (drill 0.8) (layers *.Cu *.Mask))
  (pad 24 thru_hole oval (at -2 22) (size 1.35 1.35) (drill 0.8) (layers *.Cu *.Mask))
  (pad 25 thru_hole oval (at 0 24) (size 1.35 1.35) (drill 0.8) (layers *.Cu *.Mask))
  (pad 26 thru_hole oval (at -2 24) (size 1.35 1.35) (drill 0.8) (layers *.Cu *.Mask))
  (pad 27 thru_hole oval (at 0 26) (size 1.35 1.35) (drill 0.8) (layers *.Cu *.Mask))
  (pad 28 thru_hole oval (at -2 26) (size 1.35 1.35) (drill 0.8) (layers *.Cu *.Mask))
  (pad 29 thru_hole oval (at 0 28) (size 1.35 1.35) (drill 0.8) (layers *.Cu *.Mask))
  (pad 30 thru_hole oval (at -2 28) (size 1.35 1.35) (drill 0.8) (layers *.Cu *.Mask))
  (model Socket_Strips.3dshapes/Socket_Strip_Angled_2x15_Pitch2.00mm.wrl
    (at (xyz 0.03937 -0.551181 0))
    (scale (xyz 1 1 1))
    (rotate (xyz 0 0 90))
  )
)