(module Socket_Strip_Angled_2x40_Pitch2.00mm (layer F.Cu) (tedit 588DE960)
  (descr "Through hole angled socket strip, 2x40, 2.00mm pitch, 6.35mm socket length, double rows")
  (tags "Through hole angled socket strip THT 2x40 2.00mm double row")
  (fp_text reference REF** (at -4.31 -2) (layer F.SilkS)
    (effects (font (size 1 1) (thickness 0.15)))
  )
  (fp_text value Socket_Strip_Angled_2x40_Pitch2.00mm (at -4.31 80) (layer F.Fab)
    (effects (font (size 1 1) (thickness 0.15)))
  )
  (fp_line (start -3.27 -1) (end -3.27 1) (layer F.Fab) (width 0.1))
  (fp_line (start -3.27 1) (end -9.62 1) (layer F.Fab) (width 0.1))
  (fp_line (start -9.62 1) (end -9.62 -1) (layer F.Fab) (width 0.1))
  (fp_line (start -9.62 -1) (end -3.27 -1) (layer F.Fab) (width 0.1))
  (fp_line (start 0 -0.25) (end 0 0.25) (layer F.Fab) (width 0.1))
  (fp_line (start 0 0.25) (end -3.27 0.25) (layer F.Fab) (width 0.1))
  (fp_line (start -3.27 0.25) (end -3.27 -0.25) (layer F.Fab) (width 0.1))
  (fp_line (start -3.27 -0.25) (end 0 -0.25) (layer F.Fab) (width 0.1))
  (fp_line (start -3.27 1) (end -3.27 3) (layer F.Fab) (width 0.1))
  (fp_line (start -3.27 3) (end -9.62 3) (layer F.Fab) (width 0.1))
  (fp_line (start -9.62 3) (end -9.62 1) (layer F.Fab) (width 0.1))
  (fp_line (start -9.62 1) (end -3.27 1) (layer F.Fab) (width 0.1))
  (fp_line (start 0 1.75) (end 0 2.25) (layer F.Fab) (width 0.1))
  (fp_line (start 0 2.25) (end -3.27 2.25) (layer F.Fab) (width 0.1))
  (fp_line (start -3.27 2.25) (end -3.27 1.75) (layer F.Fab) (width 0.1))
  (fp_line (start -3.27 1.75) (end 0 1.75) (layer F.Fab) (width 0.1))
  (fp_line (start -3.27 3) (end -3.27 5) (layer F.Fab) (width 0.1))
  (fp_line (start -3.27 5) (end -9.62 5) (layer F.Fab) (width 0.1))
  (fp_line (start -9.62 5) (end -9.62 3) (layer F.Fab) (width 0.1))
  (fp_line (start -9.62 3) (end -3.27 3) (layer F.Fab) (width 0.1))
  (fp_line (start 0 3.75) (end 0 4.25) (layer F.Fab) (width 0.1))
  (fp_line (start 0 4.25) (end -3.27 4.25) (layer F.Fab) (width 0.1))
  (fp_line (start -3.27 4.25) (end -3.27 3.75) (layer F.Fab) (width 0.1))
  (fp_line (start -3.27 3.75) (end 0 3.75) (layer F.Fab) (width 0.1))
  (fp_line (start -3.27 5) (end -3.27 7) (layer F.Fab) (width 0.1))
  (fp_line (start -3.27 7) (end -9.62 7) (layer F.Fab) (width 0.1))
  (fp_line (start -9.62 7) (end -9.62 5) (layer F.Fab) (width 0.1))
  (fp_line (start -9.62 5) (end -3.27 5) (layer F.Fab) (width 0.1))
  (fp_line (start 0 5.75) (end 0 6.25) (layer F.Fab) (width 0.1))
  (fp_line (start 0 6.25) (end -3.27 6.25) (layer F.Fab) (width 0.1))
  (fp_line (start -3.27 6.25) (end -3.27 5.75) (layer F.Fab) (width 0.1))
  (fp_line (start -3.27 5.75) (end 0 5.75) (layer F.Fab) (width 0.1))
  (fp_line (start -3.27 7) (end -3.27 9) (layer F.Fab) (width 0.1))
  (fp_line (start -3.27 9) (end -9.62 9) (layer F.Fab) (width 0.1))
  (fp_line (start -9.62 9) (end -9.62 7) (layer F.Fab) (width 0.1))
  (fp_line (start -9.62 7) (end -3.27 7) (layer F.Fab) (width 0.1))
  (fp_line (start 0 7.75) (end 0 8.25) (layer F.Fab) (width 0.1))
  (fp_line (start 0 8.25) (end -3.27 8.25) (layer F.Fab) (width 0.1))
  (fp_line (start -3.27 8.25) (end -3.27 7.75) (layer F.Fab) (width 0.1))
  (fp_line (start -3.27 7.75) (end 0 7.75) (layer F.Fab) (width 0.1))
  (fp_line (start -3.27 9) (end -3.27 11) (layer F.Fab) (width 0.1))
  (fp_line (start -3.27 11) (end -9.62 11) (layer F.Fab) (width 0.1))
  (fp_line (start -9.62 11) (end -9.62 9) (layer F.Fab) (width 0.1))
  (fp_line (start -9.62 9) (end -3.27 9) (layer F.Fab) (width 0.1))
  (fp_line (start 0 9.75) (end 0 10.25) (layer F.Fab) (width 0.1))
  (fp_line (start 0 10.25) (end -3.27 10.25) (layer F.Fab) (width 0.1))
  (fp_line (start -3.27 10.25) (end -3.27 9.75) (layer F.Fab) (width 0.1))
  (fp_line (start -3.27 9.75) (end 0 9.75) (layer F.Fab) (width 0.1))
  (fp_line (start -3.27 11) (end -3.27 13) (layer F.Fab) (width 0.1))
  (fp_line (start -3.27 13) (end -9.62 13) (layer F.Fab) (width 0.1))
  (fp_line (start -9.62 13) (end -9.62 11) (layer F.Fab) (width 0.1))
  (fp_line (start -9.62 11) (end -3.27 11) (layer F.Fab) (width 0.1))
  (fp_line (start 0 11.75) (end 0 12.25) (layer F.Fab) (width 0.1))
  (fp_line (start 0 12.25) (end -3.27 12.25) (layer F.Fab) (width 0.1))
  (fp_line (start -3.27 12.25) (end -3.27 11.75) (layer F.Fab) (width 0.1))
  (fp_line (start -3.27 11.75) (end 0 11.75) (layer F.Fab) (width 0.1))
  (fp_line (start -3.27 13) (end -3.27 15) (layer F.Fab) (width 0.1))
  (fp_line (start -3.27 15) (end -9.62 15) (layer F.Fab) (width 0.1))
  (fp_line (start -9.62 15) (end -9.62 13) (layer F.Fab) (width 0.1))
  (fp_line (start -9.62 13) (end -3.27 13) (layer F.Fab) (width 0.1))
  (fp_line (start 0 13.75) (end 0 14.25) (layer F.Fab) (width 0.1))
  (fp_line (start 0 14.25) (end -3.27 14.25) (layer F.Fab) (width 0.1))
  (fp_line (start -3.27 14.25) (end -3.27 13.75) (layer F.Fab) (width 0.1))
  (fp_line (start -3.27 13.75) (end 0 13.75) (layer F.Fab) (width 0.1))
  (fp_line (start -3.27 15) (end -3.27 17) (layer F.Fab) (width 0.1))
  (fp_line (start -3.27 17) (end -9.62 17) (layer F.Fab) (width 0.1))
  (fp_line (start -9.62 17) (end -9.62 15) (layer F.Fab) (width 0.1))
  (fp_line (start -9.62 15) (end -3.27 15) (layer F.Fab) (width 0.1))
  (fp_line (start 0 15.75) (end 0 16.25) (layer F.Fab) (width 0.1))
  (fp_line (start 0 16.25) (end -3.27 16.25) (layer F.Fab) (width 0.1))
  (fp_line (start -3.27 16.25) (end -3.27 15.75) (layer F.Fab) (width 0.1))
  (fp_line (start -3.27 15.75) (end 0 15.75) (layer F.Fab) (width 0.1))
  (fp_line (start -3.27 17) (end -3.27 19) (layer F.Fab) (width 0.1))
  (fp_line (start -3.27 19) (end -9.62 19) (layer F.Fab) (width 0.1))
  (fp_line (start -9.62 19) (end -9.62 17) (layer F.Fab) (width 0.1))
  (fp_line (start -9.62 17) (end -3.27 17) (layer F.Fab) (width 0.1))
  (fp_line (start 0 17.75) (end 0 18.25) (layer F.Fab) (width 0.1))
  (fp_line (start 0 18.25) (end -3.27 18.25) (layer F.Fab) (width 0.1))
  (fp_line (start -3.27 18.25) (end -3.27 17.75) (layer F.Fab) (width 0.1))
  (fp_line (start -3.27 17.75) (end 0 17.75) (layer F.Fab) (width 0.1))
  (fp_line (start -3.27 19) (end -3.27 21) (layer F.Fab) (width 0.1))
  (fp_line (start -3.27 21) (end -9.62 21) (layer F.Fab) (width 0.1))
  (fp_line (start -9.62 21) (end -9.62 19) (layer F.Fab) (width 0.1))
  (fp_line (start -9.62 19) (end -3.27 19) (layer F.Fab) (width 0.1))
  (fp_line (start 0 19.75) (end 0 20.25) (layer F.Fab) (width 0.1))
  (fp_line (start 0 20.25) (end -3.27 20.25) (layer F.Fab) (width 0.1))
  (fp_line (start -3.27 20.25) (end -3.27 19.75) (layer F.Fab) (width 0.1))
  (fp_line (start -3.27 19.75) (end 0 19.75) (layer F.Fab) (width 0.1))
  (fp_line (start -3.27 21) (end -3.27 23) (layer F.Fab) (width 0.1))
  (fp_line (start -3.27 23) (end -9.62 23) (layer F.Fab) (width 0.1))
  (fp_line (start -9.62 23) (end -9.62 21) (layer F.Fab) (width 0.1))
  (fp_line (start -9.62 21) (end -3.27 21) (layer F.Fab) (width 0.1))
  (fp_line (start 0 21.75) (end 0 22.25) (layer F.Fab) (width 0.1))
  (fp_line (start 0 22.25) (end -3.27 22.25) (layer F.Fab) (width 0.1))
  (fp_line (start -3.27 22.25) (end -3.27 21.75) (layer F.Fab) (width 0.1))
  (fp_line (start -3.27 21.75) (end 0 21.75) (layer F.Fab) (width 0.1))
  (fp_line (start -3.27 23) (end -3.27 25) (layer F.Fab) (width 0.1))
  (fp_line (start -3.27 25) (end -9.62 25) (layer F.Fab) (width 0.1))
  (fp_line (start -9.62 25) (end -9.62 23) (layer F.Fab) (width 0.1))
  (fp_line (start -9.62 23) (end -3.27 23) (layer F.Fab) (width 0.1))
  (fp_line (start 0 23.75) (end 0 24.25) (layer F.Fab) (width 0.1))
  (fp_line (start 0 24.25) (end -3.27 24.25) (layer F.Fab) (width 0.1))
  (fp_line (start -3.27 24.25) (end -3.27 23.75) (layer F.Fab) (width 0.1))
  (fp_line (start -3.27 23.75) (end 0 23.75) (layer F.Fab) (width 0.1))
  (fp_line (start -3.27 25) (end -3.27 27) (layer F.Fab) (width 0.1))
  (fp_line (start -3.27 27) (end -9.62 27) (layer F.Fab) (width 0.1))
  (fp_line (start -9.62 27) (end -9.62 25) (layer F.Fab) (width 0.1))
  (fp_line (start -9.62 25) (end -3.27 25) (layer F.Fab) (width 0.1))
  (fp_line (start 0 25.75) (end 0 26.25) (layer F.Fab) (width 0.1))
  (fp_line (start 0 26.25) (end -3.27 26.25) (layer F.Fab) (width 0.1))
  (fp_line (start -3.27 26.25) (end -3.27 25.75) (layer F.Fab) (width 0.1))
  (fp_line (start -3.27 25.75) (end 0 25.75) (layer F.Fab) (width 0.1))
  (fp_line (start -3.27 27) (end -3.27 29) (layer F.Fab) (width 0.1))
  (fp_line (start -3.27 29) (end -9.62 29) (layer F.Fab) (width 0.1))
  (fp_line (start -9.62 29) (end -9.62 27) (layer F.Fab) (width 0.1))
  (fp_line (start -9.62 27) (end -3.27 27) (layer F.Fab) (width 0.1))
  (fp_line (start 0 27.75) (end 0 28.25) (layer F.Fab) (width 0.1))
  (fp_line (start 0 28.25) (end -3.27 28.25) (layer F.Fab) (width 0.1))
  (fp_line (start -3.27 28.25) (end -3.27 27.75) (layer F.Fab) (width 0.1))
  (fp_line (start -3.27 27.75) (end 0 27.75) (layer F.Fab) (width 0.1))
  (fp_line (start -3.27 29) (end -3.27 31) (layer F.Fab) (width 0.1))
  (fp_line (start -3.27 31) (end -9.62 31) (layer F.Fab) (width 0.1))
  (fp_line (start -9.62 31) (end -9.62 29) (layer F.Fab) (width 0.1))
  (fp_line (start -9.62 29) (end -3.27 29) (layer F.Fab) (width 0.1))
  (fp_line (start 0 29.75) (end 0 30.25) (layer F.Fab) (width 0.1))
  (fp_line (start 0 30.25) (end -3.27 30.25) (layer F.Fab) (width 0.1))
  (fp_line (start -3.27 30.25) (end -3.27 29.75) (layer F.Fab) (width 0.1))
  (fp_line (start -3.27 29.75) (end 0 29.75) (layer F.Fab) (width 0.1))
  (fp_line (start -3.27 31) (end -3.27 33) (layer F.Fab) (width 0.1))
  (fp_line (start -3.27 33) (end -9.62 33) (layer F.Fab) (width 0.1))
  (fp_line (start -9.62 33) (end -9.62 31) (layer F.Fab) (width 0.1))
  (fp_line (start -9.62 31) (end -3.27 31) (layer F.Fab) (width 0.1))
  (fp_line (start 0 31.75) (end 0 32.25) (layer F.Fab) (width 0.1))
  (fp_line (start 0 32.25) (end -3.27 32.25) (layer F.Fab) (width 0.1))
  (fp_line (start -3.27 32.25) (end -3.27 31.75) (layer F.Fab) (width 0.1))
  (fp_line (start -3.27 31.75) (end 0 31.75) (layer F.Fab) (width 0.1))
  (fp_line (start -3.27 33) (end -3.27 35) (layer F.Fab) (width 0.1))
  (fp_line (start -3.27 35) (end -9.62 35) (layer F.Fab) (width 0.1))
  (fp_line (start -9.62 35) (end -9.62 33) (layer F.Fab) (width 0.1))
  (fp_line (start -9.62 33) (end -3.27 33) (layer F.Fab) (width 0.1))
  (fp_line (start 0 33.75) (end 0 34.25) (layer F.Fab) (width 0.1))
  (fp_line (start 0 34.25) (end -3.27 34.25) (layer F.Fab) (width 0.1))
  (fp_line (start -3.27 34.25) (end -3.27 33.75) (layer F.Fab) (width 0.1))
  (fp_line (start -3.27 33.75) (end 0 33.75) (layer F.Fab) (width 0.1))
  (fp_line (start -3.27 35) (end -3.27 37) (layer F.Fab) (width 0.1))
  (fp_line (start -3.27 37) (end -9.62 37) (layer F.Fab) (width 0.1))
  (fp_line (start -9.62 37) (end -9.62 35) (layer F.Fab) (width 0.1))
  (fp_line (start -9.62 35) (end -3.27 35) (layer F.Fab) (width 0.1))
  (fp_line (start 0 35.75) (end 0 36.25) (layer F.Fab) (width 0.1))
  (fp_line (start 0 36.25) (end -3.27 36.25) (layer F.Fab) (width 0.1))
  (fp_line (start -3.27 36.25) (end -3.27 35.75) (layer F.Fab) (width 0.1))
  (fp_line (start -3.27 35.75) (end 0 35.75) (layer F.Fab) (width 0.1))
  (fp_line (start -3.27 37) (end -3.27 39) (layer F.Fab) (width 0.1))
  (fp_line (start -3.27 39) (end -9.62 39) (layer F.Fab) (width 0.1))
  (fp_line (start -9.62 39) (end -9.62 37) (layer F.Fab) (width 0.1))
  (fp_line (start -9.62 37) (end -3.27 37) (layer F.Fab) (width 0.1))
  (fp_line (start 0 37.75) (end 0 38.25) (layer F.Fab) (width 0.1))
  (fp_line (start 0 38.25) (end -3.27 38.25) (layer F.Fab) (width 0.1))
  (fp_line (start -3.27 38.25) (end -3.27 37.75) (layer F.Fab) (width 0.1))
  (fp_line (start -3.27 37.75) (end 0 37.75) (layer F.Fab) (width 0.1))
  (fp_line (start -3.27 39) (end -3.27 41) (layer F.Fab) (width 0.1))
  (fp_line (start -3.27 41) (end -9.62 41) (layer F.Fab) (width 0.1))
  (fp_line (start -9.62 41) (end -9.62 39) (layer F.Fab) (width 0.1))
  (fp_line (start -9.62 39) (end -3.27 39) (layer F.Fab) (width 0.1))
  (fp_line (start 0 39.75) (end 0 40.25) (layer F.Fab) (width 0.1))
  (fp_line (start 0 40.25) (end -3.27 40.25) (layer F.Fab) (width 0.1))
  (fp_line (start -3.27 40.25) (end -3.27 39.75) (layer F.Fab) (width 0.1))
  (fp_line (start -3.27 39.75) (end 0 39.75) (layer F.Fab) (width 0.1))
  (fp_line (start -3.27 41) (end -3.27 43) (layer F.Fab) (width 0.1))
  (fp_line (start -3.27 43) (end -9.62 43) (layer F.Fab) (width 0.1))
  (fp_line (start -9.62 43) (end -9.62 41) (layer F.Fab) (width 0.1))
  (fp_line (start -9.62 41) (end -3.27 41) (layer F.Fab) (width 0.1))
  (fp_line (start 0 41.75) (end 0 42.25) (layer F.Fab) (width 0.1))
  (fp_line (start 0 42.25) (end -3.27 42.25) (layer F.Fab) (width 0.1))
  (fp_line (start -3.27 42.25) (end -3.27 41.75) (layer F.Fab) (width 0.1))
  (fp_line (start -3.27 41.75) (end 0 41.75) (layer F.Fab) (width 0.1))
  (fp_line (start -3.27 43) (end -3.27 45) (layer F.Fab) (width 0.1))
  (fp_line (start -3.27 45) (end -9.62 45) (layer F.Fab) (width 0.1))
  (fp_line (start -9.62 45) (end -9.62 43) (layer F.Fab) (width 0.1))
  (fp_line (start -9.62 43) (end -3.27 43) (layer F.Fab) (width 0.1))
  (fp_line (start 0 43.75) (end 0 44.25) (layer F.Fab) (width 0.1))
  (fp_line (start 0 44.25) (end -3.27 44.25) (layer F.Fab) (width 0.1))
  (fp_line (start -3.27 44.25) (end -3.27 43.75) (layer F.Fab) (width 0.1))
  (fp_line (start -3.27 43.75) (end 0 43.75) (layer F.Fab) (width 0.1))
  (fp_line (start -3.27 45) (end -3.27 47) (layer F.Fab) (width 0.1))
  (fp_line (start -3.27 47) (end -9.62 47) (layer F.Fab) (width 0.1))
  (fp_line (start -9.62 47) (end -9.62 45) (layer F.Fab) (width 0.1))
  (fp_line (start -9.62 45) (end -3.27 45) (layer F.Fab) (width 0.1))
  (fp_line (start 0 45.75) (end 0 46.25) (layer F.Fab) (width 0.1))
  (fp_line (start 0 46.25) (end -3.27 46.25) (layer F.Fab) (width 0.1))
  (fp_line (start -3.27 46.25) (end -3.27 45.75) (layer F.Fab) (width 0.1))
  (fp_line (start -3.27 45.75) (end 0 45.75) (layer F.Fab) (width 0.1))
  (fp_line (start -3.27 47) (end -3.27 49) (layer F.Fab) (width 0.1))
  (fp_line (start -3.27 49) (end -9.62 49) (layer F.Fab) (width 0.1))
  (fp_line (start -9.62 49) (end -9.62 47) (layer F.Fab) (width 0.1))
  (fp_line (start -9.62 47) (end -3.27 47) (layer F.Fab) (width 0.1))
  (fp_line (start 0 47.75) (end 0 48.25) (layer F.Fab) (width 0.1))
  (fp_line (start 0 48.25) (end -3.27 48.25) (layer F.Fab) (width 0.1))
  (fp_line (start -3.27 48.25) (end -3.27 47.75) (layer F.Fab) (width 0.1))
  (fp_line (start -3.27 47.75) (end 0 47.75) (layer F.Fab) (width 0.1))
  (fp_line (start -3.27 49) (end -3.27 51) (layer F.Fab) (width 0.1))
  (fp_line (start -3.27 51) (end -9.62 51) (layer F.Fab) (width 0.1))
  (fp_line (start -9.62 51) (end -9.62 49) (layer F.Fab) (width 0.1))
  (fp_line (start -9.62 49) (end -3.27 49) (layer F.Fab) (width 0.1))
  (fp_line (start 0 49.75) (end 0 50.25) (layer F.Fab) (width 0.1))
  (fp_line (start 0 50.25) (end -3.27 50.25) (layer F.Fab) (width 0.1))
  (fp_line (start -3.27 50.25) (end -3.27 49.75) (layer F.Fab) (width 0.1))
  (fp_line (start -3.27 49.75) (end 0 49.75) (layer F.Fab) (width 0.1))
  (fp_line (start -3.27 51) (end -3.27 53) (layer F.Fab) (width 0.1))
  (fp_line (start -3.27 53) (end -9.62 53) (layer F.Fab) (width 0.1))
  (fp_line (start -9.62 53) (end -9.62 51) (layer F.Fab) (width 0.1))
  (fp_line (start -9.62 51) (end -3.27 51) (layer F.Fab) (width 0.1))
  (fp_line (start 0 51.75) (end 0 52.25) (layer F.Fab) (width 0.1))
  (fp_line (start 0 52.25) (end -3.27 52.25) (layer F.Fab) (width 0.1))
  (fp_line (start -3.27 52.25) (end -3.27 51.75) (layer F.Fab) (width 0.1))
  (fp_line (start -3.27 51.75) (end 0 51.75) (layer F.Fab) (width 0.1))
  (fp_line (start -3.27 53) (end -3.27 55) (layer F.Fab) (width 0.1))
  (fp_line (start -3.27 55) (end -9.62 55) (layer F.Fab) (width 0.1))
  (fp_line (start -9.62 55) (end -9.62 53) (layer F.Fab) (width 0.1))
  (fp_line (start -9.62 53) (end -3.27 53) (layer F.Fab) (width 0.1))
  (fp_line (start 0 53.75) (end 0 54.25) (layer F.Fab) (width 0.1))
  (fp_line (start 0 54.25) (end -3.27 54.25) (layer F.Fab) (width 0.1))
  (fp_line (start -3.27 54.25) (end -3.27 53.75) (layer F.Fab) (width 0.1))
  (fp_line (start -3.27 53.75) (end 0 53.75) (layer F.Fab) (width 0.1))
  (fp_line (start -3.27 55) (end -3.27 57) (layer F.Fab) (width 0.1))
  (fp_line (start -3.27 57) (end -9.62 57) (layer F.Fab) (width 0.1))
  (fp_line (start -9.62 57) (end -9.62 55) (layer F.Fab) (width 0.1))
  (fp_line (start -9.62 55) (end -3.27 55) (layer F.Fab) (width 0.1))
  (fp_line (start 0 55.75) (end 0 56.25) (layer F.Fab) (width 0.1))
  (fp_line (start 0 56.25) (end -3.27 56.25) (layer F.Fab) (width 0.1))
  (fp_line (start -3.27 56.25) (end -3.27 55.75) (layer F.Fab) (width 0.1))
  (fp_line (start -3.27 55.75) (end 0 55.75) (layer F.Fab) (width 0.1))
  (fp_line (start -3.27 57) (end -3.27 59) (layer F.Fab) (width 0.1))
  (fp_line (start -3.27 59) (end -9.62 59) (layer F.Fab) (width 0.1))
  (fp_line (start -9.62 59) (end -9.62 57) (layer F.Fab) (width 0.1))
  (fp_line (start -9.62 57) (end -3.27 57) (layer F.Fab) (width 0.1))
  (fp_line (start 0 57.75) (end 0 58.25) (layer F.Fab) (width 0.1))
  (fp_line (start 0 58.25) (end -3.27 58.25) (layer F.Fab) (width 0.1))
  (fp_line (start -3.27 58.25) (end -3.27 57.75) (layer F.Fab) (width 0.1))
  (fp_line (start -3.27 57.75) (end 0 57.75) (layer F.Fab) (width 0.1))
  (fp_line (start -3.27 59) (end -3.27 61) (layer F.Fab) (width 0.1))
  (fp_line (start -3.27 61) (end -9.62 61) (layer F.Fab) (width 0.1))
  (fp_line (start -9.62 61) (end -9.62 59) (layer F.Fab) (width 0.1))
  (fp_line (start -9.62 59) (end -3.27 59) (layer F.Fab) (width 0.1))
  (fp_line (start 0 59.75) (end 0 60.25) (layer F.Fab) (width 0.1))
  (fp_line (start 0 60.25) (end -3.27 60.25) (layer F.Fab) (width 0.1))
  (fp_line (start -3.27 60.25) (end -3.27 59.75) (layer F.Fab) (width 0.1))
  (fp_line (start -3.27 59.75) (end 0 59.75) (layer F.Fab) (width 0.1))
  (fp_line (start -3.27 61) (end -3.27 63) (layer F.Fab) (width 0.1))
  (fp_line (start -3.27 63) (end -9.62 63) (layer F.Fab) (width 0.1))
  (fp_line (start -9.62 63) (end -9.62 61) (layer F.Fab) (width 0.1))
  (fp_line (start -9.62 61) (end -3.27 61) (layer F.Fab) (width 0.1))
  (fp_line (start 0 61.75) (end 0 62.25) (layer F.Fab) (width 0.1))
  (fp_line (start 0 62.25) (end -3.27 62.25) (layer F.Fab) (width 0.1))
  (fp_line (start -3.27 62.25) (end -3.27 61.75) (layer F.Fab) (width 0.1))
  (fp_line (start -3.27 61.75) (end 0 61.75) (layer F.Fab) (width 0.1))
  (fp_line (start -3.27 63) (end -3.27 65) (layer F.Fab) (width 0.1))
  (fp_line (start -3.27 65) (end -9.62 65) (layer F.Fab) (width 0.1))
  (fp_line (start -9.62 65) (end -9.62 63) (layer F.Fab) (width 0.1))
  (fp_line (start -9.62 63) (end -3.27 63) (layer F.Fab) (width 0.1))
  (fp_line (start 0 63.75) (end 0 64.25) (layer F.Fab) (width 0.1))
  (fp_line (start 0 64.25) (end -3.27 64.25) (layer F.Fab) (width 0.1))
  (fp_line (start -3.27 64.25) (end -3.27 63.75) (layer F.Fab) (width 0.1))
  (fp_line (start -3.27 63.75) (end 0 63.75) (layer F.Fab) (width 0.1))
  (fp_line (start -3.27 65) (end -3.27 67) (layer F.Fab) (width 0.1))
  (fp_line (start -3.27 67) (end -9.62 67) (layer F.Fab) (width 0.1))
  (fp_line (start -9.62 67) (end -9.62 65) (layer F.Fab) (width 0.1))
  (fp_line (start -9.62 65) (end -3.27 65) (layer F.Fab) (width 0.1))
  (fp_line (start 0 65.75) (end 0 66.25) (layer F.Fab) (width 0.1))
  (fp_line (start 0 66.25) (end -3.27 66.25) (layer F.Fab) (width 0.1))
  (fp_line (start -3.27 66.25) (end -3.27 65.75) (layer F.Fab) (width 0.1))
  (fp_line (start -3.27 65.75) (end 0 65.75) (layer F.Fab) (width 0.1))
  (fp_line (start -3.27 67) (end -3.27 69) (layer F.Fab) (width 0.1))
  (fp_line (start -3.27 69) (end -9.62 69) (layer F.Fab) (width 0.1))
  (fp_line (start -9.62 69) (end -9.62 67) (layer F.Fab) (width 0.1))
  (fp_line (start -9.62 67) (end -3.27 67) (layer F.Fab) (width 0.1))
  (fp_line (start 0 67.75) (end 0 68.25) (layer F.Fab) (width 0.1))
  (fp_line (start 0 68.25) (end -3.27 68.25) (layer F.Fab) (width 0.1))
  (fp_line (start -3.27 68.25) (end -3.27 67.75) (layer F.Fab) (width 0.1))
  (fp_line (start -3.27 67.75) (end 0 67.75) (layer F.Fab) (width 0.1))
  (fp_line (start -3.27 69) (end -3.27 71) (layer F.Fab) (width 0.1))
  (fp_line (start -3.27 71) (end -9.62 71) (layer F.Fab) (width 0.1))
  (fp_line (start -9.62 71) (end -9.62 69) (layer F.Fab) (width 0.1))
  (fp_line (start -9.62 69) (end -3.27 69) (layer F.Fab) (width 0.1))
  (fp_line (start 0 69.75) (end 0 70.25) (layer F.Fab) (width 0.1))
  (fp_line (start 0 70.25) (end -3.27 70.25) (layer F.Fab) (width 0.1))
  (fp_line (start -3.27 70.25) (end -3.27 69.75) (layer F.Fab) (width 0.1))
  (fp_line (start -3.27 69.75) (end 0 69.75) (layer F.Fab) (width 0.1))
  (fp_line (start -3.27 71) (end -3.27 73) (layer F.Fab) (width 0.1))
  (fp_line (start -3.27 73) (end -9.62 73) (layer F.Fab) (width 0.1))
  (fp_line (start -9.62 73) (end -9.62 71) (layer F.Fab) (width 0.1))
  (fp_line (start -9.62 71) (end -3.27 71) (layer F.Fab) (width 0.1))
  (fp_line (start 0 71.75) (end 0 72.25) (layer F.Fab) (width 0.1))
  (fp_line (start 0 72.25) (end -3.27 72.25) (layer F.Fab) (width 0.1))
  (fp_line (start -3.27 72.25) (end -3.27 71.75) (layer F.Fab) (width 0.1))
  (fp_line (start -3.27 71.75) (end 0 71.75) (layer F.Fab) (width 0.1))
  (fp_line (start -3.27 73) (end -3.27 75) (layer F.Fab) (width 0.1))
  (fp_line (start -3.27 75) (end -9.62 75) (layer F.Fab) (width 0.1))
  (fp_line (start -9.62 75) (end -9.62 73) (layer F.Fab) (width 0.1))
  (fp_line (start -9.62 73) (end -3.27 73) (layer F.Fab) (width 0.1))
  (fp_line (start 0 73.75) (end 0 74.25) (layer F.Fab) (width 0.1))
  (fp_line (start 0 74.25) (end -3.27 74.25) (layer F.Fab) (width 0.1))
  (fp_line (start -3.27 74.25) (end -3.27 73.75) (layer F.Fab) (width 0.1))
  (fp_line (start -3.27 73.75) (end 0 73.75) (layer F.Fab) (width 0.1))
  (fp_line (start -3.27 75) (end -3.27 77) (layer F.Fab) (width 0.1))
  (fp_line (start -3.27 77) (end -9.62 77) (layer F.Fab) (width 0.1))
  (fp_line (start -9.62 77) (end -9.62 75) (layer F.Fab) (width 0.1))
  (fp_line (start -9.62 75) (end -3.27 75) (layer F.Fab) (width 0.1))
  (fp_line (start 0 75.75) (end 0 76.25) (layer F.Fab) (width 0.1))
  (fp_line (start 0 76.25) (end -3.27 76.25) (layer F.Fab) (width 0.1))
  (fp_line (start -3.27 76.25) (end -3.27 75.75) (layer F.Fab) (width 0.1))
  (fp_line (start -3.27 75.75) (end 0 75.75) (layer F.Fab) (width 0.1))
  (fp_line (start -3.27 77) (end -3.27 79) (layer F.Fab) (width 0.1))
  (fp_line (start -3.27 79) (end -9.62 79) (layer F.Fab) (width 0.1))
  (fp_line (start -9.62 79) (end -9.62 77) (layer F.Fab) (width 0.1))
  (fp_line (start -9.62 77) (end -3.27 77) (layer F.Fab) (width 0.1))
  (fp_line (start 0 77.75) (end 0 78.25) (layer F.Fab) (width 0.1))
  (fp_line (start 0 78.25) (end -3.27 78.25) (layer F.Fab) (width 0.1))
  (fp_line (start -3.27 78.25) (end -3.27 77.75) (layer F.Fab) (width 0.1))
  (fp_line (start -3.27 77.75) (end 0 77.75) (layer F.Fab) (width 0.1))
  (fp_line (start -3.21 -1.06) (end -3.21 1) (layer F.SilkS) (width 0.12))
  (fp_line (start -3.21 1) (end -9.68 1) (layer F.SilkS) (width 0.12))
  (fp_line (start -9.68 1) (end -9.68 -1.06) (layer F.SilkS) (width 0.12))
  (fp_line (start -9.68 -1.06) (end -3.21 -1.06) (layer F.SilkS) (width 0.12))
  (fp_line (start -2.855 -0.31) (end -3.21 -0.31) (layer F.SilkS) (width 0.12))
  (fp_line (start -2.855 0.31) (end -3.21 0.31) (layer F.SilkS) (width 0.12))
  (fp_line (start -0.855 -0.31) (end -1.145 -0.31) (layer F.SilkS) (width 0.12))
  (fp_line (start -0.855 0.31) (end -1.145 0.31) (layer F.SilkS) (width 0.12))
  (fp_line (start -3.21 -0.88) (end -9.68 -0.88) (layer F.SilkS) (width 0.12))
  (fp_line (start -3.21 -0.76) (end -9.68 -0.76) (layer F.SilkS) (width 0.12))
  (fp_line (start -3.21 -0.64) (end -9.68 -0.64) (layer F.SilkS) (width 0.12))
  (fp_line (start -3.21 -0.52) (end -9.68 -0.52) (layer F.SilkS) (width 0.12))
  (fp_line (start -3.21 -0.4) (end -9.68 -0.4) (layer F.SilkS) (width 0.12))
  (fp_line (start -3.21 -0.28) (end -9.68 -0.28) (layer F.SilkS) (width 0.12))
  (fp_line (start -3.21 -0.16) (end -9.68 -0.16) (layer F.SilkS) (width 0.12))
  (fp_line (start -3.21 -0.04) (end -9.68 -0.04) (layer F.SilkS) (width 0.12))
  (fp_line (start -3.21 0.08) (end -9.68 0.08) (layer F.SilkS) (width 0.12))
  (fp_line (start -3.21 0.2) (end -9.68 0.2) (layer F.SilkS) (width 0.12))
  (fp_line (start -3.21 0.32) (end -9.68 0.32) (layer F.SilkS) (width 0.12))
  (fp_line (start -3.21 0.44) (end -9.68 0.44) (layer F.SilkS) (width 0.12))
  (fp_line (start -3.21 0.56) (end -9.68 0.56) (layer F.SilkS) (width 0.12))
  (fp_line (start -3.21 0.68) (end -9.68 0.68) (layer F.SilkS) (width 0.12))
  (fp_line (start -3.21 0.8) (end -9.68 0.8) (layer F.SilkS) (width 0.12))
  (fp_line (start -3.21 0.92) (end -9.68 0.92) (layer F.SilkS) (width 0.12))
  (fp_line (start -3.21 1.04) (end -9.68 1.04) (layer F.SilkS) (width 0.12))
  (fp_line (start -3.21 1) (end -3.21 3) (layer F.SilkS) (width 0.12))
  (fp_line (start -3.21 3) (end -9.68 3) (layer F.SilkS) (width 0.12))
  (fp_line (start -9.68 3) (end -9.68 1) (layer F.SilkS) (width 0.12))
  (fp_line (start -9.68 1) (end -3.21 1) (layer F.SilkS) (width 0.12))
  (fp_line (start -2.855 1.69) (end -3.21 1.69) (layer F.SilkS) (width 0.12))
  (fp_line (start -2.855 2.31) (end -3.21 2.31) (layer F.SilkS) (width 0.12))
  (fp_line (start -0.855 1.69) (end -1.145 1.69) (layer F.SilkS) (width 0.12))
  (fp_line (start -0.855 2.31) (end -1.145 2.31) (layer F.SilkS) (width 0.12))
  (fp_line (start -3.21 3) (end -3.21 5) (layer F.SilkS) (width 0.12))
  (fp_line (start -3.21 5) (end -9.68 5) (layer F.SilkS) (width 0.12))
  (fp_line (start -9.68 5) (end -9.68 3) (layer F.SilkS) (width 0.12))
  (fp_line (start -9.68 3) (end -3.21 3) (layer F.SilkS) (width 0.12))
  (fp_line (start -2.855 3.69) (end -3.21 3.69) (layer F.SilkS) (width 0.12))
  (fp_line (start -2.855 4.31) (end -3.21 4.31) (layer F.SilkS) (width 0.12))
  (fp_line (start -0.855 3.69) (end -1.145 3.69) (layer F.SilkS) (width 0.12))
  (fp_line (start -0.855 4.31) (end -1.145 4.31) (layer F.SilkS) (width 0.12))
  (fp_line (start -3.21 5) (end -3.21 7) (layer F.SilkS) (width 0.12))
  (fp_line (start -3.21 7) (end -9.68 7) (layer F.SilkS) (width 0.12))
  (fp_line (start -9.68 7) (end -9.68 5) (layer F.SilkS) (width 0.12))
  (fp_line (start -9.68 5) (end -3.21 5) (layer F.SilkS) (width 0.12))
  (fp_line (start -2.855 5.69) (end -3.21 5.69) (layer F.SilkS) (width 0.12))
  (fp_line (start -2.855 6.31) (end -3.21 6.31) (layer F.SilkS) (width 0.12))
  (fp_line (start -0.855 5.69) (end -1.145 5.69) (layer F.SilkS) (width 0.12))
  (fp_line (start -0.855 6.31) (end -1.145 6.31) (layer F.SilkS) (width 0.12))
  (fp_line (start -3.21 7) (end -3.21 9) (layer F.SilkS) (width 0.12))
  (fp_line (start -3.21 9) (end -9.68 9) (layer F.SilkS) (width 0.12))
  (fp_line (start -9.68 9) (end -9.68 7) (layer F.SilkS) (width 0.12))
  (fp_line (start -9.68 7) (end -3.21 7) (layer F.SilkS) (width 0.12))
  (fp_line (start -2.855 7.69) (end -3.21 7.69) (layer F.SilkS) (width 0.12))
  (fp_line (start -2.855 8.31) (end -3.21 8.31) (layer F.SilkS) (width 0.12))
  (fp_line (start -0.855 7.69) (end -1.145 7.69) (layer F.SilkS) (width 0.12))
  (fp_line (start -0.855 8.31) (end -1.145 8.31) (layer F.SilkS) (width 0.12))
  (fp_line (start -3.21 9) (end -3.21 11) (layer F.SilkS) (width 0.12))
  (fp_line (start -3.21 11) (end -9.68 11) (layer F.SilkS) (width 0.12))
  (fp_line (start -9.68 11) (end -9.68 9) (layer F.SilkS) (width 0.12))
  (fp_line (start -9.68 9) (end -3.21 9) (layer F.SilkS) (width 0.12))
  (fp_line (start -2.855 9.69) (end -3.21 9.69) (layer F.SilkS) (width 0.12))
  (fp_line (start -2.855 10.31) (end -3.21 10.31) (layer F.SilkS) (width 0.12))
  (fp_line (start -0.855 9.69) (end -1.145 9.69) (layer F.SilkS) (width 0.12))
  (fp_line (start -0.855 10.31) (end -1.145 10.31) (layer F.SilkS) (width 0.12))
  (fp_line (start -3.21 11) (end -3.21 13) (layer F.SilkS) (width 0.12))
  (fp_line (start -3.21 13) (end -9.68 13) (layer F.SilkS) (width 0.12))
  (fp_line (start -9.68 13) (end -9.68 11) (layer F.SilkS) (width 0.12))
  (fp_line (start -9.68 11) (end -3.21 11) (layer F.SilkS) (width 0.12))
  (fp_line (start -2.855 11.69) (end -3.21 11.69) (layer F.SilkS) (width 0.12))
  (fp_line (start -2.855 12.31) (end -3.21 12.31) (layer F.SilkS) (width 0.12))
  (fp_line (start -0.855 11.69) (end -1.145 11.69) (layer F.SilkS) (width 0.12))
  (fp_line (start -0.855 12.31) (end -1.145 12.31) (layer F.SilkS) (width 0.12))
  (fp_line (start -3.21 13) (end -3.21 15) (layer F.SilkS) (width 0.12))
  (fp_line (start -3.21 15) (end -9.68 15) (layer F.SilkS) (width 0.12))
  (fp_line (start -9.68 15) (end -9.68 13) (layer F.SilkS) (width 0.12))
  (fp_line (start -9.68 13) (end -3.21 13) (layer F.SilkS) (width 0.12))
  (fp_line (start -2.855 13.69) (end -3.21 13.69) (layer F.SilkS) (width 0.12))
  (fp_line (start -2.855 14.31) (end -3.21 14.31) (layer F.SilkS) (width 0.12))
  (fp_line (start -0.855 13.69) (end -1.145 13.69) (layer F.SilkS) (width 0.12))
  (fp_line (start -0.855 14.31) (end -1.145 14.31) (layer F.SilkS) (width 0.12))
  (fp_line (start -3.21 15) (end -3.21 17) (layer F.SilkS) (width 0.12))
  (fp_line (start -3.21 17) (end -9.68 17) (layer F.SilkS) (width 0.12))
  (fp_line (start -9.68 17) (end -9.68 15) (layer F.SilkS) (width 0.12))
  (fp_line (start -9.68 15) (end -3.21 15) (layer F.SilkS) (width 0.12))
  (fp_line (start -2.855 15.69) (end -3.21 15.69) (layer F.SilkS) (width 0.12))
  (fp_line (start -2.855 16.31) (end -3.21 16.31) (layer F.SilkS) (width 0.12))
  (fp_line (start -0.855 15.69) (end -1.145 15.69) (layer F.SilkS) (width 0.12))
  (fp_line (start -0.855 16.31) (end -1.145 16.31) (layer F.SilkS) (width 0.12))
  (fp_line (start -3.21 17) (end -3.21 19) (layer F.SilkS) (width 0.12))
  (fp_line (start -3.21 19) (end -9.68 19) (layer F.SilkS) (width 0.12))
  (fp_line (start -9.68 19) (end -9.68 17) (layer F.SilkS) (width 0.12))
  (fp_line (start -9.68 17) (end -3.21 17) (layer F.SilkS) (width 0.12))
  (fp_line (start -2.855 17.69) (end -3.21 17.69) (layer F.SilkS) (width 0.12))
  (fp_line (start -2.855 18.31) (end -3.21 18.31) (layer F.SilkS) (width 0.12))
  (fp_line (start -0.855 17.69) (end -1.145 17.69) (layer F.SilkS) (width 0.12))
  (fp_line (start -0.855 18.31) (end -1.145 18.31) (layer F.SilkS) (width 0.12))
  (fp_line (start -3.21 19) (end -3.21 21) (layer F.SilkS) (width 0.12))
  (fp_line (start -3.21 21) (end -9.68 21) (layer F.SilkS) (width 0.12))
  (fp_line (start -9.68 21) (end -9.68 19) (layer F.SilkS) (width 0.12))
  (fp_line (start -9.68 19) (end -3.21 19) (layer F.SilkS) (width 0.12))
  (fp_line (start -2.855 19.69) (end -3.21 19.69) (layer F.SilkS) (width 0.12))
  (fp_line (start -2.855 20.31) (end -3.21 20.31) (layer F.SilkS) (width 0.12))
  (fp_line (start -0.855 19.69) (end -1.145 19.69) (layer F.SilkS) (width 0.12))
  (fp_line (start -0.855 20.31) (end -1.145 20.31) (layer F.SilkS) (width 0.12))
  (fp_line (start -3.21 21) (end -3.21 23) (layer F.SilkS) (width 0.12))
  (fp_line (start -3.21 23) (end -9.68 23) (layer F.SilkS) (width 0.12))
  (fp_line (start -9.68 23) (end -9.68 21) (layer F.SilkS) (width 0.12))
  (fp_line (start -9.68 21) (end -3.21 21) (layer F.SilkS) (width 0.12))
  (fp_line (start -2.855 21.69) (end -3.21 21.69) (layer F.SilkS) (width 0.12))
  (fp_line (start -2.855 22.31) (end -3.21 22.31) (layer F.SilkS) (width 0.12))
  (fp_line (start -0.855 21.69) (end -1.145 21.69) (layer F.SilkS) (width 0.12))
  (fp_line (start -0.855 22.31) (end -1.145 22.31) (layer F.SilkS) (width 0.12))
  (fp_line (start -3.21 23) (end -3.21 25) (layer F.SilkS) (width 0.12))
  (fp_line (start -3.21 25) (end -9.68 25) (layer F.SilkS) (width 0.12))
  (fp_line (start -9.68 25) (end -9.68 23) (layer F.SilkS) (width 0.12))
  (fp_line (start -9.68 23) (end -3.21 23) (layer F.SilkS) (width 0.12))
  (fp_line (start -2.855 23.69) (end -3.21 23.69) (layer F.SilkS) (width 0.12))
  (fp_line (start -2.855 24.31) (end -3.21 24.31) (layer F.SilkS) (width 0.12))
  (fp_line (start -0.855 23.69) (end -1.145 23.69) (layer F.SilkS) (width 0.12))
  (fp_line (start -0.855 24.31) (end -1.145 24.31) (layer F.SilkS) (width 0.12))
  (fp_line (start -3.21 25) (end -3.21 27) (layer F.SilkS) (width 0.12))
  (fp_line (start -3.21 27) (end -9.68 27) (layer F.SilkS) (width 0.12))
  (fp_line (start -9.68 27) (end -9.68 25) (layer F.SilkS) (width 0.12))
  (fp_line (start -9.68 25) (end -3.21 25) (layer F.SilkS) (width 0.12))
  (fp_line (start -2.855 25.69) (end -3.21 25.69) (layer F.SilkS) (width 0.12))
  (fp_line (start -2.855 26.31) (end -3.21 26.31) (layer F.SilkS) (width 0.12))
  (fp_line (start -0.855 25.69) (end -1.145 25.69) (layer F.SilkS) (width 0.12))
  (fp_line (start -0.855 26.31) (end -1.145 26.31) (layer F.SilkS) (width 0.12))
  (fp_line (start -3.21 27) (end -3.21 29) (layer F.SilkS) (width 0.12))
  (fp_line (start -3.21 29) (end -9.68 29) (layer F.SilkS) (width 0.12))
  (fp_line (start -9.68 29) (end -9.68 27) (layer F.SilkS) (width 0.12))
  (fp_line (start -9.68 27) (end -3.21 27) (layer F.SilkS) (width 0.12))
  (fp_line (start -2.855 27.69) (end -3.21 27.69) (layer F.SilkS) (width 0.12))
  (fp_line (start -2.855 28.31) (end -3.21 28.31) (layer F.SilkS) (width 0.12))
  (fp_line (start -0.855 27.69) (end -1.145 27.69) (layer F.SilkS) (width 0.12))
  (fp_line (start -0.855 28.31) (end -1.145 28.31) (layer F.SilkS) (width 0.12))
  (fp_line (start -3.21 29) (end -3.21 31) (layer F.SilkS) (width 0.12))
  (fp_line (start -3.21 31) (end -9.68 31) (layer F.SilkS) (width 0.12))
  (fp_line (start -9.68 31) (end -9.68 29) (layer F.SilkS) (width 0.12))
  (fp_line (start -9.68 29) (end -3.21 29) (layer F.SilkS) (width 0.12))
  (fp_line (start -2.855 29.69) (end -3.21 29.69) (layer F.SilkS) (width 0.12))
  (fp_line (start -2.855 30.31) (end -3.21 30.31) (layer F.SilkS) (width 0.12))
  (fp_line (start -0.855 29.69) (end -1.145 29.69) (layer F.SilkS) (width 0.12))
  (fp_line (start -0.855 30.31) (end -1.145 30.31) (layer F.SilkS) (width 0.12))
  (fp_line (start -3.21 31) (end -3.21 33) (layer F.SilkS) (width 0.12))
  (fp_line (start -3.21 33) (end -9.68 33) (layer F.SilkS) (width 0.12))
  (fp_line (start -9.68 33) (end -9.68 31) (layer F.SilkS) (width 0.12))
  (fp_line (start -9.68 31) (end -3.21 31) (layer F.SilkS) (width 0.12))
  (fp_line (start -2.855 31.69) (end -3.21 31.69) (layer F.SilkS) (width 0.12))
  (fp_line (start -2.855 32.31) (end -3.21 32.31) (layer F.SilkS) (width 0.12))
  (fp_line (start -0.855 31.69) (end -1.145 31.69) (layer F.SilkS) (width 0.12))
  (fp_line (start -0.855 32.31) (end -1.145 32.31) (layer F.SilkS) (width 0.12))
  (fp_line (start -3.21 33) (end -3.21 35) (layer F.SilkS) (width 0.12))
  (fp_line (start -3.21 35) (end -9.68 35) (layer F.SilkS) (width 0.12))
  (fp_line (start -9.68 35) (end -9.68 33) (layer F.SilkS) (width 0.12))
  (fp_line (start -9.68 33) (end -3.21 33) (layer F.SilkS) (width 0.12))
  (fp_line (start -2.855 33.69) (end -3.21 33.69) (layer F.SilkS) (width 0.12))
  (fp_line (start -2.855 34.31) (end -3.21 34.31) (layer F.SilkS) (width 0.12))
  (fp_line (start -0.855 33.69) (end -1.145 33.69) (layer F.SilkS) (width 0.12))
  (fp_line (start -0.855 34.31) (end -1.145 34.31) (layer F.SilkS) (width 0.12))
  (fp_line (start -3.21 35) (end -3.21 37) (layer F.SilkS) (width 0.12))
  (fp_line (start -3.21 37) (end -9.68 37) (layer F.SilkS) (width 0.12))
  (fp_line (start -9.68 37) (end -9.68 35) (layer F.SilkS) (width 0.12))
  (fp_line (start -9.68 35) (end -3.21 35) (layer F.SilkS) (width 0.12))
  (fp_line (start -2.855 35.69) (end -3.21 35.69) (layer F.SilkS) (width 0.12))
  (fp_line (start -2.855 36.31) (end -3.21 36.31) (layer F.SilkS) (width 0.12))
  (fp_line (start -0.855 35.69) (end -1.145 35.69) (layer F.SilkS) (width 0.12))
  (fp_line (start -0.855 36.31) (end -1.145 36.31) (layer F.SilkS) (width 0.12))
  (fp_line (start -3.21 37) (end -3.21 39) (layer F.SilkS) (width 0.12))
  (fp_line (start -3.21 39) (end -9.68 39) (layer F.SilkS) (width 0.12))
  (fp_line (start -9.68 39) (end -9.68 37) (layer F.SilkS) (width 0.12))
  (fp_line (start -9.68 37) (end -3.21 37) (layer F.SilkS) (width 0.12))
  (fp_line (start -2.855 37.69) (end -3.21 37.69) (layer F.SilkS) (width 0.12))
  (fp_line (start -2.855 38.31) (end -3.21 38.31) (layer F.SilkS) (width 0.12))
  (fp_line (start -0.855 37.69) (end -1.145 37.69) (layer F.SilkS) (width 0.12))
  (fp_line (start -0.855 38.31) (end -1.145 38.31) (layer F.SilkS) (width 0.12))
  (fp_line (start -3.21 39) (end -3.21 41) (layer F.SilkS) (width 0.12))
  (fp_line (start -3.21 41) (end -9.68 41) (layer F.SilkS) (width 0.12))
  (fp_line (start -9.68 41) (end -9.68 39) (layer F.SilkS) (width 0.12))
  (fp_line (start -9.68 39) (end -3.21 39) (layer F.SilkS) (width 0.12))
  (fp_line (start -2.855 39.69) (end -3.21 39.69) (layer F.SilkS) (width 0.12))
  (fp_line (start -2.855 40.31) (end -3.21 40.31) (layer F.SilkS) (width 0.12))
  (fp_line (start -0.855 39.69) (end -1.145 39.69) (layer F.SilkS) (width 0.12))
  (fp_line (start -0.855 40.31) (end -1.145 40.31) (layer F.SilkS) (width 0.12))
  (fp_line (start -3.21 41) (end -3.21 43) (layer F.SilkS) (width 0.12))
  (fp_line (start -3.21 43) (end -9.68 43) (layer F.SilkS) (width 0.12))
  (fp_line (start -9.68 43) (end -9.68 41) (layer F.SilkS) (width 0.12))
  (fp_line (start -9.68 41) (end -3.21 41) (layer F.SilkS) (width 0.12))
  (fp_line (start -2.855 41.69) (end -3.21 41.69) (layer F.SilkS) (width 0.12))
  (fp_line (start -2.855 42.31) (end -3.21 42.31) (layer F.SilkS) (width 0.12))
  (fp_line (start -0.855 41.69) (end -1.145 41.69) (layer F.SilkS) (width 0.12))
  (fp_line (start -0.855 42.31) (end -1.145 42.31) (layer F.SilkS) (width 0.12))
  (fp_line (start -3.21 43) (end -3.21 45) (layer F.SilkS) (width 0.12))
  (fp_line (start -3.21 45) (end -9.68 45) (layer F.SilkS) (width 0.12))
  (fp_line (start -9.68 45) (end -9.68 43) (layer F.SilkS) (width 0.12))
  (fp_line (start -9.68 43) (end -3.21 43) (layer F.SilkS) (width 0.12))
  (fp_line (start -2.855 43.69) (end -3.21 43.69) (layer F.SilkS) (width 0.12))
  (fp_line (start -2.855 44.31) (end -3.21 44.31) (layer F.SilkS) (width 0.12))
  (fp_line (start -0.855 43.69) (end -1.145 43.69) (layer F.SilkS) (width 0.12))
  (fp_line (start -0.855 44.31) (end -1.145 44.31) (layer F.SilkS) (width 0.12))
  (fp_line (start -3.21 45) (end -3.21 47) (layer F.SilkS) (width 0.12))
  (fp_line (start -3.21 47) (end -9.68 47) (layer F.SilkS) (width 0.12))
  (fp_line (start -9.68 47) (end -9.68 45) (layer F.SilkS) (width 0.12))
  (fp_line (start -9.68 45) (end -3.21 45) (layer F.SilkS) (width 0.12))
  (fp_line (start -2.855 45.69) (end -3.21 45.69) (layer F.SilkS) (width 0.12))
  (fp_line (start -2.855 46.31) (end -3.21 46.31) (layer F.SilkS) (width 0.12))
  (fp_line (start -0.855 45.69) (end -1.145 45.69) (layer F.SilkS) (width 0.12))
  (fp_line (start -0.855 46.31) (end -1.145 46.31) (layer F.SilkS) (width 0.12))
  (fp_line (start -3.21 47) (end -3.21 49) (layer F.SilkS) (width 0.12))
  (fp_line (start -3.21 49) (end -9.68 49) (layer F.SilkS) (width 0.12))
  (fp_line (start -9.68 49) (end -9.68 47) (layer F.SilkS) (width 0.12))
  (fp_line (start -9.68 47) (end -3.21 47) (layer F.SilkS) (width 0.12))
  (fp_line (start -2.855 47.69) (end -3.21 47.69) (layer F.SilkS) (width 0.12))
  (fp_line (start -2.855 48.31) (end -3.21 48.31) (layer F.SilkS) (width 0.12))
  (fp_line (start -0.855 47.69) (end -1.145 47.69) (layer F.SilkS) (width 0.12))
  (fp_line (start -0.855 48.31) (end -1.145 48.31) (layer F.SilkS) (width 0.12))
  (fp_line (start -3.21 49) (end -3.21 51) (layer F.SilkS) (width 0.12))
  (fp_line (start -3.21 51) (end -9.68 51) (layer F.SilkS) (width 0.12))
  (fp_line (start -9.68 51) (end -9.68 49) (layer F.SilkS) (width 0.12))
  (fp_line (start -9.68 49) (end -3.21 49) (layer F.SilkS) (width 0.12))
  (fp_line (start -2.855 49.69) (end -3.21 49.69) (layer F.SilkS) (width 0.12))
  (fp_line (start -2.855 50.31) (end -3.21 50.31) (layer F.SilkS) (width 0.12))
  (fp_line (start -0.855 49.69) (end -1.145 49.69) (layer F.SilkS) (width 0.12))
  (fp_line (start -0.855 50.31) (end -1.145 50.31) (layer F.SilkS) (width 0.12))
  (fp_line (start -3.21 51) (end -3.21 53) (layer F.SilkS) (width 0.12))
  (fp_line (start -3.21 53) (end -9.68 53) (layer F.SilkS) (width 0.12))
  (fp_line (start -9.68 53) (end -9.68 51) (layer F.SilkS) (width 0.12))
  (fp_line (start -9.68 51) (end -3.21 51) (layer F.SilkS) (width 0.12))
  (fp_line (start -2.855 51.69) (end -3.21 51.69) (layer F.SilkS) (width 0.12))
  (fp_line (start -2.855 52.31) (end -3.21 52.31) (layer F.SilkS) (width 0.12))
  (fp_line (start -0.855 51.69) (end -1.145 51.69) (layer F.SilkS) (width 0.12))
  (fp_line (start -0.855 52.31) (end -1.145 52.31) (layer F.SilkS) (width 0.12))
  (fp_line (start -3.21 53) (end -3.21 55) (layer F.SilkS) (width 0.12))
  (fp_line (start -3.21 55) (end -9.68 55) (layer F.SilkS) (width 0.12))
  (fp_line (start -9.68 55) (end -9.68 53) (layer F.SilkS) (width 0.12))
  (fp_line (start -9.68 53) (end -3.21 53) (layer F.SilkS) (width 0.12))
  (fp_line (start -2.855 53.69) (end -3.21 53.69) (layer F.SilkS) (width 0.12))
  (fp_line (start -2.855 54.31) (end -3.21 54.31) (layer F.SilkS) (width 0.12))
  (fp_line (start -0.855 53.69) (end -1.145 53.69) (layer F.SilkS) (width 0.12))
  (fp_line (start -0.855 54.31) (end -1.145 54.31) (layer F.SilkS) (width 0.12))
  (fp_line (start -3.21 55) (end -3.21 57) (layer F.SilkS) (width 0.12))
  (fp_line (start -3.21 57) (end -9.68 57) (layer F.SilkS) (width 0.12))
  (fp_line (start -9.68 57) (end -9.68 55) (layer F.SilkS) (width 0.12))
  (fp_line (start -9.68 55) (end -3.21 55) (layer F.SilkS) (width 0.12))
  (fp_line (start -2.855 55.69) (end -3.21 55.69) (layer F.SilkS) (width 0.12))
  (fp_line (start -2.855 56.31) (end -3.21 56.31) (layer F.SilkS) (width 0.12))
  (fp_line (start -0.855 55.69) (end -1.145 55.69) (layer F.SilkS) (width 0.12))
  (fp_line (start -0.855 56.31) (end -1.145 56.31) (layer F.SilkS) (width 0.12))
  (fp_line (start -3.21 57) (end -3.21 59) (layer F.SilkS) (width 0.12))
  (fp_line (start -3.21 59) (end -9.68 59) (layer F.SilkS) (width 0.12))
  (fp_line (start -9.68 59) (end -9.68 57) (layer F.SilkS) (width 0.12))
  (fp_line (start -9.68 57) (end -3.21 57) (layer F.SilkS) (width 0.12))
  (fp_line (start -2.855 57.69) (end -3.21 57.69) (layer F.SilkS) (width 0.12))
  (fp_line (start -2.855 58.31) (end -3.21 58.31) (layer F.SilkS) (width 0.12))
  (fp_line (start -0.855 57.69) (end -1.145 57.69) (layer F.SilkS) (width 0.12))
  (fp_line (start -0.855 58.31) (end -1.145 58.31) (layer F.SilkS) (width 0.12))
  (fp_line (start -3.21 59) (end -3.21 61) (layer F.SilkS) (width 0.12))
  (fp_line (start -3.21 61) (end -9.68 61) (layer F.SilkS) (width 0.12))
  (fp_line (start -9.68 61) (end -9.68 59) (layer F.SilkS) (width 0.12))
  (fp_line (start -9.68 59) (end -3.21 59) (layer F.SilkS) (width 0.12))
  (fp_line (start -2.855 59.69) (end -3.21 59.69) (layer F.SilkS) (width 0.12))
  (fp_line (start -2.855 60.31) (end -3.21 60.31) (layer F.SilkS) (width 0.12))
  (fp_line (start -0.855 59.69) (end -1.145 59.69) (layer F.SilkS) (width 0.12))
  (fp_line (start -0.855 60.31) (end -1.145 60.31) (layer F.SilkS) (width 0.12))
  (fp_line (start -3.21 61) (end -3.21 63) (layer F.SilkS) (width 0.12))
  (fp_line (start -3.21 63) (end -9.68 63) (layer F.SilkS) (width 0.12))
  (fp_line (start -9.68 63) (end -9.68 61) (layer F.SilkS) (width 0.12))
  (fp_line (start -9.68 61) (end -3.21 61) (layer F.SilkS) (width 0.12))
  (fp_line (start -2.855 61.69) (end -3.21 61.69) (layer F.SilkS) (width 0.12))
  (fp_line (start -2.855 62.31) (end -3.21 62.31) (layer F.SilkS) (width 0.12))
  (fp_line (start -0.855 61.69) (end -1.145 61.69) (layer F.SilkS) (width 0.12))
  (fp_line (start -0.855 62.31) (end -1.145 62.31) (layer F.SilkS) (width 0.12))
  (fp_line (start -3.21 63) (end -3.21 65) (layer F.SilkS) (width 0.12))
  (fp_line (start -3.21 65) (end -9.68 65) (layer F.SilkS) (width 0.12))
  (fp_line (start -9.68 65) (end -9.68 63) (layer F.SilkS) (width 0.12))
  (fp_line (start -9.68 63) (end -3.21 63) (layer F.SilkS) (width 0.12))
  (fp_line (start -2.855 63.69) (end -3.21 63.69) (layer F.SilkS) (width 0.12))
  (fp_line (start -2.855 64.31) (end -3.21 64.31) (layer F.SilkS) (width 0.12))
  (fp_line (start -0.855 63.69) (end -1.145 63.69) (layer F.SilkS) (width 0.12))
  (fp_line (start -0.855 64.31) (end -1.145 64.31) (layer F.SilkS) (width 0.12))
  (fp_line (start -3.21 65) (end -3.21 67) (layer F.SilkS) (width 0.12))
  (fp_line (start -3.21 67) (end -9.68 67) (layer F.SilkS) (width 0.12))
  (fp_line (start -9.68 67) (end -9.68 65) (layer F.SilkS) (width 0.12))
  (fp_line (start -9.68 65) (end -3.21 65) (layer F.SilkS) (width 0.12))
  (fp_line (start -2.855 65.69) (end -3.21 65.69) (layer F.SilkS) (width 0.12))
  (fp_line (start -2.855 66.31) (end -3.21 66.31) (layer F.SilkS) (width 0.12))
  (fp_line (start -0.855 65.69) (end -1.145 65.69) (layer F.SilkS) (width 0.12))
  (fp_line (start -0.855 66.31) (end -1.145 66.31) (layer F.SilkS) (width 0.12))
  (fp_line (start -3.21 67) (end -3.21 69) (layer F.SilkS) (width 0.12))
  (fp_line (start -3.21 69) (end -9.68 69) (layer F.SilkS) (width 0.12))
  (fp_line (start -9.68 69) (end -9.68 67) (layer F.SilkS) (width 0.12))
  (fp_line (start -9.68 67) (end -3.21 67) (layer F.SilkS) (width 0.12))
  (fp_line (start -2.855 67.69) (end -3.21 67.69) (layer F.SilkS) (width 0.12))
  (fp_line (start -2.855 68.31) (end -3.21 68.31) (layer F.SilkS) (width 0.12))
  (fp_line (start -0.855 67.69) (end -1.145 67.69) (layer F.SilkS) (width 0.12))
  (fp_line (start -0.855 68.31) (end -1.145 68.31) (layer F.SilkS) (width 0.12))
  (fp_line (start -3.21 69) (end -3.21 71) (layer F.SilkS) (width 0.12))
  (fp_line (start -3.21 71) (end -9.68 71) (layer F.SilkS) (width 0.12))
  (fp_line (start -9.68 71) (end -9.68 69) (layer F.SilkS) (width 0.12))
  (fp_line (start -9.68 69) (end -3.21 69) (layer F.SilkS) (width 0.12))
  (fp_line (start -2.855 69.69) (end -3.21 69.69) (layer F.SilkS) (width 0.12))
  (fp_line (start -2.855 70.31) (end -3.21 70.31) (layer F.SilkS) (width 0.12))
  (fp_line (start -0.855 69.69) (end -1.145 69.69) (layer F.SilkS) (width 0.12))
  (fp_line (start -0.855 70.31) (end -1.145 70.31) (layer F.SilkS) (width 0.12))
  (fp_line (start -3.21 71) (end -3.21 73) (layer F.SilkS) (width 0.12))
  (fp_line (start -3.21 73) (end -9.68 73) (layer F.SilkS) (width 0.12))
  (fp_line (start -9.68 73) (end -9.68 71) (layer F.SilkS) (width 0.12))
  (fp_line (start -9.68 71) (end -3.21 71) (layer F.SilkS) (width 0.12))
  (fp_line (start -2.855 71.69) (end -3.21 71.69) (layer F.SilkS) (width 0.12))
  (fp_line (start -2.855 72.31) (end -3.21 72.31) (layer F.SilkS) (width 0.12))
  (fp_line (start -0.855 71.69) (end -1.145 71.69) (layer F.SilkS) (width 0.12))
  (fp_line (start -0.855 72.31) (end -1.145 72.31) (layer F.SilkS) (width 0.12))
  (fp_line (start -3.21 73) (end -3.21 75) (layer F.SilkS) (width 0.12))
  (fp_line (start -3.21 75) (end -9.68 75) (layer F.SilkS) (width 0.12))
  (fp_line (start -9.68 75) (end -9.68 73) (layer F.SilkS) (width 0.12))
  (fp_line (start -9.68 73) (end -3.21 73) (layer F.SilkS) (width 0.12))
  (fp_line (start -2.855 73.69) (end -3.21 73.69) (layer F.SilkS) (width 0.12))
  (fp_line (start -2.855 74.31) (end -3.21 74.31) (layer F.SilkS) (width 0.12))
  (fp_line (start -0.855 73.69) (end -1.145 73.69) (layer F.SilkS) (width 0.12))
  (fp_line (start -0.855 74.31) (end -1.145 74.31) (layer F.SilkS) (width 0.12))
  (fp_line (start -3.21 75) (end -3.21 77) (layer F.SilkS) (width 0.12))
  (fp_line (start -3.21 77) (end -9.68 77) (layer F.SilkS) (width 0.12))
  (fp_line (start -9.68 77) (end -9.68 75) (layer F.SilkS) (width 0.12))
  (fp_line (start -9.68 75) (end -3.21 75) (layer F.SilkS) (width 0.12))
  (fp_line (start -2.855 75.69) (end -3.21 75.69) (layer F.SilkS) (width 0.12))
  (fp_line (start -2.855 76.31) (end -3.21 76.31) (layer F.SilkS) (width 0.12))
  (fp_line (start -0.855 75.69) (end -1.145 75.69) (layer F.SilkS) (width 0.12))
  (fp_line (start -0.855 76.31) (end -1.145 76.31) (layer F.SilkS) (width 0.12))
  (fp_line (start -3.21 77) (end -3.21 79.06) (layer F.SilkS) (width 0.12))
  (fp_line (start -3.21 79.06) (end -9.68 79.06) (layer F.SilkS) (width 0.12))
  (fp_line (start -9.68 79.06) (end -9.68 77) (layer F.SilkS) (width 0.12))
  (fp_line (start -9.68 77) (end -3.21 77) (layer F.SilkS) (width 0.12))
  (fp_line (start -2.855 77.69) (end -3.21 77.69) (layer F.SilkS) (width 0.12))
  (fp_line (start -2.855 78.31) (end -3.21 78.31) (layer F.SilkS) (width 0.12))
  (fp_line (start -0.855 77.69) (end -1.145 77.69) (layer F.SilkS) (width 0.12))
  (fp_line (start -0.855 78.31) (end -1.145 78.31) (layer F.SilkS) (width 0.12))
  (fp_line (start 0 -1) (end 1 -1) (layer F.SilkS) (width 0.12))
  (fp_line (start 1 -1) (end 1 0) (layer F.SilkS) (width 0.12))
  (fp_line (start 1.25 -1.25) (end 1.25 79.25) (layer F.CrtYd) (width 0.05))
  (fp_line (start 1.25 79.25) (end -9.9 79.25) (layer F.CrtYd) (width 0.05))
  (fp_line (start -9.9 79.25) (end -9.9 -1.25) (layer F.CrtYd) (width 0.05))
  (fp_line (start -9.9 -1.25) (end 1.25 -1.25) (layer F.CrtYd) (width 0.05))
  (pad 1 thru_hole rect (at 0 0) (size 1.35 1.35) (drill 0.8) (layers *.Cu *.Mask))
  (pad 2 thru_hole oval (at -2 0) (size 1.35 1.35) (drill 0.8) (layers *.Cu *.Mask))
  (pad 3 thru_hole oval (at 0 2) (size 1.35 1.35) (drill 0.8) (layers *.Cu *.Mask))
  (pad 4 thru_hole oval (at -2 2) (size 1.35 1.35) (drill 0.8) (layers *.Cu *.Mask))
  (pad 5 thru_hole oval (at 0 4) (size 1.35 1.35) (drill 0.8) (layers *.Cu *.Mask))
  (pad 6 thru_hole oval (at -2 4) (size 1.35 1.35) (drill 0.8) (layers *.Cu *.Mask))
  (pad 7 thru_hole oval (at 0 6) (size 1.35 1.35) (drill 0.8) (layers *.Cu *.Mask))
  (pad 8 thru_hole oval (at -2 6) (size 1.35 1.35) (drill 0.8) (layers *.Cu *.Mask))
  (pad 9 thru_hole oval (at 0 8) (size 1.35 1.35) (drill 0.8) (layers *.Cu *.Mask))
  (pad 10 thru_hole oval (at -2 8) (size 1.35 1.35) (drill 0.8) (layers *.Cu *.Mask))
  (pad 11 thru_hole oval (at 0 10) (size 1.35 1.35) (drill 0.8) (layers *.Cu *.Mask))
  (pad 12 thru_hole oval (at -2 10) (size 1.35 1.35) (drill 0.8) (layers *.Cu *.Mask))
  (pad 13 thru_hole oval (at 0 12) (size 1.35 1.35) (drill 0.8) (layers *.Cu *.Mask))
  (pad 14 thru_hole oval (at -2 12) (size 1.35 1.35) (drill 0.8) (layers *.Cu *.Mask))
  (pad 15 thru_hole oval (at 0 14) (size 1.35 1.35) (drill 0.8) (layers *.Cu *.Mask))
  (pad 16 thru_hole oval (at -2 14) (size 1.35 1.35) (drill 0.8) (layers *.Cu *.Mask))
  (pad 17 thru_hole oval (at 0 16) (size 1.35 1.35) (drill 0.8) (layers *.Cu *.Mask))
  (pad 18 thru_hole oval (at -2 16) (size 1.35 1.35) (drill 0.8) (layers *.Cu *.Mask))
  (pad 19 thru_hole oval (at 0 18) (size 1.35 1.35) (drill 0.8) (layers *.Cu *.Mask))
  (pad 20 thru_hole oval (at -2 18) (size 1.35 1.35) (drill 0.8) (layers *.Cu *.Mask))
  (pad 21 thru_hole oval (at 0 20) (size 1.35 1.35) (drill 0.8) (layers *.Cu *.Mask))
  (pad 22 thru_hole oval (at -2 20) (size 1.35 1.35) (drill 0.8) (layers *.Cu *.Mask))
  (pad 23 thru_hole oval (at 0 22) (size 1.35 1.35) (drill 0.8) (layers *.Cu *.Mask))
  (pad 24 thru_hole oval (at -2 22) (size 1.35 1.35) (drill 0.8) (layers *.Cu *.Mask))
  (pad 25 thru_hole oval (at 0 24) (size 1.35 1.35) (drill 0.8) (layers *.Cu *.Mask))
  (pad 26 thru_hole oval (at -2 24) (size 1.35 1.35) (drill 0.8) (layers *.Cu *.Mask))
  (pad 27 thru_hole oval (at 0 26) (size 1.35 1.35) (drill 0.8) (layers *.Cu *.Mask))
  (pad 28 thru_hole oval (at -2 26) (size 1.35 1.35) (drill 0.8) (layers *.Cu *.Mask))
  (pad 29 thru_hole oval (at 0 28) (size 1.35 1.35) (drill 0.8) (layers *.Cu *.Mask))
  (pad 30 thru_hole oval (at -2 28) (size 1.35 1.35) (drill 0.8) (layers *.Cu *.Mask))
  (pad 31 thru_hole oval (at 0 30) (size 1.35 1.35) (drill 0.8) (layers *.Cu *.Mask))
  (pad 32 thru_hole oval (at -2 30) (size 1.35 1.35) (drill 0.8) (layers *.Cu *.Mask))
  (pad 33 thru_hole oval (at 0 32) (size 1.35 1.35) (drill 0.8) (layers *.Cu *.Mask))
  (pad 34 thru_hole oval (at -2 32) (size 1.35 1.35) (drill 0.8) (layers *.Cu *.Mask))
  (pad 35 thru_hole oval (at 0 34) (size 1.35 1.35) (drill 0.8) (layers *.Cu *.Mask))
  (pad 36 thru_hole oval (at -2 34) (size 1.35 1.35) (drill 0.8) (layers *.Cu *.Mask))
  (pad 37 thru_hole oval (at 0 36) (size 1.35 1.35) (drill 0.8) (layers *.Cu *.Mask))
  (pad 38 thru_hole oval (at -2 36) (size 1.35 1.35) (drill 0.8) (layers *.Cu *.Mask))
  (pad 39 thru_hole oval (at 0 38) (size 1.35 1.35) (drill 0.8) (layers *.Cu *.Mask))
  (pad 40 thru_hole oval (at -2 38) (size 1.35 1.35) (drill 0.8) (layers *.Cu *.Mask))
  (pad 41 thru_hole oval (at 0 40) (size 1.35 1.35) (drill 0.8) (layers *.Cu *.Mask))
  (pad 42 thru_hole oval (at -2 40) (size 1.35 1.35) (drill 0.8) (layers *.Cu *.Mask))
  (pad 43 thru_hole oval (at 0 42) (size 1.35 1.35) (drill 0.8) (layers *.Cu *.Mask))
  (pad 44 thru_hole oval (at -2 42) (size 1.35 1.35) (drill 0.8) (layers *.Cu *.Mask))
  (pad 45 thru_hole oval (at 0 44) (size 1.35 1.35) (drill 0.8) (layers *.Cu *.Mask))
  (pad 46 thru_hole oval (at -2 44) (size 1.35 1.35) (drill 0.8) (layers *.Cu *.Mask))
  (pad 47 thru_hole oval (at 0 46) (size 1.35 1.35) (drill 0.8) (layers *.Cu *.Mask))
  (pad 48 thru_hole oval (at -2 46) (size 1.35 1.35) (drill 0.8) (layers *.Cu *.Mask))
  (pad 49 thru_hole oval (at 0 48) (size 1.35 1.35) (drill 0.8) (layers *.Cu *.Mask))
  (pad 50 thru_hole oval (at -2 48) (size 1.35 1.35) (drill 0.8) (layers *.Cu *.Mask))
  (pad 51 thru_hole oval (at 0 50) (size 1.35 1.35) (drill 0.8) (layers *.Cu *.Mask))
  (pad 52 thru_hole oval (at -2 50) (size 1.35 1.35) (drill 0.8) (layers *.Cu *.Mask))
  (pad 53 thru_hole oval (at 0 52) (size 1.35 1.35) (drill 0.8) (layers *.Cu *.Mask))
  (pad 54 thru_hole oval (at -2 52) (size 1.35 1.35) (drill 0.8) (layers *.Cu *.Mask))
  (pad 55 thru_hole oval (at 0 54) (size 1.35 1.35) (drill 0.8) (layers *.Cu *.Mask))
  (pad 56 thru_hole oval (at -2 54) (size 1.35 1.35) (drill 0.8) (layers *.Cu *.Mask))
  (pad 57 thru_hole oval (at 0 56) (size 1.35 1.35) (drill 0.8) (layers *.Cu *.Mask))
  (pad 58 thru_hole oval (at -2 56) (size 1.35 1.35) (drill 0.8) (layers *.Cu *.Mask))
  (pad 59 thru_hole oval (at 0 58) (size 1.35 1.35) (drill 0.8) (layers *.Cu *.Mask))
  (pad 60 thru_hole oval (at -2 58) (size 1.35 1.35) (drill 0.8) (layers *.Cu *.Mask))
  (pad 61 thru_hole oval (at 0 60) (size 1.35 1.35) (drill 0.8) (layers *.Cu *.Mask))
  (pad 62 thru_hole oval (at -2 60) (size 1.35 1.35) (drill 0.8) (layers *.Cu *.Mask))
  (pad 63 thru_hole oval (at 0 62) (size 1.35 1.35) (drill 0.8) (layers *.Cu *.Mask))
  (pad 64 thru_hole oval (at -2 62) (size 1.35 1.35) (drill 0.8) (layers *.Cu *.Mask))
  (pad 65 thru_hole oval (at 0 64) (size 1.35 1.35) (drill 0.8) (layers *.Cu *.Mask))
  (pad 66 thru_hole oval (at -2 64) (size 1.35 1.35) (drill 0.8) (layers *.Cu *.Mask))
  (pad 67 thru_hole oval (at 0 66) (size 1.35 1.35) (drill 0.8) (layers *.Cu *.Mask))
  (pad 68 thru_hole oval (at -2 66) (size 1.35 1.35) (drill 0.8) (layers *.Cu *.Mask))
  (pad 69 thru_hole oval (at 0 68) (size 1.35 1.35) (drill 0.8) (layers *.Cu *.Mask))
  (pad 70 thru_hole oval (at -2 68) (size 1.35 1.35) (drill 0.8) (layers *.Cu *.Mask))
  (pad 71 thru_hole oval (at 0 70) (size 1.35 1.35) (drill 0.8) (layers *.Cu *.Mask))
  (pad 72 thru_hole oval (at -2 70) (size 1.35 1.35) (drill 0.8) (layers *.Cu *.Mask))
  (pad 73 thru_hole oval (at 0 72) (size 1.35 1.35) (drill 0.8) (layers *.Cu *.Mask))
  (pad 74 thru_hole oval (at -2 72) (size 1.35 1.35) (drill 0.8) (layers *.Cu *.Mask))
  (pad 75 thru_hole oval (at 0 74) (size 1.35 1.35) (drill 0.8) (layers *.Cu *.Mask))
  (pad 76 thru_hole oval (at -2 74) (size 1.35 1.35) (drill 0.8) (layers *.Cu *.Mask))
  (pad 77 thru_hole oval (at 0 76) (size 1.35 1.35) (drill 0.8) (layers *.Cu *.Mask))
  (pad 78 thru_hole oval (at -2 76) (size 1.35 1.35) (drill 0.8) (layers *.Cu *.Mask))
  (pad 79 thru_hole oval (at 0 78) (size 1.35 1.35) (drill 0.8) (layers *.Cu *.Mask))
  (pad 80 thru_hole oval (at -2 78) (size 1.35 1.35) (drill 0.8) (layers *.Cu *.Mask))
  (model Socket_Strips.3dshapes/Socket_Strip_Angled_2x40_Pitch2.00mm.wrl
    (at (xyz 0.03937 -1.535433 0))
    (scale (xyz 1 1 1))
    (rotate (xyz 0 0 90))
  )
)