(module Socket_Strip_Straight_2x03_Pitch1.27mm_SMD (layer F.Cu) (tedit 588DE961)
  (descr "surface-mounted straight socket strip, 2x03, 1.27mm pitch, double rows")
  (tags "Surface mounted socket strip SMD 2x03 1.27mm double row")
  (attr smd)
  (fp_text reference REF** (at 0 -2.965) (layer F.SilkS)
    (effects (font (size 1 1) (thickness 0.15)))
  )
  (fp_text value Socket_Strip_Straight_2x03_Pitch1.27mm_SMD (at 0 2.965) (layer F.Fab)
    (effects (font (size 1 1) (thickness 0.15)))
  )
  (fp_line (start -1.27 -1.905) (end -1.27 1.905) (layer F.Fab) (width 0.1))
  (fp_line (start -1.27 1.905) (end 1.27 1.905) (layer F.Fab) (width 0.1))
  (fp_line (start 1.27 1.905) (end 1.27 -1.905) (layer F.Fab) (width 0.1))
  (fp_line (start 1.27 -1.905) (end -1.27 -1.905) (layer F.Fab) (width 0.1))
  (fp_line (start -1.27 -1.47) (end -1.27 -1.07) (layer F.Fab) (width 0.1))
  (fp_line (start -1.27 -1.07) (end -2.555 -1.07) (layer F.Fab) (width 0.1))
  (fp_line (start -2.555 -1.07) (end -2.555 -1.47) (layer F.Fab) (width 0.1))
  (fp_line (start -2.555 -1.47) (end -1.27 -1.47) (layer F.Fab) (width 0.1))
  (fp_line (start 1.27 -1.47) (end 1.27 -1.07) (layer F.Fab) (width 0.1))
  (fp_line (start 1.27 -1.07) (end 2.555 -1.07) (layer F.Fab) (width 0.1))
  (fp_line (start 2.555 -1.07) (end 2.555 -1.47) (layer F.Fab) (width 0.1))
  (fp_line (start 2.555 -1.47) (end 1.27 -1.47) (layer F.Fab) (width 0.1))
  (fp_line (start -1.27 -0.2) (end -1.27 0.2) (layer F.Fab) (width 0.1))
  (fp_line (start -1.27 0.2) (end -2.555 0.2) (layer F.Fab) (width 0.1))
  (fp_line (start -2.555 0.2) (end -2.555 -0.2) (layer F.Fab) (width 0.1))
  (fp_line (start -2.555 -0.2) (end -1.27 -0.2) (layer F.Fab) (width 0.1))
  (fp_line (start 1.27 -0.2) (end 1.27 0.2) (layer F.Fab) (width 0.1))
  (fp_line (start 1.27 0.2) (end 2.555 0.2) (layer F.Fab) (width 0.1))
  (fp_line (start 2.555 0.2) (end 2.555 -0.2) (layer F.Fab) (width 0.1))
  (fp_line (start 2.555 -0.2) (end 1.27 -0.2) (layer F.Fab) (width 0.1))
  (fp_line (start -1.27 1.07) (end -1.27 1.47) (layer F.Fab) (width 0.1))
  (fp_line (start -1.27 1.47) (end -2.555 1.47) (layer F.Fab) (width 0.1))
  (fp_line (start -2.555 1.47) (end -2.555 1.07) (layer F.Fab) (width 0.1))
  (fp_line (start -2.555 1.07) (end -1.27 1.07) (layer F.Fab) (width 0.1))
  (fp_line (start 1.27 1.07) (end 1.27 1.47) (layer F.Fab) (width 0.1))
  (fp_line (start 1.27 1.47) (end 2.555 1.47) (layer F.Fab) (width 0.1))
  (fp_line (start 2.555 1.47) (end 2.555 1.07) (layer F.Fab) (width 0.1))
  (fp_line (start 2.555 1.07) (end 1.27 1.07) (layer F.Fab) (width 0.1))
  (fp_line (start -1.33 -1.945) (end -1.33 -1.965) (layer F.SilkS) (width 0.12))
  (fp_line (start -1.33 -1.965) (end 1.33 -1.965) (layer F.SilkS) (width 0.12))
  (fp_line (start 1.33 -1.965) (end 1.33 -1.945) (layer F.SilkS) (width 0.12))
  (fp_line (start -1.33 1.945) (end -1.33 1.965) (layer F.SilkS) (width 0.12))
  (fp_line (start -1.33 1.965) (end 1.33 1.965) (layer F.SilkS) (width 0.12))
  (fp_line (start 1.33 1.965) (end 1.33 1.945) (layer F.SilkS) (width 0.12))
  (fp_line (start 3.635 -1.945) (end 1.33 -1.945) (layer F.SilkS) (width 0.12))
  (fp_line (start -3.9 -2.2) (end -3.9 2.2) (layer F.CrtYd) (width 0.05))
  (fp_line (start -3.9 2.2) (end 3.9 2.2) (layer F.CrtYd) (width 0.05))
  (fp_line (start 3.9 2.2) (end 3.9 -2.2) (layer F.CrtYd) (width 0.05))
  (fp_line (start 3.9 -2.2) (end -3.9 -2.2) (layer F.CrtYd) (width 0.05))
  (pad 1 smd rect (at 2.585 -1.27) (size 2.1 0.75) (layers F.Cu F.Mask))
  (pad 2 smd rect (at -2.585 -1.27) (size 2.1 0.75) (layers F.Cu F.Mask))
  (pad 3 smd rect (at 2.585 0) (size 2.1 0.75) (layers F.Cu F.Mask))
  (pad 4 smd rect (at -2.585 0) (size 2.1 0.75) (layers F.Cu F.Mask))
  (pad 5 smd rect (at 2.585 1.27) (size 2.1 0.75) (layers F.Cu F.Mask))
  (pad 6 smd rect (at -2.585 1.27) (size 2.1 0.75) (layers F.Cu F.Mask))
  (model Socket_Strips.3dshapes/Socket_Strip_Straight_2x03_Pitch1.27mm_SMD.wrl
    (at (xyz 0 0 0))
    (scale (xyz 1 1 1))
    (rotate (xyz 0 0 0))
  )
)