(module Socket_Strip_Straight_2x20_Pitch2.54mm_SMD (layer F.Cu) (tedit 588DE959)
  (descr "surface-mounted straight socket strip, 2x20, 2.54mm pitch, double rows")
  (tags "Surface mounted socket strip SMD 2x20 2.54mm double row")
  (attr smd)
  (fp_text reference REF** (at 0 -26.46) (layer F.SilkS)
    (effects (font (size 1 1) (thickness 0.15)))
  )
  (fp_text value Socket_Strip_Straight_2x20_Pitch2.54mm_SMD (at 0 26.46) (layer F.Fab)
    (effects (font (size 1 1) (thickness 0.15)))
  )
  (fp_line (start -2.54 -25.4) (end -2.54 25.4) (layer F.Fab) (width 0.1))
  (fp_line (start -2.54 25.4) (end 2.54 25.4) (layer F.Fab) (width 0.1))
  (fp_line (start 2.54 25.4) (end 2.54 -25.4) (layer F.Fab) (width 0.1))
  (fp_line (start 2.54 -25.4) (end -2.54 -25.4) (layer F.Fab) (width 0.1))
  (fp_line (start -2.54 -24.45) (end -2.54 -23.81) (layer F.Fab) (width 0.1))
  (fp_line (start -2.54 -23.81) (end -3.92 -23.81) (layer F.Fab) (width 0.1))
  (fp_line (start -3.92 -23.81) (end -3.92 -24.45) (layer F.Fab) (width 0.1))
  (fp_line (start -3.92 -24.45) (end -2.54 -24.45) (layer F.Fab) (width 0.1))
  (fp_line (start 2.54 -24.45) (end 2.54 -23.81) (layer F.Fab) (width 0.1))
  (fp_line (start 2.54 -23.81) (end 3.92 -23.81) (layer F.Fab) (width 0.1))
  (fp_line (start 3.92 -23.81) (end 3.92 -24.45) (layer F.Fab) (width 0.1))
  (fp_line (start 3.92 -24.45) (end 2.54 -24.45) (layer F.Fab) (width 0.1))
  (fp_line (start -2.54 -21.91) (end -2.54 -21.27) (layer F.Fab) (width 0.1))
  (fp_line (start -2.54 -21.27) (end -3.92 -21.27) (layer F.Fab) (width 0.1))
  (fp_line (start -3.92 -21.27) (end -3.92 -21.91) (layer F.Fab) (width 0.1))
  (fp_line (start -3.92 -21.91) (end -2.54 -21.91) (layer F.Fab) (width 0.1))
  (fp_line (start 2.54 -21.91) (end 2.54 -21.27) (layer F.Fab) (width 0.1))
  (fp_line (start 2.54 -21.27) (end 3.92 -21.27) (layer F.Fab) (width 0.1))
  (fp_line (start 3.92 -21.27) (end 3.92 -21.91) (layer F.Fab) (width 0.1))
  (fp_line (start 3.92 -21.91) (end 2.54 -21.91) (layer F.Fab) (width 0.1))
  (fp_line (start -2.54 -19.37) (end -2.54 -18.73) (layer F.Fab) (width 0.1))
  (fp_line (start -2.54 -18.73) (end -3.92 -18.73) (layer F.Fab) (width 0.1))
  (fp_line (start -3.92 -18.73) (end -3.92 -19.37) (layer F.Fab) (width 0.1))
  (fp_line (start -3.92 -19.37) (end -2.54 -19.37) (layer F.Fab) (width 0.1))
  (fp_line (start 2.54 -19.37) (end 2.54 -18.73) (layer F.Fab) (width 0.1))
  (fp_line (start 2.54 -18.73) (end 3.92 -18.73) (layer F.Fab) (width 0.1))
  (fp_line (start 3.92 -18.73) (end 3.92 -19.37) (layer F.Fab) (width 0.1))
  (fp_line (start 3.92 -19.37) (end 2.54 -19.37) (layer F.Fab) (width 0.1))
  (fp_line (start -2.54 -16.83) (end -2.54 -16.19) (layer F.Fab) (width 0.1))
  (fp_line (start -2.54 -16.19) (end -3.92 -16.19) (layer F.Fab) (width 0.1))
  (fp_line (start -3.92 -16.19) (end -3.92 -16.83) (layer F.Fab) (width 0.1))
  (fp_line (start -3.92 -16.83) (end -2.54 -16.83) (layer F.Fab) (width 0.1))
  (fp_line (start 2.54 -16.83) (end 2.54 -16.19) (layer F.Fab) (width 0.1))
  (fp_line (start 2.54 -16.19) (end 3.92 -16.19) (layer F.Fab) (width 0.1))
  (fp_line (start 3.92 -16.19) (end 3.92 -16.83) (layer F.Fab) (width 0.1))
  (fp_line (start 3.92 -16.83) (end 2.54 -16.83) (layer F.Fab) (width 0.1))
  (fp_line (start -2.54 -14.29) (end -2.54 -13.65) (layer F.Fab) (width 0.1))
  (fp_line (start -2.54 -13.65) (end -3.92 -13.65) (layer F.Fab) (width 0.1))
  (fp_line (start -3.92 -13.65) (end -3.92 -14.29) (layer F.Fab) (width 0.1))
  (fp_line (start -3.92 -14.29) (end -2.54 -14.29) (layer F.Fab) (width 0.1))
  (fp_line (start 2.54 -14.29) (end 2.54 -13.65) (layer F.Fab) (width 0.1))
  (fp_line (start 2.54 -13.65) (end 3.92 -13.65) (layer F.Fab) (width 0.1))
  (fp_line (start 3.92 -13.65) (end 3.92 -14.29) (layer F.Fab) (width 0.1))
  (fp_line (start 3.92 -14.29) (end 2.54 -14.29) (layer F.Fab) (width 0.1))
  (fp_line (start -2.54 -11.75) (end -2.54 -11.11) (layer F.Fab) (width 0.1))
  (fp_line (start -2.54 -11.11) (end -3.92 -11.11) (layer F.Fab) (width 0.1))
  (fp_line (start -3.92 -11.11) (end -3.92 -11.75) (layer F.Fab) (width 0.1))
  (fp_line (start -3.92 -11.75) (end -2.54 -11.75) (layer F.Fab) (width 0.1))
  (fp_line (start 2.54 -11.75) (end 2.54 -11.11) (layer F.Fab) (width 0.1))
  (fp_line (start 2.54 -11.11) (end 3.92 -11.11) (layer F.Fab) (width 0.1))
  (fp_line (start 3.92 -11.11) (end 3.92 -11.75) (layer F.Fab) (width 0.1))
  (fp_line (start 3.92 -11.75) (end 2.54 -11.75) (layer F.Fab) (width 0.1))
  (fp_line (start -2.54 -9.21) (end -2.54 -8.57) (layer F.Fab) (width 0.1))
  (fp_line (start -2.54 -8.57) (end -3.92 -8.57) (layer F.Fab) (width 0.1))
  (fp_line (start -3.92 -8.57) (end -3.92 -9.21) (layer F.Fab) (width 0.1))
  (fp_line (start -3.92 -9.21) (end -2.54 -9.21) (layer F.Fab) (width 0.1))
  (fp_line (start 2.54 -9.21) (end 2.54 -8.57) (layer F.Fab) (width 0.1))
  (fp_line (start 2.54 -8.57) (end 3.92 -8.57) (layer F.Fab) (width 0.1))
  (fp_line (start 3.92 -8.57) (end 3.92 -9.21) (layer F.Fab) (width 0.1))
  (fp_line (start 3.92 -9.21) (end 2.54 -9.21) (layer F.Fab) (width 0.1))
  (fp_line (start -2.54 -6.67) (end -2.54 -6.03) (layer F.Fab) (width 0.1))
  (fp_line (start -2.54 -6.03) (end -3.92 -6.03) (layer F.Fab) (width 0.1))
  (fp_line (start -3.92 -6.03) (end -3.92 -6.67) (layer F.Fab) (width 0.1))
  (fp_line (start -3.92 -6.67) (end -2.54 -6.67) (layer F.Fab) (width 0.1))
  (fp_line (start 2.54 -6.67) (end 2.54 -6.03) (layer F.Fab) (width 0.1))
  (fp_line (start 2.54 -6.03) (end 3.92 -6.03) (layer F.Fab) (width 0.1))
  (fp_line (start 3.92 -6.03) (end 3.92 -6.67) (layer F.Fab) (width 0.1))
  (fp_line (start 3.92 -6.67) (end 2.54 -6.67) (layer F.Fab) (width 0.1))
  (fp_line (start -2.54 -4.13) (end -2.54 -3.49) (layer F.Fab) (width 0.1))
  (fp_line (start -2.54 -3.49) (end -3.92 -3.49) (layer F.Fab) (width 0.1))
  (fp_line (start -3.92 -3.49) (end -3.92 -4.13) (layer F.Fab) (width 0.1))
  (fp_line (start -3.92 -4.13) (end -2.54 -4.13) (layer F.Fab) (width 0.1))
  (fp_line (start 2.54 -4.13) (end 2.54 -3.49) (layer F.Fab) (width 0.1))
  (fp_line (start 2.54 -3.49) (end 3.92 -3.49) (layer F.Fab) (width 0.1))
  (fp_line (start 3.92 -3.49) (end 3.92 -4.13) (layer F.Fab) (width 0.1))
  (fp_line (start 3.92 -4.13) (end 2.54 -4.13) (layer F.Fab) (width 0.1))
  (fp_line (start -2.54 -1.59) (end -2.54 -0.95) (layer F.Fab) (width 0.1))
  (fp_line (start -2.54 -0.95) (end -3.92 -0.95) (layer F.Fab) (width 0.1))
  (fp_line (start -3.92 -0.95) (end -3.92 -1.59) (layer F.Fab) (width 0.1))
  (fp_line (start -3.92 -1.59) (end -2.54 -1.59) (layer F.Fab) (width 0.1))
  (fp_line (start 2.54 -1.59) (end 2.54 -0.95) (layer F.Fab) (width 0.1))
  (fp_line (start 2.54 -0.95) (end 3.92 -0.95) (layer F.Fab) (width 0.1))
  (fp_line (start 3.92 -0.95) (end 3.92 -1.59) (layer F.Fab) (width 0.1))
  (fp_line (start 3.92 -1.59) (end 2.54 -1.59) (layer F.Fab) (width 0.1))
  (fp_line (start -2.54 0.95) (end -2.54 1.59) (layer F.Fab) (width 0.1))
  (fp_line (start -2.54 1.59) (end -3.92 1.59) (layer F.Fab) (width 0.1))
  (fp_line (start -3.92 1.59) (end -3.92 0.95) (layer F.Fab) (width 0.1))
  (fp_line (start -3.92 0.95) (end -2.54 0.95) (layer F.Fab) (width 0.1))
  (fp_line (start 2.54 0.95) (end 2.54 1.59) (layer F.Fab) (width 0.1))
  (fp_line (start 2.54 1.59) (end 3.92 1.59) (layer F.Fab) (width 0.1))
  (fp_line (start 3.92 1.59) (end 3.92 0.95) (layer F.Fab) (width 0.1))
  (fp_line (start 3.92 0.95) (end 2.54 0.95) (layer F.Fab) (width 0.1))
  (fp_line (start -2.54 3.49) (end -2.54 4.13) (layer F.Fab) (width 0.1))
  (fp_line (start -2.54 4.13) (end -3.92 4.13) (layer F.Fab) (width 0.1))
  (fp_line (start -3.92 4.13) (end -3.92 3.49) (layer F.Fab) (width 0.1))
  (fp_line (start -3.92 3.49) (end -2.54 3.49) (layer F.Fab) (width 0.1))
  (fp_line (start 2.54 3.49) (end 2.54 4.13) (layer F.Fab) (width 0.1))
  (fp_line (start 2.54 4.13) (end 3.92 4.13) (layer F.Fab) (width 0.1))
  (fp_line (start 3.92 4.13) (end 3.92 3.49) (layer F.Fab) (width 0.1))
  (fp_line (start 3.92 3.49) (end 2.54 3.49) (layer F.Fab) (width 0.1))
  (fp_line (start -2.54 6.03) (end -2.54 6.67) (layer F.Fab) (width 0.1))
  (fp_line (start -2.54 6.67) (end -3.92 6.67) (layer F.Fab) (width 0.1))
  (fp_line (start -3.92 6.67) (end -3.92 6.03) (layer F.Fab) (width 0.1))
  (fp_line (start -3.92 6.03) (end -2.54 6.03) (layer F.Fab) (width 0.1))
  (fp_line (start 2.54 6.03) (end 2.54 6.67) (layer F.Fab) (width 0.1))
  (fp_line (start 2.54 6.67) (end 3.92 6.67) (layer F.Fab) (width 0.1))
  (fp_line (start 3.92 6.67) (end 3.92 6.03) (layer F.Fab) (width 0.1))
  (fp_line (start 3.92 6.03) (end 2.54 6.03) (layer F.Fab) (width 0.1))
  (fp_line (start -2.54 8.57) (end -2.54 9.21) (layer F.Fab) (width 0.1))
  (fp_line (start -2.54 9.21) (end -3.92 9.21) (layer F.Fab) (width 0.1))
  (fp_line (start -3.92 9.21) (end -3.92 8.57) (layer F.Fab) (width 0.1))
  (fp_line (start -3.92 8.57) (end -2.54 8.57) (layer F.Fab) (width 0.1))
  (fp_line (start 2.54 8.57) (end 2.54 9.21) (layer F.Fab) (width 0.1))
  (fp_line (start 2.54 9.21) (end 3.92 9.21) (layer F.Fab) (width 0.1))
  (fp_line (start 3.92 9.21) (end 3.92 8.57) (layer F.Fab) (width 0.1))
  (fp_line (start 3.92 8.57) (end 2.54 8.57) (layer F.Fab) (width 0.1))
  (fp_line (start -2.54 11.11) (end -2.54 11.75) (layer F.Fab) (width 0.1))
  (fp_line (start -2.54 11.75) (end -3.92 11.75) (layer F.Fab) (width 0.1))
  (fp_line (start -3.92 11.75) (end -3.92 11.11) (layer F.Fab) (width 0.1))
  (fp_line (start -3.92 11.11) (end -2.54 11.11) (layer F.Fab) (width 0.1))
  (fp_line (start 2.54 11.11) (end 2.54 11.75) (layer F.Fab) (width 0.1))
  (fp_line (start 2.54 11.75) (end 3.92 11.75) (layer F.Fab) (width 0.1))
  (fp_line (start 3.92 11.75) (end 3.92 11.11) (layer F.Fab) (width 0.1))
  (fp_line (start 3.92 11.11) (end 2.54 11.11) (layer F.Fab) (width 0.1))
  (fp_line (start -2.54 13.65) (end -2.54 14.29) (layer F.Fab) (width 0.1))
  (fp_line (start -2.54 14.29) (end -3.92 14.29) (layer F.Fab) (width 0.1))
  (fp_line (start -3.92 14.29) (end -3.92 13.65) (layer F.Fab) (width 0.1))
  (fp_line (start -3.92 13.65) (end -2.54 13.65) (layer F.Fab) (width 0.1))
  (fp_line (start 2.54 13.65) (end 2.54 14.29) (layer F.Fab) (width 0.1))
  (fp_line (start 2.54 14.29) (end 3.92 14.29) (layer F.Fab) (width 0.1))
  (fp_line (start 3.92 14.29) (end 3.92 13.65) (layer F.Fab) (width 0.1))
  (fp_line (start 3.92 13.65) (end 2.54 13.65) (layer F.Fab) (width 0.1))
  (fp_line (start -2.54 16.19) (end -2.54 16.83) (layer F.Fab) (width 0.1))
  (fp_line (start -2.54 16.83) (end -3.92 16.83) (layer F.Fab) (width 0.1))
  (fp_line (start -3.92 16.83) (end -3.92 16.19) (layer F.Fab) (width 0.1))
  (fp_line (start -3.92 16.19) (end -2.54 16.19) (layer F.Fab) (width 0.1))
  (fp_line (start 2.54 16.19) (end 2.54 16.83) (layer F.Fab) (width 0.1))
  (fp_line (start 2.54 16.83) (end 3.92 16.83) (layer F.Fab) (width 0.1))
  (fp_line (start 3.92 16.83) (end 3.92 16.19) (layer F.Fab) (width 0.1))
  (fp_line (start 3.92 16.19) (end 2.54 16.19) (layer F.Fab) (width 0.1))
  (fp_line (start -2.54 18.73) (end -2.54 19.37) (layer F.Fab) (width 0.1))
  (fp_line (start -2.54 19.37) (end -3.92 19.37) (layer F.Fab) (width 0.1))
  (fp_line (start -3.92 19.37) (end -3.92 18.73) (layer F.Fab) (width 0.1))
  (fp_line (start -3.92 18.73) (end -2.54 18.73) (layer F.Fab) (width 0.1))
  (fp_line (start 2.54 18.73) (end 2.54 19.37) (layer F.Fab) (width 0.1))
  (fp_line (start 2.54 19.37) (end 3.92 19.37) (layer F.Fab) (width 0.1))
  (fp_line (start 3.92 19.37) (end 3.92 18.73) (layer F.Fab) (width 0.1))
  (fp_line (start 3.92 18.73) (end 2.54 18.73) (layer F.Fab) (width 0.1))
  (fp_line (start -2.54 21.27) (end -2.54 21.91) (layer F.Fab) (width 0.1))
  (fp_line (start -2.54 21.91) (end -3.92 21.91) (layer F.Fab) (width 0.1))
  (fp_line (start -3.92 21.91) (end -3.92 21.27) (layer F.Fab) (width 0.1))
  (fp_line (start -3.92 21.27) (end -2.54 21.27) (layer F.Fab) (width 0.1))
  (fp_line (start 2.54 21.27) (end 2.54 21.91) (layer F.Fab) (width 0.1))
  (fp_line (start 2.54 21.91) (end 3.92 21.91) (layer F.Fab) (width 0.1))
  (fp_line (start 3.92 21.91) (end 3.92 21.27) (layer F.Fab) (width 0.1))
  (fp_line (start 3.92 21.27) (end 2.54 21.27) (layer F.Fab) (width 0.1))
  (fp_line (start -2.54 23.81) (end -2.54 24.45) (layer F.Fab) (width 0.1))
  (fp_line (start -2.54 24.45) (end -3.92 24.45) (layer F.Fab) (width 0.1))
  (fp_line (start -3.92 24.45) (end -3.92 23.81) (layer F.Fab) (width 0.1))
  (fp_line (start -3.92 23.81) (end -2.54 23.81) (layer F.Fab) (width 0.1))
  (fp_line (start 2.54 23.81) (end 2.54 24.45) (layer F.Fab) (width 0.1))
  (fp_line (start 2.54 24.45) (end 3.92 24.45) (layer F.Fab) (width 0.1))
  (fp_line (start 3.92 24.45) (end 3.92 23.81) (layer F.Fab) (width 0.1))
  (fp_line (start 3.92 23.81) (end 2.54 23.81) (layer F.Fab) (width 0.1))
  (fp_line (start -2.6 -24.93) (end -2.6 -25.46) (layer F.SilkS) (width 0.12))
  (fp_line (start -2.6 -25.46) (end 2.6 -25.46) (layer F.SilkS) (width 0.12))
  (fp_line (start 2.6 -25.46) (end 2.6 -24.93) (layer F.SilkS) (width 0.12))
  (fp_line (start -2.6 24.93) (end -2.6 25.46) (layer F.SilkS) (width 0.12))
  (fp_line (start -2.6 25.46) (end 2.6 25.46) (layer F.SilkS) (width 0.12))
  (fp_line (start 2.6 25.46) (end 2.6 24.93) (layer F.SilkS) (width 0.12))
  (fp_line (start 4.02 -24.93) (end 2.6 -24.93) (layer F.SilkS) (width 0.12))
  (fp_line (start -4.3 -25.65) (end -4.3 25.65) (layer F.CrtYd) (width 0.05))
  (fp_line (start -4.3 25.65) (end 4.3 25.65) (layer F.CrtYd) (width 0.05))
  (fp_line (start 4.3 25.65) (end 4.3 -25.65) (layer F.CrtYd) (width 0.05))
  (fp_line (start 4.3 -25.65) (end -4.3 -25.65) (layer F.CrtYd) (width 0.05))
  (pad 1 smd rect (at 2.52 -24.13) (size 3 1) (layers F.Cu F.Mask))
  (pad 2 smd rect (at -2.52 -24.13) (size 3 1) (layers F.Cu F.Mask))
  (pad 3 smd rect (at 2.52 -21.59) (size 3 1) (layers F.Cu F.Mask))
  (pad 4 smd rect (at -2.52 -21.59) (size 3 1) (layers F.Cu F.Mask))
  (pad 5 smd rect (at 2.52 -19.05) (size 3 1) (layers F.Cu F.Mask))
  (pad 6 smd rect (at -2.52 -19.05) (size 3 1) (layers F.Cu F.Mask))
  (pad 7 smd rect (at 2.52 -16.51) (size 3 1) (layers F.Cu F.Mask))
  (pad 8 smd rect (at -2.52 -16.51) (size 3 1) (layers F.Cu F.Mask))
  (pad 9 smd rect (at 2.52 -13.97) (size 3 1) (layers F.Cu F.Mask))
  (pad 10 smd rect (at -2.52 -13.97) (size 3 1) (layers F.Cu F.Mask))
  (pad 11 smd rect (at 2.52 -11.43) (size 3 1) (layers F.Cu F.Mask))
  (pad 12 smd rect (at -2.52 -11.43) (size 3 1) (layers F.Cu F.Mask))
  (pad 13 smd rect (at 2.52 -8.89) (size 3 1) (layers F.Cu F.Mask))
  (pad 14 smd rect (at -2.52 -8.89) (size 3 1) (layers F.Cu F.Mask))
  (pad 15 smd rect (at 2.52 -6.35) (size 3 1) (layers F.Cu F.Mask))
  (pad 16 smd rect (at -2.52 -6.35) (size 3 1) (layers F.Cu F.Mask))
  (pad 17 smd rect (at 2.52 -3.81) (size 3 1) (layers F.Cu F.Mask))
  (pad 18 smd rect (at -2.52 -3.81) (size 3 1) (layers F.Cu F.Mask))
  (pad 19 smd rect (at 2.52 -1.27) (size 3 1) (layers F.Cu F.Mask))
  (pad 20 smd rect (at -2.52 -1.27) (size 3 1) (layers F.Cu F.Mask))
  (pad 21 smd rect (at 2.52 1.27) (size 3 1) (layers F.Cu F.Mask))
  (pad 22 smd rect (at -2.52 1.27) (size 3 1) (layers F.Cu F.Mask))
  (pad 23 smd rect (at 2.52 3.81) (size 3 1) (layers F.Cu F.Mask))
  (pad 24 smd rect (at -2.52 3.81) (size 3 1) (layers F.Cu F.Mask))
  (pad 25 smd rect (at 2.52 6.35) (size 3 1) (layers F.Cu F.Mask))
  (pad 26 smd rect (at -2.52 6.35) (size 3 1) (layers F.Cu F.Mask))
  (pad 27 smd rect (at 2.52 8.89) (size 3 1) (layers F.Cu F.Mask))
  (pad 28 smd rect (at -2.52 8.89) (size 3 1) (layers F.Cu F.Mask))
  (pad 29 smd rect (at 2.52 11.43) (size 3 1) (layers F.Cu F.Mask))
  (pad 30 smd rect (at -2.52 11.43) (size 3 1) (layers F.Cu F.Mask))
  (pad 31 smd rect (at 2.52 13.97) (size 3 1) (layers F.Cu F.Mask))
  (pad 32 smd rect (at -2.52 13.97) (size 3 1) (layers F.Cu F.Mask))
  (pad 33 smd rect (at 2.52 16.51) (size 3 1) (layers F.Cu F.Mask))
  (pad 34 smd rect (at -2.52 16.51) (size 3 1) (layers F.Cu F.Mask))
  (pad 35 smd rect (at 2.52 19.05) (size 3 1) (layers F.Cu F.Mask))
  (pad 36 smd rect (at -2.52 19.05) (size 3 1) (layers F.Cu F.Mask))
  (pad 37 smd rect (at 2.52 21.59) (size 3 1) (layers F.Cu F.Mask))
  (pad 38 smd rect (at -2.52 21.59) (size 3 1) (layers F.Cu F.Mask))
  (pad 39 smd rect (at 2.52 24.13) (size 3 1) (layers F.Cu F.Mask))
  (pad 40 smd rect (at -2.52 24.13) (size 3 1) (layers F.Cu F.Mask))
  (model Socket_Strips.3dshapes/Socket_Strip_Straight_2x20_Pitch2.54mm_SMD.wrl
    (at (xyz 0 0 0))
    (scale (xyz 1 1 1))
    (rotate (xyz 0 0 0))
  )
)