(module Socket_Strip_Straight_2x35_Pitch2.00mm (layer F.Cu) (tedit 588DE960)
  (descr "Through hole straight socket strip, 2x35, 2.00mm pitch, double rows")
  (tags "Through hole socket strip THT 2x35 2.00mm double row")
  (fp_text reference REF** (at -1 -2.06) (layer F.SilkS)
    (effects (font (size 1 1) (thickness 0.15)))
  )
  (fp_text value Socket_Strip_Straight_2x35_Pitch2.00mm (at -1 70.06) (layer F.Fab)
    (effects (font (size 1 1) (thickness 0.15)))
  )
  (fp_line (start -3 -1) (end -3 69) (layer F.Fab) (width 0.1))
  (fp_line (start -3 69) (end 1 69) (layer F.Fab) (width 0.1))
  (fp_line (start 1 69) (end 1 -1) (layer F.Fab) (width 0.1))
  (fp_line (start 1 -1) (end -3 -1) (layer F.Fab) (width 0.1))
  (fp_line (start 1.06 1) (end 1.06 69.06) (layer F.SilkS) (width 0.12))
  (fp_line (start 1.06 69.06) (end -3.06 69.06) (layer F.SilkS) (width 0.12))
  (fp_line (start -3.06 69.06) (end -3.06 -1.06) (layer F.SilkS) (width 0.12))
  (fp_line (start -3.06 -1.06) (end -1 -1.06) (layer F.SilkS) (width 0.12))
  (fp_line (start -1 -1.06) (end -1 1) (layer F.SilkS) (width 0.12))
  (fp_line (start -1 1) (end 1.06 1) (layer F.SilkS) (width 0.12))
  (fp_line (start 1.06 0) (end 1.06 -1.06) (layer F.SilkS) (width 0.12))
  (fp_line (start 1.06 -1.06) (end 0.06 -1.06) (layer F.SilkS) (width 0.12))
  (fp_line (start -3.25 -1.25) (end -3.25 69.25) (layer F.CrtYd) (width 0.05))
  (fp_line (start -3.25 69.25) (end 1.25 69.25) (layer F.CrtYd) (width 0.05))
  (fp_line (start 1.25 69.25) (end 1.25 -1.25) (layer F.CrtYd) (width 0.05))
  (fp_line (start 1.25 -1.25) (end -3.25 -1.25) (layer F.CrtYd) (width 0.05))
  (pad 1 thru_hole rect (at 0 0) (size 1.35 1.35) (drill 0.8) (layers *.Cu *.Mask))
  (pad 2 thru_hole oval (at -2 0) (size 1.35 1.35) (drill 0.8) (layers *.Cu *.Mask))
  (pad 3 thru_hole oval (at 0 2) (size 1.35 1.35) (drill 0.8) (layers *.Cu *.Mask))
  (pad 4 thru_hole oval (at -2 2) (size 1.35 1.35) (drill 0.8) (layers *.Cu *.Mask))
  (pad 5 thru_hole oval (at 0 4) (size 1.35 1.35) (drill 0.8) (layers *.Cu *.Mask))
  (pad 6 thru_hole oval (at -2 4) (size 1.35 1.35) (drill 0.8) (layers *.Cu *.Mask))
  (pad 7 thru_hole oval (at 0 6) (size 1.35 1.35) (drill 0.8) (layers *.Cu *.Mask))
  (pad 8 thru_hole oval (at -2 6) (size 1.35 1.35) (drill 0.8) (layers *.Cu *.Mask))
  (pad 9 thru_hole oval (at 0 8) (size 1.35 1.35) (drill 0.8) (layers *.Cu *.Mask))
  (pad 10 thru_hole oval (at -2 8) (size 1.35 1.35) (drill 0.8) (layers *.Cu *.Mask))
  (pad 11 thru_hole oval (at 0 10) (size 1.35 1.35) (drill 0.8) (layers *.Cu *.Mask))
  (pad 12 thru_hole oval (at -2 10) (size 1.35 1.35) (drill 0.8) (layers *.Cu *.Mask))
  (pad 13 thru_hole oval (at 0 12) (size 1.35 1.35) (drill 0.8) (layers *.Cu *.Mask))
  (pad 14 thru_hole oval (at -2 12) (size 1.35 1.35) (drill 0.8) (layers *.Cu *.Mask))
  (pad 15 thru_hole oval (at 0 14) (size 1.35 1.35) (drill 0.8) (layers *.Cu *.Mask))
  (pad 16 thru_hole oval (at -2 14) (size 1.35 1.35) (drill 0.8) (layers *.Cu *.Mask))
  (pad 17 thru_hole oval (at 0 16) (size 1.35 1.35) (drill 0.8) (layers *.Cu *.Mask))
  (pad 18 thru_hole oval (at -2 16) (size 1.35 1.35) (drill 0.8) (layers *.Cu *.Mask))
  (pad 19 thru_hole oval (at 0 18) (size 1.35 1.35) (drill 0.8) (layers *.Cu *.Mask))
  (pad 20 thru_hole oval (at -2 18) (size 1.35 1.35) (drill 0.8) (layers *.Cu *.Mask))
  (pad 21 thru_hole oval (at 0 20) (size 1.35 1.35) (drill 0.8) (layers *.Cu *.Mask))
  (pad 22 thru_hole oval (at -2 20) (size 1.35 1.35) (drill 0.8) (layers *.Cu *.Mask))
  (pad 23 thru_hole oval (at 0 22) (size 1.35 1.35) (drill 0.8) (layers *.Cu *.Mask))
  (pad 24 thru_hole oval (at -2 22) (size 1.35 1.35) (drill 0.8) (layers *.Cu *.Mask))
  (pad 25 thru_hole oval (at 0 24) (size 1.35 1.35) (drill 0.8) (layers *.Cu *.Mask))
  (pad 26 thru_hole oval (at -2 24) (size 1.35 1.35) (drill 0.8) (layers *.Cu *.Mask))
  (pad 27 thru_hole oval (at 0 26) (size 1.35 1.35) (drill 0.8) (layers *.Cu *.Mask))
  (pad 28 thru_hole oval (at -2 26) (size 1.35 1.35) (drill 0.8) (layers *.Cu *.Mask))
  (pad 29 thru_hole oval (at 0 28) (size 1.35 1.35) (drill 0.8) (layers *.Cu *.Mask))
  (pad 30 thru_hole oval (at -2 28) (size 1.35 1.35) (drill 0.8) (layers *.Cu *.Mask))
  (pad 31 thru_hole oval (at 0 30) (size 1.35 1.35) (drill 0.8) (layers *.Cu *.Mask))
  (pad 32 thru_hole oval (at -2 30) (size 1.35 1.35) (drill 0.8) (layers *.Cu *.Mask))
  (pad 33 thru_hole oval (at 0 32) (size 1.35 1.35) (drill 0.8) (layers *.Cu *.Mask))
  (pad 34 thru_hole oval (at -2 32) (size 1.35 1.35) (drill 0.8) (layers *.Cu *.Mask))
  (pad 35 thru_hole oval (at 0 34) (size 1.35 1.35) (drill 0.8) (layers *.Cu *.Mask))
  (pad 36 thru_hole oval (at -2 34) (size 1.35 1.35) (drill 0.8) (layers *.Cu *.Mask))
  (pad 37 thru_hole oval (at 0 36) (size 1.35 1.35) (drill 0.8) (layers *.Cu *.Mask))
  (pad 38 thru_hole oval (at -2 36) (size 1.35 1.35) (drill 0.8) (layers *.Cu *.Mask))
  (pad 39 thru_hole oval (at 0 38) (size 1.35 1.35) (drill 0.8) (layers *.Cu *.Mask))
  (pad 40 thru_hole oval (at -2 38) (size 1.35 1.35) (drill 0.8) (layers *.Cu *.Mask))
  (pad 41 thru_hole oval (at 0 40) (size 1.35 1.35) (drill 0.8) (layers *.Cu *.Mask))
  (pad 42 thru_hole oval (at -2 40) (size 1.35 1.35) (drill 0.8) (layers *.Cu *.Mask))
  (pad 43 thru_hole oval (at 0 42) (size 1.35 1.35) (drill 0.8) (layers *.Cu *.Mask))
  (pad 44 thru_hole oval (at -2 42) (size 1.35 1.35) (drill 0.8) (layers *.Cu *.Mask))
  (pad 45 thru_hole oval (at 0 44) (size 1.35 1.35) (drill 0.8) (layers *.Cu *.Mask))
  (pad 46 thru_hole oval (at -2 44) (size 1.35 1.35) (drill 0.8) (layers *.Cu *.Mask))
  (pad 47 thru_hole oval (at 0 46) (size 1.35 1.35) (drill 0.8) (layers *.Cu *.Mask))
  (pad 48 thru_hole oval (at -2 46) (size 1.35 1.35) (drill 0.8) (layers *.Cu *.Mask))
  (pad 49 thru_hole oval (at 0 48) (size 1.35 1.35) (drill 0.8) (layers *.Cu *.Mask))
  (pad 50 thru_hole oval (at -2 48) (size 1.35 1.35) (drill 0.8) (layers *.Cu *.Mask))
  (pad 51 thru_hole oval (at 0 50) (size 1.35 1.35) (drill 0.8) (layers *.Cu *.Mask))
  (pad 52 thru_hole oval (at -2 50) (size 1.35 1.35) (drill 0.8) (layers *.Cu *.Mask))
  (pad 53 thru_hole oval (at 0 52) (size 1.35 1.35) (drill 0.8) (layers *.Cu *.Mask))
  (pad 54 thru_hole oval (at -2 52) (size 1.35 1.35) (drill 0.8) (layers *.Cu *.Mask))
  (pad 55 thru_hole oval (at 0 54) (size 1.35 1.35) (drill 0.8) (layers *.Cu *.Mask))
  (pad 56 thru_hole oval (at -2 54) (size 1.35 1.35) (drill 0.8) (layers *.Cu *.Mask))
  (pad 57 thru_hole oval (at 0 56) (size 1.35 1.35) (drill 0.8) (layers *.Cu *.Mask))
  (pad 58 thru_hole oval (at -2 56) (size 1.35 1.35) (drill 0.8) (layers *.Cu *.Mask))
  (pad 59 thru_hole oval (at 0 58) (size 1.35 1.35) (drill 0.8) (layers *.Cu *.Mask))
  (pad 60 thru_hole oval (at -2 58) (size 1.35 1.35) (drill 0.8) (layers *.Cu *.Mask))
  (pad 61 thru_hole oval (at 0 60) (size 1.35 1.35) (drill 0.8) (layers *.Cu *.Mask))
  (pad 62 thru_hole oval (at -2 60) (size 1.35 1.35) (drill 0.8) (layers *.Cu *.Mask))
  (pad 63 thru_hole oval (at 0 62) (size 1.35 1.35) (drill 0.8) (layers *.Cu *.Mask))
  (pad 64 thru_hole oval (at -2 62) (size 1.35 1.35) (drill 0.8) (layers *.Cu *.Mask))
  (pad 65 thru_hole oval (at 0 64) (size 1.35 1.35) (drill 0.8) (layers *.Cu *.Mask))
  (pad 66 thru_hole oval (at -2 64) (size 1.35 1.35) (drill 0.8) (layers *.Cu *.Mask))
  (pad 67 thru_hole oval (at 0 66) (size 1.35 1.35) (drill 0.8) (layers *.Cu *.Mask))
  (pad 68 thru_hole oval (at -2 66) (size 1.35 1.35) (drill 0.8) (layers *.Cu *.Mask))
  (pad 69 thru_hole oval (at 0 68) (size 1.35 1.35) (drill 0.8) (layers *.Cu *.Mask))
  (pad 70 thru_hole oval (at -2 68) (size 1.35 1.35) (drill 0.8) (layers *.Cu *.Mask))
  (model Socket_Strips.3dshapes/Socket_Strip_Straight_2x35_Pitch2.00mm.wrl
    (at (xyz 0 0 0))
    (scale (xyz 1 1 1))
    (rotate (xyz 0 0 0))
  )
)