(module Socket_Strip_Angled_2x02_Pitch2.00mm (layer F.Cu) (tedit 588DE95D)
  (descr "Through hole angled socket strip, 2x02, 2.00mm pitch, 6.35mm socket length, double rows")
  (tags "Through hole angled socket strip THT 2x02 2.00mm double row")
  (fp_text reference REF** (at -4.31 -2) (layer F.SilkS)
    (effects (font (size 1 1) (thickness 0.15)))
  )
  (fp_text value Socket_Strip_Angled_2x02_Pitch2.00mm (at -4.31 4) (layer F.Fab)
    (effects (font (size 1 1) (thickness 0.15)))
  )
  (fp_line (start -3.27 -1) (end -3.27 1) (layer F.Fab) (width 0.1))
  (fp_line (start -3.27 1) (end -9.62 1) (layer F.Fab) (width 0.1))
  (fp_line (start -9.62 1) (end -9.62 -1) (layer F.Fab) (width 0.1))
  (fp_line (start -9.62 -1) (end -3.27 -1) (layer F.Fab) (width 0.1))
  (fp_line (start 0 -0.25) (end 0 0.25) (layer F.Fab) (width 0.1))
  (fp_line (start 0 0.25) (end -3.27 0.25) (layer F.Fab) (width 0.1))
  (fp_line (start -3.27 0.25) (end -3.27 -0.25) (layer F.Fab) (width 0.1))
  (fp_line (start -3.27 -0.25) (end 0 -0.25) (layer F.Fab) (width 0.1))
  (fp_line (start -3.27 1) (end -3.27 3) (layer F.Fab) (width 0.1))
  (fp_line (start -3.27 3) (end -9.62 3) (layer F.Fab) (width 0.1))
  (fp_line (start -9.62 3) (end -9.62 1) (layer F.Fab) (width 0.1))
  (fp_line (start -9.62 1) (end -3.27 1) (layer F.Fab) (width 0.1))
  (fp_line (start 0 1.75) (end 0 2.25) (layer F.Fab) (width 0.1))
  (fp_line (start 0 2.25) (end -3.27 2.25) (layer F.Fab) (width 0.1))
  (fp_line (start -3.27 2.25) (end -3.27 1.75) (layer F.Fab) (width 0.1))
  (fp_line (start -3.27 1.75) (end 0 1.75) (layer F.Fab) (width 0.1))
  (fp_line (start -3.21 -1.06) (end -3.21 1) (layer F.SilkS) (width 0.12))
  (fp_line (start -3.21 1) (end -9.68 1) (layer F.SilkS) (width 0.12))
  (fp_line (start -9.68 1) (end -9.68 -1.06) (layer F.SilkS) (width 0.12))
  (fp_line (start -9.68 -1.06) (end -3.21 -1.06) (layer F.SilkS) (width 0.12))
  (fp_line (start -2.855 -0.31) (end -3.21 -0.31) (layer F.SilkS) (width 0.12))
  (fp_line (start -2.855 0.31) (end -3.21 0.31) (layer F.SilkS) (width 0.12))
  (fp_line (start -0.855 -0.31) (end -1.145 -0.31) (layer F.SilkS) (width 0.12))
  (fp_line (start -0.855 0.31) (end -1.145 0.31) (layer F.SilkS) (width 0.12))
  (fp_line (start -3.21 -0.88) (end -9.68 -0.88) (layer F.SilkS) (width 0.12))
  (fp_line (start -3.21 -0.76) (end -9.68 -0.76) (layer F.SilkS) (width 0.12))
  (fp_line (start -3.21 -0.64) (end -9.68 -0.64) (layer F.SilkS) (width 0.12))
  (fp_line (start -3.21 -0.52) (end -9.68 -0.52) (layer F.SilkS) (width 0.12))
  (fp_line (start -3.21 -0.4) (end -9.68 -0.4) (layer F.SilkS) (width 0.12))
  (fp_line (start -3.21 -0.28) (end -9.68 -0.28) (layer F.SilkS) (width 0.12))
  (fp_line (start -3.21 -0.16) (end -9.68 -0.16) (layer F.SilkS) (width 0.12))
  (fp_line (start -3.21 -0.04) (end -9.68 -0.04) (layer F.SilkS) (width 0.12))
  (fp_line (start -3.21 0.08) (end -9.68 0.08) (layer F.SilkS) (width 0.12))
  (fp_line (start -3.21 0.2) (end -9.68 0.2) (layer F.SilkS) (width 0.12))
  (fp_line (start -3.21 0.32) (end -9.68 0.32) (layer F.SilkS) (width 0.12))
  (fp_line (start -3.21 0.44) (end -9.68 0.44) (layer F.SilkS) (width 0.12))
  (fp_line (start -3.21 0.56) (end -9.68 0.56) (layer F.SilkS) (width 0.12))
  (fp_line (start -3.21 0.68) (end -9.68 0.68) (layer F.SilkS) (width 0.12))
  (fp_line (start -3.21 0.8) (end -9.68 0.8) (layer F.SilkS) (width 0.12))
  (fp_line (start -3.21 0.92) (end -9.68 0.92) (layer F.SilkS) (width 0.12))
  (fp_line (start -3.21 1.04) (end -9.68 1.04) (layer F.SilkS) (width 0.12))
  (fp_line (start -3.21 1) (end -3.21 3.06) (layer F.SilkS) (width 0.12))
  (fp_line (start -3.21 3.06) (end -9.68 3.06) (layer F.SilkS) (width 0.12))
  (fp_line (start -9.68 3.06) (end -9.68 1) (layer F.SilkS) (width 0.12))
  (fp_line (start -9.68 1) (end -3.21 1) (layer F.SilkS) (width 0.12))
  (fp_line (start -2.855 1.69) (end -3.21 1.69) (layer F.SilkS) (width 0.12))
  (fp_line (start -2.855 2.31) (end -3.21 2.31) (layer F.SilkS) (width 0.12))
  (fp_line (start -0.855 1.69) (end -1.145 1.69) (layer F.SilkS) (width 0.12))
  (fp_line (start -0.855 2.31) (end -1.145 2.31) (layer F.SilkS) (width 0.12))
  (fp_line (start 0 -1) (end 1 -1) (layer F.SilkS) (width 0.12))
  (fp_line (start 1 -1) (end 1 0) (layer F.SilkS) (width 0.12))
  (fp_line (start 1.25 -1.25) (end 1.25 3.25) (layer F.CrtYd) (width 0.05))
  (fp_line (start 1.25 3.25) (end -9.9 3.25) (layer F.CrtYd) (width 0.05))
  (fp_line (start -9.9 3.25) (end -9.9 -1.25) (layer F.CrtYd) (width 0.05))
  (fp_line (start -9.9 -1.25) (end 1.25 -1.25) (layer F.CrtYd) (width 0.05))
  (pad 1 thru_hole rect (at 0 0) (size 1.35 1.35) (drill 0.8) (layers *.Cu *.Mask))
  (pad 2 thru_hole oval (at -2 0) (size 1.35 1.35) (drill 0.8) (layers *.Cu *.Mask))
  (pad 3 thru_hole oval (at 0 2) (size 1.35 1.35) (drill 0.8) (layers *.Cu *.Mask))
  (pad 4 thru_hole oval (at -2 2) (size 1.35 1.35) (drill 0.8) (layers *.Cu *.Mask))
  (model Socket_Strips.3dshapes/Socket_Strip_Angled_2x02_Pitch2.00mm.wrl
    (at (xyz 0.03937 -0.03937 0))
    (scale (xyz 1 1 1))
    (rotate (xyz 0 0 90))
  )
)