(module Socket_Strip_Straight_1x15_Pitch1.27mm (layer F.Cu) (tedit 588DE961)
  (descr "Through hole straight socket strip, 1x15, 1.27mm pitch, single row")
  (tags "Through hole socket strip THT 1x15 1.27mm single row")
  (fp_text reference REF** (at 0 -1.695) (layer F.SilkS)
    (effects (font (size 1 1) (thickness 0.15)))
  )
  (fp_text value Socket_Strip_Straight_1x15_Pitch1.27mm (at 0 19.475) (layer F.Fab)
    (effects (font (size 1 1) (thickness 0.15)))
  )
  (fp_line (start -1.27 -0.635) (end -1.27 18.415) (layer F.Fab) (width 0.1))
  (fp_line (start -1.27 18.415) (end 1.27 18.415) (layer F.Fab) (width 0.1))
  (fp_line (start 1.27 18.415) (end 1.27 -0.635) (layer F.Fab) (width 0.1))
  (fp_line (start 1.27 -0.635) (end -1.27 -0.635) (layer F.Fab) (width 0.1))
  (fp_line (start -1.33 0.635) (end -1.33 18.475) (layer F.SilkS) (width 0.12))
  (fp_line (start -1.33 18.475) (end 1.33 18.475) (layer F.SilkS) (width 0.12))
  (fp_line (start 1.33 18.475) (end 1.33 0.635) (layer F.SilkS) (width 0.12))
  (fp_line (start 1.33 0.635) (end -1.33 0.635) (layer F.SilkS) (width 0.12))
  (fp_line (start -1.33 0) (end -1.33 -0.695) (layer F.SilkS) (width 0.12))
  (fp_line (start -1.33 -0.695) (end 0 -0.695) (layer F.SilkS) (width 0.12))
  (fp_line (start -1.55 -0.9) (end -1.55 18.7) (layer F.CrtYd) (width 0.05))
  (fp_line (start -1.55 18.7) (end 1.55 18.7) (layer F.CrtYd) (width 0.05))
  (fp_line (start 1.55 18.7) (end 1.55 -0.9) (layer F.CrtYd) (width 0.05))
  (fp_line (start 1.55 -0.9) (end -1.55 -0.9) (layer F.CrtYd) (width 0.05))
  (pad 1 thru_hole rect (at 0 0) (size 1 1) (drill 0.7) (layers *.Cu *.Mask))
  (pad 2 thru_hole oval (at 0 1.27) (size 1 1) (drill 0.7) (layers *.Cu *.Mask))
  (pad 3 thru_hole oval (at 0 2.54) (size 1 1) (drill 0.7) (layers *.Cu *.Mask))
  (pad 4 thru_hole oval (at 0 3.81) (size 1 1) (drill 0.7) (layers *.Cu *.Mask))
  (pad 5 thru_hole oval (at 0 5.08) (size 1 1) (drill 0.7) (layers *.Cu *.Mask))
  (pad 6 thru_hole oval (at 0 6.35) (size 1 1) (drill 0.7) (layers *.Cu *.Mask))
  (pad 7 thru_hole oval (at 0 7.62) (size 1 1) (drill 0.7) (layers *.Cu *.Mask))
  (pad 8 thru_hole oval (at 0 8.89) (size 1 1) (drill 0.7) (layers *.Cu *.Mask))
  (pad 9 thru_hole oval (at 0 10.16) (size 1 1) (drill 0.7) (layers *.Cu *.Mask))
  (pad 10 thru_hole oval (at 0 11.43) (size 1 1) (drill 0.7) (layers *.Cu *.Mask))
  (pad 11 thru_hole oval (at 0 12.7) (size 1 1) (drill 0.7) (layers *.Cu *.Mask))
  (pad 12 thru_hole oval (at 0 13.97) (size 1 1) (drill 0.7) (layers *.Cu *.Mask))
  (pad 13 thru_hole oval (at 0 15.24) (size 1 1) (drill 0.7) (layers *.Cu *.Mask))
  (pad 14 thru_hole oval (at 0 16.51) (size 1 1) (drill 0.7) (layers *.Cu *.Mask))
  (pad 15 thru_hole oval (at 0 17.78) (size 1 1) (drill 0.7) (layers *.Cu *.Mask))
  (model Socket_Strips.3dshapes/Socket_Strip_Straight_1x15_Pitch1.27mm.wrl
    (at (xyz 0 0 0))
    (scale (xyz 1 1 1))
    (rotate (xyz 0 0 0))
  )
)