(module Socket_Strip_Straight_2x07_Pitch1.27mm_SMD (layer F.Cu) (tedit 588DE961)
  (descr "surface-mounted straight socket strip, 2x07, 1.27mm pitch, double rows")
  (tags "Surface mounted socket strip SMD 2x07 1.27mm double row")
  (attr smd)
  (fp_text reference REF** (at 0 -5.505) (layer F.SilkS)
    (effects (font (size 1 1) (thickness 0.15)))
  )
  (fp_text value Socket_Strip_Straight_2x07_Pitch1.27mm_SMD (at 0 5.505) (layer F.Fab)
    (effects (font (size 1 1) (thickness 0.15)))
  )
  (fp_line (start -1.27 -4.445) (end -1.27 4.445) (layer F.Fab) (width 0.1))
  (fp_line (start -1.27 4.445) (end 1.27 4.445) (layer F.Fab) (width 0.1))
  (fp_line (start 1.27 4.445) (end 1.27 -4.445) (layer F.Fab) (width 0.1))
  (fp_line (start 1.27 -4.445) (end -1.27 -4.445) (layer F.Fab) (width 0.1))
  (fp_line (start -1.27 -4.01) (end -1.27 -3.61) (layer F.Fab) (width 0.1))
  (fp_line (start -1.27 -3.61) (end -2.555 -3.61) (layer F.Fab) (width 0.1))
  (fp_line (start -2.555 -3.61) (end -2.555 -4.01) (layer F.Fab) (width 0.1))
  (fp_line (start -2.555 -4.01) (end -1.27 -4.01) (layer F.Fab) (width 0.1))
  (fp_line (start 1.27 -4.01) (end 1.27 -3.61) (layer F.Fab) (width 0.1))
  (fp_line (start 1.27 -3.61) (end 2.555 -3.61) (layer F.Fab) (width 0.1))
  (fp_line (start 2.555 -3.61) (end 2.555 -4.01) (layer F.Fab) (width 0.1))
  (fp_line (start 2.555 -4.01) (end 1.27 -4.01) (layer F.Fab) (width 0.1))
  (fp_line (start -1.27 -2.74) (end -1.27 -2.34) (layer F.Fab) (width 0.1))
  (fp_line (start -1.27 -2.34) (end -2.555 -2.34) (layer F.Fab) (width 0.1))
  (fp_line (start -2.555 -2.34) (end -2.555 -2.74) (layer F.Fab) (width 0.1))
  (fp_line (start -2.555 -2.74) (end -1.27 -2.74) (layer F.Fab) (width 0.1))
  (fp_line (start 1.27 -2.74) (end 1.27 -2.34) (layer F.Fab) (width 0.1))
  (fp_line (start 1.27 -2.34) (end 2.555 -2.34) (layer F.Fab) (width 0.1))
  (fp_line (start 2.555 -2.34) (end 2.555 -2.74) (layer F.Fab) (width 0.1))
  (fp_line (start 2.555 -2.74) (end 1.27 -2.74) (layer F.Fab) (width 0.1))
  (fp_line (start -1.27 -1.47) (end -1.27 -1.07) (layer F.Fab) (width 0.1))
  (fp_line (start -1.27 -1.07) (end -2.555 -1.07) (layer F.Fab) (width 0.1))
  (fp_line (start -2.555 -1.07) (end -2.555 -1.47) (layer F.Fab) (width 0.1))
  (fp_line (start -2.555 -1.47) (end -1.27 -1.47) (layer F.Fab) (width 0.1))
  (fp_line (start 1.27 -1.47) (end 1.27 -1.07) (layer F.Fab) (width 0.1))
  (fp_line (start 1.27 -1.07) (end 2.555 -1.07) (layer F.Fab) (width 0.1))
  (fp_line (start 2.555 -1.07) (end 2.555 -1.47) (layer F.Fab) (width 0.1))
  (fp_line (start 2.555 -1.47) (end 1.27 -1.47) (layer F.Fab) (width 0.1))
  (fp_line (start -1.27 -0.2) (end -1.27 0.2) (layer F.Fab) (width 0.1))
  (fp_line (start -1.27 0.2) (end -2.555 0.2) (layer F.Fab) (width 0.1))
  (fp_line (start -2.555 0.2) (end -2.555 -0.2) (layer F.Fab) (width 0.1))
  (fp_line (start -2.555 -0.2) (end -1.27 -0.2) (layer F.Fab) (width 0.1))
  (fp_line (start 1.27 -0.2) (end 1.27 0.2) (layer F.Fab) (width 0.1))
  (fp_line (start 1.27 0.2) (end 2.555 0.2) (layer F.Fab) (width 0.1))
  (fp_line (start 2.555 0.2) (end 2.555 -0.2) (layer F.Fab) (width 0.1))
  (fp_line (start 2.555 -0.2) (end 1.27 -0.2) (layer F.Fab) (width 0.1))
  (fp_line (start -1.27 1.07) (end -1.27 1.47) (layer F.Fab) (width 0.1))
  (fp_line (start -1.27 1.47) (end -2.555 1.47) (layer F.Fab) (width 0.1))
  (fp_line (start -2.555 1.47) (end -2.555 1.07) (layer F.Fab) (width 0.1))
  (fp_line (start -2.555 1.07) (end -1.27 1.07) (layer F.Fab) (width 0.1))
  (fp_line (start 1.27 1.07) (end 1.27 1.47) (layer F.Fab) (width 0.1))
  (fp_line (start 1.27 1.47) (end 2.555 1.47) (layer F.Fab) (width 0.1))
  (fp_line (start 2.555 1.47) (end 2.555 1.07) (layer F.Fab) (width 0.1))
  (fp_line (start 2.555 1.07) (end 1.27 1.07) (layer F.Fab) (width 0.1))
  (fp_line (start -1.27 2.34) (end -1.27 2.74) (layer F.Fab) (width 0.1))
  (fp_line (start -1.27 2.74) (end -2.555 2.74) (layer F.Fab) (width 0.1))
  (fp_line (start -2.555 2.74) (end -2.555 2.34) (layer F.Fab) (width 0.1))
  (fp_line (start -2.555 2.34) (end -1.27 2.34) (layer F.Fab) (width 0.1))
  (fp_line (start 1.27 2.34) (end 1.27 2.74) (layer F.Fab) (width 0.1))
  (fp_line (start 1.27 2.74) (end 2.555 2.74) (layer F.Fab) (width 0.1))
  (fp_line (start 2.555 2.74) (end 2.555 2.34) (layer F.Fab) (width 0.1))
  (fp_line (start 2.555 2.34) (end 1.27 2.34) (layer F.Fab) (width 0.1))
  (fp_line (start -1.27 3.61) (end -1.27 4.01) (layer F.Fab) (width 0.1))
  (fp_line (start -1.27 4.01) (end -2.555 4.01) (layer F.Fab) (width 0.1))
  (fp_line (start -2.555 4.01) (end -2.555 3.61) (layer F.Fab) (width 0.1))
  (fp_line (start -2.555 3.61) (end -1.27 3.61) (layer F.Fab) (width 0.1))
  (fp_line (start 1.27 3.61) (end 1.27 4.01) (layer F.Fab) (width 0.1))
  (fp_line (start 1.27 4.01) (end 2.555 4.01) (layer F.Fab) (width 0.1))
  (fp_line (start 2.555 4.01) (end 2.555 3.61) (layer F.Fab) (width 0.1))
  (fp_line (start 2.555 3.61) (end 1.27 3.61) (layer F.Fab) (width 0.1))
  (fp_line (start -1.33 -4.485) (end -1.33 -4.505) (layer F.SilkS) (width 0.12))
  (fp_line (start -1.33 -4.505) (end 1.33 -4.505) (layer F.SilkS) (width 0.12))
  (fp_line (start 1.33 -4.505) (end 1.33 -4.485) (layer F.SilkS) (width 0.12))
  (fp_line (start -1.33 4.485) (end -1.33 4.505) (layer F.SilkS) (width 0.12))
  (fp_line (start -1.33 4.505) (end 1.33 4.505) (layer F.SilkS) (width 0.12))
  (fp_line (start 1.33 4.505) (end 1.33 4.485) (layer F.SilkS) (width 0.12))
  (fp_line (start 3.635 -4.485) (end 1.33 -4.485) (layer F.SilkS) (width 0.12))
  (fp_line (start -3.9 -4.7) (end -3.9 4.7) (layer F.CrtYd) (width 0.05))
  (fp_line (start -3.9 4.7) (end 3.9 4.7) (layer F.CrtYd) (width 0.05))
  (fp_line (start 3.9 4.7) (end 3.9 -4.7) (layer F.CrtYd) (width 0.05))
  (fp_line (start 3.9 -4.7) (end -3.9 -4.7) (layer F.CrtYd) (width 0.05))
  (pad 1 smd rect (at 2.585 -3.81) (size 2.1 0.75) (layers F.Cu F.Mask))
  (pad 2 smd rect (at -2.585 -3.81) (size 2.1 0.75) (layers F.Cu F.Mask))
  (pad 3 smd rect (at 2.585 -2.54) (size 2.1 0.75) (layers F.Cu F.Mask))
  (pad 4 smd rect (at -2.585 -2.54) (size 2.1 0.75) (layers F.Cu F.Mask))
  (pad 5 smd rect (at 2.585 -1.27) (size 2.1 0.75) (layers F.Cu F.Mask))
  (pad 6 smd rect (at -2.585 -1.27) (size 2.1 0.75) (layers F.Cu F.Mask))
  (pad 7 smd rect (at 2.585 0) (size 2.1 0.75) (layers F.Cu F.Mask))
  (pad 8 smd rect (at -2.585 0) (size 2.1 0.75) (layers F.Cu F.Mask))
  (pad 9 smd rect (at 2.585 1.27) (size 2.1 0.75) (layers F.Cu F.Mask))
  (pad 10 smd rect (at -2.585 1.27) (size 2.1 0.75) (layers F.Cu F.Mask))
  (pad 11 smd rect (at 2.585 2.54) (size 2.1 0.75) (layers F.Cu F.Mask))
  (pad 12 smd rect (at -2.585 2.54) (size 2.1 0.75) (layers F.Cu F.Mask))
  (pad 13 smd rect (at 2.585 3.81) (size 2.1 0.75) (layers F.Cu F.Mask))
  (pad 14 smd rect (at -2.585 3.81) (size 2.1 0.75) (layers F.Cu F.Mask))
  (model Socket_Strips.3dshapes/Socket_Strip_Straight_2x07_Pitch1.27mm_SMD.wrl
    (at (xyz 0 0 0))
    (scale (xyz 1 1 1))
    (rotate (xyz 0 0 0))
  )
)