(module Socket_Strip_Straight_1x14_Pitch2.00mm (layer F.Cu) (tedit 588DE95B)
  (descr "Through hole straight socket strip, 1x14, 2.00mm pitch, single row")
  (tags "Through hole socket strip THT 1x14 2.00mm single row")
  (fp_text reference REF** (at 0 -2.06) (layer F.SilkS)
    (effects (font (size 1 1) (thickness 0.15)))
  )
  (fp_text value Socket_Strip_Straight_1x14_Pitch2.00mm (at 0 28.06) (layer F.Fab)
    (effects (font (size 1 1) (thickness 0.15)))
  )
  (fp_line (start -1 -1) (end -1 27) (layer F.Fab) (width 0.1))
  (fp_line (start -1 27) (end 1 27) (layer F.Fab) (width 0.1))
  (fp_line (start 1 27) (end 1 -1) (layer F.Fab) (width 0.1))
  (fp_line (start 1 -1) (end -1 -1) (layer F.Fab) (width 0.1))
  (fp_line (start -1.06 1) (end -1.06 27.06) (layer F.SilkS) (width 0.12))
  (fp_line (start -1.06 27.06) (end 1.06 27.06) (layer F.SilkS) (width 0.12))
  (fp_line (start 1.06 27.06) (end 1.06 1) (layer F.SilkS) (width 0.12))
  (fp_line (start 1.06 1) (end -1.06 1) (layer F.SilkS) (width 0.12))
  (fp_line (start -1.06 0) (end -1.06 -1.06) (layer F.SilkS) (width 0.12))
  (fp_line (start -1.06 -1.06) (end 0 -1.06) (layer F.SilkS) (width 0.12))
  (fp_line (start -1.25 -1.25) (end -1.25 27.25) (layer F.CrtYd) (width 0.05))
  (fp_line (start -1.25 27.25) (end 1.25 27.25) (layer F.CrtYd) (width 0.05))
  (fp_line (start 1.25 27.25) (end 1.25 -1.25) (layer F.CrtYd) (width 0.05))
  (fp_line (start 1.25 -1.25) (end -1.25 -1.25) (layer F.CrtYd) (width 0.05))
  (pad 1 thru_hole rect (at 0 0) (size 1.35 1.35) (drill 0.8) (layers *.Cu *.Mask))
  (pad 2 thru_hole oval (at 0 2) (size 1.35 1.35) (drill 0.8) (layers *.Cu *.Mask))
  (pad 3 thru_hole oval (at 0 4) (size 1.35 1.35) (drill 0.8) (layers *.Cu *.Mask))
  (pad 4 thru_hole oval (at 0 6) (size 1.35 1.35) (drill 0.8) (layers *.Cu *.Mask))
  (pad 5 thru_hole oval (at 0 8) (size 1.35 1.35) (drill 0.8) (layers *.Cu *.Mask))
  (pad 6 thru_hole oval (at 0 10) (size 1.35 1.35) (drill 0.8) (layers *.Cu *.Mask))
  (pad 7 thru_hole oval (at 0 12) (size 1.35 1.35) (drill 0.8) (layers *.Cu *.Mask))
  (pad 8 thru_hole oval (at 0 14) (size 1.35 1.35) (drill 0.8) (layers *.Cu *.Mask))
  (pad 9 thru_hole oval (at 0 16) (size 1.35 1.35) (drill 0.8) (layers *.Cu *.Mask))
  (pad 10 thru_hole oval (at 0 18) (size 1.35 1.35) (drill 0.8) (layers *.Cu *.Mask))
  (pad 11 thru_hole oval (at 0 20) (size 1.35 1.35) (drill 0.8) (layers *.Cu *.Mask))
  (pad 12 thru_hole oval (at 0 22) (size 1.35 1.35) (drill 0.8) (layers *.Cu *.Mask))
  (pad 13 thru_hole oval (at 0 24) (size 1.35 1.35) (drill 0.8) (layers *.Cu *.Mask))
  (pad 14 thru_hole oval (at 0 26) (size 1.35 1.35) (drill 0.8) (layers *.Cu *.Mask))
  (model Socket_Strips.3dshapes/Socket_Strip_Straight_1x14_Pitch2.00mm.wrl
    (at (xyz 0 0 0))
    (scale (xyz 1 1 1))
    (rotate (xyz 0 0 0))
  )
)