(module Socket_Strip_Angled_1x03_Pitch2.54mm (layer F.Cu) (tedit 588DE956)
  (descr "Through hole angled socket strip, 1x03, 2.54mm pitch, 8.51mm socket length, single row")
  (tags "Through hole angled socket strip THT 1x03 2.54mm single row")
  (fp_text reference REF** (at -4.38 -2.27) (layer F.SilkS)
    (effects (font (size 1 1) (thickness 0.15)))
  )
  (fp_text value Socket_Strip_Angled_1x03_Pitch2.54mm (at -4.38 7.35) (layer F.Fab)
    (effects (font (size 1 1) (thickness 0.15)))
  )
  (fp_line (start -1.52 -1.27) (end -1.52 1.27) (layer F.Fab) (width 0.1))
  (fp_line (start -1.52 1.27) (end -10.03 1.27) (layer F.Fab) (width 0.1))
  (fp_line (start -10.03 1.27) (end -10.03 -1.27) (layer F.Fab) (width 0.1))
  (fp_line (start -10.03 -1.27) (end -1.52 -1.27) (layer F.Fab) (width 0.1))
  (fp_line (start 0 -0.32) (end 0 0.32) (layer F.Fab) (width 0.1))
  (fp_line (start 0 0.32) (end -1.52 0.32) (layer F.Fab) (width 0.1))
  (fp_line (start -1.52 0.32) (end -1.52 -0.32) (layer F.Fab) (width 0.1))
  (fp_line (start -1.52 -0.32) (end 0 -0.32) (layer F.Fab) (width 0.1))
  (fp_line (start -1.52 1.27) (end -1.52 3.81) (layer F.Fab) (width 0.1))
  (fp_line (start -1.52 3.81) (end -10.03 3.81) (layer F.Fab) (width 0.1))
  (fp_line (start -10.03 3.81) (end -10.03 1.27) (layer F.Fab) (width 0.1))
  (fp_line (start -10.03 1.27) (end -1.52 1.27) (layer F.Fab) (width 0.1))
  (fp_line (start 0 2.22) (end 0 2.86) (layer F.Fab) (width 0.1))
  (fp_line (start 0 2.86) (end -1.52 2.86) (layer F.Fab) (width 0.1))
  (fp_line (start -1.52 2.86) (end -1.52 2.22) (layer F.Fab) (width 0.1))
  (fp_line (start -1.52 2.22) (end 0 2.22) (layer F.Fab) (width 0.1))
  (fp_line (start -1.52 3.81) (end -1.52 6.35) (layer F.Fab) (width 0.1))
  (fp_line (start -1.52 6.35) (end -10.03 6.35) (layer F.Fab) (width 0.1))
  (fp_line (start -10.03 6.35) (end -10.03 3.81) (layer F.Fab) (width 0.1))
  (fp_line (start -10.03 3.81) (end -1.52 3.81) (layer F.Fab) (width 0.1))
  (fp_line (start 0 4.76) (end 0 5.4) (layer F.Fab) (width 0.1))
  (fp_line (start 0 5.4) (end -1.52 5.4) (layer F.Fab) (width 0.1))
  (fp_line (start -1.52 5.4) (end -1.52 4.76) (layer F.Fab) (width 0.1))
  (fp_line (start -1.52 4.76) (end 0 4.76) (layer F.Fab) (width 0.1))
  (fp_line (start -1.46 -1.33) (end -1.46 1.27) (layer F.SilkS) (width 0.12))
  (fp_line (start -1.46 1.27) (end -10.09 1.27) (layer F.SilkS) (width 0.12))
  (fp_line (start -10.09 1.27) (end -10.09 -1.33) (layer F.SilkS) (width 0.12))
  (fp_line (start -10.09 -1.33) (end -1.46 -1.33) (layer F.SilkS) (width 0.12))
  (fp_line (start -1.03 -0.38) (end -1.46 -0.38) (layer F.SilkS) (width 0.12))
  (fp_line (start -1.03 0.38) (end -1.46 0.38) (layer F.SilkS) (width 0.12))
  (fp_line (start -1.46 -1.15) (end -10.09 -1.15) (layer F.SilkS) (width 0.12))
  (fp_line (start -1.46 -1.03) (end -10.09 -1.03) (layer F.SilkS) (width 0.12))
  (fp_line (start -1.46 -0.91) (end -10.09 -0.91) (layer F.SilkS) (width 0.12))
  (fp_line (start -1.46 -0.79) (end -10.09 -0.79) (layer F.SilkS) (width 0.12))
  (fp_line (start -1.46 -0.67) (end -10.09 -0.67) (layer F.SilkS) (width 0.12))
  (fp_line (start -1.46 -0.55) (end -10.09 -0.55) (layer F.SilkS) (width 0.12))
  (fp_line (start -1.46 -0.43) (end -10.09 -0.43) (layer F.SilkS) (width 0.12))
  (fp_line (start -1.46 -0.31) (end -10.09 -0.31) (layer F.SilkS) (width 0.12))
  (fp_line (start -1.46 -0.19) (end -10.09 -0.19) (layer F.SilkS) (width 0.12))
  (fp_line (start -1.46 -0.07) (end -10.09 -0.07) (layer F.SilkS) (width 0.12))
  (fp_line (start -1.46 0.05) (end -10.09 0.05) (layer F.SilkS) (width 0.12))
  (fp_line (start -1.46 0.17) (end -10.09 0.17) (layer F.SilkS) (width 0.12))
  (fp_line (start -1.46 0.29) (end -10.09 0.29) (layer F.SilkS) (width 0.12))
  (fp_line (start -1.46 0.41) (end -10.09 0.41) (layer F.SilkS) (width 0.12))
  (fp_line (start -1.46 0.53) (end -10.09 0.53) (layer F.SilkS) (width 0.12))
  (fp_line (start -1.46 0.65) (end -10.09 0.65) (layer F.SilkS) (width 0.12))
  (fp_line (start -1.46 0.77) (end -10.09 0.77) (layer F.SilkS) (width 0.12))
  (fp_line (start -1.46 0.89) (end -10.09 0.89) (layer F.SilkS) (width 0.12))
  (fp_line (start -1.46 1.01) (end -10.09 1.01) (layer F.SilkS) (width 0.12))
  (fp_line (start -1.46 1.13) (end -10.09 1.13) (layer F.SilkS) (width 0.12))
  (fp_line (start -1.46 1.25) (end -10.09 1.25) (layer F.SilkS) (width 0.12))
  (fp_line (start -1.46 1.37) (end -10.09 1.37) (layer F.SilkS) (width 0.12))
  (fp_line (start -1.46 1.27) (end -1.46 3.81) (layer F.SilkS) (width 0.12))
  (fp_line (start -1.46 3.81) (end -10.09 3.81) (layer F.SilkS) (width 0.12))
  (fp_line (start -10.09 3.81) (end -10.09 1.27) (layer F.SilkS) (width 0.12))
  (fp_line (start -10.09 1.27) (end -1.46 1.27) (layer F.SilkS) (width 0.12))
  (fp_line (start -1.03 2.16) (end -1.46 2.16) (layer F.SilkS) (width 0.12))
  (fp_line (start -1.03 2.92) (end -1.46 2.92) (layer F.SilkS) (width 0.12))
  (fp_line (start -1.46 3.81) (end -1.46 6.41) (layer F.SilkS) (width 0.12))
  (fp_line (start -1.46 6.41) (end -10.09 6.41) (layer F.SilkS) (width 0.12))
  (fp_line (start -10.09 6.41) (end -10.09 3.81) (layer F.SilkS) (width 0.12))
  (fp_line (start -10.09 3.81) (end -1.46 3.81) (layer F.SilkS) (width 0.12))
  (fp_line (start -1.03 4.7) (end -1.46 4.7) (layer F.SilkS) (width 0.12))
  (fp_line (start -1.03 5.46) (end -1.46 5.46) (layer F.SilkS) (width 0.12))
  (fp_line (start 0 -1.27) (end 1.27 -1.27) (layer F.SilkS) (width 0.12))
  (fp_line (start 1.27 -1.27) (end 1.27 0) (layer F.SilkS) (width 0.12))
  (fp_line (start 1.55 -1.55) (end 1.55 6.6) (layer F.CrtYd) (width 0.05))
  (fp_line (start 1.55 6.6) (end -10.3 6.6) (layer F.CrtYd) (width 0.05))
  (fp_line (start -10.3 6.6) (end -10.3 -1.55) (layer F.CrtYd) (width 0.05))
  (fp_line (start -10.3 -1.55) (end 1.55 -1.55) (layer F.CrtYd) (width 0.05))
  (pad 1 thru_hole rect (at 0 0) (size 1.7 1.7) (drill 1.0) (layers *.Cu *.Mask))
  (pad 2 thru_hole oval (at 0 2.54) (size 1.7 1.7) (drill 1.0) (layers *.Cu *.Mask))
  (pad 3 thru_hole oval (at 0 5.08) (size 1.7 1.7) (drill 1.0) (layers *.Cu *.Mask))
  (model Socket_Strips.3dshapes/Socket_Strip_Angled_1x03_Pitch2.54mm.wrl
    (at (xyz 0 -0.1 0))
    (scale (xyz 1 1 1))
    (rotate (xyz 0 0 270))
  )
)