(module Socket_Strip_Straight_1x37_Pitch1.27mm (layer F.Cu) (tedit 588DE961)
  (descr "Through hole straight socket strip, 1x37, 1.27mm pitch, single row")
  (tags "Through hole socket strip THT 1x37 1.27mm single row")
  (fp_text reference REF** (at 0 -1.695) (layer F.SilkS)
    (effects (font (size 1 1) (thickness 0.15)))
  )
  (fp_text value Socket_Strip_Straight_1x37_Pitch1.27mm (at 0 47.415) (layer F.Fab)
    (effects (font (size 1 1) (thickness 0.15)))
  )
  (fp_line (start -1.27 -0.635) (end -1.27 46.355) (layer F.Fab) (width 0.1))
  (fp_line (start -1.27 46.355) (end 1.27 46.355) (layer F.Fab) (width 0.1))
  (fp_line (start 1.27 46.355) (end 1.27 -0.635) (layer F.Fab) (width 0.1))
  (fp_line (start 1.27 -0.635) (end -1.27 -0.635) (layer F.Fab) (width 0.1))
  (fp_line (start -1.33 0.635) (end -1.33 46.415) (layer F.SilkS) (width 0.12))
  (fp_line (start -1.33 46.415) (end 1.33 46.415) (layer F.SilkS) (width 0.12))
  (fp_line (start 1.33 46.415) (end 1.33 0.635) (layer F.SilkS) (width 0.12))
  (fp_line (start 1.33 0.635) (end -1.33 0.635) (layer F.SilkS) (width 0.12))
  (fp_line (start -1.33 0) (end -1.33 -0.695) (layer F.SilkS) (width 0.12))
  (fp_line (start -1.33 -0.695) (end 0 -0.695) (layer F.SilkS) (width 0.12))
  (fp_line (start -1.55 -0.9) (end -1.55 46.65) (layer F.CrtYd) (width 0.05))
  (fp_line (start -1.55 46.65) (end 1.55 46.65) (layer F.CrtYd) (width 0.05))
  (fp_line (start 1.55 46.65) (end 1.55 -0.9) (layer F.CrtYd) (width 0.05))
  (fp_line (start 1.55 -0.9) (end -1.55 -0.9) (layer F.CrtYd) (width 0.05))
  (pad 1 thru_hole rect (at 0 0) (size 1 1) (drill 0.7) (layers *.Cu *.Mask))
  (pad 2 thru_hole oval (at 0 1.27) (size 1 1) (drill 0.7) (layers *.Cu *.Mask))
  (pad 3 thru_hole oval (at 0 2.54) (size 1 1) (drill 0.7) (layers *.Cu *.Mask))
  (pad 4 thru_hole oval (at 0 3.81) (size 1 1) (drill 0.7) (layers *.Cu *.Mask))
  (pad 5 thru_hole oval (at 0 5.08) (size 1 1) (drill 0.7) (layers *.Cu *.Mask))
  (pad 6 thru_hole oval (at 0 6.35) (size 1 1) (drill 0.7) (layers *.Cu *.Mask))
  (pad 7 thru_hole oval (at 0 7.62) (size 1 1) (drill 0.7) (layers *.Cu *.Mask))
  (pad 8 thru_hole oval (at 0 8.89) (size 1 1) (drill 0.7) (layers *.Cu *.Mask))
  (pad 9 thru_hole oval (at 0 10.16) (size 1 1) (drill 0.7) (layers *.Cu *.Mask))
  (pad 10 thru_hole oval (at 0 11.43) (size 1 1) (drill 0.7) (layers *.Cu *.Mask))
  (pad 11 thru_hole oval (at 0 12.7) (size 1 1) (drill 0.7) (layers *.Cu *.Mask))
  (pad 12 thru_hole oval (at 0 13.97) (size 1 1) (drill 0.7) (layers *.Cu *.Mask))
  (pad 13 thru_hole oval (at 0 15.24) (size 1 1) (drill 0.7) (layers *.Cu *.Mask))
  (pad 14 thru_hole oval (at 0 16.51) (size 1 1) (drill 0.7) (layers *.Cu *.Mask))
  (pad 15 thru_hole oval (at 0 17.78) (size 1 1) (drill 0.7) (layers *.Cu *.Mask))
  (pad 16 thru_hole oval (at 0 19.05) (size 1 1) (drill 0.7) (layers *.Cu *.Mask))
  (pad 17 thru_hole oval (at 0 20.32) (size 1 1) (drill 0.7) (layers *.Cu *.Mask))
  (pad 18 thru_hole oval (at 0 21.59) (size 1 1) (drill 0.7) (layers *.Cu *.Mask))
  (pad 19 thru_hole oval (at 0 22.86) (size 1 1) (drill 0.7) (layers *.Cu *.Mask))
  (pad 20 thru_hole oval (at 0 24.13) (size 1 1) (drill 0.7) (layers *.Cu *.Mask))
  (pad 21 thru_hole oval (at 0 25.4) (size 1 1) (drill 0.7) (layers *.Cu *.Mask))
  (pad 22 thru_hole oval (at 0 26.67) (size 1 1) (drill 0.7) (layers *.Cu *.Mask))
  (pad 23 thru_hole oval (at 0 27.94) (size 1 1) (drill 0.7) (layers *.Cu *.Mask))
  (pad 24 thru_hole oval (at 0 29.21) (size 1 1) (drill 0.7) (layers *.Cu *.Mask))
  (pad 25 thru_hole oval (at 0 30.48) (size 1 1) (drill 0.7) (layers *.Cu *.Mask))
  (pad 26 thru_hole oval (at 0 31.75) (size 1 1) (drill 0.7) (layers *.Cu *.Mask))
  (pad 27 thru_hole oval (at 0 33.02) (size 1 1) (drill 0.7) (layers *.Cu *.Mask))
  (pad 28 thru_hole oval (at 0 34.29) (size 1 1) (drill 0.7) (layers *.Cu *.Mask))
  (pad 29 thru_hole oval (at 0 35.56) (size 1 1) (drill 0.7) (layers *.Cu *.Mask))
  (pad 30 thru_hole oval (at 0 36.83) (size 1 1) (drill 0.7) (layers *.Cu *.Mask))
  (pad 31 thru_hole oval (at 0 38.1) (size 1 1) (drill 0.7) (layers *.Cu *.Mask))
  (pad 32 thru_hole oval (at 0 39.37) (size 1 1) (drill 0.7) (layers *.Cu *.Mask))
  (pad 33 thru_hole oval (at 0 40.64) (size 1 1) (drill 0.7) (layers *.Cu *.Mask))
  (pad 34 thru_hole oval (at 0 41.91) (size 1 1) (drill 0.7) (layers *.Cu *.Mask))
  (pad 35 thru_hole oval (at 0 43.18) (size 1 1) (drill 0.7) (layers *.Cu *.Mask))
  (pad 36 thru_hole oval (at 0 44.45) (size 1 1) (drill 0.7) (layers *.Cu *.Mask))
  (pad 37 thru_hole oval (at 0 45.72) (size 1 1) (drill 0.7) (layers *.Cu *.Mask))
  (model Socket_Strips.3dshapes/Socket_Strip_Straight_1x37_Pitch1.27mm.wrl
    (at (xyz 0 0 0))
    (scale (xyz 1 1 1))
    (rotate (xyz 0 0 0))
  )
)