(module Socket_Strip_Straight_2x30_Pitch2.00mm_SMD (layer F.Cu) (tedit 588DE95F)
  (descr "surface-mounted straight socket strip, 2x30, 2.00mm pitch, double rows")
  (tags "Surface mounted socket strip SMD 2x30 2.00mm double row")
  (attr smd)
  (fp_text reference REF** (at 0 -31.06) (layer F.SilkS)
    (effects (font (size 1 1) (thickness 0.15)))
  )
  (fp_text value Socket_Strip_Straight_2x30_Pitch2.00mm_SMD (at 0 31.06) (layer F.Fab)
    (effects (font (size 1 1) (thickness 0.15)))
  )
  (fp_line (start -2 -30) (end -2 30) (layer F.Fab) (width 0.1))
  (fp_line (start -2 30) (end 2 30) (layer F.Fab) (width 0.1))
  (fp_line (start 2 30) (end 2 -30) (layer F.Fab) (width 0.1))
  (fp_line (start 2 -30) (end -2 -30) (layer F.Fab) (width 0.1))
  (fp_line (start -2 -29.25) (end -2 -28.75) (layer F.Fab) (width 0.1))
  (fp_line (start -2 -28.75) (end -3 -28.75) (layer F.Fab) (width 0.1))
  (fp_line (start -3 -28.75) (end -3 -29.25) (layer F.Fab) (width 0.1))
  (fp_line (start -3 -29.25) (end -2 -29.25) (layer F.Fab) (width 0.1))
  (fp_line (start 2 -29.25) (end 2 -28.75) (layer F.Fab) (width 0.1))
  (fp_line (start 2 -28.75) (end 3 -28.75) (layer F.Fab) (width 0.1))
  (fp_line (start 3 -28.75) (end 3 -29.25) (layer F.Fab) (width 0.1))
  (fp_line (start 3 -29.25) (end 2 -29.25) (layer F.Fab) (width 0.1))
  (fp_line (start -2 -27.25) (end -2 -26.75) (layer F.Fab) (width 0.1))
  (fp_line (start -2 -26.75) (end -3 -26.75) (layer F.Fab) (width 0.1))
  (fp_line (start -3 -26.75) (end -3 -27.25) (layer F.Fab) (width 0.1))
  (fp_line (start -3 -27.25) (end -2 -27.25) (layer F.Fab) (width 0.1))
  (fp_line (start 2 -27.25) (end 2 -26.75) (layer F.Fab) (width 0.1))
  (fp_line (start 2 -26.75) (end 3 -26.75) (layer F.Fab) (width 0.1))
  (fp_line (start 3 -26.75) (end 3 -27.25) (layer F.Fab) (width 0.1))
  (fp_line (start 3 -27.25) (end 2 -27.25) (layer F.Fab) (width 0.1))
  (fp_line (start -2 -25.25) (end -2 -24.75) (layer F.Fab) (width 0.1))
  (fp_line (start -2 -24.75) (end -3 -24.75) (layer F.Fab) (width 0.1))
  (fp_line (start -3 -24.75) (end -3 -25.25) (layer F.Fab) (width 0.1))
  (fp_line (start -3 -25.25) (end -2 -25.25) (layer F.Fab) (width 0.1))
  (fp_line (start 2 -25.25) (end 2 -24.75) (layer F.Fab) (width 0.1))
  (fp_line (start 2 -24.75) (end 3 -24.75) (layer F.Fab) (width 0.1))
  (fp_line (start 3 -24.75) (end 3 -25.25) (layer F.Fab) (width 0.1))
  (fp_line (start 3 -25.25) (end 2 -25.25) (layer F.Fab) (width 0.1))
  (fp_line (start -2 -23.25) (end -2 -22.75) (layer F.Fab) (width 0.1))
  (fp_line (start -2 -22.75) (end -3 -22.75) (layer F.Fab) (width 0.1))
  (fp_line (start -3 -22.75) (end -3 -23.25) (layer F.Fab) (width 0.1))
  (fp_line (start -3 -23.25) (end -2 -23.25) (layer F.Fab) (width 0.1))
  (fp_line (start 2 -23.25) (end 2 -22.75) (layer F.Fab) (width 0.1))
  (fp_line (start 2 -22.75) (end 3 -22.75) (layer F.Fab) (width 0.1))
  (fp_line (start 3 -22.75) (end 3 -23.25) (layer F.Fab) (width 0.1))
  (fp_line (start 3 -23.25) (end 2 -23.25) (layer F.Fab) (width 0.1))
  (fp_line (start -2 -21.25) (end -2 -20.75) (layer F.Fab) (width 0.1))
  (fp_line (start -2 -20.75) (end -3 -20.75) (layer F.Fab) (width 0.1))
  (fp_line (start -3 -20.75) (end -3 -21.25) (layer F.Fab) (width 0.1))
  (fp_line (start -3 -21.25) (end -2 -21.25) (layer F.Fab) (width 0.1))
  (fp_line (start 2 -21.25) (end 2 -20.75) (layer F.Fab) (width 0.1))
  (fp_line (start 2 -20.75) (end 3 -20.75) (layer F.Fab) (width 0.1))
  (fp_line (start 3 -20.75) (end 3 -21.25) (layer F.Fab) (width 0.1))
  (fp_line (start 3 -21.25) (end 2 -21.25) (layer F.Fab) (width 0.1))
  (fp_line (start -2 -19.25) (end -2 -18.75) (layer F.Fab) (width 0.1))
  (fp_line (start -2 -18.75) (end -3 -18.75) (layer F.Fab) (width 0.1))
  (fp_line (start -3 -18.75) (end -3 -19.25) (layer F.Fab) (width 0.1))
  (fp_line (start -3 -19.25) (end -2 -19.25) (layer F.Fab) (width 0.1))
  (fp_line (start 2 -19.25) (end 2 -18.75) (layer F.Fab) (width 0.1))
  (fp_line (start 2 -18.75) (end 3 -18.75) (layer F.Fab) (width 0.1))
  (fp_line (start 3 -18.75) (end 3 -19.25) (layer F.Fab) (width 0.1))
  (fp_line (start 3 -19.25) (end 2 -19.25) (layer F.Fab) (width 0.1))
  (fp_line (start -2 -17.25) (end -2 -16.75) (layer F.Fab) (width 0.1))
  (fp_line (start -2 -16.75) (end -3 -16.75) (layer F.Fab) (width 0.1))
  (fp_line (start -3 -16.75) (end -3 -17.25) (layer F.Fab) (width 0.1))
  (fp_line (start -3 -17.25) (end -2 -17.25) (layer F.Fab) (width 0.1))
  (fp_line (start 2 -17.25) (end 2 -16.75) (layer F.Fab) (width 0.1))
  (fp_line (start 2 -16.75) (end 3 -16.75) (layer F.Fab) (width 0.1))
  (fp_line (start 3 -16.75) (end 3 -17.25) (layer F.Fab) (width 0.1))
  (fp_line (start 3 -17.25) (end 2 -17.25) (layer F.Fab) (width 0.1))
  (fp_line (start -2 -15.25) (end -2 -14.75) (layer F.Fab) (width 0.1))
  (fp_line (start -2 -14.75) (end -3 -14.75) (layer F.Fab) (width 0.1))
  (fp_line (start -3 -14.75) (end -3 -15.25) (layer F.Fab) (width 0.1))
  (fp_line (start -3 -15.25) (end -2 -15.25) (layer F.Fab) (width 0.1))
  (fp_line (start 2 -15.25) (end 2 -14.75) (layer F.Fab) (width 0.1))
  (fp_line (start 2 -14.75) (end 3 -14.75) (layer F.Fab) (width 0.1))
  (fp_line (start 3 -14.75) (end 3 -15.25) (layer F.Fab) (width 0.1))
  (fp_line (start 3 -15.25) (end 2 -15.25) (layer F.Fab) (width 0.1))
  (fp_line (start -2 -13.25) (end -2 -12.75) (layer F.Fab) (width 0.1))
  (fp_line (start -2 -12.75) (end -3 -12.75) (layer F.Fab) (width 0.1))
  (fp_line (start -3 -12.75) (end -3 -13.25) (layer F.Fab) (width 0.1))
  (fp_line (start -3 -13.25) (end -2 -13.25) (layer F.Fab) (width 0.1))
  (fp_line (start 2 -13.25) (end 2 -12.75) (layer F.Fab) (width 0.1))
  (fp_line (start 2 -12.75) (end 3 -12.75) (layer F.Fab) (width 0.1))
  (fp_line (start 3 -12.75) (end 3 -13.25) (layer F.Fab) (width 0.1))
  (fp_line (start 3 -13.25) (end 2 -13.25) (layer F.Fab) (width 0.1))
  (fp_line (start -2 -11.25) (end -2 -10.75) (layer F.Fab) (width 0.1))
  (fp_line (start -2 -10.75) (end -3 -10.75) (layer F.Fab) (width 0.1))
  (fp_line (start -3 -10.75) (end -3 -11.25) (layer F.Fab) (width 0.1))
  (fp_line (start -3 -11.25) (end -2 -11.25) (layer F.Fab) (width 0.1))
  (fp_line (start 2 -11.25) (end 2 -10.75) (layer F.Fab) (width 0.1))
  (fp_line (start 2 -10.75) (end 3 -10.75) (layer F.Fab) (width 0.1))
  (fp_line (start 3 -10.75) (end 3 -11.25) (layer F.Fab) (width 0.1))
  (fp_line (start 3 -11.25) (end 2 -11.25) (layer F.Fab) (width 0.1))
  (fp_line (start -2 -9.25) (end -2 -8.75) (layer F.Fab) (width 0.1))
  (fp_line (start -2 -8.75) (end -3 -8.75) (layer F.Fab) (width 0.1))
  (fp_line (start -3 -8.75) (end -3 -9.25) (layer F.Fab) (width 0.1))
  (fp_line (start -3 -9.25) (end -2 -9.25) (layer F.Fab) (width 0.1))
  (fp_line (start 2 -9.25) (end 2 -8.75) (layer F.Fab) (width 0.1))
  (fp_line (start 2 -8.75) (end 3 -8.75) (layer F.Fab) (width 0.1))
  (fp_line (start 3 -8.75) (end 3 -9.25) (layer F.Fab) (width 0.1))
  (fp_line (start 3 -9.25) (end 2 -9.25) (layer F.Fab) (width 0.1))
  (fp_line (start -2 -7.25) (end -2 -6.75) (layer F.Fab) (width 0.1))
  (fp_line (start -2 -6.75) (end -3 -6.75) (layer F.Fab) (width 0.1))
  (fp_line (start -3 -6.75) (end -3 -7.25) (layer F.Fab) (width 0.1))
  (fp_line (start -3 -7.25) (end -2 -7.25) (layer F.Fab) (width 0.1))
  (fp_line (start 2 -7.25) (end 2 -6.75) (layer F.Fab) (width 0.1))
  (fp_line (start 2 -6.75) (end 3 -6.75) (layer F.Fab) (width 0.1))
  (fp_line (start 3 -6.75) (end 3 -7.25) (layer F.Fab) (width 0.1))
  (fp_line (start 3 -7.25) (end 2 -7.25) (layer F.Fab) (width 0.1))
  (fp_line (start -2 -5.25) (end -2 -4.75) (layer F.Fab) (width 0.1))
  (fp_line (start -2 -4.75) (end -3 -4.75) (layer F.Fab) (width 0.1))
  (fp_line (start -3 -4.75) (end -3 -5.25) (layer F.Fab) (width 0.1))
  (fp_line (start -3 -5.25) (end -2 -5.25) (layer F.Fab) (width 0.1))
  (fp_line (start 2 -5.25) (end 2 -4.75) (layer F.Fab) (width 0.1))
  (fp_line (start 2 -4.75) (end 3 -4.75) (layer F.Fab) (width 0.1))
  (fp_line (start 3 -4.75) (end 3 -5.25) (layer F.Fab) (width 0.1))
  (fp_line (start 3 -5.25) (end 2 -5.25) (layer F.Fab) (width 0.1))
  (fp_line (start -2 -3.25) (end -2 -2.75) (layer F.Fab) (width 0.1))
  (fp_line (start -2 -2.75) (end -3 -2.75) (layer F.Fab) (width 0.1))
  (fp_line (start -3 -2.75) (end -3 -3.25) (layer F.Fab) (width 0.1))
  (fp_line (start -3 -3.25) (end -2 -3.25) (layer F.Fab) (width 0.1))
  (fp_line (start 2 -3.25) (end 2 -2.75) (layer F.Fab) (width 0.1))
  (fp_line (start 2 -2.75) (end 3 -2.75) (layer F.Fab) (width 0.1))
  (fp_line (start 3 -2.75) (end 3 -3.25) (layer F.Fab) (width 0.1))
  (fp_line (start 3 -3.25) (end 2 -3.25) (layer F.Fab) (width 0.1))
  (fp_line (start -2 -1.25) (end -2 -0.75) (layer F.Fab) (width 0.1))
  (fp_line (start -2 -0.75) (end -3 -0.75) (layer F.Fab) (width 0.1))
  (fp_line (start -3 -0.75) (end -3 -1.25) (layer F.Fab) (width 0.1))
  (fp_line (start -3 -1.25) (end -2 -1.25) (layer F.Fab) (width 0.1))
  (fp_line (start 2 -1.25) (end 2 -0.75) (layer F.Fab) (width 0.1))
  (fp_line (start 2 -0.75) (end 3 -0.75) (layer F.Fab) (width 0.1))
  (fp_line (start 3 -0.75) (end 3 -1.25) (layer F.Fab) (width 0.1))
  (fp_line (start 3 -1.25) (end 2 -1.25) (layer F.Fab) (width 0.1))
  (fp_line (start -2 0.75) (end -2 1.25) (layer F.Fab) (width 0.1))
  (fp_line (start -2 1.25) (end -3 1.25) (layer F.Fab) (width 0.1))
  (fp_line (start -3 1.25) (end -3 0.75) (layer F.Fab) (width 0.1))
  (fp_line (start -3 0.75) (end -2 0.75) (layer F.Fab) (width 0.1))
  (fp_line (start 2 0.75) (end 2 1.25) (layer F.Fab) (width 0.1))
  (fp_line (start 2 1.25) (end 3 1.25) (layer F.Fab) (width 0.1))
  (fp_line (start 3 1.25) (end 3 0.75) (layer F.Fab) (width 0.1))
  (fp_line (start 3 0.75) (end 2 0.75) (layer F.Fab) (width 0.1))
  (fp_line (start -2 2.75) (end -2 3.25) (layer F.Fab) (width 0.1))
  (fp_line (start -2 3.25) (end -3 3.25) (layer F.Fab) (width 0.1))
  (fp_line (start -3 3.25) (end -3 2.75) (layer F.Fab) (width 0.1))
  (fp_line (start -3 2.75) (end -2 2.75) (layer F.Fab) (width 0.1))
  (fp_line (start 2 2.75) (end 2 3.25) (layer F.Fab) (width 0.1))
  (fp_line (start 2 3.25) (end 3 3.25) (layer F.Fab) (width 0.1))
  (fp_line (start 3 3.25) (end 3 2.75) (layer F.Fab) (width 0.1))
  (fp_line (start 3 2.75) (end 2 2.75) (layer F.Fab) (width 0.1))
  (fp_line (start -2 4.75) (end -2 5.25) (layer F.Fab) (width 0.1))
  (fp_line (start -2 5.25) (end -3 5.25) (layer F.Fab) (width 0.1))
  (fp_line (start -3 5.25) (end -3 4.75) (layer F.Fab) (width 0.1))
  (fp_line (start -3 4.75) (end -2 4.75) (layer F.Fab) (width 0.1))
  (fp_line (start 2 4.75) (end 2 5.25) (layer F.Fab) (width 0.1))
  (fp_line (start 2 5.25) (end 3 5.25) (layer F.Fab) (width 0.1))
  (fp_line (start 3 5.25) (end 3 4.75) (layer F.Fab) (width 0.1))
  (fp_line (start 3 4.75) (end 2 4.75) (layer F.Fab) (width 0.1))
  (fp_line (start -2 6.75) (end -2 7.25) (layer F.Fab) (width 0.1))
  (fp_line (start -2 7.25) (end -3 7.25) (layer F.Fab) (width 0.1))
  (fp_line (start -3 7.25) (end -3 6.75) (layer F.Fab) (width 0.1))
  (fp_line (start -3 6.75) (end -2 6.75) (layer F.Fab) (width 0.1))
  (fp_line (start 2 6.75) (end 2 7.25) (layer F.Fab) (width 0.1))
  (fp_line (start 2 7.25) (end 3 7.25) (layer F.Fab) (width 0.1))
  (fp_line (start 3 7.25) (end 3 6.75) (layer F.Fab) (width 0.1))
  (fp_line (start 3 6.75) (end 2 6.75) (layer F.Fab) (width 0.1))
  (fp_line (start -2 8.75) (end -2 9.25) (layer F.Fab) (width 0.1))
  (fp_line (start -2 9.25) (end -3 9.25) (layer F.Fab) (width 0.1))
  (fp_line (start -3 9.25) (end -3 8.75) (layer F.Fab) (width 0.1))
  (fp_line (start -3 8.75) (end -2 8.75) (layer F.Fab) (width 0.1))
  (fp_line (start 2 8.75) (end 2 9.25) (layer F.Fab) (width 0.1))
  (fp_line (start 2 9.25) (end 3 9.25) (layer F.Fab) (width 0.1))
  (fp_line (start 3 9.25) (end 3 8.75) (layer F.Fab) (width 0.1))
  (fp_line (start 3 8.75) (end 2 8.75) (layer F.Fab) (width 0.1))
  (fp_line (start -2 10.75) (end -2 11.25) (layer F.Fab) (width 0.1))
  (fp_line (start -2 11.25) (end -3 11.25) (layer F.Fab) (width 0.1))
  (fp_line (start -3 11.25) (end -3 10.75) (layer F.Fab) (width 0.1))
  (fp_line (start -3 10.75) (end -2 10.75) (layer F.Fab) (width 0.1))
  (fp_line (start 2 10.75) (end 2 11.25) (layer F.Fab) (width 0.1))
  (fp_line (start 2 11.25) (end 3 11.25) (layer F.Fab) (width 0.1))
  (fp_line (start 3 11.25) (end 3 10.75) (layer F.Fab) (width 0.1))
  (fp_line (start 3 10.75) (end 2 10.75) (layer F.Fab) (width 0.1))
  (fp_line (start -2 12.75) (end -2 13.25) (layer F.Fab) (width 0.1))
  (fp_line (start -2 13.25) (end -3 13.25) (layer F.Fab) (width 0.1))
  (fp_line (start -3 13.25) (end -3 12.75) (layer F.Fab) (width 0.1))
  (fp_line (start -3 12.75) (end -2 12.75) (layer F.Fab) (width 0.1))
  (fp_line (start 2 12.75) (end 2 13.25) (layer F.Fab) (width 0.1))
  (fp_line (start 2 13.25) (end 3 13.25) (layer F.Fab) (width 0.1))
  (fp_line (start 3 13.25) (end 3 12.75) (layer F.Fab) (width 0.1))
  (fp_line (start 3 12.75) (end 2 12.75) (layer F.Fab) (width 0.1))
  (fp_line (start -2 14.75) (end -2 15.25) (layer F.Fab) (width 0.1))
  (fp_line (start -2 15.25) (end -3 15.25) (layer F.Fab) (width 0.1))
  (fp_line (start -3 15.25) (end -3 14.75) (layer F.Fab) (width 0.1))
  (fp_line (start -3 14.75) (end -2 14.75) (layer F.Fab) (width 0.1))
  (fp_line (start 2 14.75) (end 2 15.25) (layer F.Fab) (width 0.1))
  (fp_line (start 2 15.25) (end 3 15.25) (layer F.Fab) (width 0.1))
  (fp_line (start 3 15.25) (end 3 14.75) (layer F.Fab) (width 0.1))
  (fp_line (start 3 14.75) (end 2 14.75) (layer F.Fab) (width 0.1))
  (fp_line (start -2 16.75) (end -2 17.25) (layer F.Fab) (width 0.1))
  (fp_line (start -2 17.25) (end -3 17.25) (layer F.Fab) (width 0.1))
  (fp_line (start -3 17.25) (end -3 16.75) (layer F.Fab) (width 0.1))
  (fp_line (start -3 16.75) (end -2 16.75) (layer F.Fab) (width 0.1))
  (fp_line (start 2 16.75) (end 2 17.25) (layer F.Fab) (width 0.1))
  (fp_line (start 2 17.25) (end 3 17.25) (layer F.Fab) (width 0.1))
  (fp_line (start 3 17.25) (end 3 16.75) (layer F.Fab) (width 0.1))
  (fp_line (start 3 16.75) (end 2 16.75) (layer F.Fab) (width 0.1))
  (fp_line (start -2 18.75) (end -2 19.25) (layer F.Fab) (width 0.1))
  (fp_line (start -2 19.25) (end -3 19.25) (layer F.Fab) (width 0.1))
  (fp_line (start -3 19.25) (end -3 18.75) (layer F.Fab) (width 0.1))
  (fp_line (start -3 18.75) (end -2 18.75) (layer F.Fab) (width 0.1))
  (fp_line (start 2 18.75) (end 2 19.25) (layer F.Fab) (width 0.1))
  (fp_line (start 2 19.25) (end 3 19.25) (layer F.Fab) (width 0.1))
  (fp_line (start 3 19.25) (end 3 18.75) (layer F.Fab) (width 0.1))
  (fp_line (start 3 18.75) (end 2 18.75) (layer F.Fab) (width 0.1))
  (fp_line (start -2 20.75) (end -2 21.25) (layer F.Fab) (width 0.1))
  (fp_line (start -2 21.25) (end -3 21.25) (layer F.Fab) (width 0.1))
  (fp_line (start -3 21.25) (end -3 20.75) (layer F.Fab) (width 0.1))
  (fp_line (start -3 20.75) (end -2 20.75) (layer F.Fab) (width 0.1))
  (fp_line (start 2 20.75) (end 2 21.25) (layer F.Fab) (width 0.1))
  (fp_line (start 2 21.25) (end 3 21.25) (layer F.Fab) (width 0.1))
  (fp_line (start 3 21.25) (end 3 20.75) (layer F.Fab) (width 0.1))
  (fp_line (start 3 20.75) (end 2 20.75) (layer F.Fab) (width 0.1))
  (fp_line (start -2 22.75) (end -2 23.25) (layer F.Fab) (width 0.1))
  (fp_line (start -2 23.25) (end -3 23.25) (layer F.Fab) (width 0.1))
  (fp_line (start -3 23.25) (end -3 22.75) (layer F.Fab) (width 0.1))
  (fp_line (start -3 22.75) (end -2 22.75) (layer F.Fab) (width 0.1))
  (fp_line (start 2 22.75) (end 2 23.25) (layer F.Fab) (width 0.1))
  (fp_line (start 2 23.25) (end 3 23.25) (layer F.Fab) (width 0.1))
  (fp_line (start 3 23.25) (end 3 22.75) (layer F.Fab) (width 0.1))
  (fp_line (start 3 22.75) (end 2 22.75) (layer F.Fab) (width 0.1))
  (fp_line (start -2 24.75) (end -2 25.25) (layer F.Fab) (width 0.1))
  (fp_line (start -2 25.25) (end -3 25.25) (layer F.Fab) (width 0.1))
  (fp_line (start -3 25.25) (end -3 24.75) (layer F.Fab) (width 0.1))
  (fp_line (start -3 24.75) (end -2 24.75) (layer F.Fab) (width 0.1))
  (fp_line (start 2 24.75) (end 2 25.25) (layer F.Fab) (width 0.1))
  (fp_line (start 2 25.25) (end 3 25.25) (layer F.Fab) (width 0.1))
  (fp_line (start 3 25.25) (end 3 24.75) (layer F.Fab) (width 0.1))
  (fp_line (start 3 24.75) (end 2 24.75) (layer F.Fab) (width 0.1))
  (fp_line (start -2 26.75) (end -2 27.25) (layer F.Fab) (width 0.1))
  (fp_line (start -2 27.25) (end -3 27.25) (layer F.Fab) (width 0.1))
  (fp_line (start -3 27.25) (end -3 26.75) (layer F.Fab) (width 0.1))
  (fp_line (start -3 26.75) (end -2 26.75) (layer F.Fab) (width 0.1))
  (fp_line (start 2 26.75) (end 2 27.25) (layer F.Fab) (width 0.1))
  (fp_line (start 2 27.25) (end 3 27.25) (layer F.Fab) (width 0.1))
  (fp_line (start 3 27.25) (end 3 26.75) (layer F.Fab) (width 0.1))
  (fp_line (start 3 26.75) (end 2 26.75) (layer F.Fab) (width 0.1))
  (fp_line (start -2 28.75) (end -2 29.25) (layer F.Fab) (width 0.1))
  (fp_line (start -2 29.25) (end -3 29.25) (layer F.Fab) (width 0.1))
  (fp_line (start -3 29.25) (end -3 28.75) (layer F.Fab) (width 0.1))
  (fp_line (start -3 28.75) (end -2 28.75) (layer F.Fab) (width 0.1))
  (fp_line (start 2 28.75) (end 2 29.25) (layer F.Fab) (width 0.1))
  (fp_line (start 2 29.25) (end 3 29.25) (layer F.Fab) (width 0.1))
  (fp_line (start 3 29.25) (end 3 28.75) (layer F.Fab) (width 0.1))
  (fp_line (start 3 28.75) (end 2 28.75) (layer F.Fab) (width 0.1))
  (fp_line (start -2.06 -29.8) (end -2.06 -30.06) (layer F.SilkS) (width 0.12))
  (fp_line (start -2.06 -30.06) (end 2.06 -30.06) (layer F.SilkS) (width 0.12))
  (fp_line (start 2.06 -30.06) (end 2.06 -29.8) (layer F.SilkS) (width 0.12))
  (fp_line (start -2.06 29.8) (end -2.06 30.06) (layer F.SilkS) (width 0.12))
  (fp_line (start -2.06 30.06) (end 2.06 30.06) (layer F.SilkS) (width 0.12))
  (fp_line (start 2.06 30.06) (end 2.06 29.8) (layer F.SilkS) (width 0.12))
  (fp_line (start 4.5 -29.8) (end 2.06 -29.8) (layer F.SilkS) (width 0.12))
  (fp_line (start -4.75 -30.25) (end -4.75 30.25) (layer F.CrtYd) (width 0.05))
  (fp_line (start -4.75 30.25) (end 4.75 30.25) (layer F.CrtYd) (width 0.05))
  (fp_line (start 4.75 30.25) (end 4.75 -30.25) (layer F.CrtYd) (width 0.05))
  (fp_line (start 4.75 -30.25) (end -4.75 -30.25) (layer F.CrtYd) (width 0.05))
  (pad 1 smd rect (at 3.125 -29) (size 2.75 1) (layers F.Cu F.Mask))
  (pad 2 smd rect (at -3.125 -29) (size 2.75 1) (layers F.Cu F.Mask))
  (pad 3 smd rect (at 3.125 -27) (size 2.75 1) (layers F.Cu F.Mask))
  (pad 4 smd rect (at -3.125 -27) (size 2.75 1) (layers F.Cu F.Mask))
  (pad 5 smd rect (at 3.125 -25) (size 2.75 1) (layers F.Cu F.Mask))
  (pad 6 smd rect (at -3.125 -25) (size 2.75 1) (layers F.Cu F.Mask))
  (pad 7 smd rect (at 3.125 -23) (size 2.75 1) (layers F.Cu F.Mask))
  (pad 8 smd rect (at -3.125 -23) (size 2.75 1) (layers F.Cu F.Mask))
  (pad 9 smd rect (at 3.125 -21) (size 2.75 1) (layers F.Cu F.Mask))
  (pad 10 smd rect (at -3.125 -21) (size 2.75 1) (layers F.Cu F.Mask))
  (pad 11 smd rect (at 3.125 -19) (size 2.75 1) (layers F.Cu F.Mask))
  (pad 12 smd rect (at -3.125 -19) (size 2.75 1) (layers F.Cu F.Mask))
  (pad 13 smd rect (at 3.125 -17) (size 2.75 1) (layers F.Cu F.Mask))
  (pad 14 smd rect (at -3.125 -17) (size 2.75 1) (layers F.Cu F.Mask))
  (pad 15 smd rect (at 3.125 -15) (size 2.75 1) (layers F.Cu F.Mask))
  (pad 16 smd rect (at -3.125 -15) (size 2.75 1) (layers F.Cu F.Mask))
  (pad 17 smd rect (at 3.125 -13) (size 2.75 1) (layers F.Cu F.Mask))
  (pad 18 smd rect (at -3.125 -13) (size 2.75 1) (layers F.Cu F.Mask))
  (pad 19 smd rect (at 3.125 -11) (size 2.75 1) (layers F.Cu F.Mask))
  (pad 20 smd rect (at -3.125 -11) (size 2.75 1) (layers F.Cu F.Mask))
  (pad 21 smd rect (at 3.125 -9) (size 2.75 1) (layers F.Cu F.Mask))
  (pad 22 smd rect (at -3.125 -9) (size 2.75 1) (layers F.Cu F.Mask))
  (pad 23 smd rect (at 3.125 -7) (size 2.75 1) (layers F.Cu F.Mask))
  (pad 24 smd rect (at -3.125 -7) (size 2.75 1) (layers F.Cu F.Mask))
  (pad 25 smd rect (at 3.125 -5) (size 2.75 1) (layers F.Cu F.Mask))
  (pad 26 smd rect (at -3.125 -5) (size 2.75 1) (layers F.Cu F.Mask))
  (pad 27 smd rect (at 3.125 -3) (size 2.75 1) (layers F.Cu F.Mask))
  (pad 28 smd rect (at -3.125 -3) (size 2.75 1) (layers F.Cu F.Mask))
  (pad 29 smd rect (at 3.125 -1) (size 2.75 1) (layers F.Cu F.Mask))
  (pad 30 smd rect (at -3.125 -1) (size 2.75 1) (layers F.Cu F.Mask))
  (pad 31 smd rect (at 3.125 1) (size 2.75 1) (layers F.Cu F.Mask))
  (pad 32 smd rect (at -3.125 1) (size 2.75 1) (layers F.Cu F.Mask))
  (pad 33 smd rect (at 3.125 3) (size 2.75 1) (layers F.Cu F.Mask))
  (pad 34 smd rect (at -3.125 3) (size 2.75 1) (layers F.Cu F.Mask))
  (pad 35 smd rect (at 3.125 5) (size 2.75 1) (layers F.Cu F.Mask))
  (pad 36 smd rect (at -3.125 5) (size 2.75 1) (layers F.Cu F.Mask))
  (pad 37 smd rect (at 3.125 7) (size 2.75 1) (layers F.Cu F.Mask))
  (pad 38 smd rect (at -3.125 7) (size 2.75 1) (layers F.Cu F.Mask))
  (pad 39 smd rect (at 3.125 9) (size 2.75 1) (layers F.Cu F.Mask))
  (pad 40 smd rect (at -3.125 9) (size 2.75 1) (layers F.Cu F.Mask))
  (pad 41 smd rect (at 3.125 11) (size 2.75 1) (layers F.Cu F.Mask))
  (pad 42 smd rect (at -3.125 11) (size 2.75 1) (layers F.Cu F.Mask))
  (pad 43 smd rect (at 3.125 13) (size 2.75 1) (layers F.Cu F.Mask))
  (pad 44 smd rect (at -3.125 13) (size 2.75 1) (layers F.Cu F.Mask))
  (pad 45 smd rect (at 3.125 15) (size 2.75 1) (layers F.Cu F.Mask))
  (pad 46 smd rect (at -3.125 15) (size 2.75 1) (layers F.Cu F.Mask))
  (pad 47 smd rect (at 3.125 17) (size 2.75 1) (layers F.Cu F.Mask))
  (pad 48 smd rect (at -3.125 17) (size 2.75 1) (layers F.Cu F.Mask))
  (pad 49 smd rect (at 3.125 19) (size 2.75 1) (layers F.Cu F.Mask))
  (pad 50 smd rect (at -3.125 19) (size 2.75 1) (layers F.Cu F.Mask))
  (pad 51 smd rect (at 3.125 21) (size 2.75 1) (layers F.Cu F.Mask))
  (pad 52 smd rect (at -3.125 21) (size 2.75 1) (layers F.Cu F.Mask))
  (pad 53 smd rect (at 3.125 23) (size 2.75 1) (layers F.Cu F.Mask))
  (pad 54 smd rect (at -3.125 23) (size 2.75 1) (layers F.Cu F.Mask))
  (pad 55 smd rect (at 3.125 25) (size 2.75 1) (layers F.Cu F.Mask))
  (pad 56 smd rect (at -3.125 25) (size 2.75 1) (layers F.Cu F.Mask))
  (pad 57 smd rect (at 3.125 27) (size 2.75 1) (layers F.Cu F.Mask))
  (pad 58 smd rect (at -3.125 27) (size 2.75 1) (layers F.Cu F.Mask))
  (pad 59 smd rect (at 3.125 29) (size 2.75 1) (layers F.Cu F.Mask))
  (pad 60 smd rect (at -3.125 29) (size 2.75 1) (layers F.Cu F.Mask))
  (model Socket_Strips.3dshapes/Socket_Strip_Straight_2x30_Pitch2.00mm_SMD.wrl
    (at (xyz 0 0 0))
    (scale (xyz 1 1 1))
    (rotate (xyz 0 0 0))
  )
)