(module Socket_Strip_Straight_2x31_Pitch1.27mm_SMD (layer F.Cu) (tedit 588DE962)
  (descr "surface-mounted straight socket strip, 2x31, 1.27mm pitch, double rows")
  (tags "Surface mounted socket strip SMD 2x31 1.27mm double row")
  (attr smd)
  (fp_text reference REF** (at 0 -20.745) (layer F.SilkS)
    (effects (font (size 1 1) (thickness 0.15)))
  )
  (fp_text value Socket_Strip_Straight_2x31_Pitch1.27mm_SMD (at 0 20.745) (layer F.Fab)
    (effects (font (size 1 1) (thickness 0.15)))
  )
  (fp_line (start -1.27 -19.685) (end -1.27 19.685) (layer F.Fab) (width 0.1))
  (fp_line (start -1.27 19.685) (end 1.27 19.685) (layer F.Fab) (width 0.1))
  (fp_line (start 1.27 19.685) (end 1.27 -19.685) (layer F.Fab) (width 0.1))
  (fp_line (start 1.27 -19.685) (end -1.27 -19.685) (layer F.Fab) (width 0.1))
  (fp_line (start -1.27 -19.25) (end -1.27 -18.85) (layer F.Fab) (width 0.1))
  (fp_line (start -1.27 -18.85) (end -2.555 -18.85) (layer F.Fab) (width 0.1))
  (fp_line (start -2.555 -18.85) (end -2.555 -19.25) (layer F.Fab) (width 0.1))
  (fp_line (start -2.555 -19.25) (end -1.27 -19.25) (layer F.Fab) (width 0.1))
  (fp_line (start 1.27 -19.25) (end 1.27 -18.85) (layer F.Fab) (width 0.1))
  (fp_line (start 1.27 -18.85) (end 2.555 -18.85) (layer F.Fab) (width 0.1))
  (fp_line (start 2.555 -18.85) (end 2.555 -19.25) (layer F.Fab) (width 0.1))
  (fp_line (start 2.555 -19.25) (end 1.27 -19.25) (layer F.Fab) (width 0.1))
  (fp_line (start -1.27 -17.98) (end -1.27 -17.58) (layer F.Fab) (width 0.1))
  (fp_line (start -1.27 -17.58) (end -2.555 -17.58) (layer F.Fab) (width 0.1))
  (fp_line (start -2.555 -17.58) (end -2.555 -17.98) (layer F.Fab) (width 0.1))
  (fp_line (start -2.555 -17.98) (end -1.27 -17.98) (layer F.Fab) (width 0.1))
  (fp_line (start 1.27 -17.98) (end 1.27 -17.58) (layer F.Fab) (width 0.1))
  (fp_line (start 1.27 -17.58) (end 2.555 -17.58) (layer F.Fab) (width 0.1))
  (fp_line (start 2.555 -17.58) (end 2.555 -17.98) (layer F.Fab) (width 0.1))
  (fp_line (start 2.555 -17.98) (end 1.27 -17.98) (layer F.Fab) (width 0.1))
  (fp_line (start -1.27 -16.71) (end -1.27 -16.31) (layer F.Fab) (width 0.1))
  (fp_line (start -1.27 -16.31) (end -2.555 -16.31) (layer F.Fab) (width 0.1))
  (fp_line (start -2.555 -16.31) (end -2.555 -16.71) (layer F.Fab) (width 0.1))
  (fp_line (start -2.555 -16.71) (end -1.27 -16.71) (layer F.Fab) (width 0.1))
  (fp_line (start 1.27 -16.71) (end 1.27 -16.31) (layer F.Fab) (width 0.1))
  (fp_line (start 1.27 -16.31) (end 2.555 -16.31) (layer F.Fab) (width 0.1))
  (fp_line (start 2.555 -16.31) (end 2.555 -16.71) (layer F.Fab) (width 0.1))
  (fp_line (start 2.555 -16.71) (end 1.27 -16.71) (layer F.Fab) (width 0.1))
  (fp_line (start -1.27 -15.44) (end -1.27 -15.04) (layer F.Fab) (width 0.1))
  (fp_line (start -1.27 -15.04) (end -2.555 -15.04) (layer F.Fab) (width 0.1))
  (fp_line (start -2.555 -15.04) (end -2.555 -15.44) (layer F.Fab) (width 0.1))
  (fp_line (start -2.555 -15.44) (end -1.27 -15.44) (layer F.Fab) (width 0.1))
  (fp_line (start 1.27 -15.44) (end 1.27 -15.04) (layer F.Fab) (width 0.1))
  (fp_line (start 1.27 -15.04) (end 2.555 -15.04) (layer F.Fab) (width 0.1))
  (fp_line (start 2.555 -15.04) (end 2.555 -15.44) (layer F.Fab) (width 0.1))
  (fp_line (start 2.555 -15.44) (end 1.27 -15.44) (layer F.Fab) (width 0.1))
  (fp_line (start -1.27 -14.17) (end -1.27 -13.77) (layer F.Fab) (width 0.1))
  (fp_line (start -1.27 -13.77) (end -2.555 -13.77) (layer F.Fab) (width 0.1))
  (fp_line (start -2.555 -13.77) (end -2.555 -14.17) (layer F.Fab) (width 0.1))
  (fp_line (start -2.555 -14.17) (end -1.27 -14.17) (layer F.Fab) (width 0.1))
  (fp_line (start 1.27 -14.17) (end 1.27 -13.77) (layer F.Fab) (width 0.1))
  (fp_line (start 1.27 -13.77) (end 2.555 -13.77) (layer F.Fab) (width 0.1))
  (fp_line (start 2.555 -13.77) (end 2.555 -14.17) (layer F.Fab) (width 0.1))
  (fp_line (start 2.555 -14.17) (end 1.27 -14.17) (layer F.Fab) (width 0.1))
  (fp_line (start -1.27 -12.9) (end -1.27 -12.5) (layer F.Fab) (width 0.1))
  (fp_line (start -1.27 -12.5) (end -2.555 -12.5) (layer F.Fab) (width 0.1))
  (fp_line (start -2.555 -12.5) (end -2.555 -12.9) (layer F.Fab) (width 0.1))
  (fp_line (start -2.555 -12.9) (end -1.27 -12.9) (layer F.Fab) (width 0.1))
  (fp_line (start 1.27 -12.9) (end 1.27 -12.5) (layer F.Fab) (width 0.1))
  (fp_line (start 1.27 -12.5) (end 2.555 -12.5) (layer F.Fab) (width 0.1))
  (fp_line (start 2.555 -12.5) (end 2.555 -12.9) (layer F.Fab) (width 0.1))
  (fp_line (start 2.555 -12.9) (end 1.27 -12.9) (layer F.Fab) (width 0.1))
  (fp_line (start -1.27 -11.63) (end -1.27 -11.23) (layer F.Fab) (width 0.1))
  (fp_line (start -1.27 -11.23) (end -2.555 -11.23) (layer F.Fab) (width 0.1))
  (fp_line (start -2.555 -11.23) (end -2.555 -11.63) (layer F.Fab) (width 0.1))
  (fp_line (start -2.555 -11.63) (end -1.27 -11.63) (layer F.Fab) (width 0.1))
  (fp_line (start 1.27 -11.63) (end 1.27 -11.23) (layer F.Fab) (width 0.1))
  (fp_line (start 1.27 -11.23) (end 2.555 -11.23) (layer F.Fab) (width 0.1))
  (fp_line (start 2.555 -11.23) (end 2.555 -11.63) (layer F.Fab) (width 0.1))
  (fp_line (start 2.555 -11.63) (end 1.27 -11.63) (layer F.Fab) (width 0.1))
  (fp_line (start -1.27 -10.36) (end -1.27 -9.96) (layer F.Fab) (width 0.1))
  (fp_line (start -1.27 -9.96) (end -2.555 -9.96) (layer F.Fab) (width 0.1))
  (fp_line (start -2.555 -9.96) (end -2.555 -10.36) (layer F.Fab) (width 0.1))
  (fp_line (start -2.555 -10.36) (end -1.27 -10.36) (layer F.Fab) (width 0.1))
  (fp_line (start 1.27 -10.36) (end 1.27 -9.96) (layer F.Fab) (width 0.1))
  (fp_line (start 1.27 -9.96) (end 2.555 -9.96) (layer F.Fab) (width 0.1))
  (fp_line (start 2.555 -9.96) (end 2.555 -10.36) (layer F.Fab) (width 0.1))
  (fp_line (start 2.555 -10.36) (end 1.27 -10.36) (layer F.Fab) (width 0.1))
  (fp_line (start -1.27 -9.09) (end -1.27 -8.69) (layer F.Fab) (width 0.1))
  (fp_line (start -1.27 -8.69) (end -2.555 -8.69) (layer F.Fab) (width 0.1))
  (fp_line (start -2.555 -8.69) (end -2.555 -9.09) (layer F.Fab) (width 0.1))
  (fp_line (start -2.555 -9.09) (end -1.27 -9.09) (layer F.Fab) (width 0.1))
  (fp_line (start 1.27 -9.09) (end 1.27 -8.69) (layer F.Fab) (width 0.1))
  (fp_line (start 1.27 -8.69) (end 2.555 -8.69) (layer F.Fab) (width 0.1))
  (fp_line (start 2.555 -8.69) (end 2.555 -9.09) (layer F.Fab) (width 0.1))
  (fp_line (start 2.555 -9.09) (end 1.27 -9.09) (layer F.Fab) (width 0.1))
  (fp_line (start -1.27 -7.82) (end -1.27 -7.42) (layer F.Fab) (width 0.1))
  (fp_line (start -1.27 -7.42) (end -2.555 -7.42) (layer F.Fab) (width 0.1))
  (fp_line (start -2.555 -7.42) (end -2.555 -7.82) (layer F.Fab) (width 0.1))
  (fp_line (start -2.555 -7.82) (end -1.27 -7.82) (layer F.Fab) (width 0.1))
  (fp_line (start 1.27 -7.82) (end 1.27 -7.42) (layer F.Fab) (width 0.1))
  (fp_line (start 1.27 -7.42) (end 2.555 -7.42) (layer F.Fab) (width 0.1))
  (fp_line (start 2.555 -7.42) (end 2.555 -7.82) (layer F.Fab) (width 0.1))
  (fp_line (start 2.555 -7.82) (end 1.27 -7.82) (layer F.Fab) (width 0.1))
  (fp_line (start -1.27 -6.55) (end -1.27 -6.15) (layer F.Fab) (width 0.1))
  (fp_line (start -1.27 -6.15) (end -2.555 -6.15) (layer F.Fab) (width 0.1))
  (fp_line (start -2.555 -6.15) (end -2.555 -6.55) (layer F.Fab) (width 0.1))
  (fp_line (start -2.555 -6.55) (end -1.27 -6.55) (layer F.Fab) (width 0.1))
  (fp_line (start 1.27 -6.55) (end 1.27 -6.15) (layer F.Fab) (width 0.1))
  (fp_line (start 1.27 -6.15) (end 2.555 -6.15) (layer F.Fab) (width 0.1))
  (fp_line (start 2.555 -6.15) (end 2.555 -6.55) (layer F.Fab) (width 0.1))
  (fp_line (start 2.555 -6.55) (end 1.27 -6.55) (layer F.Fab) (width 0.1))
  (fp_line (start -1.27 -5.28) (end -1.27 -4.88) (layer F.Fab) (width 0.1))
  (fp_line (start -1.27 -4.88) (end -2.555 -4.88) (layer F.Fab) (width 0.1))
  (fp_line (start -2.555 -4.88) (end -2.555 -5.28) (layer F.Fab) (width 0.1))
  (fp_line (start -2.555 -5.28) (end -1.27 -5.28) (layer F.Fab) (width 0.1))
  (fp_line (start 1.27 -5.28) (end 1.27 -4.88) (layer F.Fab) (width 0.1))
  (fp_line (start 1.27 -4.88) (end 2.555 -4.88) (layer F.Fab) (width 0.1))
  (fp_line (start 2.555 -4.88) (end 2.555 -5.28) (layer F.Fab) (width 0.1))
  (fp_line (start 2.555 -5.28) (end 1.27 -5.28) (layer F.Fab) (width 0.1))
  (fp_line (start -1.27 -4.01) (end -1.27 -3.61) (layer F.Fab) (width 0.1))
  (fp_line (start -1.27 -3.61) (end -2.555 -3.61) (layer F.Fab) (width 0.1))
  (fp_line (start -2.555 -3.61) (end -2.555 -4.01) (layer F.Fab) (width 0.1))
  (fp_line (start -2.555 -4.01) (end -1.27 -4.01) (layer F.Fab) (width 0.1))
  (fp_line (start 1.27 -4.01) (end 1.27 -3.61) (layer F.Fab) (width 0.1))
  (fp_line (start 1.27 -3.61) (end 2.555 -3.61) (layer F.Fab) (width 0.1))
  (fp_line (start 2.555 -3.61) (end 2.555 -4.01) (layer F.Fab) (width 0.1))
  (fp_line (start 2.555 -4.01) (end 1.27 -4.01) (layer F.Fab) (width 0.1))
  (fp_line (start -1.27 -2.74) (end -1.27 -2.34) (layer F.Fab) (width 0.1))
  (fp_line (start -1.27 -2.34) (end -2.555 -2.34) (layer F.Fab) (width 0.1))
  (fp_line (start -2.555 -2.34) (end -2.555 -2.74) (layer F.Fab) (width 0.1))
  (fp_line (start -2.555 -2.74) (end -1.27 -2.74) (layer F.Fab) (width 0.1))
  (fp_line (start 1.27 -2.74) (end 1.27 -2.34) (layer F.Fab) (width 0.1))
  (fp_line (start 1.27 -2.34) (end 2.555 -2.34) (layer F.Fab) (width 0.1))
  (fp_line (start 2.555 -2.34) (end 2.555 -2.74) (layer F.Fab) (width 0.1))
  (fp_line (start 2.555 -2.74) (end 1.27 -2.74) (layer F.Fab) (width 0.1))
  (fp_line (start -1.27 -1.47) (end -1.27 -1.07) (layer F.Fab) (width 0.1))
  (fp_line (start -1.27 -1.07) (end -2.555 -1.07) (layer F.Fab) (width 0.1))
  (fp_line (start -2.555 -1.07) (end -2.555 -1.47) (layer F.Fab) (width 0.1))
  (fp_line (start -2.555 -1.47) (end -1.27 -1.47) (layer F.Fab) (width 0.1))
  (fp_line (start 1.27 -1.47) (end 1.27 -1.07) (layer F.Fab) (width 0.1))
  (fp_line (start 1.27 -1.07) (end 2.555 -1.07) (layer F.Fab) (width 0.1))
  (fp_line (start 2.555 -1.07) (end 2.555 -1.47) (layer F.Fab) (width 0.1))
  (fp_line (start 2.555 -1.47) (end 1.27 -1.47) (layer F.Fab) (width 0.1))
  (fp_line (start -1.27 -0.2) (end -1.27 0.2) (layer F.Fab) (width 0.1))
  (fp_line (start -1.27 0.2) (end -2.555 0.2) (layer F.Fab) (width 0.1))
  (fp_line (start -2.555 0.2) (end -2.555 -0.2) (layer F.Fab) (width 0.1))
  (fp_line (start -2.555 -0.2) (end -1.27 -0.2) (layer F.Fab) (width 0.1))
  (fp_line (start 1.27 -0.2) (end 1.27 0.2) (layer F.Fab) (width 0.1))
  (fp_line (start 1.27 0.2) (end 2.555 0.2) (layer F.Fab) (width 0.1))
  (fp_line (start 2.555 0.2) (end 2.555 -0.2) (layer F.Fab) (width 0.1))
  (fp_line (start 2.555 -0.2) (end 1.27 -0.2) (layer F.Fab) (width 0.1))
  (fp_line (start -1.27 1.07) (end -1.27 1.47) (layer F.Fab) (width 0.1))
  (fp_line (start -1.27 1.47) (end -2.555 1.47) (layer F.Fab) (width 0.1))
  (fp_line (start -2.555 1.47) (end -2.555 1.07) (layer F.Fab) (width 0.1))
  (fp_line (start -2.555 1.07) (end -1.27 1.07) (layer F.Fab) (width 0.1))
  (fp_line (start 1.27 1.07) (end 1.27 1.47) (layer F.Fab) (width 0.1))
  (fp_line (start 1.27 1.47) (end 2.555 1.47) (layer F.Fab) (width 0.1))
  (fp_line (start 2.555 1.47) (end 2.555 1.07) (layer F.Fab) (width 0.1))
  (fp_line (start 2.555 1.07) (end 1.27 1.07) (layer F.Fab) (width 0.1))
  (fp_line (start -1.27 2.34) (end -1.27 2.74) (layer F.Fab) (width 0.1))
  (fp_line (start -1.27 2.74) (end -2.555 2.74) (layer F.Fab) (width 0.1))
  (fp_line (start -2.555 2.74) (end -2.555 2.34) (layer F.Fab) (width 0.1))
  (fp_line (start -2.555 2.34) (end -1.27 2.34) (layer F.Fab) (width 0.1))
  (fp_line (start 1.27 2.34) (end 1.27 2.74) (layer F.Fab) (width 0.1))
  (fp_line (start 1.27 2.74) (end 2.555 2.74) (layer F.Fab) (width 0.1))
  (fp_line (start 2.555 2.74) (end 2.555 2.34) (layer F.Fab) (width 0.1))
  (fp_line (start 2.555 2.34) (end 1.27 2.34) (layer F.Fab) (width 0.1))
  (fp_line (start -1.27 3.61) (end -1.27 4.01) (layer F.Fab) (width 0.1))
  (fp_line (start -1.27 4.01) (end -2.555 4.01) (layer F.Fab) (width 0.1))
  (fp_line (start -2.555 4.01) (end -2.555 3.61) (layer F.Fab) (width 0.1))
  (fp_line (start -2.555 3.61) (end -1.27 3.61) (layer F.Fab) (width 0.1))
  (fp_line (start 1.27 3.61) (end 1.27 4.01) (layer F.Fab) (width 0.1))
  (fp_line (start 1.27 4.01) (end 2.555 4.01) (layer F.Fab) (width 0.1))
  (fp_line (start 2.555 4.01) (end 2.555 3.61) (layer F.Fab) (width 0.1))
  (fp_line (start 2.555 3.61) (end 1.27 3.61) (layer F.Fab) (width 0.1))
  (fp_line (start -1.27 4.88) (end -1.27 5.28) (layer F.Fab) (width 0.1))
  (fp_line (start -1.27 5.28) (end -2.555 5.28) (layer F.Fab) (width 0.1))
  (fp_line (start -2.555 5.28) (end -2.555 4.88) (layer F.Fab) (width 0.1))
  (fp_line (start -2.555 4.88) (end -1.27 4.88) (layer F.Fab) (width 0.1))
  (fp_line (start 1.27 4.88) (end 1.27 5.28) (layer F.Fab) (width 0.1))
  (fp_line (start 1.27 5.28) (end 2.555 5.28) (layer F.Fab) (width 0.1))
  (fp_line (start 2.555 5.28) (end 2.555 4.88) (layer F.Fab) (width 0.1))
  (fp_line (start 2.555 4.88) (end 1.27 4.88) (layer F.Fab) (width 0.1))
  (fp_line (start -1.27 6.15) (end -1.27 6.55) (layer F.Fab) (width 0.1))
  (fp_line (start -1.27 6.55) (end -2.555 6.55) (layer F.Fab) (width 0.1))
  (fp_line (start -2.555 6.55) (end -2.555 6.15) (layer F.Fab) (width 0.1))
  (fp_line (start -2.555 6.15) (end -1.27 6.15) (layer F.Fab) (width 0.1))
  (fp_line (start 1.27 6.15) (end 1.27 6.55) (layer F.Fab) (width 0.1))
  (fp_line (start 1.27 6.55) (end 2.555 6.55) (layer F.Fab) (width 0.1))
  (fp_line (start 2.555 6.55) (end 2.555 6.15) (layer F.Fab) (width 0.1))
  (fp_line (start 2.555 6.15) (end 1.27 6.15) (layer F.Fab) (width 0.1))
  (fp_line (start -1.27 7.42) (end -1.27 7.82) (layer F.Fab) (width 0.1))
  (fp_line (start -1.27 7.82) (end -2.555 7.82) (layer F.Fab) (width 0.1))
  (fp_line (start -2.555 7.82) (end -2.555 7.42) (layer F.Fab) (width 0.1))
  (fp_line (start -2.555 7.42) (end -1.27 7.42) (layer F.Fab) (width 0.1))
  (fp_line (start 1.27 7.42) (end 1.27 7.82) (layer F.Fab) (width 0.1))
  (fp_line (start 1.27 7.82) (end 2.555 7.82) (layer F.Fab) (width 0.1))
  (fp_line (start 2.555 7.82) (end 2.555 7.42) (layer F.Fab) (width 0.1))
  (fp_line (start 2.555 7.42) (end 1.27 7.42) (layer F.Fab) (width 0.1))
  (fp_line (start -1.27 8.69) (end -1.27 9.09) (layer F.Fab) (width 0.1))
  (fp_line (start -1.27 9.09) (end -2.555 9.09) (layer F.Fab) (width 0.1))
  (fp_line (start -2.555 9.09) (end -2.555 8.69) (layer F.Fab) (width 0.1))
  (fp_line (start -2.555 8.69) (end -1.27 8.69) (layer F.Fab) (width 0.1))
  (fp_line (start 1.27 8.69) (end 1.27 9.09) (layer F.Fab) (width 0.1))
  (fp_line (start 1.27 9.09) (end 2.555 9.09) (layer F.Fab) (width 0.1))
  (fp_line (start 2.555 9.09) (end 2.555 8.69) (layer F.Fab) (width 0.1))
  (fp_line (start 2.555 8.69) (end 1.27 8.69) (layer F.Fab) (width 0.1))
  (fp_line (start -1.27 9.96) (end -1.27 10.36) (layer F.Fab) (width 0.1))
  (fp_line (start -1.27 10.36) (end -2.555 10.36) (layer F.Fab) (width 0.1))
  (fp_line (start -2.555 10.36) (end -2.555 9.96) (layer F.Fab) (width 0.1))
  (fp_line (start -2.555 9.96) (end -1.27 9.96) (layer F.Fab) (width 0.1))
  (fp_line (start 1.27 9.96) (end 1.27 10.36) (layer F.Fab) (width 0.1))
  (fp_line (start 1.27 10.36) (end 2.555 10.36) (layer F.Fab) (width 0.1))
  (fp_line (start 2.555 10.36) (end 2.555 9.96) (layer F.Fab) (width 0.1))
  (fp_line (start 2.555 9.96) (end 1.27 9.96) (layer F.Fab) (width 0.1))
  (fp_line (start -1.27 11.23) (end -1.27 11.63) (layer F.Fab) (width 0.1))
  (fp_line (start -1.27 11.63) (end -2.555 11.63) (layer F.Fab) (width 0.1))
  (fp_line (start -2.555 11.63) (end -2.555 11.23) (layer F.Fab) (width 0.1))
  (fp_line (start -2.555 11.23) (end -1.27 11.23) (layer F.Fab) (width 0.1))
  (fp_line (start 1.27 11.23) (end 1.27 11.63) (layer F.Fab) (width 0.1))
  (fp_line (start 1.27 11.63) (end 2.555 11.63) (layer F.Fab) (width 0.1))
  (fp_line (start 2.555 11.63) (end 2.555 11.23) (layer F.Fab) (width 0.1))
  (fp_line (start 2.555 11.23) (end 1.27 11.23) (layer F.Fab) (width 0.1))
  (fp_line (start -1.27 12.5) (end -1.27 12.9) (layer F.Fab) (width 0.1))
  (fp_line (start -1.27 12.9) (end -2.555 12.9) (layer F.Fab) (width 0.1))
  (fp_line (start -2.555 12.9) (end -2.555 12.5) (layer F.Fab) (width 0.1))
  (fp_line (start -2.555 12.5) (end -1.27 12.5) (layer F.Fab) (width 0.1))
  (fp_line (start 1.27 12.5) (end 1.27 12.9) (layer F.Fab) (width 0.1))
  (fp_line (start 1.27 12.9) (end 2.555 12.9) (layer F.Fab) (width 0.1))
  (fp_line (start 2.555 12.9) (end 2.555 12.5) (layer F.Fab) (width 0.1))
  (fp_line (start 2.555 12.5) (end 1.27 12.5) (layer F.Fab) (width 0.1))
  (fp_line (start -1.27 13.77) (end -1.27 14.17) (layer F.Fab) (width 0.1))
  (fp_line (start -1.27 14.17) (end -2.555 14.17) (layer F.Fab) (width 0.1))
  (fp_line (start -2.555 14.17) (end -2.555 13.77) (layer F.Fab) (width 0.1))
  (fp_line (start -2.555 13.77) (end -1.27 13.77) (layer F.Fab) (width 0.1))
  (fp_line (start 1.27 13.77) (end 1.27 14.17) (layer F.Fab) (width 0.1))
  (fp_line (start 1.27 14.17) (end 2.555 14.17) (layer F.Fab) (width 0.1))
  (fp_line (start 2.555 14.17) (end 2.555 13.77) (layer F.Fab) (width 0.1))
  (fp_line (start 2.555 13.77) (end 1.27 13.77) (layer F.Fab) (width 0.1))
  (fp_line (start -1.27 15.04) (end -1.27 15.44) (layer F.Fab) (width 0.1))
  (fp_line (start -1.27 15.44) (end -2.555 15.44) (layer F.Fab) (width 0.1))
  (fp_line (start -2.555 15.44) (end -2.555 15.04) (layer F.Fab) (width 0.1))
  (fp_line (start -2.555 15.04) (end -1.27 15.04) (layer F.Fab) (width 0.1))
  (fp_line (start 1.27 15.04) (end 1.27 15.44) (layer F.Fab) (width 0.1))
  (fp_line (start 1.27 15.44) (end 2.555 15.44) (layer F.Fab) (width 0.1))
  (fp_line (start 2.555 15.44) (end 2.555 15.04) (layer F.Fab) (width 0.1))
  (fp_line (start 2.555 15.04) (end 1.27 15.04) (layer F.Fab) (width 0.1))
  (fp_line (start -1.27 16.31) (end -1.27 16.71) (layer F.Fab) (width 0.1))
  (fp_line (start -1.27 16.71) (end -2.555 16.71) (layer F.Fab) (width 0.1))
  (fp_line (start -2.555 16.71) (end -2.555 16.31) (layer F.Fab) (width 0.1))
  (fp_line (start -2.555 16.31) (end -1.27 16.31) (layer F.Fab) (width 0.1))
  (fp_line (start 1.27 16.31) (end 1.27 16.71) (layer F.Fab) (width 0.1))
  (fp_line (start 1.27 16.71) (end 2.555 16.71) (layer F.Fab) (width 0.1))
  (fp_line (start 2.555 16.71) (end 2.555 16.31) (layer F.Fab) (width 0.1))
  (fp_line (start 2.555 16.31) (end 1.27 16.31) (layer F.Fab) (width 0.1))
  (fp_line (start -1.27 17.58) (end -1.27 17.98) (layer F.Fab) (width 0.1))
  (fp_line (start -1.27 17.98) (end -2.555 17.98) (layer F.Fab) (width 0.1))
  (fp_line (start -2.555 17.98) (end -2.555 17.58) (layer F.Fab) (width 0.1))
  (fp_line (start -2.555 17.58) (end -1.27 17.58) (layer F.Fab) (width 0.1))
  (fp_line (start 1.27 17.58) (end 1.27 17.98) (layer F.Fab) (width 0.1))
  (fp_line (start 1.27 17.98) (end 2.555 17.98) (layer F.Fab) (width 0.1))
  (fp_line (start 2.555 17.98) (end 2.555 17.58) (layer F.Fab) (width 0.1))
  (fp_line (start 2.555 17.58) (end 1.27 17.58) (layer F.Fab) (width 0.1))
  (fp_line (start -1.27 18.85) (end -1.27 19.25) (layer F.Fab) (width 0.1))
  (fp_line (start -1.27 19.25) (end -2.555 19.25) (layer F.Fab) (width 0.1))
  (fp_line (start -2.555 19.25) (end -2.555 18.85) (layer F.Fab) (width 0.1))
  (fp_line (start -2.555 18.85) (end -1.27 18.85) (layer F.Fab) (width 0.1))
  (fp_line (start 1.27 18.85) (end 1.27 19.25) (layer F.Fab) (width 0.1))
  (fp_line (start 1.27 19.25) (end 2.555 19.25) (layer F.Fab) (width 0.1))
  (fp_line (start 2.555 19.25) (end 2.555 18.85) (layer F.Fab) (width 0.1))
  (fp_line (start 2.555 18.85) (end 1.27 18.85) (layer F.Fab) (width 0.1))
  (fp_line (start -1.33 -19.725) (end -1.33 -19.745) (layer F.SilkS) (width 0.12))
  (fp_line (start -1.33 -19.745) (end 1.33 -19.745) (layer F.SilkS) (width 0.12))
  (fp_line (start 1.33 -19.745) (end 1.33 -19.725) (layer F.SilkS) (width 0.12))
  (fp_line (start -1.33 19.725) (end -1.33 19.745) (layer F.SilkS) (width 0.12))
  (fp_line (start -1.33 19.745) (end 1.33 19.745) (layer F.SilkS) (width 0.12))
  (fp_line (start 1.33 19.745) (end 1.33 19.725) (layer F.SilkS) (width 0.12))
  (fp_line (start 3.635 -19.725) (end 1.33 -19.725) (layer F.SilkS) (width 0.12))
  (fp_line (start -3.9 -19.95) (end -3.9 19.95) (layer F.CrtYd) (width 0.05))
  (fp_line (start -3.9 19.95) (end 3.9 19.95) (layer F.CrtYd) (width 0.05))
  (fp_line (start 3.9 19.95) (end 3.9 -19.95) (layer F.CrtYd) (width 0.05))
  (fp_line (start 3.9 -19.95) (end -3.9 -19.95) (layer F.CrtYd) (width 0.05))
  (pad 1 smd rect (at 2.585 -19.05) (size 2.1 0.75) (layers F.Cu F.Mask))
  (pad 2 smd rect (at -2.585 -19.05) (size 2.1 0.75) (layers F.Cu F.Mask))
  (pad 3 smd rect (at 2.585 -17.78) (size 2.1 0.75) (layers F.Cu F.Mask))
  (pad 4 smd rect (at -2.585 -17.78) (size 2.1 0.75) (layers F.Cu F.Mask))
  (pad 5 smd rect (at 2.585 -16.51) (size 2.1 0.75) (layers F.Cu F.Mask))
  (pad 6 smd rect (at -2.585 -16.51) (size 2.1 0.75) (layers F.Cu F.Mask))
  (pad 7 smd rect (at 2.585 -15.24) (size 2.1 0.75) (layers F.Cu F.Mask))
  (pad 8 smd rect (at -2.585 -15.24) (size 2.1 0.75) (layers F.Cu F.Mask))
  (pad 9 smd rect (at 2.585 -13.97) (size 2.1 0.75) (layers F.Cu F.Mask))
  (pad 10 smd rect (at -2.585 -13.97) (size 2.1 0.75) (layers F.Cu F.Mask))
  (pad 11 smd rect (at 2.585 -12.7) (size 2.1 0.75) (layers F.Cu F.Mask))
  (pad 12 smd rect (at -2.585 -12.7) (size 2.1 0.75) (layers F.Cu F.Mask))
  (pad 13 smd rect (at 2.585 -11.43) (size 2.1 0.75) (layers F.Cu F.Mask))
  (pad 14 smd rect (at -2.585 -11.43) (size 2.1 0.75) (layers F.Cu F.Mask))
  (pad 15 smd rect (at 2.585 -10.16) (size 2.1 0.75) (layers F.Cu F.Mask))
  (pad 16 smd rect (at -2.585 -10.16) (size 2.1 0.75) (layers F.Cu F.Mask))
  (pad 17 smd rect (at 2.585 -8.89) (size 2.1 0.75) (layers F.Cu F.Mask))
  (pad 18 smd rect (at -2.585 -8.89) (size 2.1 0.75) (layers F.Cu F.Mask))
  (pad 19 smd rect (at 2.585 -7.62) (size 2.1 0.75) (layers F.Cu F.Mask))
  (pad 20 smd rect (at -2.585 -7.62) (size 2.1 0.75) (layers F.Cu F.Mask))
  (pad 21 smd rect (at 2.585 -6.35) (size 2.1 0.75) (layers F.Cu F.Mask))
  (pad 22 smd rect (at -2.585 -6.35) (size 2.1 0.75) (layers F.Cu F.Mask))
  (pad 23 smd rect (at 2.585 -5.08) (size 2.1 0.75) (layers F.Cu F.Mask))
  (pad 24 smd rect (at -2.585 -5.08) (size 2.1 0.75) (layers F.Cu F.Mask))
  (pad 25 smd rect (at 2.585 -3.81) (size 2.1 0.75) (layers F.Cu F.Mask))
  (pad 26 smd rect (at -2.585 -3.81) (size 2.1 0.75) (layers F.Cu F.Mask))
  (pad 27 smd rect (at 2.585 -2.54) (size 2.1 0.75) (layers F.Cu F.Mask))
  (pad 28 smd rect (at -2.585 -2.54) (size 2.1 0.75) (layers F.Cu F.Mask))
  (pad 29 smd rect (at 2.585 -1.27) (size 2.1 0.75) (layers F.Cu F.Mask))
  (pad 30 smd rect (at -2.585 -1.27) (size 2.1 0.75) (layers F.Cu F.Mask))
  (pad 31 smd rect (at 2.585 0) (size 2.1 0.75) (layers F.Cu F.Mask))
  (pad 32 smd rect (at -2.585 0) (size 2.1 0.75) (layers F.Cu F.Mask))
  (pad 33 smd rect (at 2.585 1.27) (size 2.1 0.75) (layers F.Cu F.Mask))
  (pad 34 smd rect (at -2.585 1.27) (size 2.1 0.75) (layers F.Cu F.Mask))
  (pad 35 smd rect (at 2.585 2.54) (size 2.1 0.75) (layers F.Cu F.Mask))
  (pad 36 smd rect (at -2.585 2.54) (size 2.1 0.75) (layers F.Cu F.Mask))
  (pad 37 smd rect (at 2.585 3.81) (size 2.1 0.75) (layers F.Cu F.Mask))
  (pad 38 smd rect (at -2.585 3.81) (size 2.1 0.75) (layers F.Cu F.Mask))
  (pad 39 smd rect (at 2.585 5.08) (size 2.1 0.75) (layers F.Cu F.Mask))
  (pad 40 smd rect (at -2.585 5.08) (size 2.1 0.75) (layers F.Cu F.Mask))
  (pad 41 smd rect (at 2.585 6.35) (size 2.1 0.75) (layers F.Cu F.Mask))
  (pad 42 smd rect (at -2.585 6.35) (size 2.1 0.75) (layers F.Cu F.Mask))
  (pad 43 smd rect (at 2.585 7.62) (size 2.1 0.75) (layers F.Cu F.Mask))
  (pad 44 smd rect (at -2.585 7.62) (size 2.1 0.75) (layers F.Cu F.Mask))
  (pad 45 smd rect (at 2.585 8.89) (size 2.1 0.75) (layers F.Cu F.Mask))
  (pad 46 smd rect (at -2.585 8.89) (size 2.1 0.75) (layers F.Cu F.Mask))
  (pad 47 smd rect (at 2.585 10.16) (size 2.1 0.75) (layers F.Cu F.Mask))
  (pad 48 smd rect (at -2.585 10.16) (size 2.1 0.75) (layers F.Cu F.Mask))
  (pad 49 smd rect (at 2.585 11.43) (size 2.1 0.75) (layers F.Cu F.Mask))
  (pad 50 smd rect (at -2.585 11.43) (size 2.1 0.75) (layers F.Cu F.Mask))
  (pad 51 smd rect (at 2.585 12.7) (size 2.1 0.75) (layers F.Cu F.Mask))
  (pad 52 smd rect (at -2.585 12.7) (size 2.1 0.75) (layers F.Cu F.Mask))
  (pad 53 smd rect (at 2.585 13.97) (size 2.1 0.75) (layers F.Cu F.Mask))
  (pad 54 smd rect (at -2.585 13.97) (size 2.1 0.75) (layers F.Cu F.Mask))
  (pad 55 smd rect (at 2.585 15.24) (size 2.1 0.75) (layers F.Cu F.Mask))
  (pad 56 smd rect (at -2.585 15.24) (size 2.1 0.75) (layers F.Cu F.Mask))
  (pad 57 smd rect (at 2.585 16.51) (size 2.1 0.75) (layers F.Cu F.Mask))
  (pad 58 smd rect (at -2.585 16.51) (size 2.1 0.75) (layers F.Cu F.Mask))
  (pad 59 smd rect (at 2.585 17.78) (size 2.1 0.75) (layers F.Cu F.Mask))
  (pad 60 smd rect (at -2.585 17.78) (size 2.1 0.75) (layers F.Cu F.Mask))
  (pad 61 smd rect (at 2.585 19.05) (size 2.1 0.75) (layers F.Cu F.Mask))
  (pad 62 smd rect (at -2.585 19.05) (size 2.1 0.75) (layers F.Cu F.Mask))
  (model Socket_Strips.3dshapes/Socket_Strip_Straight_2x31_Pitch1.27mm_SMD.wrl
    (at (xyz 0 0 0))
    (scale (xyz 1 1 1))
    (rotate (xyz 0 0 0))
  )
)