(module Socket_Strip_Angled_2x26_Pitch2.54mm (layer F.Cu) (tedit 588DE959)
  (descr "Through hole angled socket strip, 2x26, 2.54mm pitch, 8.51mm socket length, double rows")
  (tags "Through hole angled socket strip THT 2x26 2.54mm double row")
  (fp_text reference REF** (at -5.65 -2.27) (layer F.SilkS)
    (effects (font (size 1 1) (thickness 0.15)))
  )
  (fp_text value Socket_Strip_Angled_2x26_Pitch2.54mm (at -5.65 65.77) (layer F.Fab)
    (effects (font (size 1 1) (thickness 0.15)))
  )
  (fp_line (start -4.06 -1.27) (end -4.06 1.27) (layer F.Fab) (width 0.1))
  (fp_line (start -4.06 1.27) (end -12.57 1.27) (layer F.Fab) (width 0.1))
  (fp_line (start -12.57 1.27) (end -12.57 -1.27) (layer F.Fab) (width 0.1))
  (fp_line (start -12.57 -1.27) (end -4.06 -1.27) (layer F.Fab) (width 0.1))
  (fp_line (start 0 -0.32) (end 0 0.32) (layer F.Fab) (width 0.1))
  (fp_line (start 0 0.32) (end -4.06 0.32) (layer F.Fab) (width 0.1))
  (fp_line (start -4.06 0.32) (end -4.06 -0.32) (layer F.Fab) (width 0.1))
  (fp_line (start -4.06 -0.32) (end 0 -0.32) (layer F.Fab) (width 0.1))
  (fp_line (start -4.06 1.27) (end -4.06 3.81) (layer F.Fab) (width 0.1))
  (fp_line (start -4.06 3.81) (end -12.57 3.81) (layer F.Fab) (width 0.1))
  (fp_line (start -12.57 3.81) (end -12.57 1.27) (layer F.Fab) (width 0.1))
  (fp_line (start -12.57 1.27) (end -4.06 1.27) (layer F.Fab) (width 0.1))
  (fp_line (start 0 2.22) (end 0 2.86) (layer F.Fab) (width 0.1))
  (fp_line (start 0 2.86) (end -4.06 2.86) (layer F.Fab) (width 0.1))
  (fp_line (start -4.06 2.86) (end -4.06 2.22) (layer F.Fab) (width 0.1))
  (fp_line (start -4.06 2.22) (end 0 2.22) (layer F.Fab) (width 0.1))
  (fp_line (start -4.06 3.81) (end -4.06 6.35) (layer F.Fab) (width 0.1))
  (fp_line (start -4.06 6.35) (end -12.57 6.35) (layer F.Fab) (width 0.1))
  (fp_line (start -12.57 6.35) (end -12.57 3.81) (layer F.Fab) (width 0.1))
  (fp_line (start -12.57 3.81) (end -4.06 3.81) (layer F.Fab) (width 0.1))
  (fp_line (start 0 4.76) (end 0 5.4) (layer F.Fab) (width 0.1))
  (fp_line (start 0 5.4) (end -4.06 5.4) (layer F.Fab) (width 0.1))
  (fp_line (start -4.06 5.4) (end -4.06 4.76) (layer F.Fab) (width 0.1))
  (fp_line (start -4.06 4.76) (end 0 4.76) (layer F.Fab) (width 0.1))
  (fp_line (start -4.06 6.35) (end -4.06 8.89) (layer F.Fab) (width 0.1))
  (fp_line (start -4.06 8.89) (end -12.57 8.89) (layer F.Fab) (width 0.1))
  (fp_line (start -12.57 8.89) (end -12.57 6.35) (layer F.Fab) (width 0.1))
  (fp_line (start -12.57 6.35) (end -4.06 6.35) (layer F.Fab) (width 0.1))
  (fp_line (start 0 7.3) (end 0 7.94) (layer F.Fab) (width 0.1))
  (fp_line (start 0 7.94) (end -4.06 7.94) (layer F.Fab) (width 0.1))
  (fp_line (start -4.06 7.94) (end -4.06 7.3) (layer F.Fab) (width 0.1))
  (fp_line (start -4.06 7.3) (end 0 7.3) (layer F.Fab) (width 0.1))
  (fp_line (start -4.06 8.89) (end -4.06 11.43) (layer F.Fab) (width 0.1))
  (fp_line (start -4.06 11.43) (end -12.57 11.43) (layer F.Fab) (width 0.1))
  (fp_line (start -12.57 11.43) (end -12.57 8.89) (layer F.Fab) (width 0.1))
  (fp_line (start -12.57 8.89) (end -4.06 8.89) (layer F.Fab) (width 0.1))
  (fp_line (start 0 9.84) (end 0 10.48) (layer F.Fab) (width 0.1))
  (fp_line (start 0 10.48) (end -4.06 10.48) (layer F.Fab) (width 0.1))
  (fp_line (start -4.06 10.48) (end -4.06 9.84) (layer F.Fab) (width 0.1))
  (fp_line (start -4.06 9.84) (end 0 9.84) (layer F.Fab) (width 0.1))
  (fp_line (start -4.06 11.43) (end -4.06 13.97) (layer F.Fab) (width 0.1))
  (fp_line (start -4.06 13.97) (end -12.57 13.97) (layer F.Fab) (width 0.1))
  (fp_line (start -12.57 13.97) (end -12.57 11.43) (layer F.Fab) (width 0.1))
  (fp_line (start -12.57 11.43) (end -4.06 11.43) (layer F.Fab) (width 0.1))
  (fp_line (start 0 12.38) (end 0 13.02) (layer F.Fab) (width 0.1))
  (fp_line (start 0 13.02) (end -4.06 13.02) (layer F.Fab) (width 0.1))
  (fp_line (start -4.06 13.02) (end -4.06 12.38) (layer F.Fab) (width 0.1))
  (fp_line (start -4.06 12.38) (end 0 12.38) (layer F.Fab) (width 0.1))
  (fp_line (start -4.06 13.97) (end -4.06 16.51) (layer F.Fab) (width 0.1))
  (fp_line (start -4.06 16.51) (end -12.57 16.51) (layer F.Fab) (width 0.1))
  (fp_line (start -12.57 16.51) (end -12.57 13.97) (layer F.Fab) (width 0.1))
  (fp_line (start -12.57 13.97) (end -4.06 13.97) (layer F.Fab) (width 0.1))
  (fp_line (start 0 14.92) (end 0 15.56) (layer F.Fab) (width 0.1))
  (fp_line (start 0 15.56) (end -4.06 15.56) (layer F.Fab) (width 0.1))
  (fp_line (start -4.06 15.56) (end -4.06 14.92) (layer F.Fab) (width 0.1))
  (fp_line (start -4.06 14.92) (end 0 14.92) (layer F.Fab) (width 0.1))
  (fp_line (start -4.06 16.51) (end -4.06 19.05) (layer F.Fab) (width 0.1))
  (fp_line (start -4.06 19.05) (end -12.57 19.05) (layer F.Fab) (width 0.1))
  (fp_line (start -12.57 19.05) (end -12.57 16.51) (layer F.Fab) (width 0.1))
  (fp_line (start -12.57 16.51) (end -4.06 16.51) (layer F.Fab) (width 0.1))
  (fp_line (start 0 17.46) (end 0 18.1) (layer F.Fab) (width 0.1))
  (fp_line (start 0 18.1) (end -4.06 18.1) (layer F.Fab) (width 0.1))
  (fp_line (start -4.06 18.1) (end -4.06 17.46) (layer F.Fab) (width 0.1))
  (fp_line (start -4.06 17.46) (end 0 17.46) (layer F.Fab) (width 0.1))
  (fp_line (start -4.06 19.05) (end -4.06 21.59) (layer F.Fab) (width 0.1))
  (fp_line (start -4.06 21.59) (end -12.57 21.59) (layer F.Fab) (width 0.1))
  (fp_line (start -12.57 21.59) (end -12.57 19.05) (layer F.Fab) (width 0.1))
  (fp_line (start -12.57 19.05) (end -4.06 19.05) (layer F.Fab) (width 0.1))
  (fp_line (start 0 20) (end 0 20.64) (layer F.Fab) (width 0.1))
  (fp_line (start 0 20.64) (end -4.06 20.64) (layer F.Fab) (width 0.1))
  (fp_line (start -4.06 20.64) (end -4.06 20) (layer F.Fab) (width 0.1))
  (fp_line (start -4.06 20) (end 0 20) (layer F.Fab) (width 0.1))
  (fp_line (start -4.06 21.59) (end -4.06 24.13) (layer F.Fab) (width 0.1))
  (fp_line (start -4.06 24.13) (end -12.57 24.13) (layer F.Fab) (width 0.1))
  (fp_line (start -12.57 24.13) (end -12.57 21.59) (layer F.Fab) (width 0.1))
  (fp_line (start -12.57 21.59) (end -4.06 21.59) (layer F.Fab) (width 0.1))
  (fp_line (start 0 22.54) (end 0 23.18) (layer F.Fab) (width 0.1))
  (fp_line (start 0 23.18) (end -4.06 23.18) (layer F.Fab) (width 0.1))
  (fp_line (start -4.06 23.18) (end -4.06 22.54) (layer F.Fab) (width 0.1))
  (fp_line (start -4.06 22.54) (end 0 22.54) (layer F.Fab) (width 0.1))
  (fp_line (start -4.06 24.13) (end -4.06 26.67) (layer F.Fab) (width 0.1))
  (fp_line (start -4.06 26.67) (end -12.57 26.67) (layer F.Fab) (width 0.1))
  (fp_line (start -12.57 26.67) (end -12.57 24.13) (layer F.Fab) (width 0.1))
  (fp_line (start -12.57 24.13) (end -4.06 24.13) (layer F.Fab) (width 0.1))
  (fp_line (start 0 25.08) (end 0 25.72) (layer F.Fab) (width 0.1))
  (fp_line (start 0 25.72) (end -4.06 25.72) (layer F.Fab) (width 0.1))
  (fp_line (start -4.06 25.72) (end -4.06 25.08) (layer F.Fab) (width 0.1))
  (fp_line (start -4.06 25.08) (end 0 25.08) (layer F.Fab) (width 0.1))
  (fp_line (start -4.06 26.67) (end -4.06 29.21) (layer F.Fab) (width 0.1))
  (fp_line (start -4.06 29.21) (end -12.57 29.21) (layer F.Fab) (width 0.1))
  (fp_line (start -12.57 29.21) (end -12.57 26.67) (layer F.Fab) (width 0.1))
  (fp_line (start -12.57 26.67) (end -4.06 26.67) (layer F.Fab) (width 0.1))
  (fp_line (start 0 27.62) (end 0 28.26) (layer F.Fab) (width 0.1))
  (fp_line (start 0 28.26) (end -4.06 28.26) (layer F.Fab) (width 0.1))
  (fp_line (start -4.06 28.26) (end -4.06 27.62) (layer F.Fab) (width 0.1))
  (fp_line (start -4.06 27.62) (end 0 27.62) (layer F.Fab) (width 0.1))
  (fp_line (start -4.06 29.21) (end -4.06 31.75) (layer F.Fab) (width 0.1))
  (fp_line (start -4.06 31.75) (end -12.57 31.75) (layer F.Fab) (width 0.1))
  (fp_line (start -12.57 31.75) (end -12.57 29.21) (layer F.Fab) (width 0.1))
  (fp_line (start -12.57 29.21) (end -4.06 29.21) (layer F.Fab) (width 0.1))
  (fp_line (start 0 30.16) (end 0 30.8) (layer F.Fab) (width 0.1))
  (fp_line (start 0 30.8) (end -4.06 30.8) (layer F.Fab) (width 0.1))
  (fp_line (start -4.06 30.8) (end -4.06 30.16) (layer F.Fab) (width 0.1))
  (fp_line (start -4.06 30.16) (end 0 30.16) (layer F.Fab) (width 0.1))
  (fp_line (start -4.06 31.75) (end -4.06 34.29) (layer F.Fab) (width 0.1))
  (fp_line (start -4.06 34.29) (end -12.57 34.29) (layer F.Fab) (width 0.1))
  (fp_line (start -12.57 34.29) (end -12.57 31.75) (layer F.Fab) (width 0.1))
  (fp_line (start -12.57 31.75) (end -4.06 31.75) (layer F.Fab) (width 0.1))
  (fp_line (start 0 32.7) (end 0 33.34) (layer F.Fab) (width 0.1))
  (fp_line (start 0 33.34) (end -4.06 33.34) (layer F.Fab) (width 0.1))
  (fp_line (start -4.06 33.34) (end -4.06 32.7) (layer F.Fab) (width 0.1))
  (fp_line (start -4.06 32.7) (end 0 32.7) (layer F.Fab) (width 0.1))
  (fp_line (start -4.06 34.29) (end -4.06 36.83) (layer F.Fab) (width 0.1))
  (fp_line (start -4.06 36.83) (end -12.57 36.83) (layer F.Fab) (width 0.1))
  (fp_line (start -12.57 36.83) (end -12.57 34.29) (layer F.Fab) (width 0.1))
  (fp_line (start -12.57 34.29) (end -4.06 34.29) (layer F.Fab) (width 0.1))
  (fp_line (start 0 35.24) (end 0 35.88) (layer F.Fab) (width 0.1))
  (fp_line (start 0 35.88) (end -4.06 35.88) (layer F.Fab) (width 0.1))
  (fp_line (start -4.06 35.88) (end -4.06 35.24) (layer F.Fab) (width 0.1))
  (fp_line (start -4.06 35.24) (end 0 35.24) (layer F.Fab) (width 0.1))
  (fp_line (start -4.06 36.83) (end -4.06 39.37) (layer F.Fab) (width 0.1))
  (fp_line (start -4.06 39.37) (end -12.57 39.37) (layer F.Fab) (width 0.1))
  (fp_line (start -12.57 39.37) (end -12.57 36.83) (layer F.Fab) (width 0.1))
  (fp_line (start -12.57 36.83) (end -4.06 36.83) (layer F.Fab) (width 0.1))
  (fp_line (start 0 37.78) (end 0 38.42) (layer F.Fab) (width 0.1))
  (fp_line (start 0 38.42) (end -4.06 38.42) (layer F.Fab) (width 0.1))
  (fp_line (start -4.06 38.42) (end -4.06 37.78) (layer F.Fab) (width 0.1))
  (fp_line (start -4.06 37.78) (end 0 37.78) (layer F.Fab) (width 0.1))
  (fp_line (start -4.06 39.37) (end -4.06 41.91) (layer F.Fab) (width 0.1))
  (fp_line (start -4.06 41.91) (end -12.57 41.91) (layer F.Fab) (width 0.1))
  (fp_line (start -12.57 41.91) (end -12.57 39.37) (layer F.Fab) (width 0.1))
  (fp_line (start -12.57 39.37) (end -4.06 39.37) (layer F.Fab) (width 0.1))
  (fp_line (start 0 40.32) (end 0 40.96) (layer F.Fab) (width 0.1))
  (fp_line (start 0 40.96) (end -4.06 40.96) (layer F.Fab) (width 0.1))
  (fp_line (start -4.06 40.96) (end -4.06 40.32) (layer F.Fab) (width 0.1))
  (fp_line (start -4.06 40.32) (end 0 40.32) (layer F.Fab) (width 0.1))
  (fp_line (start -4.06 41.91) (end -4.06 44.45) (layer F.Fab) (width 0.1))
  (fp_line (start -4.06 44.45) (end -12.57 44.45) (layer F.Fab) (width 0.1))
  (fp_line (start -12.57 44.45) (end -12.57 41.91) (layer F.Fab) (width 0.1))
  (fp_line (start -12.57 41.91) (end -4.06 41.91) (layer F.Fab) (width 0.1))
  (fp_line (start 0 42.86) (end 0 43.5) (layer F.Fab) (width 0.1))
  (fp_line (start 0 43.5) (end -4.06 43.5) (layer F.Fab) (width 0.1))
  (fp_line (start -4.06 43.5) (end -4.06 42.86) (layer F.Fab) (width 0.1))
  (fp_line (start -4.06 42.86) (end 0 42.86) (layer F.Fab) (width 0.1))
  (fp_line (start -4.06 44.45) (end -4.06 46.99) (layer F.Fab) (width 0.1))
  (fp_line (start -4.06 46.99) (end -12.57 46.99) (layer F.Fab) (width 0.1))
  (fp_line (start -12.57 46.99) (end -12.57 44.45) (layer F.Fab) (width 0.1))
  (fp_line (start -12.57 44.45) (end -4.06 44.45) (layer F.Fab) (width 0.1))
  (fp_line (start 0 45.4) (end 0 46.04) (layer F.Fab) (width 0.1))
  (fp_line (start 0 46.04) (end -4.06 46.04) (layer F.Fab) (width 0.1))
  (fp_line (start -4.06 46.04) (end -4.06 45.4) (layer F.Fab) (width 0.1))
  (fp_line (start -4.06 45.4) (end 0 45.4) (layer F.Fab) (width 0.1))
  (fp_line (start -4.06 46.99) (end -4.06 49.53) (layer F.Fab) (width 0.1))
  (fp_line (start -4.06 49.53) (end -12.57 49.53) (layer F.Fab) (width 0.1))
  (fp_line (start -12.57 49.53) (end -12.57 46.99) (layer F.Fab) (width 0.1))
  (fp_line (start -12.57 46.99) (end -4.06 46.99) (layer F.Fab) (width 0.1))
  (fp_line (start 0 47.94) (end 0 48.58) (layer F.Fab) (width 0.1))
  (fp_line (start 0 48.58) (end -4.06 48.58) (layer F.Fab) (width 0.1))
  (fp_line (start -4.06 48.58) (end -4.06 47.94) (layer F.Fab) (width 0.1))
  (fp_line (start -4.06 47.94) (end 0 47.94) (layer F.Fab) (width 0.1))
  (fp_line (start -4.06 49.53) (end -4.06 52.07) (layer F.Fab) (width 0.1))
  (fp_line (start -4.06 52.07) (end -12.57 52.07) (layer F.Fab) (width 0.1))
  (fp_line (start -12.57 52.07) (end -12.57 49.53) (layer F.Fab) (width 0.1))
  (fp_line (start -12.57 49.53) (end -4.06 49.53) (layer F.Fab) (width 0.1))
  (fp_line (start 0 50.48) (end 0 51.12) (layer F.Fab) (width 0.1))
  (fp_line (start 0 51.12) (end -4.06 51.12) (layer F.Fab) (width 0.1))
  (fp_line (start -4.06 51.12) (end -4.06 50.48) (layer F.Fab) (width 0.1))
  (fp_line (start -4.06 50.48) (end 0 50.48) (layer F.Fab) (width 0.1))
  (fp_line (start -4.06 52.07) (end -4.06 54.61) (layer F.Fab) (width 0.1))
  (fp_line (start -4.06 54.61) (end -12.57 54.61) (layer F.Fab) (width 0.1))
  (fp_line (start -12.57 54.61) (end -12.57 52.07) (layer F.Fab) (width 0.1))
  (fp_line (start -12.57 52.07) (end -4.06 52.07) (layer F.Fab) (width 0.1))
  (fp_line (start 0 53.02) (end 0 53.66) (layer F.Fab) (width 0.1))
  (fp_line (start 0 53.66) (end -4.06 53.66) (layer F.Fab) (width 0.1))
  (fp_line (start -4.06 53.66) (end -4.06 53.02) (layer F.Fab) (width 0.1))
  (fp_line (start -4.06 53.02) (end 0 53.02) (layer F.Fab) (width 0.1))
  (fp_line (start -4.06 54.61) (end -4.06 57.15) (layer F.Fab) (width 0.1))
  (fp_line (start -4.06 57.15) (end -12.57 57.15) (layer F.Fab) (width 0.1))
  (fp_line (start -12.57 57.15) (end -12.57 54.61) (layer F.Fab) (width 0.1))
  (fp_line (start -12.57 54.61) (end -4.06 54.61) (layer F.Fab) (width 0.1))
  (fp_line (start 0 55.56) (end 0 56.2) (layer F.Fab) (width 0.1))
  (fp_line (start 0 56.2) (end -4.06 56.2) (layer F.Fab) (width 0.1))
  (fp_line (start -4.06 56.2) (end -4.06 55.56) (layer F.Fab) (width 0.1))
  (fp_line (start -4.06 55.56) (end 0 55.56) (layer F.Fab) (width 0.1))
  (fp_line (start -4.06 57.15) (end -4.06 59.69) (layer F.Fab) (width 0.1))
  (fp_line (start -4.06 59.69) (end -12.57 59.69) (layer F.Fab) (width 0.1))
  (fp_line (start -12.57 59.69) (end -12.57 57.15) (layer F.Fab) (width 0.1))
  (fp_line (start -12.57 57.15) (end -4.06 57.15) (layer F.Fab) (width 0.1))
  (fp_line (start 0 58.1) (end 0 58.74) (layer F.Fab) (width 0.1))
  (fp_line (start 0 58.74) (end -4.06 58.74) (layer F.Fab) (width 0.1))
  (fp_line (start -4.06 58.74) (end -4.06 58.1) (layer F.Fab) (width 0.1))
  (fp_line (start -4.06 58.1) (end 0 58.1) (layer F.Fab) (width 0.1))
  (fp_line (start -4.06 59.69) (end -4.06 62.23) (layer F.Fab) (width 0.1))
  (fp_line (start -4.06 62.23) (end -12.57 62.23) (layer F.Fab) (width 0.1))
  (fp_line (start -12.57 62.23) (end -12.57 59.69) (layer F.Fab) (width 0.1))
  (fp_line (start -12.57 59.69) (end -4.06 59.69) (layer F.Fab) (width 0.1))
  (fp_line (start 0 60.64) (end 0 61.28) (layer F.Fab) (width 0.1))
  (fp_line (start 0 61.28) (end -4.06 61.28) (layer F.Fab) (width 0.1))
  (fp_line (start -4.06 61.28) (end -4.06 60.64) (layer F.Fab) (width 0.1))
  (fp_line (start -4.06 60.64) (end 0 60.64) (layer F.Fab) (width 0.1))
  (fp_line (start -4.06 62.23) (end -4.06 64.77) (layer F.Fab) (width 0.1))
  (fp_line (start -4.06 64.77) (end -12.57 64.77) (layer F.Fab) (width 0.1))
  (fp_line (start -12.57 64.77) (end -12.57 62.23) (layer F.Fab) (width 0.1))
  (fp_line (start -12.57 62.23) (end -4.06 62.23) (layer F.Fab) (width 0.1))
  (fp_line (start 0 63.18) (end 0 63.82) (layer F.Fab) (width 0.1))
  (fp_line (start 0 63.82) (end -4.06 63.82) (layer F.Fab) (width 0.1))
  (fp_line (start -4.06 63.82) (end -4.06 63.18) (layer F.Fab) (width 0.1))
  (fp_line (start -4.06 63.18) (end 0 63.18) (layer F.Fab) (width 0.1))
  (fp_line (start -4 -1.33) (end -4 1.27) (layer F.SilkS) (width 0.12))
  (fp_line (start -4 1.27) (end -12.63 1.27) (layer F.SilkS) (width 0.12))
  (fp_line (start -12.63 1.27) (end -12.63 -1.33) (layer F.SilkS) (width 0.12))
  (fp_line (start -12.63 -1.33) (end -4 -1.33) (layer F.SilkS) (width 0.12))
  (fp_line (start -3.57 -0.38) (end -4 -0.38) (layer F.SilkS) (width 0.12))
  (fp_line (start -3.57 0.38) (end -4 0.38) (layer F.SilkS) (width 0.12))
  (fp_line (start -1.03 -0.38) (end -1.51 -0.38) (layer F.SilkS) (width 0.12))
  (fp_line (start -1.03 0.38) (end -1.51 0.38) (layer F.SilkS) (width 0.12))
  (fp_line (start -4 -1.15) (end -12.63 -1.15) (layer F.SilkS) (width 0.12))
  (fp_line (start -4 -1.03) (end -12.63 -1.03) (layer F.SilkS) (width 0.12))
  (fp_line (start -4 -0.91) (end -12.63 -0.91) (layer F.SilkS) (width 0.12))
  (fp_line (start -4 -0.79) (end -12.63 -0.79) (layer F.SilkS) (width 0.12))
  (fp_line (start -4 -0.67) (end -12.63 -0.67) (layer F.SilkS) (width 0.12))
  (fp_line (start -4 -0.55) (end -12.63 -0.55) (layer F.SilkS) (width 0.12))
  (fp_line (start -4 -0.43) (end -12.63 -0.43) (layer F.SilkS) (width 0.12))
  (fp_line (start -4 -0.31) (end -12.63 -0.31) (layer F.SilkS) (width 0.12))
  (fp_line (start -4 -0.19) (end -12.63 -0.19) (layer F.SilkS) (width 0.12))
  (fp_line (start -4 -0.07) (end -12.63 -0.07) (layer F.SilkS) (width 0.12))
  (fp_line (start -4 0.05) (end -12.63 0.05) (layer F.SilkS) (width 0.12))
  (fp_line (start -4 0.17) (end -12.63 0.17) (layer F.SilkS) (width 0.12))
  (fp_line (start -4 0.29) (end -12.63 0.29) (layer F.SilkS) (width 0.12))
  (fp_line (start -4 0.41) (end -12.63 0.41) (layer F.SilkS) (width 0.12))
  (fp_line (start -4 0.53) (end -12.63 0.53) (layer F.SilkS) (width 0.12))
  (fp_line (start -4 0.65) (end -12.63 0.65) (layer F.SilkS) (width 0.12))
  (fp_line (start -4 0.77) (end -12.63 0.77) (layer F.SilkS) (width 0.12))
  (fp_line (start -4 0.89) (end -12.63 0.89) (layer F.SilkS) (width 0.12))
  (fp_line (start -4 1.01) (end -12.63 1.01) (layer F.SilkS) (width 0.12))
  (fp_line (start -4 1.13) (end -12.63 1.13) (layer F.SilkS) (width 0.12))
  (fp_line (start -4 1.25) (end -12.63 1.25) (layer F.SilkS) (width 0.12))
  (fp_line (start -4 1.37) (end -12.63 1.37) (layer F.SilkS) (width 0.12))
  (fp_line (start -4 1.27) (end -4 3.81) (layer F.SilkS) (width 0.12))
  (fp_line (start -4 3.81) (end -12.63 3.81) (layer F.SilkS) (width 0.12))
  (fp_line (start -12.63 3.81) (end -12.63 1.27) (layer F.SilkS) (width 0.12))
  (fp_line (start -12.63 1.27) (end -4 1.27) (layer F.SilkS) (width 0.12))
  (fp_line (start -3.57 2.16) (end -4 2.16) (layer F.SilkS) (width 0.12))
  (fp_line (start -3.57 2.92) (end -4 2.92) (layer F.SilkS) (width 0.12))
  (fp_line (start -1.03 2.16) (end -1.51 2.16) (layer F.SilkS) (width 0.12))
  (fp_line (start -1.03 2.92) (end -1.51 2.92) (layer F.SilkS) (width 0.12))
  (fp_line (start -4 3.81) (end -4 6.35) (layer F.SilkS) (width 0.12))
  (fp_line (start -4 6.35) (end -12.63 6.35) (layer F.SilkS) (width 0.12))
  (fp_line (start -12.63 6.35) (end -12.63 3.81) (layer F.SilkS) (width 0.12))
  (fp_line (start -12.63 3.81) (end -4 3.81) (layer F.SilkS) (width 0.12))
  (fp_line (start -3.57 4.7) (end -4 4.7) (layer F.SilkS) (width 0.12))
  (fp_line (start -3.57 5.46) (end -4 5.46) (layer F.SilkS) (width 0.12))
  (fp_line (start -1.03 4.7) (end -1.51 4.7) (layer F.SilkS) (width 0.12))
  (fp_line (start -1.03 5.46) (end -1.51 5.46) (layer F.SilkS) (width 0.12))
  (fp_line (start -4 6.35) (end -4 8.89) (layer F.SilkS) (width 0.12))
  (fp_line (start -4 8.89) (end -12.63 8.89) (layer F.SilkS) (width 0.12))
  (fp_line (start -12.63 8.89) (end -12.63 6.35) (layer F.SilkS) (width 0.12))
  (fp_line (start -12.63 6.35) (end -4 6.35) (layer F.SilkS) (width 0.12))
  (fp_line (start -3.57 7.24) (end -4 7.24) (layer F.SilkS) (width 0.12))
  (fp_line (start -3.57 8) (end -4 8) (layer F.SilkS) (width 0.12))
  (fp_line (start -1.03 7.24) (end -1.51 7.24) (layer F.SilkS) (width 0.12))
  (fp_line (start -1.03 8) (end -1.51 8) (layer F.SilkS) (width 0.12))
  (fp_line (start -4 8.89) (end -4 11.43) (layer F.SilkS) (width 0.12))
  (fp_line (start -4 11.43) (end -12.63 11.43) (layer F.SilkS) (width 0.12))
  (fp_line (start -12.63 11.43) (end -12.63 8.89) (layer F.SilkS) (width 0.12))
  (fp_line (start -12.63 8.89) (end -4 8.89) (layer F.SilkS) (width 0.12))
  (fp_line (start -3.57 9.78) (end -4 9.78) (layer F.SilkS) (width 0.12))
  (fp_line (start -3.57 10.54) (end -4 10.54) (layer F.SilkS) (width 0.12))
  (fp_line (start -1.03 9.78) (end -1.51 9.78) (layer F.SilkS) (width 0.12))
  (fp_line (start -1.03 10.54) (end -1.51 10.54) (layer F.SilkS) (width 0.12))
  (fp_line (start -4 11.43) (end -4 13.97) (layer F.SilkS) (width 0.12))
  (fp_line (start -4 13.97) (end -12.63 13.97) (layer F.SilkS) (width 0.12))
  (fp_line (start -12.63 13.97) (end -12.63 11.43) (layer F.SilkS) (width 0.12))
  (fp_line (start -12.63 11.43) (end -4 11.43) (layer F.SilkS) (width 0.12))
  (fp_line (start -3.57 12.32) (end -4 12.32) (layer F.SilkS) (width 0.12))
  (fp_line (start -3.57 13.08) (end -4 13.08) (layer F.SilkS) (width 0.12))
  (fp_line (start -1.03 12.32) (end -1.51 12.32) (layer F.SilkS) (width 0.12))
  (fp_line (start -1.03 13.08) (end -1.51 13.08) (layer F.SilkS) (width 0.12))
  (fp_line (start -4 13.97) (end -4 16.51) (layer F.SilkS) (width 0.12))
  (fp_line (start -4 16.51) (end -12.63 16.51) (layer F.SilkS) (width 0.12))
  (fp_line (start -12.63 16.51) (end -12.63 13.97) (layer F.SilkS) (width 0.12))
  (fp_line (start -12.63 13.97) (end -4 13.97) (layer F.SilkS) (width 0.12))
  (fp_line (start -3.57 14.86) (end -4 14.86) (layer F.SilkS) (width 0.12))
  (fp_line (start -3.57 15.62) (end -4 15.62) (layer F.SilkS) (width 0.12))
  (fp_line (start -1.03 14.86) (end -1.51 14.86) (layer F.SilkS) (width 0.12))
  (fp_line (start -1.03 15.62) (end -1.51 15.62) (layer F.SilkS) (width 0.12))
  (fp_line (start -4 16.51) (end -4 19.05) (layer F.SilkS) (width 0.12))
  (fp_line (start -4 19.05) (end -12.63 19.05) (layer F.SilkS) (width 0.12))
  (fp_line (start -12.63 19.05) (end -12.63 16.51) (layer F.SilkS) (width 0.12))
  (fp_line (start -12.63 16.51) (end -4 16.51) (layer F.SilkS) (width 0.12))
  (fp_line (start -3.57 17.4) (end -4 17.4) (layer F.SilkS) (width 0.12))
  (fp_line (start -3.57 18.16) (end -4 18.16) (layer F.SilkS) (width 0.12))
  (fp_line (start -1.03 17.4) (end -1.51 17.4) (layer F.SilkS) (width 0.12))
  (fp_line (start -1.03 18.16) (end -1.51 18.16) (layer F.SilkS) (width 0.12))
  (fp_line (start -4 19.05) (end -4 21.59) (layer F.SilkS) (width 0.12))
  (fp_line (start -4 21.59) (end -12.63 21.59) (layer F.SilkS) (width 0.12))
  (fp_line (start -12.63 21.59) (end -12.63 19.05) (layer F.SilkS) (width 0.12))
  (fp_line (start -12.63 19.05) (end -4 19.05) (layer F.SilkS) (width 0.12))
  (fp_line (start -3.57 19.94) (end -4 19.94) (layer F.SilkS) (width 0.12))
  (fp_line (start -3.57 20.7) (end -4 20.7) (layer F.SilkS) (width 0.12))
  (fp_line (start -1.03 19.94) (end -1.51 19.94) (layer F.SilkS) (width 0.12))
  (fp_line (start -1.03 20.7) (end -1.51 20.7) (layer F.SilkS) (width 0.12))
  (fp_line (start -4 21.59) (end -4 24.13) (layer F.SilkS) (width 0.12))
  (fp_line (start -4 24.13) (end -12.63 24.13) (layer F.SilkS) (width 0.12))
  (fp_line (start -12.63 24.13) (end -12.63 21.59) (layer F.SilkS) (width 0.12))
  (fp_line (start -12.63 21.59) (end -4 21.59) (layer F.SilkS) (width 0.12))
  (fp_line (start -3.57 22.48) (end -4 22.48) (layer F.SilkS) (width 0.12))
  (fp_line (start -3.57 23.24) (end -4 23.24) (layer F.SilkS) (width 0.12))
  (fp_line (start -1.03 22.48) (end -1.51 22.48) (layer F.SilkS) (width 0.12))
  (fp_line (start -1.03 23.24) (end -1.51 23.24) (layer F.SilkS) (width 0.12))
  (fp_line (start -4 24.13) (end -4 26.67) (layer F.SilkS) (width 0.12))
  (fp_line (start -4 26.67) (end -12.63 26.67) (layer F.SilkS) (width 0.12))
  (fp_line (start -12.63 26.67) (end -12.63 24.13) (layer F.SilkS) (width 0.12))
  (fp_line (start -12.63 24.13) (end -4 24.13) (layer F.SilkS) (width 0.12))
  (fp_line (start -3.57 25.02) (end -4 25.02) (layer F.SilkS) (width 0.12))
  (fp_line (start -3.57 25.78) (end -4 25.78) (layer F.SilkS) (width 0.12))
  (fp_line (start -1.03 25.02) (end -1.51 25.02) (layer F.SilkS) (width 0.12))
  (fp_line (start -1.03 25.78) (end -1.51 25.78) (layer F.SilkS) (width 0.12))
  (fp_line (start -4 26.67) (end -4 29.21) (layer F.SilkS) (width 0.12))
  (fp_line (start -4 29.21) (end -12.63 29.21) (layer F.SilkS) (width 0.12))
  (fp_line (start -12.63 29.21) (end -12.63 26.67) (layer F.SilkS) (width 0.12))
  (fp_line (start -12.63 26.67) (end -4 26.67) (layer F.SilkS) (width 0.12))
  (fp_line (start -3.57 27.56) (end -4 27.56) (layer F.SilkS) (width 0.12))
  (fp_line (start -3.57 28.32) (end -4 28.32) (layer F.SilkS) (width 0.12))
  (fp_line (start -1.03 27.56) (end -1.51 27.56) (layer F.SilkS) (width 0.12))
  (fp_line (start -1.03 28.32) (end -1.51 28.32) (layer F.SilkS) (width 0.12))
  (fp_line (start -4 29.21) (end -4 31.75) (layer F.SilkS) (width 0.12))
  (fp_line (start -4 31.75) (end -12.63 31.75) (layer F.SilkS) (width 0.12))
  (fp_line (start -12.63 31.75) (end -12.63 29.21) (layer F.SilkS) (width 0.12))
  (fp_line (start -12.63 29.21) (end -4 29.21) (layer F.SilkS) (width 0.12))
  (fp_line (start -3.57 30.1) (end -4 30.1) (layer F.SilkS) (width 0.12))
  (fp_line (start -3.57 30.86) (end -4 30.86) (layer F.SilkS) (width 0.12))
  (fp_line (start -1.03 30.1) (end -1.51 30.1) (layer F.SilkS) (width 0.12))
  (fp_line (start -1.03 30.86) (end -1.51 30.86) (layer F.SilkS) (width 0.12))
  (fp_line (start -4 31.75) (end -4 34.29) (layer F.SilkS) (width 0.12))
  (fp_line (start -4 34.29) (end -12.63 34.29) (layer F.SilkS) (width 0.12))
  (fp_line (start -12.63 34.29) (end -12.63 31.75) (layer F.SilkS) (width 0.12))
  (fp_line (start -12.63 31.75) (end -4 31.75) (layer F.SilkS) (width 0.12))
  (fp_line (start -3.57 32.64) (end -4 32.64) (layer F.SilkS) (width 0.12))
  (fp_line (start -3.57 33.4) (end -4 33.4) (layer F.SilkS) (width 0.12))
  (fp_line (start -1.03 32.64) (end -1.51 32.64) (layer F.SilkS) (width 0.12))
  (fp_line (start -1.03 33.4) (end -1.51 33.4) (layer F.SilkS) (width 0.12))
  (fp_line (start -4 34.29) (end -4 36.83) (layer F.SilkS) (width 0.12))
  (fp_line (start -4 36.83) (end -12.63 36.83) (layer F.SilkS) (width 0.12))
  (fp_line (start -12.63 36.83) (end -12.63 34.29) (layer F.SilkS) (width 0.12))
  (fp_line (start -12.63 34.29) (end -4 34.29) (layer F.SilkS) (width 0.12))
  (fp_line (start -3.57 35.18) (end -4 35.18) (layer F.SilkS) (width 0.12))
  (fp_line (start -3.57 35.94) (end -4 35.94) (layer F.SilkS) (width 0.12))
  (fp_line (start -1.03 35.18) (end -1.51 35.18) (layer F.SilkS) (width 0.12))
  (fp_line (start -1.03 35.94) (end -1.51 35.94) (layer F.SilkS) (width 0.12))
  (fp_line (start -4 36.83) (end -4 39.37) (layer F.SilkS) (width 0.12))
  (fp_line (start -4 39.37) (end -12.63 39.37) (layer F.SilkS) (width 0.12))
  (fp_line (start -12.63 39.37) (end -12.63 36.83) (layer F.SilkS) (width 0.12))
  (fp_line (start -12.63 36.83) (end -4 36.83) (layer F.SilkS) (width 0.12))
  (fp_line (start -3.57 37.72) (end -4 37.72) (layer F.SilkS) (width 0.12))
  (fp_line (start -3.57 38.48) (end -4 38.48) (layer F.SilkS) (width 0.12))
  (fp_line (start -1.03 37.72) (end -1.51 37.72) (layer F.SilkS) (width 0.12))
  (fp_line (start -1.03 38.48) (end -1.51 38.48) (layer F.SilkS) (width 0.12))
  (fp_line (start -4 39.37) (end -4 41.91) (layer F.SilkS) (width 0.12))
  (fp_line (start -4 41.91) (end -12.63 41.91) (layer F.SilkS) (width 0.12))
  (fp_line (start -12.63 41.91) (end -12.63 39.37) (layer F.SilkS) (width 0.12))
  (fp_line (start -12.63 39.37) (end -4 39.37) (layer F.SilkS) (width 0.12))
  (fp_line (start -3.57 40.26) (end -4 40.26) (layer F.SilkS) (width 0.12))
  (fp_line (start -3.57 41.02) (end -4 41.02) (layer F.SilkS) (width 0.12))
  (fp_line (start -1.03 40.26) (end -1.51 40.26) (layer F.SilkS) (width 0.12))
  (fp_line (start -1.03 41.02) (end -1.51 41.02) (layer F.SilkS) (width 0.12))
  (fp_line (start -4 41.91) (end -4 44.45) (layer F.SilkS) (width 0.12))
  (fp_line (start -4 44.45) (end -12.63 44.45) (layer F.SilkS) (width 0.12))
  (fp_line (start -12.63 44.45) (end -12.63 41.91) (layer F.SilkS) (width 0.12))
  (fp_line (start -12.63 41.91) (end -4 41.91) (layer F.SilkS) (width 0.12))
  (fp_line (start -3.57 42.8) (end -4 42.8) (layer F.SilkS) (width 0.12))
  (fp_line (start -3.57 43.56) (end -4 43.56) (layer F.SilkS) (width 0.12))
  (fp_line (start -1.03 42.8) (end -1.51 42.8) (layer F.SilkS) (width 0.12))
  (fp_line (start -1.03 43.56) (end -1.51 43.56) (layer F.SilkS) (width 0.12))
  (fp_line (start -4 44.45) (end -4 46.99) (layer F.SilkS) (width 0.12))
  (fp_line (start -4 46.99) (end -12.63 46.99) (layer F.SilkS) (width 0.12))
  (fp_line (start -12.63 46.99) (end -12.63 44.45) (layer F.SilkS) (width 0.12))
  (fp_line (start -12.63 44.45) (end -4 44.45) (layer F.SilkS) (width 0.12))
  (fp_line (start -3.57 45.34) (end -4 45.34) (layer F.SilkS) (width 0.12))
  (fp_line (start -3.57 46.1) (end -4 46.1) (layer F.SilkS) (width 0.12))
  (fp_line (start -1.03 45.34) (end -1.51 45.34) (layer F.SilkS) (width 0.12))
  (fp_line (start -1.03 46.1) (end -1.51 46.1) (layer F.SilkS) (width 0.12))
  (fp_line (start -4 46.99) (end -4 49.53) (layer F.SilkS) (width 0.12))
  (fp_line (start -4 49.53) (end -12.63 49.53) (layer F.SilkS) (width 0.12))
  (fp_line (start -12.63 49.53) (end -12.63 46.99) (layer F.SilkS) (width 0.12))
  (fp_line (start -12.63 46.99) (end -4 46.99) (layer F.SilkS) (width 0.12))
  (fp_line (start -3.57 47.88) (end -4 47.88) (layer F.SilkS) (width 0.12))
  (fp_line (start -3.57 48.64) (end -4 48.64) (layer F.SilkS) (width 0.12))
  (fp_line (start -1.03 47.88) (end -1.51 47.88) (layer F.SilkS) (width 0.12))
  (fp_line (start -1.03 48.64) (end -1.51 48.64) (layer F.SilkS) (width 0.12))
  (fp_line (start -4 49.53) (end -4 52.07) (layer F.SilkS) (width 0.12))
  (fp_line (start -4 52.07) (end -12.63 52.07) (layer F.SilkS) (width 0.12))
  (fp_line (start -12.63 52.07) (end -12.63 49.53) (layer F.SilkS) (width 0.12))
  (fp_line (start -12.63 49.53) (end -4 49.53) (layer F.SilkS) (width 0.12))
  (fp_line (start -3.57 50.42) (end -4 50.42) (layer F.SilkS) (width 0.12))
  (fp_line (start -3.57 51.18) (end -4 51.18) (layer F.SilkS) (width 0.12))
  (fp_line (start -1.03 50.42) (end -1.51 50.42) (layer F.SilkS) (width 0.12))
  (fp_line (start -1.03 51.18) (end -1.51 51.18) (layer F.SilkS) (width 0.12))
  (fp_line (start -4 52.07) (end -4 54.61) (layer F.SilkS) (width 0.12))
  (fp_line (start -4 54.61) (end -12.63 54.61) (layer F.SilkS) (width 0.12))
  (fp_line (start -12.63 54.61) (end -12.63 52.07) (layer F.SilkS) (width 0.12))
  (fp_line (start -12.63 52.07) (end -4 52.07) (layer F.SilkS) (width 0.12))
  (fp_line (start -3.57 52.96) (end -4 52.96) (layer F.SilkS) (width 0.12))
  (fp_line (start -3.57 53.72) (end -4 53.72) (layer F.SilkS) (width 0.12))
  (fp_line (start -1.03 52.96) (end -1.51 52.96) (layer F.SilkS) (width 0.12))
  (fp_line (start -1.03 53.72) (end -1.51 53.72) (layer F.SilkS) (width 0.12))
  (fp_line (start -4 54.61) (end -4 57.15) (layer F.SilkS) (width 0.12))
  (fp_line (start -4 57.15) (end -12.63 57.15) (layer F.SilkS) (width 0.12))
  (fp_line (start -12.63 57.15) (end -12.63 54.61) (layer F.SilkS) (width 0.12))
  (fp_line (start -12.63 54.61) (end -4 54.61) (layer F.SilkS) (width 0.12))
  (fp_line (start -3.57 55.5) (end -4 55.5) (layer F.SilkS) (width 0.12))
  (fp_line (start -3.57 56.26) (end -4 56.26) (layer F.SilkS) (width 0.12))
  (fp_line (start -1.03 55.5) (end -1.51 55.5) (layer F.SilkS) (width 0.12))
  (fp_line (start -1.03 56.26) (end -1.51 56.26) (layer F.SilkS) (width 0.12))
  (fp_line (start -4 57.15) (end -4 59.69) (layer F.SilkS) (width 0.12))
  (fp_line (start -4 59.69) (end -12.63 59.69) (layer F.SilkS) (width 0.12))
  (fp_line (start -12.63 59.69) (end -12.63 57.15) (layer F.SilkS) (width 0.12))
  (fp_line (start -12.63 57.15) (end -4 57.15) (layer F.SilkS) (width 0.12))
  (fp_line (start -3.57 58.04) (end -4 58.04) (layer F.SilkS) (width 0.12))
  (fp_line (start -3.57 58.8) (end -4 58.8) (layer F.SilkS) (width 0.12))
  (fp_line (start -1.03 58.04) (end -1.51 58.04) (layer F.SilkS) (width 0.12))
  (fp_line (start -1.03 58.8) (end -1.51 58.8) (layer F.SilkS) (width 0.12))
  (fp_line (start -4 59.69) (end -4 62.23) (layer F.SilkS) (width 0.12))
  (fp_line (start -4 62.23) (end -12.63 62.23) (layer F.SilkS) (width 0.12))
  (fp_line (start -12.63 62.23) (end -12.63 59.69) (layer F.SilkS) (width 0.12))
  (fp_line (start -12.63 59.69) (end -4 59.69) (layer F.SilkS) (width 0.12))
  (fp_line (start -3.57 60.58) (end -4 60.58) (layer F.SilkS) (width 0.12))
  (fp_line (start -3.57 61.34) (end -4 61.34) (layer F.SilkS) (width 0.12))
  (fp_line (start -1.03 60.58) (end -1.51 60.58) (layer F.SilkS) (width 0.12))
  (fp_line (start -1.03 61.34) (end -1.51 61.34) (layer F.SilkS) (width 0.12))
  (fp_line (start -4 62.23) (end -4 64.83) (layer F.SilkS) (width 0.12))
  (fp_line (start -4 64.83) (end -12.63 64.83) (layer F.SilkS) (width 0.12))
  (fp_line (start -12.63 64.83) (end -12.63 62.23) (layer F.SilkS) (width 0.12))
  (fp_line (start -12.63 62.23) (end -4 62.23) (layer F.SilkS) (width 0.12))
  (fp_line (start -3.57 63.12) (end -4 63.12) (layer F.SilkS) (width 0.12))
  (fp_line (start -3.57 63.88) (end -4 63.88) (layer F.SilkS) (width 0.12))
  (fp_line (start -1.03 63.12) (end -1.51 63.12) (layer F.SilkS) (width 0.12))
  (fp_line (start -1.03 63.88) (end -1.51 63.88) (layer F.SilkS) (width 0.12))
  (fp_line (start 0 -1.27) (end 1.27 -1.27) (layer F.SilkS) (width 0.12))
  (fp_line (start 1.27 -1.27) (end 1.27 0) (layer F.SilkS) (width 0.12))
  (fp_line (start 1.55 -1.55) (end 1.55 65.05) (layer F.CrtYd) (width 0.05))
  (fp_line (start 1.55 65.05) (end -12.85 65.05) (layer F.CrtYd) (width 0.05))
  (fp_line (start -12.85 65.05) (end -12.85 -1.55) (layer F.CrtYd) (width 0.05))
  (fp_line (start -12.85 -1.55) (end 1.55 -1.55) (layer F.CrtYd) (width 0.05))
  (pad 1 thru_hole rect (at 0 0) (size 1.7 1.7) (drill 1.0) (layers *.Cu *.Mask))
  (pad 2 thru_hole oval (at -2.54 0) (size 1.7 1.7) (drill 1.0) (layers *.Cu *.Mask))
  (pad 3 thru_hole oval (at 0 2.54) (size 1.7 1.7) (drill 1.0) (layers *.Cu *.Mask))
  (pad 4 thru_hole oval (at -2.54 2.54) (size 1.7 1.7) (drill 1.0) (layers *.Cu *.Mask))
  (pad 5 thru_hole oval (at 0 5.08) (size 1.7 1.7) (drill 1.0) (layers *.Cu *.Mask))
  (pad 6 thru_hole oval (at -2.54 5.08) (size 1.7 1.7) (drill 1.0) (layers *.Cu *.Mask))
  (pad 7 thru_hole oval (at 0 7.62) (size 1.7 1.7) (drill 1.0) (layers *.Cu *.Mask))
  (pad 8 thru_hole oval (at -2.54 7.62) (size 1.7 1.7) (drill 1.0) (layers *.Cu *.Mask))
  (pad 9 thru_hole oval (at 0 10.16) (size 1.7 1.7) (drill 1.0) (layers *.Cu *.Mask))
  (pad 10 thru_hole oval (at -2.54 10.16) (size 1.7 1.7) (drill 1.0) (layers *.Cu *.Mask))
  (pad 11 thru_hole oval (at 0 12.7) (size 1.7 1.7) (drill 1.0) (layers *.Cu *.Mask))
  (pad 12 thru_hole oval (at -2.54 12.7) (size 1.7 1.7) (drill 1.0) (layers *.Cu *.Mask))
  (pad 13 thru_hole oval (at 0 15.24) (size 1.7 1.7) (drill 1.0) (layers *.Cu *.Mask))
  (pad 14 thru_hole oval (at -2.54 15.24) (size 1.7 1.7) (drill 1.0) (layers *.Cu *.Mask))
  (pad 15 thru_hole oval (at 0 17.78) (size 1.7 1.7) (drill 1.0) (layers *.Cu *.Mask))
  (pad 16 thru_hole oval (at -2.54 17.78) (size 1.7 1.7) (drill 1.0) (layers *.Cu *.Mask))
  (pad 17 thru_hole oval (at 0 20.32) (size 1.7 1.7) (drill 1.0) (layers *.Cu *.Mask))
  (pad 18 thru_hole oval (at -2.54 20.32) (size 1.7 1.7) (drill 1.0) (layers *.Cu *.Mask))
  (pad 19 thru_hole oval (at 0 22.86) (size 1.7 1.7) (drill 1.0) (layers *.Cu *.Mask))
  (pad 20 thru_hole oval (at -2.54 22.86) (size 1.7 1.7) (drill 1.0) (layers *.Cu *.Mask))
  (pad 21 thru_hole oval (at 0 25.4) (size 1.7 1.7) (drill 1.0) (layers *.Cu *.Mask))
  (pad 22 thru_hole oval (at -2.54 25.4) (size 1.7 1.7) (drill 1.0) (layers *.Cu *.Mask))
  (pad 23 thru_hole oval (at 0 27.94) (size 1.7 1.7) (drill 1.0) (layers *.Cu *.Mask))
  (pad 24 thru_hole oval (at -2.54 27.94) (size 1.7 1.7) (drill 1.0) (layers *.Cu *.Mask))
  (pad 25 thru_hole oval (at 0 30.48) (size 1.7 1.7) (drill 1.0) (layers *.Cu *.Mask))
  (pad 26 thru_hole oval (at -2.54 30.48) (size 1.7 1.7) (drill 1.0) (layers *.Cu *.Mask))
  (pad 27 thru_hole oval (at 0 33.02) (size 1.7 1.7) (drill 1.0) (layers *.Cu *.Mask))
  (pad 28 thru_hole oval (at -2.54 33.02) (size 1.7 1.7) (drill 1.0) (layers *.Cu *.Mask))
  (pad 29 thru_hole oval (at 0 35.56) (size 1.7 1.7) (drill 1.0) (layers *.Cu *.Mask))
  (pad 30 thru_hole oval (at -2.54 35.56) (size 1.7 1.7) (drill 1.0) (layers *.Cu *.Mask))
  (pad 31 thru_hole oval (at 0 38.1) (size 1.7 1.7) (drill 1.0) (layers *.Cu *.Mask))
  (pad 32 thru_hole oval (at -2.54 38.1) (size 1.7 1.7) (drill 1.0) (layers *.Cu *.Mask))
  (pad 33 thru_hole oval (at 0 40.64) (size 1.7 1.7) (drill 1.0) (layers *.Cu *.Mask))
  (pad 34 thru_hole oval (at -2.54 40.64) (size 1.7 1.7) (drill 1.0) (layers *.Cu *.Mask))
  (pad 35 thru_hole oval (at 0 43.18) (size 1.7 1.7) (drill 1.0) (layers *.Cu *.Mask))
  (pad 36 thru_hole oval (at -2.54 43.18) (size 1.7 1.7) (drill 1.0) (layers *.Cu *.Mask))
  (pad 37 thru_hole oval (at 0 45.72) (size 1.7 1.7) (drill 1.0) (layers *.Cu *.Mask))
  (pad 38 thru_hole oval (at -2.54 45.72) (size 1.7 1.7) (drill 1.0) (layers *.Cu *.Mask))
  (pad 39 thru_hole oval (at 0 48.26) (size 1.7 1.7) (drill 1.0) (layers *.Cu *.Mask))
  (pad 40 thru_hole oval (at -2.54 48.26) (size 1.7 1.7) (drill 1.0) (layers *.Cu *.Mask))
  (pad 41 thru_hole oval (at 0 50.8) (size 1.7 1.7) (drill 1.0) (layers *.Cu *.Mask))
  (pad 42 thru_hole oval (at -2.54 50.8) (size 1.7 1.7) (drill 1.0) (layers *.Cu *.Mask))
  (pad 43 thru_hole oval (at 0 53.34) (size 1.7 1.7) (drill 1.0) (layers *.Cu *.Mask))
  (pad 44 thru_hole oval (at -2.54 53.34) (size 1.7 1.7) (drill 1.0) (layers *.Cu *.Mask))
  (pad 45 thru_hole oval (at 0 55.88) (size 1.7 1.7) (drill 1.0) (layers *.Cu *.Mask))
  (pad 46 thru_hole oval (at -2.54 55.88) (size 1.7 1.7) (drill 1.0) (layers *.Cu *.Mask))
  (pad 47 thru_hole oval (at 0 58.42) (size 1.7 1.7) (drill 1.0) (layers *.Cu *.Mask))
  (pad 48 thru_hole oval (at -2.54 58.42) (size 1.7 1.7) (drill 1.0) (layers *.Cu *.Mask))
  (pad 49 thru_hole oval (at 0 60.96) (size 1.7 1.7) (drill 1.0) (layers *.Cu *.Mask))
  (pad 50 thru_hole oval (at -2.54 60.96) (size 1.7 1.7) (drill 1.0) (layers *.Cu *.Mask))
  (pad 51 thru_hole oval (at 0 63.5) (size 1.7 1.7) (drill 1.0) (layers *.Cu *.Mask))
  (pad 52 thru_hole oval (at -2.54 63.5) (size 1.7 1.7) (drill 1.0) (layers *.Cu *.Mask))
  (model Socket_Strips.3dshapes/Socket_Strip_Angled_2x26_Pitch2.54mm.wrl
    (at (xyz -0.05 -1.25 0))
    (scale (xyz 1 1 1))
    (rotate (xyz 0 0 270))
  )
)