(module Socket_Strip_Angled_1x27_Pitch2.54mm (layer F.Cu) (tedit 588DE957)
  (descr "Through hole angled socket strip, 1x27, 2.54mm pitch, 8.51mm socket length, single row")
  (tags "Through hole angled socket strip THT 1x27 2.54mm single row")
  (fp_text reference REF** (at -4.38 -2.27) (layer F.SilkS)
    (effects (font (size 1 1) (thickness 0.15)))
  )
  (fp_text value Socket_Strip_Angled_1x27_Pitch2.54mm (at -4.38 68.31) (layer F.Fab)
    (effects (font (size 1 1) (thickness 0.15)))
  )
  (fp_line (start -1.52 -1.27) (end -1.52 1.27) (layer F.Fab) (width 0.1))
  (fp_line (start -1.52 1.27) (end -10.03 1.27) (layer F.Fab) (width 0.1))
  (fp_line (start -10.03 1.27) (end -10.03 -1.27) (layer F.Fab) (width 0.1))
  (fp_line (start -10.03 -1.27) (end -1.52 -1.27) (layer F.Fab) (width 0.1))
  (fp_line (start 0 -0.32) (end 0 0.32) (layer F.Fab) (width 0.1))
  (fp_line (start 0 0.32) (end -1.52 0.32) (layer F.Fab) (width 0.1))
  (fp_line (start -1.52 0.32) (end -1.52 -0.32) (layer F.Fab) (width 0.1))
  (fp_line (start -1.52 -0.32) (end 0 -0.32) (layer F.Fab) (width 0.1))
  (fp_line (start -1.52 1.27) (end -1.52 3.81) (layer F.Fab) (width 0.1))
  (fp_line (start -1.52 3.81) (end -10.03 3.81) (layer F.Fab) (width 0.1))
  (fp_line (start -10.03 3.81) (end -10.03 1.27) (layer F.Fab) (width 0.1))
  (fp_line (start -10.03 1.27) (end -1.52 1.27) (layer F.Fab) (width 0.1))
  (fp_line (start 0 2.22) (end 0 2.86) (layer F.Fab) (width 0.1))
  (fp_line (start 0 2.86) (end -1.52 2.86) (layer F.Fab) (width 0.1))
  (fp_line (start -1.52 2.86) (end -1.52 2.22) (layer F.Fab) (width 0.1))
  (fp_line (start -1.52 2.22) (end 0 2.22) (layer F.Fab) (width 0.1))
  (fp_line (start -1.52 3.81) (end -1.52 6.35) (layer F.Fab) (width 0.1))
  (fp_line (start -1.52 6.35) (end -10.03 6.35) (layer F.Fab) (width 0.1))
  (fp_line (start -10.03 6.35) (end -10.03 3.81) (layer F.Fab) (width 0.1))
  (fp_line (start -10.03 3.81) (end -1.52 3.81) (layer F.Fab) (width 0.1))
  (fp_line (start 0 4.76) (end 0 5.4) (layer F.Fab) (width 0.1))
  (fp_line (start 0 5.4) (end -1.52 5.4) (layer F.Fab) (width 0.1))
  (fp_line (start -1.52 5.4) (end -1.52 4.76) (layer F.Fab) (width 0.1))
  (fp_line (start -1.52 4.76) (end 0 4.76) (layer F.Fab) (width 0.1))
  (fp_line (start -1.52 6.35) (end -1.52 8.89) (layer F.Fab) (width 0.1))
  (fp_line (start -1.52 8.89) (end -10.03 8.89) (layer F.Fab) (width 0.1))
  (fp_line (start -10.03 8.89) (end -10.03 6.35) (layer F.Fab) (width 0.1))
  (fp_line (start -10.03 6.35) (end -1.52 6.35) (layer F.Fab) (width 0.1))
  (fp_line (start 0 7.3) (end 0 7.94) (layer F.Fab) (width 0.1))
  (fp_line (start 0 7.94) (end -1.52 7.94) (layer F.Fab) (width 0.1))
  (fp_line (start -1.52 7.94) (end -1.52 7.3) (layer F.Fab) (width 0.1))
  (fp_line (start -1.52 7.3) (end 0 7.3) (layer F.Fab) (width 0.1))
  (fp_line (start -1.52 8.89) (end -1.52 11.43) (layer F.Fab) (width 0.1))
  (fp_line (start -1.52 11.43) (end -10.03 11.43) (layer F.Fab) (width 0.1))
  (fp_line (start -10.03 11.43) (end -10.03 8.89) (layer F.Fab) (width 0.1))
  (fp_line (start -10.03 8.89) (end -1.52 8.89) (layer F.Fab) (width 0.1))
  (fp_line (start 0 9.84) (end 0 10.48) (layer F.Fab) (width 0.1))
  (fp_line (start 0 10.48) (end -1.52 10.48) (layer F.Fab) (width 0.1))
  (fp_line (start -1.52 10.48) (end -1.52 9.84) (layer F.Fab) (width 0.1))
  (fp_line (start -1.52 9.84) (end 0 9.84) (layer F.Fab) (width 0.1))
  (fp_line (start -1.52 11.43) (end -1.52 13.97) (layer F.Fab) (width 0.1))
  (fp_line (start -1.52 13.97) (end -10.03 13.97) (layer F.Fab) (width 0.1))
  (fp_line (start -10.03 13.97) (end -10.03 11.43) (layer F.Fab) (width 0.1))
  (fp_line (start -10.03 11.43) (end -1.52 11.43) (layer F.Fab) (width 0.1))
  (fp_line (start 0 12.38) (end 0 13.02) (layer F.Fab) (width 0.1))
  (fp_line (start 0 13.02) (end -1.52 13.02) (layer F.Fab) (width 0.1))
  (fp_line (start -1.52 13.02) (end -1.52 12.38) (layer F.Fab) (width 0.1))
  (fp_line (start -1.52 12.38) (end 0 12.38) (layer F.Fab) (width 0.1))
  (fp_line (start -1.52 13.97) (end -1.52 16.51) (layer F.Fab) (width 0.1))
  (fp_line (start -1.52 16.51) (end -10.03 16.51) (layer F.Fab) (width 0.1))
  (fp_line (start -10.03 16.51) (end -10.03 13.97) (layer F.Fab) (width 0.1))
  (fp_line (start -10.03 13.97) (end -1.52 13.97) (layer F.Fab) (width 0.1))
  (fp_line (start 0 14.92) (end 0 15.56) (layer F.Fab) (width 0.1))
  (fp_line (start 0 15.56) (end -1.52 15.56) (layer F.Fab) (width 0.1))
  (fp_line (start -1.52 15.56) (end -1.52 14.92) (layer F.Fab) (width 0.1))
  (fp_line (start -1.52 14.92) (end 0 14.92) (layer F.Fab) (width 0.1))
  (fp_line (start -1.52 16.51) (end -1.52 19.05) (layer F.Fab) (width 0.1))
  (fp_line (start -1.52 19.05) (end -10.03 19.05) (layer F.Fab) (width 0.1))
  (fp_line (start -10.03 19.05) (end -10.03 16.51) (layer F.Fab) (width 0.1))
  (fp_line (start -10.03 16.51) (end -1.52 16.51) (layer F.Fab) (width 0.1))
  (fp_line (start 0 17.46) (end 0 18.1) (layer F.Fab) (width 0.1))
  (fp_line (start 0 18.1) (end -1.52 18.1) (layer F.Fab) (width 0.1))
  (fp_line (start -1.52 18.1) (end -1.52 17.46) (layer F.Fab) (width 0.1))
  (fp_line (start -1.52 17.46) (end 0 17.46) (layer F.Fab) (width 0.1))
  (fp_line (start -1.52 19.05) (end -1.52 21.59) (layer F.Fab) (width 0.1))
  (fp_line (start -1.52 21.59) (end -10.03 21.59) (layer F.Fab) (width 0.1))
  (fp_line (start -10.03 21.59) (end -10.03 19.05) (layer F.Fab) (width 0.1))
  (fp_line (start -10.03 19.05) (end -1.52 19.05) (layer F.Fab) (width 0.1))
  (fp_line (start 0 20) (end 0 20.64) (layer F.Fab) (width 0.1))
  (fp_line (start 0 20.64) (end -1.52 20.64) (layer F.Fab) (width 0.1))
  (fp_line (start -1.52 20.64) (end -1.52 20) (layer F.Fab) (width 0.1))
  (fp_line (start -1.52 20) (end 0 20) (layer F.Fab) (width 0.1))
  (fp_line (start -1.52 21.59) (end -1.52 24.13) (layer F.Fab) (width 0.1))
  (fp_line (start -1.52 24.13) (end -10.03 24.13) (layer F.Fab) (width 0.1))
  (fp_line (start -10.03 24.13) (end -10.03 21.59) (layer F.Fab) (width 0.1))
  (fp_line (start -10.03 21.59) (end -1.52 21.59) (layer F.Fab) (width 0.1))
  (fp_line (start 0 22.54) (end 0 23.18) (layer F.Fab) (width 0.1))
  (fp_line (start 0 23.18) (end -1.52 23.18) (layer F.Fab) (width 0.1))
  (fp_line (start -1.52 23.18) (end -1.52 22.54) (layer F.Fab) (width 0.1))
  (fp_line (start -1.52 22.54) (end 0 22.54) (layer F.Fab) (width 0.1))
  (fp_line (start -1.52 24.13) (end -1.52 26.67) (layer F.Fab) (width 0.1))
  (fp_line (start -1.52 26.67) (end -10.03 26.67) (layer F.Fab) (width 0.1))
  (fp_line (start -10.03 26.67) (end -10.03 24.13) (layer F.Fab) (width 0.1))
  (fp_line (start -10.03 24.13) (end -1.52 24.13) (layer F.Fab) (width 0.1))
  (fp_line (start 0 25.08) (end 0 25.72) (layer F.Fab) (width 0.1))
  (fp_line (start 0 25.72) (end -1.52 25.72) (layer F.Fab) (width 0.1))
  (fp_line (start -1.52 25.72) (end -1.52 25.08) (layer F.Fab) (width 0.1))
  (fp_line (start -1.52 25.08) (end 0 25.08) (layer F.Fab) (width 0.1))
  (fp_line (start -1.52 26.67) (end -1.52 29.21) (layer F.Fab) (width 0.1))
  (fp_line (start -1.52 29.21) (end -10.03 29.21) (layer F.Fab) (width 0.1))
  (fp_line (start -10.03 29.21) (end -10.03 26.67) (layer F.Fab) (width 0.1))
  (fp_line (start -10.03 26.67) (end -1.52 26.67) (layer F.Fab) (width 0.1))
  (fp_line (start 0 27.62) (end 0 28.26) (layer F.Fab) (width 0.1))
  (fp_line (start 0 28.26) (end -1.52 28.26) (layer F.Fab) (width 0.1))
  (fp_line (start -1.52 28.26) (end -1.52 27.62) (layer F.Fab) (width 0.1))
  (fp_line (start -1.52 27.62) (end 0 27.62) (layer F.Fab) (width 0.1))
  (fp_line (start -1.52 29.21) (end -1.52 31.75) (layer F.Fab) (width 0.1))
  (fp_line (start -1.52 31.75) (end -10.03 31.75) (layer F.Fab) (width 0.1))
  (fp_line (start -10.03 31.75) (end -10.03 29.21) (layer F.Fab) (width 0.1))
  (fp_line (start -10.03 29.21) (end -1.52 29.21) (layer F.Fab) (width 0.1))
  (fp_line (start 0 30.16) (end 0 30.8) (layer F.Fab) (width 0.1))
  (fp_line (start 0 30.8) (end -1.52 30.8) (layer F.Fab) (width 0.1))
  (fp_line (start -1.52 30.8) (end -1.52 30.16) (layer F.Fab) (width 0.1))
  (fp_line (start -1.52 30.16) (end 0 30.16) (layer F.Fab) (width 0.1))
  (fp_line (start -1.52 31.75) (end -1.52 34.29) (layer F.Fab) (width 0.1))
  (fp_line (start -1.52 34.29) (end -10.03 34.29) (layer F.Fab) (width 0.1))
  (fp_line (start -10.03 34.29) (end -10.03 31.75) (layer F.Fab) (width 0.1))
  (fp_line (start -10.03 31.75) (end -1.52 31.75) (layer F.Fab) (width 0.1))
  (fp_line (start 0 32.7) (end 0 33.34) (layer F.Fab) (width 0.1))
  (fp_line (start 0 33.34) (end -1.52 33.34) (layer F.Fab) (width 0.1))
  (fp_line (start -1.52 33.34) (end -1.52 32.7) (layer F.Fab) (width 0.1))
  (fp_line (start -1.52 32.7) (end 0 32.7) (layer F.Fab) (width 0.1))
  (fp_line (start -1.52 34.29) (end -1.52 36.83) (layer F.Fab) (width 0.1))
  (fp_line (start -1.52 36.83) (end -10.03 36.83) (layer F.Fab) (width 0.1))
  (fp_line (start -10.03 36.83) (end -10.03 34.29) (layer F.Fab) (width 0.1))
  (fp_line (start -10.03 34.29) (end -1.52 34.29) (layer F.Fab) (width 0.1))
  (fp_line (start 0 35.24) (end 0 35.88) (layer F.Fab) (width 0.1))
  (fp_line (start 0 35.88) (end -1.52 35.88) (layer F.Fab) (width 0.1))
  (fp_line (start -1.52 35.88) (end -1.52 35.24) (layer F.Fab) (width 0.1))
  (fp_line (start -1.52 35.24) (end 0 35.24) (layer F.Fab) (width 0.1))
  (fp_line (start -1.52 36.83) (end -1.52 39.37) (layer F.Fab) (width 0.1))
  (fp_line (start -1.52 39.37) (end -10.03 39.37) (layer F.Fab) (width 0.1))
  (fp_line (start -10.03 39.37) (end -10.03 36.83) (layer F.Fab) (width 0.1))
  (fp_line (start -10.03 36.83) (end -1.52 36.83) (layer F.Fab) (width 0.1))
  (fp_line (start 0 37.78) (end 0 38.42) (layer F.Fab) (width 0.1))
  (fp_line (start 0 38.42) (end -1.52 38.42) (layer F.Fab) (width 0.1))
  (fp_line (start -1.52 38.42) (end -1.52 37.78) (layer F.Fab) (width 0.1))
  (fp_line (start -1.52 37.78) (end 0 37.78) (layer F.Fab) (width 0.1))
  (fp_line (start -1.52 39.37) (end -1.52 41.91) (layer F.Fab) (width 0.1))
  (fp_line (start -1.52 41.91) (end -10.03 41.91) (layer F.Fab) (width 0.1))
  (fp_line (start -10.03 41.91) (end -10.03 39.37) (layer F.Fab) (width 0.1))
  (fp_line (start -10.03 39.37) (end -1.52 39.37) (layer F.Fab) (width 0.1))
  (fp_line (start 0 40.32) (end 0 40.96) (layer F.Fab) (width 0.1))
  (fp_line (start 0 40.96) (end -1.52 40.96) (layer F.Fab) (width 0.1))
  (fp_line (start -1.52 40.96) (end -1.52 40.32) (layer F.Fab) (width 0.1))
  (fp_line (start -1.52 40.32) (end 0 40.32) (layer F.Fab) (width 0.1))
  (fp_line (start -1.52 41.91) (end -1.52 44.45) (layer F.Fab) (width 0.1))
  (fp_line (start -1.52 44.45) (end -10.03 44.45) (layer F.Fab) (width 0.1))
  (fp_line (start -10.03 44.45) (end -10.03 41.91) (layer F.Fab) (width 0.1))
  (fp_line (start -10.03 41.91) (end -1.52 41.91) (layer F.Fab) (width 0.1))
  (fp_line (start 0 42.86) (end 0 43.5) (layer F.Fab) (width 0.1))
  (fp_line (start 0 43.5) (end -1.52 43.5) (layer F.Fab) (width 0.1))
  (fp_line (start -1.52 43.5) (end -1.52 42.86) (layer F.Fab) (width 0.1))
  (fp_line (start -1.52 42.86) (end 0 42.86) (layer F.Fab) (width 0.1))
  (fp_line (start -1.52 44.45) (end -1.52 46.99) (layer F.Fab) (width 0.1))
  (fp_line (start -1.52 46.99) (end -10.03 46.99) (layer F.Fab) (width 0.1))
  (fp_line (start -10.03 46.99) (end -10.03 44.45) (layer F.Fab) (width 0.1))
  (fp_line (start -10.03 44.45) (end -1.52 44.45) (layer F.Fab) (width 0.1))
  (fp_line (start 0 45.4) (end 0 46.04) (layer F.Fab) (width 0.1))
  (fp_line (start 0 46.04) (end -1.52 46.04) (layer F.Fab) (width 0.1))
  (fp_line (start -1.52 46.04) (end -1.52 45.4) (layer F.Fab) (width 0.1))
  (fp_line (start -1.52 45.4) (end 0 45.4) (layer F.Fab) (width 0.1))
  (fp_line (start -1.52 46.99) (end -1.52 49.53) (layer F.Fab) (width 0.1))
  (fp_line (start -1.52 49.53) (end -10.03 49.53) (layer F.Fab) (width 0.1))
  (fp_line (start -10.03 49.53) (end -10.03 46.99) (layer F.Fab) (width 0.1))
  (fp_line (start -10.03 46.99) (end -1.52 46.99) (layer F.Fab) (width 0.1))
  (fp_line (start 0 47.94) (end 0 48.58) (layer F.Fab) (width 0.1))
  (fp_line (start 0 48.58) (end -1.52 48.58) (layer F.Fab) (width 0.1))
  (fp_line (start -1.52 48.58) (end -1.52 47.94) (layer F.Fab) (width 0.1))
  (fp_line (start -1.52 47.94) (end 0 47.94) (layer F.Fab) (width 0.1))
  (fp_line (start -1.52 49.53) (end -1.52 52.07) (layer F.Fab) (width 0.1))
  (fp_line (start -1.52 52.07) (end -10.03 52.07) (layer F.Fab) (width 0.1))
  (fp_line (start -10.03 52.07) (end -10.03 49.53) (layer F.Fab) (width 0.1))
  (fp_line (start -10.03 49.53) (end -1.52 49.53) (layer F.Fab) (width 0.1))
  (fp_line (start 0 50.48) (end 0 51.12) (layer F.Fab) (width 0.1))
  (fp_line (start 0 51.12) (end -1.52 51.12) (layer F.Fab) (width 0.1))
  (fp_line (start -1.52 51.12) (end -1.52 50.48) (layer F.Fab) (width 0.1))
  (fp_line (start -1.52 50.48) (end 0 50.48) (layer F.Fab) (width 0.1))
  (fp_line (start -1.52 52.07) (end -1.52 54.61) (layer F.Fab) (width 0.1))
  (fp_line (start -1.52 54.61) (end -10.03 54.61) (layer F.Fab) (width 0.1))
  (fp_line (start -10.03 54.61) (end -10.03 52.07) (layer F.Fab) (width 0.1))
  (fp_line (start -10.03 52.07) (end -1.52 52.07) (layer F.Fab) (width 0.1))
  (fp_line (start 0 53.02) (end 0 53.66) (layer F.Fab) (width 0.1))
  (fp_line (start 0 53.66) (end -1.52 53.66) (layer F.Fab) (width 0.1))
  (fp_line (start -1.52 53.66) (end -1.52 53.02) (layer F.Fab) (width 0.1))
  (fp_line (start -1.52 53.02) (end 0 53.02) (layer F.Fab) (width 0.1))
  (fp_line (start -1.52 54.61) (end -1.52 57.15) (layer F.Fab) (width 0.1))
  (fp_line (start -1.52 57.15) (end -10.03 57.15) (layer F.Fab) (width 0.1))
  (fp_line (start -10.03 57.15) (end -10.03 54.61) (layer F.Fab) (width 0.1))
  (fp_line (start -10.03 54.61) (end -1.52 54.61) (layer F.Fab) (width 0.1))
  (fp_line (start 0 55.56) (end 0 56.2) (layer F.Fab) (width 0.1))
  (fp_line (start 0 56.2) (end -1.52 56.2) (layer F.Fab) (width 0.1))
  (fp_line (start -1.52 56.2) (end -1.52 55.56) (layer F.Fab) (width 0.1))
  (fp_line (start -1.52 55.56) (end 0 55.56) (layer F.Fab) (width 0.1))
  (fp_line (start -1.52 57.15) (end -1.52 59.69) (layer F.Fab) (width 0.1))
  (fp_line (start -1.52 59.69) (end -10.03 59.69) (layer F.Fab) (width 0.1))
  (fp_line (start -10.03 59.69) (end -10.03 57.15) (layer F.Fab) (width 0.1))
  (fp_line (start -10.03 57.15) (end -1.52 57.15) (layer F.Fab) (width 0.1))
  (fp_line (start 0 58.1) (end 0 58.74) (layer F.Fab) (width 0.1))
  (fp_line (start 0 58.74) (end -1.52 58.74) (layer F.Fab) (width 0.1))
  (fp_line (start -1.52 58.74) (end -1.52 58.1) (layer F.Fab) (width 0.1))
  (fp_line (start -1.52 58.1) (end 0 58.1) (layer F.Fab) (width 0.1))
  (fp_line (start -1.52 59.69) (end -1.52 62.23) (layer F.Fab) (width 0.1))
  (fp_line (start -1.52 62.23) (end -10.03 62.23) (layer F.Fab) (width 0.1))
  (fp_line (start -10.03 62.23) (end -10.03 59.69) (layer F.Fab) (width 0.1))
  (fp_line (start -10.03 59.69) (end -1.52 59.69) (layer F.Fab) (width 0.1))
  (fp_line (start 0 60.64) (end 0 61.28) (layer F.Fab) (width 0.1))
  (fp_line (start 0 61.28) (end -1.52 61.28) (layer F.Fab) (width 0.1))
  (fp_line (start -1.52 61.28) (end -1.52 60.64) (layer F.Fab) (width 0.1))
  (fp_line (start -1.52 60.64) (end 0 60.64) (layer F.Fab) (width 0.1))
  (fp_line (start -1.52 62.23) (end -1.52 64.77) (layer F.Fab) (width 0.1))
  (fp_line (start -1.52 64.77) (end -10.03 64.77) (layer F.Fab) (width 0.1))
  (fp_line (start -10.03 64.77) (end -10.03 62.23) (layer F.Fab) (width 0.1))
  (fp_line (start -10.03 62.23) (end -1.52 62.23) (layer F.Fab) (width 0.1))
  (fp_line (start 0 63.18) (end 0 63.82) (layer F.Fab) (width 0.1))
  (fp_line (start 0 63.82) (end -1.52 63.82) (layer F.Fab) (width 0.1))
  (fp_line (start -1.52 63.82) (end -1.52 63.18) (layer F.Fab) (width 0.1))
  (fp_line (start -1.52 63.18) (end 0 63.18) (layer F.Fab) (width 0.1))
  (fp_line (start -1.52 64.77) (end -1.52 67.31) (layer F.Fab) (width 0.1))
  (fp_line (start -1.52 67.31) (end -10.03 67.31) (layer F.Fab) (width 0.1))
  (fp_line (start -10.03 67.31) (end -10.03 64.77) (layer F.Fab) (width 0.1))
  (fp_line (start -10.03 64.77) (end -1.52 64.77) (layer F.Fab) (width 0.1))
  (fp_line (start 0 65.72) (end 0 66.36) (layer F.Fab) (width 0.1))
  (fp_line (start 0 66.36) (end -1.52 66.36) (layer F.Fab) (width 0.1))
  (fp_line (start -1.52 66.36) (end -1.52 65.72) (layer F.Fab) (width 0.1))
  (fp_line (start -1.52 65.72) (end 0 65.72) (layer F.Fab) (width 0.1))
  (fp_line (start -1.46 -1.33) (end -1.46 1.27) (layer F.SilkS) (width 0.12))
  (fp_line (start -1.46 1.27) (end -10.09 1.27) (layer F.SilkS) (width 0.12))
  (fp_line (start -10.09 1.27) (end -10.09 -1.33) (layer F.SilkS) (width 0.12))
  (fp_line (start -10.09 -1.33) (end -1.46 -1.33) (layer F.SilkS) (width 0.12))
  (fp_line (start -1.03 -0.38) (end -1.46 -0.38) (layer F.SilkS) (width 0.12))
  (fp_line (start -1.03 0.38) (end -1.46 0.38) (layer F.SilkS) (width 0.12))
  (fp_line (start -1.46 -1.15) (end -10.09 -1.15) (layer F.SilkS) (width 0.12))
  (fp_line (start -1.46 -1.03) (end -10.09 -1.03) (layer F.SilkS) (width 0.12))
  (fp_line (start -1.46 -0.91) (end -10.09 -0.91) (layer F.SilkS) (width 0.12))
  (fp_line (start -1.46 -0.79) (end -10.09 -0.79) (layer F.SilkS) (width 0.12))
  (fp_line (start -1.46 -0.67) (end -10.09 -0.67) (layer F.SilkS) (width 0.12))
  (fp_line (start -1.46 -0.55) (end -10.09 -0.55) (layer F.SilkS) (width 0.12))
  (fp_line (start -1.46 -0.43) (end -10.09 -0.43) (layer F.SilkS) (width 0.12))
  (fp_line (start -1.46 -0.31) (end -10.09 -0.31) (layer F.SilkS) (width 0.12))
  (fp_line (start -1.46 -0.19) (end -10.09 -0.19) (layer F.SilkS) (width 0.12))
  (fp_line (start -1.46 -0.07) (end -10.09 -0.07) (layer F.SilkS) (width 0.12))
  (fp_line (start -1.46 0.05) (end -10.09 0.05) (layer F.SilkS) (width 0.12))
  (fp_line (start -1.46 0.17) (end -10.09 0.17) (layer F.SilkS) (width 0.12))
  (fp_line (start -1.46 0.29) (end -10.09 0.29) (layer F.SilkS) (width 0.12))
  (fp_line (start -1.46 0.41) (end -10.09 0.41) (layer F.SilkS) (width 0.12))
  (fp_line (start -1.46 0.53) (end -10.09 0.53) (layer F.SilkS) (width 0.12))
  (fp_line (start -1.46 0.65) (end -10.09 0.65) (layer F.SilkS) (width 0.12))
  (fp_line (start -1.46 0.77) (end -10.09 0.77) (layer F.SilkS) (width 0.12))
  (fp_line (start -1.46 0.89) (end -10.09 0.89) (layer F.SilkS) (width 0.12))
  (fp_line (start -1.46 1.01) (end -10.09 1.01) (layer F.SilkS) (width 0.12))
  (fp_line (start -1.46 1.13) (end -10.09 1.13) (layer F.SilkS) (width 0.12))
  (fp_line (start -1.46 1.25) (end -10.09 1.25) (layer F.SilkS) (width 0.12))
  (fp_line (start -1.46 1.37) (end -10.09 1.37) (layer F.SilkS) (width 0.12))
  (fp_line (start -1.46 1.27) (end -1.46 3.81) (layer F.SilkS) (width 0.12))
  (fp_line (start -1.46 3.81) (end -10.09 3.81) (layer F.SilkS) (width 0.12))
  (fp_line (start -10.09 3.81) (end -10.09 1.27) (layer F.SilkS) (width 0.12))
  (fp_line (start -10.09 1.27) (end -1.46 1.27) (layer F.SilkS) (width 0.12))
  (fp_line (start -1.03 2.16) (end -1.46 2.16) (layer F.SilkS) (width 0.12))
  (fp_line (start -1.03 2.92) (end -1.46 2.92) (layer F.SilkS) (width 0.12))
  (fp_line (start -1.46 3.81) (end -1.46 6.35) (layer F.SilkS) (width 0.12))
  (fp_line (start -1.46 6.35) (end -10.09 6.35) (layer F.SilkS) (width 0.12))
  (fp_line (start -10.09 6.35) (end -10.09 3.81) (layer F.SilkS) (width 0.12))
  (fp_line (start -10.09 3.81) (end -1.46 3.81) (layer F.SilkS) (width 0.12))
  (fp_line (start -1.03 4.7) (end -1.46 4.7) (layer F.SilkS) (width 0.12))
  (fp_line (start -1.03 5.46) (end -1.46 5.46) (layer F.SilkS) (width 0.12))
  (fp_line (start -1.46 6.35) (end -1.46 8.89) (layer F.SilkS) (width 0.12))
  (fp_line (start -1.46 8.89) (end -10.09 8.89) (layer F.SilkS) (width 0.12))
  (fp_line (start -10.09 8.89) (end -10.09 6.35) (layer F.SilkS) (width 0.12))
  (fp_line (start -10.09 6.35) (end -1.46 6.35) (layer F.SilkS) (width 0.12))
  (fp_line (start -1.03 7.24) (end -1.46 7.24) (layer F.SilkS) (width 0.12))
  (fp_line (start -1.03 8) (end -1.46 8) (layer F.SilkS) (width 0.12))
  (fp_line (start -1.46 8.89) (end -1.46 11.43) (layer F.SilkS) (width 0.12))
  (fp_line (start -1.46 11.43) (end -10.09 11.43) (layer F.SilkS) (width 0.12))
  (fp_line (start -10.09 11.43) (end -10.09 8.89) (layer F.SilkS) (width 0.12))
  (fp_line (start -10.09 8.89) (end -1.46 8.89) (layer F.SilkS) (width 0.12))
  (fp_line (start -1.03 9.78) (end -1.46 9.78) (layer F.SilkS) (width 0.12))
  (fp_line (start -1.03 10.54) (end -1.46 10.54) (layer F.SilkS) (width 0.12))
  (fp_line (start -1.46 11.43) (end -1.46 13.97) (layer F.SilkS) (width 0.12))
  (fp_line (start -1.46 13.97) (end -10.09 13.97) (layer F.SilkS) (width 0.12))
  (fp_line (start -10.09 13.97) (end -10.09 11.43) (layer F.SilkS) (width 0.12))
  (fp_line (start -10.09 11.43) (end -1.46 11.43) (layer F.SilkS) (width 0.12))
  (fp_line (start -1.03 12.32) (end -1.46 12.32) (layer F.SilkS) (width 0.12))
  (fp_line (start -1.03 13.08) (end -1.46 13.08) (layer F.SilkS) (width 0.12))
  (fp_line (start -1.46 13.97) (end -1.46 16.51) (layer F.SilkS) (width 0.12))
  (fp_line (start -1.46 16.51) (end -10.09 16.51) (layer F.SilkS) (width 0.12))
  (fp_line (start -10.09 16.51) (end -10.09 13.97) (layer F.SilkS) (width 0.12))
  (fp_line (start -10.09 13.97) (end -1.46 13.97) (layer F.SilkS) (width 0.12))
  (fp_line (start -1.03 14.86) (end -1.46 14.86) (layer F.SilkS) (width 0.12))
  (fp_line (start -1.03 15.62) (end -1.46 15.62) (layer F.SilkS) (width 0.12))
  (fp_line (start -1.46 16.51) (end -1.46 19.05) (layer F.SilkS) (width 0.12))
  (fp_line (start -1.46 19.05) (end -10.09 19.05) (layer F.SilkS) (width 0.12))
  (fp_line (start -10.09 19.05) (end -10.09 16.51) (layer F.SilkS) (width 0.12))
  (fp_line (start -10.09 16.51) (end -1.46 16.51) (layer F.SilkS) (width 0.12))
  (fp_line (start -1.03 17.4) (end -1.46 17.4) (layer F.SilkS) (width 0.12))
  (fp_line (start -1.03 18.16) (end -1.46 18.16) (layer F.SilkS) (width 0.12))
  (fp_line (start -1.46 19.05) (end -1.46 21.59) (layer F.SilkS) (width 0.12))
  (fp_line (start -1.46 21.59) (end -10.09 21.59) (layer F.SilkS) (width 0.12))
  (fp_line (start -10.09 21.59) (end -10.09 19.05) (layer F.SilkS) (width 0.12))
  (fp_line (start -10.09 19.05) (end -1.46 19.05) (layer F.SilkS) (width 0.12))
  (fp_line (start -1.03 19.94) (end -1.46 19.94) (layer F.SilkS) (width 0.12))
  (fp_line (start -1.03 20.7) (end -1.46 20.7) (layer F.SilkS) (width 0.12))
  (fp_line (start -1.46 21.59) (end -1.46 24.13) (layer F.SilkS) (width 0.12))
  (fp_line (start -1.46 24.13) (end -10.09 24.13) (layer F.SilkS) (width 0.12))
  (fp_line (start -10.09 24.13) (end -10.09 21.59) (layer F.SilkS) (width 0.12))
  (fp_line (start -10.09 21.59) (end -1.46 21.59) (layer F.SilkS) (width 0.12))
  (fp_line (start -1.03 22.48) (end -1.46 22.48) (layer F.SilkS) (width 0.12))
  (fp_line (start -1.03 23.24) (end -1.46 23.24) (layer F.SilkS) (width 0.12))
  (fp_line (start -1.46 24.13) (end -1.46 26.67) (layer F.SilkS) (width 0.12))
  (fp_line (start -1.46 26.67) (end -10.09 26.67) (layer F.SilkS) (width 0.12))
  (fp_line (start -10.09 26.67) (end -10.09 24.13) (layer F.SilkS) (width 0.12))
  (fp_line (start -10.09 24.13) (end -1.46 24.13) (layer F.SilkS) (width 0.12))
  (fp_line (start -1.03 25.02) (end -1.46 25.02) (layer F.SilkS) (width 0.12))
  (fp_line (start -1.03 25.78) (end -1.46 25.78) (layer F.SilkS) (width 0.12))
  (fp_line (start -1.46 26.67) (end -1.46 29.21) (layer F.SilkS) (width 0.12))
  (fp_line (start -1.46 29.21) (end -10.09 29.21) (layer F.SilkS) (width 0.12))
  (fp_line (start -10.09 29.21) (end -10.09 26.67) (layer F.SilkS) (width 0.12))
  (fp_line (start -10.09 26.67) (end -1.46 26.67) (layer F.SilkS) (width 0.12))
  (fp_line (start -1.03 27.56) (end -1.46 27.56) (layer F.SilkS) (width 0.12))
  (fp_line (start -1.03 28.32) (end -1.46 28.32) (layer F.SilkS) (width 0.12))
  (fp_line (start -1.46 29.21) (end -1.46 31.75) (layer F.SilkS) (width 0.12))
  (fp_line (start -1.46 31.75) (end -10.09 31.75) (layer F.SilkS) (width 0.12))
  (fp_line (start -10.09 31.75) (end -10.09 29.21) (layer F.SilkS) (width 0.12))
  (fp_line (start -10.09 29.21) (end -1.46 29.21) (layer F.SilkS) (width 0.12))
  (fp_line (start -1.03 30.1) (end -1.46 30.1) (layer F.SilkS) (width 0.12))
  (fp_line (start -1.03 30.86) (end -1.46 30.86) (layer F.SilkS) (width 0.12))
  (fp_line (start -1.46 31.75) (end -1.46 34.29) (layer F.SilkS) (width 0.12))
  (fp_line (start -1.46 34.29) (end -10.09 34.29) (layer F.SilkS) (width 0.12))
  (fp_line (start -10.09 34.29) (end -10.09 31.75) (layer F.SilkS) (width 0.12))
  (fp_line (start -10.09 31.75) (end -1.46 31.75) (layer F.SilkS) (width 0.12))
  (fp_line (start -1.03 32.64) (end -1.46 32.64) (layer F.SilkS) (width 0.12))
  (fp_line (start -1.03 33.4) (end -1.46 33.4) (layer F.SilkS) (width 0.12))
  (fp_line (start -1.46 34.29) (end -1.46 36.83) (layer F.SilkS) (width 0.12))
  (fp_line (start -1.46 36.83) (end -10.09 36.83) (layer F.SilkS) (width 0.12))
  (fp_line (start -10.09 36.83) (end -10.09 34.29) (layer F.SilkS) (width 0.12))
  (fp_line (start -10.09 34.29) (end -1.46 34.29) (layer F.SilkS) (width 0.12))
  (fp_line (start -1.03 35.18) (end -1.46 35.18) (layer F.SilkS) (width 0.12))
  (fp_line (start -1.03 35.94) (end -1.46 35.94) (layer F.SilkS) (width 0.12))
  (fp_line (start -1.46 36.83) (end -1.46 39.37) (layer F.SilkS) (width 0.12))
  (fp_line (start -1.46 39.37) (end -10.09 39.37) (layer F.SilkS) (width 0.12))
  (fp_line (start -10.09 39.37) (end -10.09 36.83) (layer F.SilkS) (width 0.12))
  (fp_line (start -10.09 36.83) (end -1.46 36.83) (layer F.SilkS) (width 0.12))
  (fp_line (start -1.03 37.72) (end -1.46 37.72) (layer F.SilkS) (width 0.12))
  (fp_line (start -1.03 38.48) (end -1.46 38.48) (layer F.SilkS) (width 0.12))
  (fp_line (start -1.46 39.37) (end -1.46 41.91) (layer F.SilkS) (width 0.12))
  (fp_line (start -1.46 41.91) (end -10.09 41.91) (layer F.SilkS) (width 0.12))
  (fp_line (start -10.09 41.91) (end -10.09 39.37) (layer F.SilkS) (width 0.12))
  (fp_line (start -10.09 39.37) (end -1.46 39.37) (layer F.SilkS) (width 0.12))
  (fp_line (start -1.03 40.26) (end -1.46 40.26) (layer F.SilkS) (width 0.12))
  (fp_line (start -1.03 41.02) (end -1.46 41.02) (layer F.SilkS) (width 0.12))
  (fp_line (start -1.46 41.91) (end -1.46 44.45) (layer F.SilkS) (width 0.12))
  (fp_line (start -1.46 44.45) (end -10.09 44.45) (layer F.SilkS) (width 0.12))
  (fp_line (start -10.09 44.45) (end -10.09 41.91) (layer F.SilkS) (width 0.12))
  (fp_line (start -10.09 41.91) (end -1.46 41.91) (layer F.SilkS) (width 0.12))
  (fp_line (start -1.03 42.8) (end -1.46 42.8) (layer F.SilkS) (width 0.12))
  (fp_line (start -1.03 43.56) (end -1.46 43.56) (layer F.SilkS) (width 0.12))
  (fp_line (start -1.46 44.45) (end -1.46 46.99) (layer F.SilkS) (width 0.12))
  (fp_line (start -1.46 46.99) (end -10.09 46.99) (layer F.SilkS) (width 0.12))
  (fp_line (start -10.09 46.99) (end -10.09 44.45) (layer F.SilkS) (width 0.12))
  (fp_line (start -10.09 44.45) (end -1.46 44.45) (layer F.SilkS) (width 0.12))
  (fp_line (start -1.03 45.34) (end -1.46 45.34) (layer F.SilkS) (width 0.12))
  (fp_line (start -1.03 46.1) (end -1.46 46.1) (layer F.SilkS) (width 0.12))
  (fp_line (start -1.46 46.99) (end -1.46 49.53) (layer F.SilkS) (width 0.12))
  (fp_line (start -1.46 49.53) (end -10.09 49.53) (layer F.SilkS) (width 0.12))
  (fp_line (start -10.09 49.53) (end -10.09 46.99) (layer F.SilkS) (width 0.12))
  (fp_line (start -10.09 46.99) (end -1.46 46.99) (layer F.SilkS) (width 0.12))
  (fp_line (start -1.03 47.88) (end -1.46 47.88) (layer F.SilkS) (width 0.12))
  (fp_line (start -1.03 48.64) (end -1.46 48.64) (layer F.SilkS) (width 0.12))
  (fp_line (start -1.46 49.53) (end -1.46 52.07) (layer F.SilkS) (width 0.12))
  (fp_line (start -1.46 52.07) (end -10.09 52.07) (layer F.SilkS) (width 0.12))
  (fp_line (start -10.09 52.07) (end -10.09 49.53) (layer F.SilkS) (width 0.12))
  (fp_line (start -10.09 49.53) (end -1.46 49.53) (layer F.SilkS) (width 0.12))
  (fp_line (start -1.03 50.42) (end -1.46 50.42) (layer F.SilkS) (width 0.12))
  (fp_line (start -1.03 51.18) (end -1.46 51.18) (layer F.SilkS) (width 0.12))
  (fp_line (start -1.46 52.07) (end -1.46 54.61) (layer F.SilkS) (width 0.12))
  (fp_line (start -1.46 54.61) (end -10.09 54.61) (layer F.SilkS) (width 0.12))
  (fp_line (start -10.09 54.61) (end -10.09 52.07) (layer F.SilkS) (width 0.12))
  (fp_line (start -10.09 52.07) (end -1.46 52.07) (layer F.SilkS) (width 0.12))
  (fp_line (start -1.03 52.96) (end -1.46 52.96) (layer F.SilkS) (width 0.12))
  (fp_line (start -1.03 53.72) (end -1.46 53.72) (layer F.SilkS) (width 0.12))
  (fp_line (start -1.46 54.61) (end -1.46 57.15) (layer F.SilkS) (width 0.12))
  (fp_line (start -1.46 57.15) (end -10.09 57.15) (layer F.SilkS) (width 0.12))
  (fp_line (start -10.09 57.15) (end -10.09 54.61) (layer F.SilkS) (width 0.12))
  (fp_line (start -10.09 54.61) (end -1.46 54.61) (layer F.SilkS) (width 0.12))
  (fp_line (start -1.03 55.5) (end -1.46 55.5) (layer F.SilkS) (width 0.12))
  (fp_line (start -1.03 56.26) (end -1.46 56.26) (layer F.SilkS) (width 0.12))
  (fp_line (start -1.46 57.15) (end -1.46 59.69) (layer F.SilkS) (width 0.12))
  (fp_line (start -1.46 59.69) (end -10.09 59.69) (layer F.SilkS) (width 0.12))
  (fp_line (start -10.09 59.69) (end -10.09 57.15) (layer F.SilkS) (width 0.12))
  (fp_line (start -10.09 57.15) (end -1.46 57.15) (layer F.SilkS) (width 0.12))
  (fp_line (start -1.03 58.04) (end -1.46 58.04) (layer F.SilkS) (width 0.12))
  (fp_line (start -1.03 58.8) (end -1.46 58.8) (layer F.SilkS) (width 0.12))
  (fp_line (start -1.46 59.69) (end -1.46 62.23) (layer F.SilkS) (width 0.12))
  (fp_line (start -1.46 62.23) (end -10.09 62.23) (layer F.SilkS) (width 0.12))
  (fp_line (start -10.09 62.23) (end -10.09 59.69) (layer F.SilkS) (width 0.12))
  (fp_line (start -10.09 59.69) (end -1.46 59.69) (layer F.SilkS) (width 0.12))
  (fp_line (start -1.03 60.58) (end -1.46 60.58) (layer F.SilkS) (width 0.12))
  (fp_line (start -1.03 61.34) (end -1.46 61.34) (layer F.SilkS) (width 0.12))
  (fp_line (start -1.46 62.23) (end -1.46 64.77) (layer F.SilkS) (width 0.12))
  (fp_line (start -1.46 64.77) (end -10.09 64.77) (layer F.SilkS) (width 0.12))
  (fp_line (start -10.09 64.77) (end -10.09 62.23) (layer F.SilkS) (width 0.12))
  (fp_line (start -10.09 62.23) (end -1.46 62.23) (layer F.SilkS) (width 0.12))
  (fp_line (start -1.03 63.12) (end -1.46 63.12) (layer F.SilkS) (width 0.12))
  (fp_line (start -1.03 63.88) (end -1.46 63.88) (layer F.SilkS) (width 0.12))
  (fp_line (start -1.46 64.77) (end -1.46 67.37) (layer F.SilkS) (width 0.12))
  (fp_line (start -1.46 67.37) (end -10.09 67.37) (layer F.SilkS) (width 0.12))
  (fp_line (start -10.09 67.37) (end -10.09 64.77) (layer F.SilkS) (width 0.12))
  (fp_line (start -10.09 64.77) (end -1.46 64.77) (layer F.SilkS) (width 0.12))
  (fp_line (start -1.03 65.66) (end -1.46 65.66) (layer F.SilkS) (width 0.12))
  (fp_line (start -1.03 66.42) (end -1.46 66.42) (layer F.SilkS) (width 0.12))
  (fp_line (start 0 -1.27) (end 1.27 -1.27) (layer F.SilkS) (width 0.12))
  (fp_line (start 1.27 -1.27) (end 1.27 0) (layer F.SilkS) (width 0.12))
  (fp_line (start 1.55 -1.55) (end 1.55 67.6) (layer F.CrtYd) (width 0.05))
  (fp_line (start 1.55 67.6) (end -10.3 67.6) (layer F.CrtYd) (width 0.05))
  (fp_line (start -10.3 67.6) (end -10.3 -1.55) (layer F.CrtYd) (width 0.05))
  (fp_line (start -10.3 -1.55) (end 1.55 -1.55) (layer F.CrtYd) (width 0.05))
  (pad 1 thru_hole rect (at 0 0) (size 1.7 1.7) (drill 1.0) (layers *.Cu *.Mask))
  (pad 2 thru_hole oval (at 0 2.54) (size 1.7 1.7) (drill 1.0) (layers *.Cu *.Mask))
  (pad 3 thru_hole oval (at 0 5.08) (size 1.7 1.7) (drill 1.0) (layers *.Cu *.Mask))
  (pad 4 thru_hole oval (at 0 7.62) (size 1.7 1.7) (drill 1.0) (layers *.Cu *.Mask))
  (pad 5 thru_hole oval (at 0 10.16) (size 1.7 1.7) (drill 1.0) (layers *.Cu *.Mask))
  (pad 6 thru_hole oval (at 0 12.7) (size 1.7 1.7) (drill 1.0) (layers *.Cu *.Mask))
  (pad 7 thru_hole oval (at 0 15.24) (size 1.7 1.7) (drill 1.0) (layers *.Cu *.Mask))
  (pad 8 thru_hole oval (at 0 17.78) (size 1.7 1.7) (drill 1.0) (layers *.Cu *.Mask))
  (pad 9 thru_hole oval (at 0 20.32) (size 1.7 1.7) (drill 1.0) (layers *.Cu *.Mask))
  (pad 10 thru_hole oval (at 0 22.86) (size 1.7 1.7) (drill 1.0) (layers *.Cu *.Mask))
  (pad 11 thru_hole oval (at 0 25.4) (size 1.7 1.7) (drill 1.0) (layers *.Cu *.Mask))
  (pad 12 thru_hole oval (at 0 27.94) (size 1.7 1.7) (drill 1.0) (layers *.Cu *.Mask))
  (pad 13 thru_hole oval (at 0 30.48) (size 1.7 1.7) (drill 1.0) (layers *.Cu *.Mask))
  (pad 14 thru_hole oval (at 0 33.02) (size 1.7 1.7) (drill 1.0) (layers *.Cu *.Mask))
  (pad 15 thru_hole oval (at 0 35.56) (size 1.7 1.7) (drill 1.0) (layers *.Cu *.Mask))
  (pad 16 thru_hole oval (at 0 38.1) (size 1.7 1.7) (drill 1.0) (layers *.Cu *.Mask))
  (pad 17 thru_hole oval (at 0 40.64) (size 1.7 1.7) (drill 1.0) (layers *.Cu *.Mask))
  (pad 18 thru_hole oval (at 0 43.18) (size 1.7 1.7) (drill 1.0) (layers *.Cu *.Mask))
  (pad 19 thru_hole oval (at 0 45.72) (size 1.7 1.7) (drill 1.0) (layers *.Cu *.Mask))
  (pad 20 thru_hole oval (at 0 48.26) (size 1.7 1.7) (drill 1.0) (layers *.Cu *.Mask))
  (pad 21 thru_hole oval (at 0 50.8) (size 1.7 1.7) (drill 1.0) (layers *.Cu *.Mask))
  (pad 22 thru_hole oval (at 0 53.34) (size 1.7 1.7) (drill 1.0) (layers *.Cu *.Mask))
  (pad 23 thru_hole oval (at 0 55.88) (size 1.7 1.7) (drill 1.0) (layers *.Cu *.Mask))
  (pad 24 thru_hole oval (at 0 58.42) (size 1.7 1.7) (drill 1.0) (layers *.Cu *.Mask))
  (pad 25 thru_hole oval (at 0 60.96) (size 1.7 1.7) (drill 1.0) (layers *.Cu *.Mask))
  (pad 26 thru_hole oval (at 0 63.5) (size 1.7 1.7) (drill 1.0) (layers *.Cu *.Mask))
  (pad 27 thru_hole oval (at 0 66.04) (size 1.7 1.7) (drill 1.0) (layers *.Cu *.Mask))
  (model Socket_Strips.3dshapes/Socket_Strip_Angled_1x27_Pitch2.54mm.wrl
    (at (xyz 0 -1.3 0))
    (scale (xyz 1 1 1))
    (rotate (xyz 0 0 270))
  )
)